0121102621433102400102614501 1202404195.170808
0121102621433112400102614501 1202404195.170809
0121102621433122400102614501 1202404195.170809
0121102621433142400102614501 1202404195.170809
0121102621433052400102614501 1202404195.170809
0121102621433152400102614501 1202404195.170810
0121102621433162400102614501 1202404195.170810
0121102621433014400102614501 1202404195.170810
0121102621433102400202614501 1202404195.170811
0121102621433112400202614501 1202404195.170811
0121102621433122400202614501 1202404195.170811
0121102621433142400202614501 1202404195.170811
0121102621433052400202614501 1202404195.170812
0121102621433152400202614501 1202404195.170812
0121102621433162400202614501 1202404195.170812
0121102621433014400202614501 1202404195.170812
0121102621433102400102014501 1202404195.170813
0121102621433112400102014501 1202404195.170813
0121102621433122400102014501 1202404195.170813
0121102621433142400102014501 1202404195.170814
0121102621433152400102014501 1202404195.170814
0121102621433162400102014501 1202404195.170814
0121102621433014400102014501 1202404195.170814
0121102621433102400202014501 1202404195.170815
0121102621433112400202014501 1202404195.170815
0121102621433122400202014501 1202404195.170815
0121102621433142400202014501 1202404195.170815
0121102621433152400202014501 1202404195.170816
0121102621433162400202014501 1202404195.170816
0121102621433014400202014501 1202404195.170816
0121102621433102400102114501 1202404195.170816
0121102621433112400102114501 1202404195.170817
0121102621433122400102114501 1202404195.170817
0121102621433142400102114501 1202404195.170817
0121102621433152400102114501 1202404195.170818
0121102621433162400102114501 1202404195.170818
0121102621433014400102114501 1202404195.170818
0121102621433102400202114501 1202404195.170818
0121102621433112400202114501 1202404195.170819
0121102621433122400202114501 1202404195.170819
0121102621433142400202114501 1202404195.170819
0121102621433152400202114501 1202404195.170819
0121102621433162400202114501 1202404195.170820
0121102621433014400202114501 1202404195.170820
0121102621433102400102214501 1202404195.170820
0121102621433112400102214501 1202404195.170820
0121102621433122400102214501 1202404195.170821
0121102621433142400102214501 1202404195.170821
0121102621433152400102214501 1202404195.170821
0121102621433162400102214501 1202404195.170822
0121102621433014400102214501 1202404195.170822
0121102621433102400202214501 1202404195.170822
0121102621433112400202214501 1202404195.170822
0121102621433122400202214501 1202404195.170823
0121102621433142400202214501 1202404195.170823
0121102621433152400202214501 1202404195.170823
0121102621433162400202214501 1202404195.170823
0121102621433014400202214501 1202404195.170824
0121102621433102400102414501 1202404195.170824
0121102621433112400102414501 1202404195.170824
0121102621433122400102414501 1202404195.170824
0121102621433142400102414501 1202404195.170825
0121102621433152400102414501 1202404195.170825
0121102621433162400102414501 1202404195.170825
0121102621433014400102414501 1202404195.170826
0121102621433102400202414501 1202404195.170826
0121102621433112400202414501 1202404195.170826
0121102621433122400202414501 1202404195.170826
0121102621433142400202414501 1202404195.170827
0121102621433152400202414501 1202404195.170827
0121102621433162400202414501 1202404195.170827
0121102621433014400202414501 1202404195.170827
0141102620533515420205024501 1202404195.170828
0141102620533515420205024502 1202404195.170828
