012110252143310240010242 1202404195.173102
012110252143311240010242 1202404195.173103
012110252143312240010242 1202404195.173103
012110252143314240010242 1202404195.173103
012110252143315240010242 1202404195.173104
