0122105021433116400111112410 1202408084.174602
0122105021433156400111112410 1202408084.174603
0122105021433166400111112410 1202408084.174604
0122105021433116400211112410 1202408084.174605
0122105021433156400211112410 1202408084.174605
0122105021433166400211112410 1202408084.174606
0122105021433116400511112410 1202408084.174607
0122105021433156400511112410 1202408084.174608
