0122102025433510400605662103 1202405105.180539
0122106521433001400106264202 1202405105.180539
0122106521433011400106264202 1202405105.180540
0122106521433041400106264202 1202405105.180540
0122106521433051400106264202 1202405105.180540
0122106521433061400106264202 1202405105.180540
0122100521433006400106264202 1202405105.180541
0122102521433006400106264202 1202405105.180541
0122103521433006400106264202 1202405105.180541
0122104521433006400106264202 1202405105.180541
0122105521433006400106264202 1202405105.180542
0122106521433006400106264202 1202405105.180542
0122102521433016400106264202 1202405105.180542
0122104521433016400106264202 1202405105.180542
0122106521433016400106264202 1202405105.180543
0122100521433046400106264202 1202405105.180543
0122102521433046400106264202 1202405105.180543
0122103521433046400106264202 1202405105.180543
0122104521433046400106264202 1202405105.180544
0122105521433046400106264202 1202405105.180544
0122106521433046400106264202 1202405105.180544
0122100521433056400106264202 1202405105.180544
0122102521433056400106264202 1202405105.180545
0122103521433056400106264202 1202405105.180545
0122104521433056400106264202 1202405105.180545
0122105521433056400106264202 1202405105.180545
0122106521433056400106264202 1202405105.180546
0122100521433066400106264202 1202405105.180546
0122102521433066400106264202 1202405105.180546
0122103521433066400106264202 1202405105.180546
0122104521433066400106264202 1202405105.180547
0122105521433066400106264202 1202405105.180547
0122106521433066400106264202 1202405105.180547
0122106521433001400206264202 1202405105.180547
0122106521433011400206264202 1202405105.180548
0122106521433041400206264202 1202405105.180548
0122106521433051400206264202 1202405105.180548
0122106521433061400206264202 1202405105.180548
0122100521433006400206264202 1202405105.180548
0122102521433006400206264202 1202405105.180549
0122103521433006400206264202 1202405105.180549
0122104521433006400206264202 1202405105.180549
0122105521433006400206264202 1202405105.180549
0122106521433006400206264202 1202405105.180550
0122102521433016400206264202 1202405105.180550
0122104521433016400206264202 1202405105.180550
0122106521433016400206264202 1202405105.180550
0122100521433046400206264202 1202405105.180551
0122102521433046400206264202 1202405105.180551
0122103521433046400206264202 1202405105.180551
0122104521433046400206264202 1202405105.180551
0122105521433046400206264202 1202405105.180552
0122106521433046400206264202 1202405105.180552
0122100521433056400206264202 1202405105.180552
0122102521433056400206264202 1202405105.180552
0122103521433056400206264202 1202405105.180553
0122104521433056400206264202 1202405105.180553
0122105521433056400206264202 1202405105.180553
0122106521433056400206264202 1202405105.180553
0122100521433066400206264202 1202405105.180554
0122102521433066400206264202 1202405105.180554
0122103521433066400206264202 1202405105.180554
0122104521433066400206264202 1202405105.180554
0122105521433066400206264202 1202405105.180555
0122106521433066400206264202 1202405105.180555
0121102521433106400102464202 1202405105.180555
0121102521433116400102464202 1202405105.180555
0121102521433126400102464202 1202405105.180556
0121102521433146400102464202 1202405105.180556
0121102521433156400102464202 1202405105.180556
