0121102521433102400102624001 1202405013.181227
0121102521433112400102624001 1202405013.181228
0121102521433122400102624001 1202405013.181229
0121102521433142400102624001 1202405013.181230
0121102521433152400102624001 1202405013.181231
0121102521433162400102624001 1202405013.181232
0121102521433102400202624001 1202405013.181233
0121102521433112400202624001 1202405013.181234
0121102521433122400202624001 1202405013.181235
0121102521433142400202624001 1202405013.181236
0121102521433152400202624001 1202405013.181237
0121102521433162400202624001 1202405013.181238
0122102521433062400106614201 1202405013.181239
0122102521433062400206614201 1202405013.181240
0121104520433602400601661124 1202405013.181241
0121104520433112400601661124 1202405013.181242
0121104520433612400601661124 1202405013.181242
0121104520433142400601661124 1202405013.181243
0121104520433642400601661124 1202405013.181244
0121104520433162400601661124 1202405013.181245
0121104520433662400601661124 1202405013.181246
0146106520033011420601661124 1202405013.181247
0146106520033511420601661124 1202405013.181248
0146106520033041420601661124 1202405013.181249
0146106520033061420601661124 1202405013.181250
0146106520033561420601661124 1202405013.181251
0146103520013564420601661124 1202405013.181252
0146102520333040420604111414 1202405013.181253
0146102520303140420604111414 1202405013.181254
0146102520303041420604111414 1202405013.181255
0146102520303042420604111414 1202405013.181256
0146106520033011420606161224 1202405013.181257
0146106520033061420606161224 1202405013.181258
