0522133025643212434210003545 2 1202502252.221649
0522163025643212434210003545 2 1202502252.221649
0122106025643212434210003545 2 1202502252.221650
0522106025643212434210003545 2 1202502252.221650
0522126025643212434210003545 2 1202502252.221650
0522136025643212434210003545 2 1202502252.221651
0522166025643212434210003545 2 1202502252.221651
0522100225643212434210003545 2 1202502252.221651
0522120225643212434210003545 2 1202502252.221652
0522130225643212434210003545 2 1202502252.221652
0522160225643212434210003545 2 1202502252.221652
0522102225643212434210003545 2 1202502252.221653
0522122225643212434210003545 2 1202502252.221653
0522132225643212434210003545 2 1202502252.221653
0522162225643212434210003545 2 1202502252.221653
