0121102524633202404520033000 5 1202502252.214000
0121105524633202404520033000 5 1202502252.214000
0121102524633212404520033000 5 1202502252.214000
0121105524633212404520033000 5 1202502252.214000
0121102524633222404520033000 5 1202502252.214000
0121105524633222404520033000 5 1202502252.214000
0121102524633242404520033000 5 1202502252.214000
0121105524633242404520033000 5 1202502252.214001
0121102524633252404520033000 5 1202502252.214001
0121105524633252404520033000 5 1202502252.214001
0125106021133404424520033000 2 1202502252.214001
0121102220633404424520033000 2 1202502252.214001
0121105220633404424520033000 2 1202502252.214001
0121102520633404424520033000 2 1202502252.214001
0121105520633404424520033000 2 1202502252.214001
0125106021133414424520033000 2 1202502252.214001
0121102220633414424520033000 2 1202502252.214001
0121105220633414424520033000 2 1202502252.214001
0121102520633414424520033000 2 1202502252.214001
0121105520633414424520033000 2 1202502252.214001
0125106021133424424520033000 2 1202502252.214001
0121102220633424424520033000 2 1202502252.214001
0121105220633424424520033000 2 1202502252.214001
0121102520633424424520033000 2 1202502252.214001
0121105520633424424520033000 2 1202502252.214001
0122106021133444424520033000 2 1202502252.214001
0125106021133444424520033000 2 1202502252.214001
0111102220633444424520033000 2 1202502252.214001
0121102220633444424520033000 2 1202502252.214001
0121105220633444424520033000 2 1202502252.214001
0111102520633444424520033000 2 1202502252.214001
0121102520633444424520033000 2 1202502252.214001
0121105520633444424520033000 2 1202502252.214002
0111102521633444424520033000 5 1202502252.214002
0125106021133454424520033000 2 1202502252.214002
0121102220633454424520033000 2 1202502252.214002
0121105220633454424520033000 2 1202502252.214002
0121102520633454424520033000 2 1202502252.214002
0121105520633454424520033000 2 1202502252.214002
0125106021133405424520033000 2 1202502252.214002
0125106021133415424520033000 2 1202502252.214002
0125106021133425424520033000 2 1202502252.214002
0125106021133445424520033000 2 1202502252.214002
0125106021133455424520033000 2 1202502252.214002
0122106021143200434520033000 2 1202502252.214002
0125106021143200434520033000 2 1202502252.214002
0111102220643200434520033000 2 1202502252.214002
0121102220643200434520033000 2 1202502252.214002
0111102520643200434520033000 2 1202502252.214002
0121102520643200434520033000 2 1202502252.214002
0111102521643200434520033000 5 1202502252.214002
0111102220643500434520033000 2 1202502252.214002
0121102220643500434520033000 2 1202502252.214002
0111102520643500434520033000 2 1202502252.214002
0121102520643500434520033000 2 1202502252.214002
0111102521643500434520033000 5 1202502252.214002
0121102521643500434520033000 5 1202502252.214002
0111102523643500434520033000 5 1202502252.214003
0121102523643500434520033000 5 1202502252.214003
0111102524643500434520033000 5 1202502252.214003
0121102524643500434520033000 5 1202502252.214003
0111102526643500434520033000 5 1202502252.214003
0121102526643500434520033000 5 1202502252.214003
0122106021143210434520033000 2 1202502252.214003
0125106021143210434520033000 2 1202502252.214003
0111102220643210434520033000 2 1202502252.214003
0121102220643210434520033000 2 1202502252.214003
0111102520643210434520033000 2 1202502252.214003
0121102520643210434520033000 2 1202502252.214003
0111102521643210434520033000 5 1202502252.214003
0111102220643510434520033000 2 1202502252.214003
0121102220643510434520033000 2 1202502252.214003
0111102520643510434520033000 2 1202502252.214003
0121102520643510434520033000 2 1202502252.214003
0111102521643510434520033000 5 1202502252.214003
0121102521643510434520033000 5 1202502252.214003
0111102523643510434520033000 5 1202502252.214003
0121102523643510434520033000 5 1202502252.214003
0111102524643510434520033000 5 1202502252.214003
0121102524643510434520033000 5 1202502252.214003
0111102526643510434520033000 5 1202502252.214003
0121102526643510434520033000 5 1202502252.214003
0122106021143220434520033000 2 1202502252.214004
0125106021143220434520033000 2 1202502252.214004
0111102220643220434520033000 2 1202502252.214004
0121102220643220434520033000 2 1202502252.214004
0111102520643220434520033000 2 1202502252.214004
0121102520643220434520033000 2 1202502252.214004
0111102521643220434520033000 5 1202502252.214004
0111102220643520434520033000 2 1202502252.214004
0121102220643520434520033000 2 1202502252.214004
0111102520643520434520033000 2 1202502252.214004
0121102520643520434520033000 2 1202502252.214004
0111102521643520434520033000 5 1202502252.214004
0121102521643520434520033000 5 1202502252.214004
0111102523643520434520033000 5 1202502252.214004
0121102523643520434520033000 5 1202502252.214004
0111102524643520434520033000 5 1202502252.214004
0121102524643520434520033000 5 1202502252.214004
0111102526643520434520033000 5 1202502252.214004
0121102526643520434520033000 5 1202502252.214004
0122106021143240434520033000 2 1202502252.214004
0125106021143240434520033000 2 1202502252.214004
0111102220643240434520033000 2 1202502252.214004
0121102220643240434520033000 2 1202502252.214004
0111102520643240434520033000 2 1202502252.214004
0121102520643240434520033000 2 1202502252.214004
0111102521643240434520033000 5 1202502252.214005
0111102220643540434520033000 2 1202502252.214005
0121102220643540434520033000 2 1202502252.214005
0111102520643540434520033000 2 1202502252.214005
0121102520643540434520033000 2 1202502252.214005
0111102521643540434520033000 5 1202502252.214005
0121102521643540434520033000 5 1202502252.214005
0111102523643540434520033000 5 1202502252.214005
0121102523643540434520033000 5 1202502252.214005
0111102524643540434520033000 5 1202502252.214005
0121102524643540434520033000 5 1202502252.214005
0111102526643540434520033000 5 1202502252.214005
0121102526643540434520033000 5 1202502252.214005
0122106021143250434520033000 2 1202502252.214005
0125106021143250434520033000 2 1202502252.214005
0111102220643250434520033000 2 1202502252.214005
0121102220643250434520033000 2 1202502252.214005
0111102520643250434520033000 2 1202502252.214005
0121102520643250434520033000 2 1202502252.214005
0111102521643250434520033000 5 1202502252.214005
0111102220643550434520033000 2 1202502252.214005
0121102220643550434520033000 2 1202502252.214005
0111102520643550434520033000 2 1202502252.214005
0121102520643550434520033000 2 1202502252.214005
0111102521643550434520033000 5 1202502252.214005
0121102521643550434520033000 5 1202502252.214006
0111102523643550434520033000 5 1202502252.214006
0121102523643550434520033000 5 1202502252.214006
0111102524643550434520033000 5 1202502252.214006
0121102524643550434520033000 5 1202502252.214006
0111102526643550434520033000 5 1202502252.214006
0121102526643550434520033000 5 1202502252.214006
0122106021143201434520033000 2 1202502252.214006
0125106021143201434520033000 2 1202502252.214006
0111102220643201434520033000 2 1202502252.214006
0121102220643201434520033000 2 1202502252.214006
0111102520643201434520033000 2 1202502252.214006
0121102520643201434520033000 2 1202502252.214006
0111102521643201434520033000 5 1202502252.214006
0111102220643501434520033000 2 1202502252.214006
0121102220643501434520033000 2 1202502252.214006
0111102520643501434520033000 2 1202502252.214006
0121102520643501434520033000 2 1202502252.214006
0111102521643501434520033000 5 1202502252.214006
0121102521643501434520033000 5 1202502252.214006
0111102523643501434520033000 5 1202502252.214006
0121102523643501434520033000 5 1202502252.214006
0111102524643501434520033000 5 1202502252.214006
0121102524643501434520033000 5 1202502252.214006
0111102526643501434520033000 5 1202502252.214006
0121102526643501434520033000 5 1202502252.214007
0122106021143211434520033000 2 1202502252.214007
0125106021143211434520033000 2 1202502252.214007
0111102220643211434520033000 2 1202502252.214007
0121102220643211434520033000 2 1202502252.214007
0111102520643211434520033000 2 1202502252.214007
0121102520643211434520033000 2 1202502252.214007
0111102521643211434520033000 5 1202502252.214007
0111102220643511434520033000 2 1202502252.214007
0121102220643511434520033000 2 1202502252.214007
0111102520643511434520033000 2 1202502252.214007
0121102520643511434520033000 2 1202502252.214007
0111102521643511434520033000 5 1202502252.214007
0121102521643511434520033000 5 1202502252.214007
0111102523643511434520033000 5 1202502252.214007
0121102523643511434520033000 5 1202502252.214007
0111102524643511434520033000 5 1202502252.214007
0121102524643511434520033000 5 1202502252.214007
0111102526643511434520033000 5 1202502252.214007
0121102526643511434520033000 5 1202502252.214007
0122106021143221434520033000 2 1202502252.214007
0125106021143221434520033000 2 1202502252.214007
0111102220643221434520033000 2 1202502252.214007
0121102220643221434520033000 2 1202502252.214007
0111102520643221434520033000 2 1202502252.214007
0121102520643221434520033000 2 1202502252.214008
0111102521643221434520033000 5 1202502252.214008
0111102220643521434520033000 2 1202502252.214008
0121102220643521434520033000 2 1202502252.214008
0111102520643521434520033000 2 1202502252.214008
0121102520643521434520033000 2 1202502252.214008
0111102521643521434520033000 5 1202502252.214008
0121102521643521434520033000 5 1202502252.214008
0111102523643521434520033000 5 1202502252.214008
0121102523643521434520033000 5 1202502252.214008
0111102524643521434520033000 5 1202502252.214008
0121102524643521434520033000 5 1202502252.214008
0111102526643521434520033000 5 1202502252.214008
0121102526643521434520033000 5 1202502252.214008
0122106021143241434520033000 2 1202502252.214008
0125106021143241434520033000 2 1202502252.214008
0111102220643241434520033000 2 1202502252.214008
0121102220643241434520033000 2 1202502252.214008
0111102520643241434520033000 2 1202502252.214008
0121102520643241434520033000 2 1202502252.214008
0111102521643241434520033000 5 1202502252.214008
0111102220643541434520033000 2 1202502252.214008
0121102220643541434520033000 2 1202502252.214008
0111102520643541434520033000 2 1202502252.214008
0121102520643541434520033000 2 1202502252.214009
0111102521643541434520033000 5 1202502252.214009
0121102521643541434520033000 5 1202502252.214009
0111102523643541434520033000 5 1202502252.214009
0121102523643541434520033000 5 1202502252.214009
0111102524643541434520033000 5 1202502252.214009
0121102524643541434520033000 5 1202502252.214009
0111102526643541434520033000 5 1202502252.214009
0121102526643541434520033000 5 1202502252.214009
0122106021143251434520033000 2 1202502252.214009
0125106021143251434520033000 2 1202502252.214009
0111102220643251434520033000 2 1202502252.214009
0121102220643251434520033000 2 1202502252.214009
0111102520643251434520033000 2 1202502252.214009
0121102520643251434520033000 2 1202502252.214009
0111102521643251434520033000 5 1202502252.214009
0111102220643551434520033000 2 1202502252.214009
0121102220643551434520033000 2 1202502252.214009
0111102520643551434520033000 2 1202502252.214009
0121102520643551434520033000 2 1202502252.214009
0111102521643551434520033000 5 1202502252.214009
0121102521643551434520033000 5 1202502252.214009
0111102523643551434520033000 5 1202502252.214009
0121102523643551434520033000 5 1202502252.214009
0111102524643551434520033000 5 1202502252.214009
0121102524643551434520033000 5 1202502252.214010
0111102526643551434520033000 5 1202502252.214010
0121102526643551434520033000 5 1202502252.214010
0122106021143202434520033000 2 1202502252.214010
0125106021143202434520033000 2 1202502252.214010
0111102220643202434520033000 2 1202502252.214010
0121102220643202434520033000 2 1202502252.214010
0111102520643202434520033000 2 1202502252.214010
0121102520643202434520033000 2 1202502252.214010
0111102521643202434520033000 5 1202502252.214010
0111102220643502434520033000 2 1202502252.214010
0121102220643502434520033000 2 1202502252.214010
0111102520643502434520033000 2 1202502252.214010
0121102520643502434520033000 2 1202502252.214010
0111102521643502434520033000 5 1202502252.214010
0121102521643502434520033000 5 1202502252.214010
0111102523643502434520033000 5 1202502252.214010
0121102523643502434520033000 5 1202502252.214010
0111102524643502434520033000 5 1202502252.214010
0121102524643502434520033000 5 1202502252.214010
0111102526643502434520033000 5 1202502252.214010
0121102526643502434520033000 5 1202502252.214010
0122106021143212434520033000 2 1202502252.214010
0125106021143212434520033000 2 1202502252.214010
0111102220643212434520033000 2 1202502252.214010
0121102220643212434520033000 2 1202502252.214011
0111102520643212434520033000 2 1202502252.214011
0121102520643212434520033000 2 1202502252.214011
0111102521643212434520033000 5 1202502252.214011
0111102220643512434520033000 2 1202502252.214011
0121102220643512434520033000 2 1202502252.214011
0111102520643512434520033000 2 1202502252.214011
0121102520643512434520033000 2 1202502252.214011
0111102521643512434520033000 5 1202502252.214011
0121102521643512434520033000 5 1202502252.214011
0111102523643512434520033000 5 1202502252.214011
0121102523643512434520033000 5 1202502252.214011
0111102524643512434520033000 5 1202502252.214011
0121102524643512434520033000 5 1202502252.214011
0111102526643512434520033000 5 1202502252.214011
0121102526643512434520033000 5 1202502252.214011
0122106021143222434520033000 2 1202502252.214011
0125106021143222434520033000 2 1202502252.214011
0111102220643222434520033000 2 1202502252.214011
0121102220643222434520033000 2 1202502252.214011
0111102520643222434520033000 2 1202502252.214011
0121102520643222434520033000 2 1202502252.214011
0111102521643222434520033000 5 1202502252.214011
0111102220643522434520033000 2 1202502252.214011
0121102220643522434520033000 2 1202502252.214011
0111102520643522434520033000 2 1202502252.214012
0121102520643522434520033000 2 1202502252.214012
0111102521643522434520033000 5 1202502252.214012
0121102521643522434520033000 5 1202502252.214012
0111102523643522434520033000 5 1202502252.214012
0121102523643522434520033000 5 1202502252.214012
0111102524643522434520033000 5 1202502252.214012
0121102524643522434520033000 5 1202502252.214012
0111102526643522434520033000 5 1202502252.214012
0121102526643522434520033000 5 1202502252.214012
0122106021143242434520033000 2 1202502252.214012
0125106021143242434520033000 2 1202502252.214012
0111102220643242434520033000 2 1202502252.214012
0121102220643242434520033000 2 1202502252.214012
0111102520643242434520033000 2 1202502252.214012
0121102520643242434520033000 2 1202502252.214012
0111102521643242434520033000 5 1202502252.214012
0111102220643542434520033000 2 1202502252.214012
0121102220643542434520033000 2 1202502252.214012
0111102520643542434520033000 2 1202502252.214012
0121102520643542434520033000 2 1202502252.214012
0111102521643542434520033000 5 1202502252.214012
0121102521643542434520033000 5 1202502252.214012
0111102523643542434520033000 5 1202502252.214012
0121102523643542434520033000 5 1202502252.214012
0111102524643542434520033000 5 1202502252.214013
0121102524643542434520033000 5 1202502252.214013
0111102526643542434520033000 5 1202502252.214013
0121102526643542434520033000 5 1202502252.214013
0122106021143252434520033000 2 1202502252.214013
0125106021143252434520033000 2 1202502252.214013
0111102220643252434520033000 2 1202502252.214013
0121102220643252434520033000 2 1202502252.214013
0111102520643252434520033000 2 1202502252.214013
0121102520643252434520033000 2 1202502252.214013
0111102521643252434520033000 5 1202502252.214013
0111102220643552434520033000 2 1202502252.214013
0121102220643552434520033000 2 1202502252.214013
0111102520643552434520033000 2 1202502252.214013
0121102520643552434520033000 2 1202502252.214013
0111102521643552434520033000 5 1202502252.214013
0121102521643552434520033000 5 1202502252.214013
0111102523643552434520033000 5 1202502252.214013
0121102523643552434520033000 5 1202502252.214013
0111102524643552434520033000 5 1202502252.214013
0121102524643552434520033000 5 1202502252.214013
0111102526643552434520033000 5 1202502252.214013
0121102526643552434520033000 5 1202502252.214013
0122106021143204434520033000 2 1202502252.214013
0125106021143204434520033000 2 1202502252.214013
0111102220643204434520033000 2 1202502252.214014
0121102220643204434520033000 2 1202502252.214014
0111102520643204434520033000 2 1202502252.214014
0121102520643204434520033000 2 1202502252.214014
0111102521643204434520033000 5 1202502252.214014
0111102220643504434520033000 2 1202502252.214014
0121102220643504434520033000 2 1202502252.214014
0111102520643504434520033000 2 1202502252.214014
0121102520643504434520033000 2 1202502252.214014
0111102521643504434520033000 5 1202502252.214014
0121102521643504434520033000 5 1202502252.214014
0111102523643504434520033000 5 1202502252.214014
0121102523643504434520033000 5 1202502252.214014
0111102524643504434520033000 5 1202502252.214014
0121102524643504434520033000 5 1202502252.214014
0111102526643504434520033000 5 1202502252.214014
0121102526643504434520033000 5 1202502252.214014
0122106021143214434520033000 2 1202502252.214014
0125106021143214434520033000 2 1202502252.214014
0111102220643214434520033000 2 1202502252.214014
0121102220643214434520033000 2 1202502252.214014
0111102520643214434520033000 2 1202502252.214014
0121102520643214434520033000 2 1202502252.214014
0111102521643214434520033000 5 1202502252.214014
0111102220643514434520033000 2 1202502252.214014
0121102220643514434520033000 2 1202502252.214015
0111102520643514434520033000 2 1202502252.214015
0121102520643514434520033000 2 1202502252.214015
0111102521643514434520033000 5 1202502252.214015
0121102521643514434520033000 5 1202502252.214015
0111102523643514434520033000 5 1202502252.214015
0121102523643514434520033000 5 1202502252.214015
0111102524643514434520033000 5 1202502252.214015
0121102524643514434520033000 5 1202502252.214015
0111102526643514434520033000 5 1202502252.214015
0121102526643514434520033000 5 1202502252.214015
0122106021143224434520033000 2 1202502252.214015
0125106021143224434520033000 2 1202502252.214015
0111102220643224434520033000 2 1202502252.214015
0121102220643224434520033000 2 1202502252.214015
0111102520643224434520033000 2 1202502252.214015
0121102520643224434520033000 2 1202502252.214015
0111102521643224434520033000 5 1202502252.214015
0111102220643524434520033000 2 1202502252.214015
0121102220643524434520033000 2 1202502252.214015
0111102520643524434520033000 2 1202502252.214015
0121102520643524434520033000 2 1202502252.214015
0111102521643524434520033000 5 1202502252.214015
0121102521643524434520033000 5 1202502252.214015
0111102523643524434520033000 5 1202502252.214015
0121102523643524434520033000 5 1202502252.214016
0111102524643524434520033000 5 1202502252.214016
0121102524643524434520033000 5 1202502252.214016
0111102526643524434520033000 5 1202502252.214016
0121102526643524434520033000 5 1202502252.214016
0122106021143244434520033000 2 1202502252.214016
0125106021143244434520033000 2 1202502252.214016
0111102220643244434520033000 2 1202502252.214016
0121102220643244434520033000 2 1202502252.214016
0111102520643244434520033000 2 1202502252.214016
0121102520643244434520033000 2 1202502252.214016
0111102521643244434520033000 5 1202502252.214016
0111102220643544434520033000 2 1202502252.214016
0121102220643544434520033000 2 1202502252.214016
0111102520643544434520033000 2 1202502252.214016
0121102520643544434520033000 2 1202502252.214016
0111102521643544434520033000 5 1202502252.214016
0121102521643544434520033000 5 1202502252.214016
0111102523643544434520033000 5 1202502252.214016
0121102523643544434520033000 5 1202502252.214016
0111102524643544434520033000 5 1202502252.214016
0121102524643544434520033000 5 1202502252.214016
0111102526643544434520033000 5 1202502252.214016
0121102526643544434520033000 5 1202502252.214016
0122106021143254434520033000 2 1202502252.214016
0125106021143254434520033000 2 1202502252.214017
0111102220643254434520033000 2 1202502252.214017
0121102220643254434520033000 2 1202502252.214017
0111102520643254434520033000 2 1202502252.214017
0121102520643254434520033000 2 1202502252.214017
0111102521643254434520033000 5 1202502252.214017
0111102220643554434520033000 2 1202502252.214017
0121102220643554434520033000 2 1202502252.214017
0111102520643554434520033000 2 1202502252.214017
0121102520643554434520033000 2 1202502252.214017
0111102521643554434520033000 5 1202502252.214017
0121102521643554434520033000 5 1202502252.214017
0111102523643554434520033000 5 1202502252.214017
0121102523643554434520033000 5 1202502252.214017
0111102524643554434520033000 5 1202502252.214017
0121102524643554434520033000 5 1202502252.214017
0111102526643554434520033000 5 1202502252.214017
0121102526643554434520033000 5 1202502252.214017
0122106021143205434520033000 2 1202502252.214017
0125106021143205434520033000 2 1202502252.214017
0111102220643205434520033000 2 1202502252.214017
0121102220643205434520033000 2 1202502252.214017
0111102520643205434520033000 2 1202502252.214017
0121102520643205434520033000 2 1202502252.214017
0111102521643205434520033000 5 1202502252.214017
0111102220643505434520033000 2 1202502252.214018
0121102220643505434520033000 2 1202502252.214018
0111102520643505434520033000 2 1202502252.214018
0121102520643505434520033000 2 1202502252.214018
0111102521643505434520033000 5 1202502252.214018
0121102521643505434520033000 5 1202502252.214018
0111102523643505434520033000 5 1202502252.214018
0121102523643505434520033000 5 1202502252.214018
0111102524643505434520033000 5 1202502252.214018
0121102524643505434520033000 5 1202502252.214018
0111102526643505434520033000 5 1202502252.214018
0121102526643505434520033000 5 1202502252.214018
0122106021143215434520033000 2 1202502252.214018
0125106021143215434520033000 2 1202502252.214018
0111102220643215434520033000 2 1202502252.214018
0121102220643215434520033000 2 1202502252.214018
0111102520643215434520033000 2 1202502252.214018
0121102520643215434520033000 2 1202502252.214018
0111102521643215434520033000 5 1202502252.214018
0111102220643515434520033000 2 1202502252.214018
0121102220643515434520033000 2 1202502252.214018
0111102520643515434520033000 2 1202502252.214018
0121102520643515434520033000 2 1202502252.214018
0111102521643515434520033000 5 1202502252.214018
0121102521643515434520033000 5 1202502252.214018
0111102523643515434520033000 5 1202502252.214019
0121102523643515434520033000 5 1202502252.214019
0111102524643515434520033000 5 1202502252.214019
0121102524643515434520033000 5 1202502252.214019
0111102526643515434520033000 5 1202502252.214019
0121102526643515434520033000 5 1202502252.214019
0122106021143225434520033000 2 1202502252.214019
0125106021143225434520033000 2 1202502252.214019
0111102220643225434520033000 2 1202502252.214019
0121102220643225434520033000 2 1202502252.214019
0111102520643225434520033000 2 1202502252.214019
0121102520643225434520033000 2 1202502252.214019
0111102521643225434520033000 5 1202502252.214019
0111102220643525434520033000 2 1202502252.214019
0121102220643525434520033000 2 1202502252.214019
0111102520643525434520033000 2 1202502252.214019
0121102520643525434520033000 2 1202502252.214019
0111102521643525434520033000 5 1202502252.214019
0121102521643525434520033000 5 1202502252.214019
0111102523643525434520033000 5 1202502252.214019
0121102523643525434520033000 5 1202502252.214019
0111102524643525434520033000 5 1202502252.214019
0121102524643525434520033000 5 1202502252.214019
0111102526643525434520033000 5 1202502252.214019
0121102526643525434520033000 5 1202502252.214019
0122106021143245434520033000 2 1202502252.214020
0125106021143245434520033000 2 1202502252.214020
0111102220643245434520033000 2 1202502252.214020
0121102220643245434520033000 2 1202502252.214020
0111102520643245434520033000 2 1202502252.214020
0121102520643245434520033000 2 1202502252.214020
0111102521643245434520033000 5 1202502252.214020
0111102220643545434520033000 2 1202502252.214020
0121102220643545434520033000 2 1202502252.214020
0111102520643545434520033000 2 1202502252.214020
0121102520643545434520033000 2 1202502252.214020
0111102521643545434520033000 5 1202502252.214020
0121102521643545434520033000 5 1202502252.214020
0111102523643545434520033000 5 1202502252.214020
0121102523643545434520033000 5 1202502252.214020
0111102524643545434520033000 5 1202502252.214020
0121102524643545434520033000 5 1202502252.214020
0111102526643545434520033000 5 1202502252.214020
0121102526643545434520033000 5 1202502252.214020
0122106021143255434520033000 2 1202502252.214020
0125106021143255434520033000 2 1202502252.214020
0111102220643255434520033000 2 1202502252.214020
0121102220643255434520033000 2 1202502252.214020
0111102520643255434520033000 2 1202502252.214020
0121102520643255434520033000 2 1202502252.214021
0111102521643255434520033000 5 1202502252.214021
0111102220643555434520033000 2 1202502252.214021
0121102220643555434520033000 2 1202502252.214021
0111102520643555434520033000 2 1202502252.214021
0121102520643555434520033000 2 1202502252.214021
0111102521643555434520033000 5 1202502252.214021
0121102521643555434520033000 5 1202502252.214021
0111102523643555434520033000 5 1202502252.214021
0121102523643555434520033000 5 1202502252.214021
0111102524643555434520033000 5 1202502252.214021
0121102524643555434520033000 5 1202502252.214021
0111102526643555434520033000 5 1202502252.214021
0121102526643555434520033000 5 1202502252.214021
0121102220633404454520033000 2 1202502252.214021
0121105220633404454520033000 2 1202502252.214021
0121102520633404454520033000 2 1202502252.214021
0121105520633404454520033000 2 1202502252.214021
0121102521633404454520033000 5 1202502252.214021
0121105521633404454520033000 5 1202502252.214021
0121102523633404454520033000 5 1202502252.214021
0121105523633404454520033000 5 1202502252.214021
0121102524633404454520033000 5 1202502252.214021
0121105524633404454520033000 5 1202502252.214021
0121102526633404454520033000 5 1202502252.214021
0121105526633404454520033000 5 1202502252.214022
0121102220633414454520033000 2 1202502252.214022
0121105220633414454520033000 2 1202502252.214022
0121102520633414454520033000 2 1202502252.214022
0121105520633414454520033000 2 1202502252.214022
0121102521633414454520033000 5 1202502252.214022
0121105521633414454520033000 5 1202502252.214022
0121102523633414454520033000 5 1202502252.214022
0121105523633414454520033000 5 1202502252.214022
0121102524633414454520033000 5 1202502252.214022
0121105524633414454520033000 5 1202502252.214022
0121102526633414454520033000 5 1202502252.214022
0121105526633414454520033000 5 1202502252.214022
0121102220633424454520033000 2 1202502252.214022
0121105220633424454520033000 2 1202502252.214022
0121102520633424454520033000 2 1202502252.214022
0121105520633424454520033000 2 1202502252.214022
0121102521633424454520033000 5 1202502252.214022
0121105521633424454520033000 5 1202502252.214022
0121102523633424454520033000 5 1202502252.214022
0121105523633424454520033000 5 1202502252.214022
0121102524633424454520033000 5 1202502252.214022
0121105524633424454520033000 5 1202502252.214022
0121102526633424454520033000 5 1202502252.214022
0121105526633424454520033000 5 1202502252.214022
0111102220633444454520033000 2 1202502252.214023
0121102220633444454520033000 2 1202502252.214023
0121105220633444454520033000 2 1202502252.214023
0111102520633444454520033000 2 1202502252.214023
0121102520633444454520033000 2 1202502252.214023
0121105520633444454520033000 2 1202502252.214023
0111102521633444454520033000 5 1202502252.214023
0121102521633444454520033000 5 1202502252.214023
0121105521633444454520033000 5 1202502252.214023
0111102523633444454520033000 5 1202502252.214023
0121102523633444454520033000 5 1202502252.214023
0121105523633444454520033000 5 1202502252.214023
0111102524633444454520033000 5 1202502252.214023
0121102524633444454520033000 5 1202502252.214023
0121105524633444454520033000 5 1202502252.214023
0111102526633444454520033000 5 1202502252.214023
0121102526633444454520033000 5 1202502252.214023
0121105526633444454520033000 5 1202502252.214023
0121102220633454454520033000 2 1202502252.214023
0121105220633454454520033000 2 1202502252.214023
0121102520633454454520033000 2 1202502252.214023
0121105520633454454520033000 2 1202502252.214023
0121102521633454454520033000 5 1202502252.214023
0121105521633454454520033000 5 1202502252.214023
0121102523633454454520033000 5 1202502252.214023
0121105523633454454520033000 5 1202502252.214024
0121102524633454454520033000 5 1202502252.214024
0121105524633454454520033000 5 1202502252.214024
0121102526633454454520033000 5 1202502252.214024
0121105526633454454520033000 5 1202502252.214024
0121102220633454424200003010 2 1202502252.214024
0111102220643250434200003010 2 1202502252.214024
0121102220643250434200003010 2 1202502252.214024
0111102220643251434200003010 2 1202502252.214024
0121102220643251434200003010 2 1202502252.214024
0111102220643252434200003010 2 1202502252.214024
0121102220643252434200003010 2 1202502252.214024
0111102220643254434200003010 2 1202502252.214024
0121102220643254434200003010 2 1202502252.214024
0111102220643205434200003010 2 1202502252.214024
0121102220643205434200003010 2 1202502252.214024
0111102220643215434200003010 2 1202502252.214024
0121102220643215434200003010 2 1202502252.214024
0111102220643225434200003010 2 1202502252.214024
0121102220643225434200003010 2 1202502252.214024
0111102220643245434200003010 2 1202502252.214024
0121102220643245434200003010 2 1202502252.214024
0111102220643255434200003010 2 1202502252.214024
0121102220643255434200003010 2 1202502252.214024
0121102220633454424210003010 2 1202502252.214024
0111102220643250434210003010 2 1202502252.214025
0121102220643250434210003010 2 1202502252.214025
0111102220643251434210003010 2 1202502252.214025
0121102220643251434210003010 2 1202502252.214025
0111102220643252434210003010 2 1202502252.214025
0121102220643252434210003010 2 1202502252.214025
0111102220643254434210003010 2 1202502252.214025
0121102220643254434210003010 2 1202502252.214025
0111102220643205434210003010 2 1202502252.214025
0121102220643205434210003010 2 1202502252.214025
0111102220643215434210003010 2 1202502252.214025
0121102220643215434210003010 2 1202502252.214025
0111102220643225434210003010 2 1202502252.214025
0121102220643225434210003010 2 1202502252.214025
0111102220643245434210003010 2 1202502252.214025
0121102220643245434210003010 2 1202502252.214025
0111102220643255434210003010 2 1202502252.214025
0121102220643255434210003010 2 1202502252.214025
0121102524633202404220003010 5 1202502252.214025
0121102524633212404220003010 5 1202502252.214025
0121102524633222404220003010 5 1202502252.214025
0121102524633242404220003010 5 1202502252.214025
0121102524633252404220003010 5 1202502252.214025
0125105024633155404220003010 1 1202502252.214025
0125125024633155404220003010 1 1202502252.214025
0125135024633155404220003010 1 1202502252.214025
0125155024633155404220003010 1 1202502252.214026
0125165024633155404220003010 1 1202502252.214026
0125106021133404424220003010 2 1202502252.214026
0121102520633404424220003010 2 1202502252.214026
0125106021133414424220003010 2 1202502252.214026
0121102520633414424220003010 2 1202502252.214026
0125106021133424424220003010 2 1202502252.214026
0121102520633424424220003010 2 1202502252.214026
0125106021133444424220003010 2 1202502252.214026
0111102520633444424220003010 2 1202502252.214026
0121102520633444424220003010 2 1202502252.214026
0125106021133454424220003010 2 1202502252.214026
0121102220633454424220003010 2 1202502252.214026
0121102520633454424220003010 2 1202502252.214026
0125106021133405424220003010 2 1202502252.214026
0125106021133415424220003010 2 1202502252.214026
0125106021133425424220003010 2 1202502252.214026
0125106021133445424220003010 2 1202502252.214027
0125105024633155424220003010 1 1202502252.214027
0125125024633155424220003010 1 1202502252.214027
0125135024633155424220003010 1 1202502252.214027
0125155024633155424220003010 1 1202502252.214027
0125165024633155424220003010 1 1202502252.214027
0125106021133455424220003010 2 1202502252.214027
0125106021143200434220003010 2 1202502252.214027
0111102520643200434220003010 2 1202502252.214027
0121102520643200434220003010 2 1202502252.214027
0111102220643500434220003010 2 1202502252.214027
0121102220643500434220003010 2 1202502252.214027
0111102520643500434220003010 2 1202502252.214027
0121102520643500434220003010 2 1202502252.214027
0111102521643500434220003010 5 1202502252.214027
0121102521643500434220003010 5 1202502252.214027
0111102523643500434220003010 5 1202502252.214027
0121102523643500434220003010 5 1202502252.214028
0111102524643500434220003010 5 1202502252.214028
0121102524643500434220003010 5 1202502252.214028
0122105524643500434220003010 1 1202502252.214028
0111102526643500434220003010 5 1202502252.214028
0121102526643500434220003010 5 1202502252.214028
0125106021143210434220003010 2 1202502252.214028
0111102520643210434220003010 2 1202502252.214028
0121102520643210434220003010 2 1202502252.214028
0111102220643510434220003010 2 1202502252.214028
0121102220643510434220003010 2 1202502252.214028
0111102520643510434220003010 2 1202502252.214028
0121102520643510434220003010 2 1202502252.214028
0111102521643510434220003010 5 1202502252.214028
0121102521643510434220003010 5 1202502252.214028
0111102523643510434220003010 5 1202502252.214028
0121102523643510434220003010 5 1202502252.214028
0111102524643510434220003010 5 1202502252.214028
0121102524643510434220003010 5 1202502252.214028
0122105524643510434220003010 1 1202502252.214028
0111102526643510434220003010 5 1202502252.214028
0121102526643510434220003010 5 1202502252.214028
0125106021143220434220003010 2 1202502252.214028
0111102520643220434220003010 2 1202502252.214028
0121102520643220434220003010 2 1202502252.214028
0111102220643520434220003010 2 1202502252.214029
0121102220643520434220003010 2 1202502252.214029
0111102520643520434220003010 2 1202502252.214029
0121102520643520434220003010 2 1202502252.214029
0111102521643520434220003010 5 1202502252.214029
0121102521643520434220003010 5 1202502252.214029
0111102523643520434220003010 5 1202502252.214029
0121102523643520434220003010 5 1202502252.214029
0111102524643520434220003010 5 1202502252.214029
0121102524643520434220003010 5 1202502252.214029
0122105524643520434220003010 1 1202502252.214029
0111102526643520434220003010 5 1202502252.214029
0121102526643520434220003010 5 1202502252.214029
0125106021143240434220003010 2 1202502252.214029
0111102520643240434220003010 2 1202502252.214029
0121102520643240434220003010 2 1202502252.214029
0111102220643540434220003010 2 1202502252.214029
0121102220643540434220003010 2 1202502252.214029
0111102520643540434220003010 2 1202502252.214029
0121102520643540434220003010 2 1202502252.214029
0111102521643540434220003010 5 1202502252.214029
0121102521643540434220003010 5 1202502252.214029
0111102523643540434220003010 5 1202502252.214029
0121102523643540434220003010 5 1202502252.214029
0111102524643540434220003010 5 1202502252.214029
0121102524643540434220003010 5 1202502252.214030
0122105524643540434220003010 1 1202502252.214030
0111102526643540434220003010 5 1202502252.214030
0121102526643540434220003010 5 1202502252.214030
0125106021143250434220003010 2 1202502252.214030
0111102220643250434220003010 2 1202502252.214030
0121102220643250434220003010 2 1202502252.214030
0111102520643250434220003010 2 1202502252.214030
0121102520643250434220003010 2 1202502252.214030
0111102220643550434220003010 2 1202502252.214030
0121102220643550434220003010 2 1202502252.214030
0111102520643550434220003010 2 1202502252.214030
0121102520643550434220003010 2 1202502252.214030
0111102521643550434220003010 5 1202502252.214030
0121102521643550434220003010 5 1202502252.214030
0111102523643550434220003010 5 1202502252.214030
0121102523643550434220003010 5 1202502252.214030
0111102524643550434220003010 5 1202502252.214030
0121102524643550434220003010 5 1202502252.214030
0122105524643550434220003010 1 1202502252.214030
0111102526643550434220003010 5 1202502252.214030
0121102526643550434220003010 5 1202502252.214030
0125106021143201434220003010 2 1202502252.214030
0111102520643201434220003010 2 1202502252.214030
0121102520643201434220003010 2 1202502252.214030
0111102220643501434220003010 2 1202502252.214031
0121102220643501434220003010 2 1202502252.214031
0111102520643501434220003010 2 1202502252.214031
0121102520643501434220003010 2 1202502252.214031
0111102521643501434220003010 5 1202502252.214031
0121102521643501434220003010 5 1202502252.214031
0111102523643501434220003010 5 1202502252.214031
0121102523643501434220003010 5 1202502252.214031
0111102524643501434220003010 5 1202502252.214031
0121102524643501434220003010 5 1202502252.214031
0122105524643501434220003010 1 1202502252.214031
0111102526643501434220003010 5 1202502252.214031
0121102526643501434220003010 5 1202502252.214031
0125106021143211434220003010 2 1202502252.214031
0111102520643211434220003010 2 1202502252.214031
0121102520643211434220003010 2 1202502252.214031
0111102220643511434220003010 2 1202502252.214031
0121102220643511434220003010 2 1202502252.214031
0111102520643511434220003010 2 1202502252.214031
0121102520643511434220003010 2 1202502252.214031
0111102521643511434220003010 5 1202502252.214031
0121102521643511434220003010 5 1202502252.214031
0111102523643511434220003010 5 1202502252.214031
0121102523643511434220003010 5 1202502252.214031
0111102524643511434220003010 5 1202502252.214031
0121102524643511434220003010 5 1202502252.214032
0122105524643511434220003010 1 1202502252.214032
0111102526643511434220003010 5 1202502252.214032
0121102526643511434220003010 5 1202502252.214032
0125106021143221434220003010 2 1202502252.214032
0111102520643221434220003010 2 1202502252.214032
0121102520643221434220003010 2 1202502252.214032
0111102220643521434220003010 2 1202502252.214032
0121102220643521434220003010 2 1202502252.214032
0111102520643521434220003010 2 1202502252.214032
0121102520643521434220003010 2 1202502252.214032
0111102521643521434220003010 5 1202502252.214032
0121102521643521434220003010 5 1202502252.214032
0111102523643521434220003010 5 1202502252.214032
0121102523643521434220003010 5 1202502252.214032
0111102524643521434220003010 5 1202502252.214032
0121102524643521434220003010 5 1202502252.214032
0122105524643521434220003010 1 1202502252.214032
0111102526643521434220003010 5 1202502252.214032
0121102526643521434220003010 5 1202502252.214032
0125106021143241434220003010 2 1202502252.214032
0111102520643241434220003010 2 1202502252.214032
0121102520643241434220003010 2 1202502252.214032
0111102220643541434220003010 2 1202502252.214032
0121102220643541434220003010 2 1202502252.214032
0111102520643541434220003010 2 1202502252.214033
0121102520643541434220003010 2 1202502252.214033
0111102521643541434220003010 5 1202502252.214033
0121102521643541434220003010 5 1202502252.214033
0111102523643541434220003010 5 1202502252.214033
0121102523643541434220003010 5 1202502252.214033
0111102524643541434220003010 5 1202502252.214033
0121102524643541434220003010 5 1202502252.214033
0122105524643541434220003010 1 1202502252.214033
0111102526643541434220003010 5 1202502252.214033
0121102526643541434220003010 5 1202502252.214033
0125106021143251434220003010 2 1202502252.214033
0111102220643251434220003010 2 1202502252.214033
0121102220643251434220003010 2 1202502252.214033
0111102520643251434220003010 2 1202502252.214033
0121102520643251434220003010 2 1202502252.214033
0111102220643551434220003010 2 1202502252.214033
0121102220643551434220003010 2 1202502252.214033
0111102520643551434220003010 2 1202502252.214033
0121102520643551434220003010 2 1202502252.214033
0111102521643551434220003010 5 1202502252.214033
0121102521643551434220003010 5 1202502252.214033
0111102523643551434220003010 5 1202502252.214033
0121102523643551434220003010 5 1202502252.214033
0111102524643551434220003010 5 1202502252.214033
0121102524643551434220003010 5 1202502252.214034
0122105524643551434220003010 1 1202502252.214034
0111102526643551434220003010 5 1202502252.214034
0121102526643551434220003010 5 1202502252.214034
0125106021143202434220003010 2 1202502252.214034
0111102520643202434220003010 2 1202502252.214034
0121102520643202434220003010 2 1202502252.214034
0111102220643502434220003010 2 1202502252.214034
0121102220643502434220003010 2 1202502252.214034
0111102520643502434220003010 2 1202502252.214034
0121102520643502434220003010 2 1202502252.214034
0111102521643502434220003010 5 1202502252.214034
0121102521643502434220003010 5 1202502252.214034
0111102523643502434220003010 5 1202502252.214034
0121102523643502434220003010 5 1202502252.214034
0111102524643502434220003010 5 1202502252.214034
0121102524643502434220003010 5 1202502252.214034
0122105524643502434220003010 1 1202502252.214034
0111102526643502434220003010 5 1202502252.214034
0121102526643502434220003010 5 1202502252.214034
0125106021143212434220003010 2 1202502252.214034
0111102520643212434220003010 2 1202502252.214034
0121102520643212434220003010 2 1202502252.214034
0111102220643512434220003010 2 1202502252.214034
0121102220643512434220003010 2 1202502252.214034
0111102520643512434220003010 2 1202502252.214035
0121102520643512434220003010 2 1202502252.214035
0111102521643512434220003010 5 1202502252.214035
0121102521643512434220003010 5 1202502252.214035
0111102523643512434220003010 5 1202502252.214035
0121102523643512434220003010 5 1202502252.214035
0111102524643512434220003010 5 1202502252.214035
0121102524643512434220003010 5 1202502252.214035
0122105524643512434220003010 1 1202502252.214035
0111102526643512434220003010 5 1202502252.214035
0121102526643512434220003010 5 1202502252.214035
0125106021143222434220003010 2 1202502252.214035
0111102520643222434220003010 2 1202502252.214035
0121102520643222434220003010 2 1202502252.214035
0111102220643522434220003010 2 1202502252.214035
0121102220643522434220003010 2 1202502252.214035
0111102520643522434220003010 2 1202502252.214035
0121102520643522434220003010 2 1202502252.214035
0111102521643522434220003010 5 1202502252.214035
0121102521643522434220003010 5 1202502252.214035
0111102523643522434220003010 5 1202502252.214035
0121102523643522434220003010 5 1202502252.214035
0111102524643522434220003010 5 1202502252.214035
0121102524643522434220003010 5 1202502252.214035
0122105524643522434220003010 1 1202502252.214036
0111102526643522434220003010 5 1202502252.214036
0121102526643522434220003010 5 1202502252.214036
0125106021143242434220003010 2 1202502252.214036
0111102520643242434220003010 2 1202502252.214036
0121102520643242434220003010 2 1202502252.214036
0111102220643542434220003010 2 1202502252.214036
0121102220643542434220003010 2 1202502252.214036
0111102520643542434220003010 2 1202502252.214036
0121102520643542434220003010 2 1202502252.214036
0111102521643542434220003010 5 1202502252.214036
0121102521643542434220003010 5 1202502252.214036
0111102523643542434220003010 5 1202502252.214036
0121102523643542434220003010 5 1202502252.214036
0111102524643542434220003010 5 1202502252.214036
0121102524643542434220003010 5 1202502252.214036
0122105524643542434220003010 1 1202502252.214036
0111102526643542434220003010 5 1202502252.214036
0121102526643542434220003010 5 1202502252.214036
0125106021143252434220003010 2 1202502252.214036
0111102220643252434220003010 2 1202502252.214036
0121102220643252434220003010 2 1202502252.214036
0111102520643252434220003010 2 1202502252.214036
0121102520643252434220003010 2 1202502252.214036
0111102220643552434220003010 2 1202502252.214036
0121102220643552434220003010 2 1202502252.214037
0111102520643552434220003010 2 1202502252.214037
0121102520643552434220003010 2 1202502252.214037
0111102521643552434220003010 5 1202502252.214037
0121102521643552434220003010 5 1202502252.214037
0111102523643552434220003010 5 1202502252.214037
0121102523643552434220003010 5 1202502252.214037
0111102524643552434220003010 5 1202502252.214037
0121102524643552434220003010 5 1202502252.214037
0122105524643552434220003010 1 1202502252.214037
0111102526643552434220003010 5 1202502252.214037
0121102526643552434220003010 5 1202502252.214037
0125106021143204434220003010 2 1202502252.214037
0111102520643204434220003010 2 1202502252.214037
0121102520643204434220003010 2 1202502252.214037
0111102220643504434220003010 2 1202502252.214037
0121102220643504434220003010 2 1202502252.214037
0111102520643504434220003010 2 1202502252.214037
0121102520643504434220003010 2 1202502252.214037
0111102521643504434220003010 5 1202502252.214037
0121102521643504434220003010 5 1202502252.214037
0111102523643504434220003010 5 1202502252.214037
0121102523643504434220003010 5 1202502252.214037
0111102524643504434220003010 5 1202502252.214037
0121102524643504434220003010 5 1202502252.214037
0122105524643504434220003010 1 1202502252.214038
0111102526643504434220003010 5 1202502252.214038
0121102526643504434220003010 5 1202502252.214038
0125106021143214434220003010 2 1202502252.214038
0111102520643214434220003010 2 1202502252.214038
0121102520643214434220003010 2 1202502252.214038
0111102220643514434220003010 2 1202502252.214038
0121102220643514434220003010 2 1202502252.214038
0111102520643514434220003010 2 1202502252.214038
0121102520643514434220003010 2 1202502252.214038
0111102521643514434220003010 5 1202502252.214038
0121102521643514434220003010 5 1202502252.214038
0111102523643514434220003010 5 1202502252.214038
0121102523643514434220003010 5 1202502252.214038
0111102524643514434220003010 5 1202502252.214038
0121102524643514434220003010 5 1202502252.214038
0122105524643514434220003010 1 1202502252.214038
0111102526643514434220003010 5 1202502252.214038
