0121102225433166400100614201 1202408084.185038
0121102225433166400200614201 1202408084.185038
0121102521433112400105664201 1202408084.185038
0121102521433112400205664201 1202408084.185038
0121106620453516400110002453 1202408084.185038
0121106620453516400210002453 1202408084.185038
0121106620453516400510002453 1202408084.185038
0121106620453516400610002453 1202408084.185038
0121106224453512400110002003 1202408084.185038
0121106224453512400210002003 1202408084.185038
0121106224453512400510002003 1202408084.185038
0121106224453512400610002003 1202408084.185039
0121106620453516400110002403 1202408084.185039
0121106620453516400210002403 1202408084.185039
0121106620453516400510002403 1202408084.185039
0121106620453516400610002403 1202408084.185039
0121106224453512400110002053 1202408084.185039
0121106224453512400210002053 1202408084.185039
0121106224453512400510002053 1202408084.185039
0121106224453512400610002053 1202408084.185039
