00421023210030414042 1 1202502042.175005
00421223210030414042 1 1202502042.175005
00421323210030414042 1 1202502042.175005
00421023211030414042 1 1202502042.175005
00421223211030414042 1 1202502042.175005
00421323211030414042 1 1202502042.175005
00421023213030414042 1 1202502042.175005
00421223213030414042 1 1202502042.175005
00421323213030414042 1 1202502042.175005
00121023214030414042 1 1202502042.175006
00421023214030414042 1 1202502042.175006
00121223214030414042 1 1202502042.175006
00421223214030414042 1 1202502042.175006
00121323214030414042 1 1202502042.175006
00421323214030414042 1 1202502042.175006
00021023210430414042 1 1202502042.175006
00121023210430414042 1 1202502042.175006
00221023210430414042 1 1202502042.175006
00421023210430414042 1 1202502042.175006
00021223210430414042 1 1202502042.175006
00121223210430414042 1 1202502042.175006
00221223210430414042 1 1202502042.175007
00421223210430414042 1 1202502042.175007
00021323210430414042 1 1202502042.175007
00121323210430414042 1 1202502042.175007
00221323210430414042 1 1202502042.175007
00421323210430414042 1 1202502042.175007
00021023211430414042 1 1202502042.175007
00121023211430414042 1 1202502042.175007
00221023211430414042 1 1202502042.175007
00421023211430414042 1 1202502042.175007
00021223211430414042 1 1202502042.175007
00121223211430414042 1 1202502042.175008
00221223211430414042 1 1202502042.175008
00421223211430414042 1 1202502042.175008
00021323211430414042 1 1202502042.175008
00121323211430414042 1 1202502042.175008
00221323211430414042 1 1202502042.175008
00421323211430414042 1 1202502042.175008
00021023213430414042 1 1202502042.175008
00121023213430414042 1 1202502042.175008
00221023213430414042 1 1202502042.175008
00421023213430414042 1 1202502042.175008
00021223213430414042 1 1202502042.175008
00121223213430414042 1 1202502042.175009
00221223213430414042 1 1202502042.175009
00421223213430414042 1 1202502042.175009
00021323213430414042 1 1202502042.175009
00121323213430414042 1 1202502042.175009
00221323213430414042 1 1202502042.175009
00421323213430414042 1 1202502042.175009
00021023214430414042 1 1202502042.175009
00121023214430414042 1 1202502042.175009
00221023214430414042 1 1202502042.175009
00421023214430414042 1 1202502042.175009
00021223214430414042 1 1202502042.175009
00121223214430414042 1 1202502042.175010
00221223214430414042 1 1202502042.175010
00421223214430414042 1 1202502042.175010
00021323214430414042 1 1202502042.175010
00121323214430414042 1 1202502042.175010
00221323214430414042 1 1202502042.175010
00421323214430414042 1 1202502042.175010
00111020214330424042 2 1202502042.175010
00111220214330424042 2 1202502042.175010
00111320214330424042 2 1202502042.175010
01101020203030404242 1 1202502042.175010
01111020203030404242 1 1202502042.175010
01111022203030404242 2 1202502042.175011
01121022203030404242 1 1202502042.175011
00101020213030404242 1 1202502042.175011
01101020213030404242 1 1202502042.175011
00111020213030404242 1 1202502042.175011
01111020213030404242 1 1202502042.175011
00121020213030404242 1 1202502042.175011
01121020213030404242 1 1202502042.175011
00101022213030404242 1 1202502042.175011
00111022213030404242 1 1202502042.175011
00101023213030404242 1 1202502042.175011
00111023213030404242 1 1202502042.175011
00201030210130404242 2 1202502042.175011
00201030211130404242 2 1202502042.175012
01201030211130404242 2 1202502042.175012
00221030211130404242 2 1202502042.175012
01221030211130404242 2 1202502042.175012
00201000213130404242 2 1202502042.175012
01201000213130404242 2 1202502042.175012
00221000213130404242 2 1202502042.175012
00101020213130404242 2 1202502042.175012
01101020213130404242 2 1202502042.175012
00121020213130404242 2 1202502042.175012
01121020213130404242 2 1202502042.175012
00201030213130404242 2 1202502042.175012
01201030213130404242 2 1202502042.175012
00201030214130404242 2 1202502042.175013
00101020213330404242 2 1202502042.175013
01101020213330404242 2 1202502042.175013
00121020213330404242 2 1202502042.175013
01121020213330404242 2 1202502042.175013
00101020213430404242 2 1202502042.175013
01101020213430404242 2 1202502042.175013
00121020213430404242 2 1202502042.175013
01121020213430404242 2 1202502042.175013
01101020203031404242 1 1202502042.175013
01111020203031404242 1 1202502042.175013
01101020213031404242 1 1202502042.175013
01111020213031404242 1 1202502042.175013
01121020213031404242 1 1202502042.175013
01201030211131404242 2 1202502042.175013
01221030211131404242 2 1202502042.175014
01201000213131404242 2 1202502042.175014
00221000213131404242 2 1202502042.175014
01101020213131404242 2 1202502042.175014
01121020213131404242 2 1202502042.175014
01201030213131404242 2 1202502042.175014
00221030213131404242 2 1202502042.175014
01221030213131404242 2 1202502042.175014
01101020213331404242 2 1202502042.175014
01121020213331404242 2 1202502042.175014
00111020213030414242 1 1202502042.175014
00121020213030414242 1 1202502042.175014
00111022213030414242 1 1202502042.175014
00111023213030414242 1 1202502042.175014
00201000213130414242 2 1202502042.175015
01201000213130414242 2 1202502042.175015
00221000213130414242 2 1202502042.175015
01221000213130414242 2 1202502042.175015
01201000213131414242 2 1202502042.175015
00221000213131414242 2 1202502042.175015
01221000213131414242 2 1202502042.175015
00111020213030424242 1 1202502042.175015
00121020213030424242 1 1202502042.175015
00221030211130424242 2 1202502042.175015
00121020213130424242 2 1202502042.175015
00121020213330424242 2 1202502042.175015
00121020213430424242 2 1202502042.175015
00221000213131424242 2 1202502042.175016
00221030213131424242 2 1202502042.175016
01221030213131424242 2 1202502042.175016
00201000210331144242 2 1202502042.175016
00201020210331144242 2 1202502042.175016
00211020210331144242 2 1202502042.175016
00201030210331144242 2 1202502042.175016
00201000211331144242 2 1202502042.175016
00201020211331144242 2 1202502042.175016
00211020211331144242 2 1202502042.175016
00201030211331144242 2 1202502042.175016
01211020203331144242 2 1202502042.175016
01211022203331144242 2 1202502042.175017
00201000213331144242 2 1202502042.175017
01201000213331144242 2 1202502042.175017
00211000213331144242 2 1202502042.175017
00221000213331144242 2 1202502042.175017
01221000213331144242 2 1202502042.175017
00201020213331144242 2 1202502042.175017
01201020213331144242 2 1202502042.175017
00211020213331144242 2 1202502042.175017
01211020213331144242 2 1202502042.175017
00221020213331144242 2 1202502042.175017
01221020213331144242 2 1202502042.175017
00201030213331144242 2 1202502042.175017
01201030213331144242 2 1202502042.175017
00221030213331144242 2 1202502042.175018
01221030213331144242 2 1202502042.175018
00201000214331144242 2 1202502042.175018
00201020214331144242 2 1202502042.175018
00211020214331144242 2 1202502042.175018
00201030214331144242 2 1202502042.175018
01101020203030444242 1 1202502042.175018
01111022203030444242 1 1202502042.175018
00101020213030444242 1 1202502042.175018
01101020213030444242 1 1202502042.175018
00111020213030444242 1 1202502042.175018
00121020213030444242 1 1202502042.175018
00101022213030444242 1 1202502042.175018
00111022213030444242 1 1202502042.175019
00101023213030444242 1 1202502042.175019
00111023213030444242 1 1202502042.175019
00201030210130444242 2 1202502042.175019
00201030211130444242 2 1202502042.175019
01201030211130444242 2 1202502042.175019
00221030211130444242 2 1202502042.175019
00201000213130444242 2 1202502042.175019
01201000213130444242 2 1202502042.175019
00221000213130444242 2 1202502042.175019
00101020213130444242 2 1202502042.175019
01101020213130444242 2 1202502042.175019
00121020213130444242 2 1202502042.175020
00201030213130444242 2 1202502042.175020
01201030213130444242 2 1202502042.175020
00201030214130444242 2 1202502042.175020
00011020200330444242 2 1202502042.175020
00111020200330444242 2 1202502042.175020
00211020200330444242 2 1202502042.175020
00411020200330444242 2 1202502042.175020
00011220200330444242 2 1202502042.175020
00111220200330444242 2 1202502042.175020
00211220200330444242 2 1202502042.175020
00411220200330444242 2 1202502042.175020
00011320200330444242 2 1202502042.175021
00111320200330444242 2 1202502042.175021
00211320200330444242 2 1202502042.175021
00411320200330444242 2 1202502042.175021
00011022200330444242 2 1202502042.175021
00111022200330444242 2 1202502042.175021
00211022200330444242 2 1202502042.175021
00411022200330444242 2 1202502042.175021
00011222200330444242 2 1202502042.175021
00111222200330444242 2 1202502042.175021
00211222200330444242 2 1202502042.175021
00411222200330444242 2 1202502042.175021
00011322200330444242 2 1202502042.175022
00111322200330444242 2 1202502042.175022
00211322200330444242 2 1202502042.175022
00411322200330444242 2 1202502042.175022
00011023200330444242 2 1202502042.175022
00111023200330444242 2 1202502042.175022
00211023200330444242 2 1202502042.175022
00411023200330444242 2 1202502042.175022
00011223200330444242 2 1202502042.175022
00111223200330444242 2 1202502042.175022
00211223200330444242 2 1202502042.175022
00411223200330444242 2 1202502042.175022
00011323200330444242 2 1202502042.175023
00111323200330444242 2 1202502042.175023
00211323200330444242 2 1202502042.175023
00411323200330444242 2 1202502042.175023
00011020201330444242 2 1202502042.175023
00111020201330444242 2 1202502042.175023
00211020201330444242 2 1202502042.175023
00411020201330444242 2 1202502042.175023
00011220201330444242 2 1202502042.175023
00111220201330444242 2 1202502042.175023
00211220201330444242 2 1202502042.175023
00411220201330444242 2 1202502042.175024
00011320201330444242 2 1202502042.175024
00111320201330444242 2 1202502042.175024
00211320201330444242 2 1202502042.175024
00411320201330444242 2 1202502042.175024
00011022201330444242 2 1202502042.175024
00111022201330444242 2 1202502042.175024
00211022201330444242 2 1202502042.175024
00411022201330444242 2 1202502042.175024
00011222201330444242 2 1202502042.175024
00111222201330444242 2 1202502042.175024
00211222201330444242 2 1202502042.175024
00411222201330444242 2 1202502042.175025
00011322201330444242 2 1202502042.175025
00111322201330444242 2 1202502042.175025
00211322201330444242 2 1202502042.175025
00411322201330444242 2 1202502042.175025
00011023201330444242 2 1202502042.175025
00111023201330444242 2 1202502042.175025
00211023201330444242 2 1202502042.175025
00411023201330444242 2 1202502042.175025
00011223201330444242 2 1202502042.175025
