0121102521433102400102624001 1202405013.174720
0121102521433112400102624001 1202405013.174720
0121102521433122400102624001 1202405013.174721
0121102521433142400102624001 1202405013.174721
0121102521433152400102624001 1202405013.174722
0121102521433162400102624001 1202405013.174722
0121102521433102400202624001 1202405013.174723
0121102521433112400202624001 1202405013.174723
0121102521433122400202624001 1202405013.174724
0121102521433142400202624001 1202405013.174724
0121102521433152400202624001 1202405013.174725
0121102521433162400202624001 1202405013.174725
0122102521433062400106614201 1202405013.174726
0122102521433062400206614201 1202405013.174726
0121104520433602400601661124 1202405013.174740
0121104520433112400601661124 1202405013.174741
0121104520433612400601661124 1202405013.174741
0121104520433142400601661124 1202405013.174742
0121104520433642400601661124 1202405013.174742
0121104520433162400601661124 1202405013.174743
0121104520433662400601661124 1202405013.174743
0146106520033011420601661124 1202405013.174744
0146106520033511420601661124 1202405013.174744
0146106520033041420601661124 1202405013.174745
0146106520033061420601661124 1202405013.174745
0146106520033561420601661124 1202405013.174746
0146103520013564420601661124 1202405013.174746
0146102520333040420604111414 1202405013.174747
0146102520303140420604111414 1202405013.174747
0146102520303041420604111414 1202405013.174747
0146102520303042420604111414 1202405013.174748
0146106520033011420606161224 1202405013.174748
0146106520033061420606161224 1202405013.174749
