0122102021433165400115164501 2 1202406156.225530
0122102021433165400215164501 2 1202406156.225938
0122102021433165400515164501 2 1202406156.230352
0122105021433161400115264501 2 1202406156.231604
0122105021433161400215264501 2 1202406156.232023
0122105021433161400515264501 2 1202406156.232438
0122102021433165400115164502 2 1202406156.233345
0122102021433165400215164502 2 1202406156.233806
0122102021433165400515164502 2 1202406156.234216
0122105021433161400115264502 2 1202406156.235414
0122105021433161400215264502 2 1202406156.235826
0122105021433161400515264502 2 1202406167.000234
0122102021433165400115164505 2 1202406167.003257
0122102021433165400215164505 2 1202406167.003707
0122102021433165400515164505 2 1202406167.004117
0122105021433161400115264505 2 1202406167.005254
0122105021433161400215264505 2 1202406167.005702
0122105021433161400515264505 2 1202406167.010112
