01221037254132624001100011204601 2 1202406145.020459
01221037254132624002100011204601 2 1202406145.020914
01221037254132624005100011204601 2 1202406145.021335
01221037254132624006100011204601 2 1202406145.021752
01221020214331754001151645024505 2 1202406145.215957
01221020214331754002151645024505 2 1202406145.220419
01221020214331754005151645024505 2 1202406145.220840
01221050214331714001152645024505 2 1202406145.222629
01221050214331714002152645024505 2 1202406145.223048
01221050214331714005152645024505 2 1202406145.223513
01221020214331654001151745024505 2 1202406156.004225
01221020214331654002151745024505 2 1202406156.004644
01221020214331654005151745024505 2 1202406156.005106
01221050214331614001152745024505 2 1202406156.010956
01221050214331614002152745024505 2 1202406156.011416
01221050214331614005152745024505 2 1202406156.011837
01221020254331764001100016174606 2 1202406145.023151
01221020214335764001100016174606 2 1202406145.023541
01221020254335764001100016174606 2 1202406145.023932
01221020254331764002100016174606 2 1202406145.024356
01221020214335764002100016174606 2 1202406145.024746
01221020254335764002100016174606 2 1202406145.025136
01221020214331764005100016174606 2 1202406145.025610
01221020254331764005100016174606 2 1202406145.030000
01221020214335764005100016174606 2 1202406145.030354
01221020254335764005100016174606 2 1202406145.030753
01221020254331764006100016174606 2 1202406145.031228
01221020214335764006100016174606 2 1202406145.031620
01221020254335764006100016174606 2 1202406145.032013
01221060254331714001100016274606 2 1202406145.034425
01221060214335714001100016274606 2 1202406145.034815
01221060254335714001100016274606 2 1202406145.035204
01221060254331714002100016274606 2 1202406145.035624
01221060214335714002100016274606 2 1202406145.040016
01221060254335714002100016274606 2 1202406145.040406
01221060214331714005100016274606 2 1202406145.040833
01221060254331714005100016274606 2 1202406145.041222
01221060214335714005100016274606 2 1202406145.041612
01221060254335714005100016274606 2 1202406145.042020
01221060254331714006100016274606 2 1202406145.042447
01221060214335714006100016274606 2 1202406145.042836
01221060254335714006100016274606 2 1202406145.043226
01221020254331764001100016174602 2 1202406145.023748
01221020214335764001100016174602 2 1202406145.024138
01221020254335764001100016174602 2 1202406145.024527
01221020254331764002100016174602 2 1202406145.024958
01221020214335764002100016174602 2 1202406145.025348
01221020254335764002100016174602 2 1202406145.025738
01221020214331764005100016174602 2 1202406145.030208
01221020254331764005100016174602 2 1202406145.030558
01221020214335764005100016174602 2 1202406145.030948
01221020254335764005100016174602 2 1202406145.031337
01221020254331764006100016174602 2 1202406145.031800
01221020214335764006100016174602 2 1202406145.032150
01221020254335764006100016174602 2 1202406145.032540
01221060254331714001100016274602 2 1202406145.035034
01221060214335714001100016274602 2 1202406145.035425
01221060254335714001100016274602 2 1202406145.035828
01221060254331714002100016274602 2 1202406145.040249
01221060214335714002100016274602 2 1202406145.040640
01221060254335714002100016274602 2 1202406145.041030
01221060214331714005100016274602 2 1202406145.041453
01221060254331714005100016274602 2 1202406145.041853
01221060214335714005100016274602 2 1202406145.042250
01221060254335714005100016274602 2 1202406145.042640
01221060254331714006100016274602 2 1202406145.043106
01221060214335714006100016274602 2 1202406145.043456
01221060254335714006100016274602 2 1202406145.043846
01221020214331754001151645054501 2 1202406145.131448
01221020214331754002151645054501 2 1202406145.131917
01221020214331754005151645054501 2 1202406145.132342
01221050214331714001152645054501 2 1202406145.134334
01221050214331714002152645054501 2 1202406145.134808
01221050214331714005152645054501 2 1202406145.135231
01221020214331654001151745054501 2 1202406145.160003
01221020214331654002151745054501 2 1202406145.160440
01221020214331654005151745054501 2 1202406145.160902
01221050214331614001152745054501 2 1202406145.162832
01221050214331614002152745054501 2 1202406145.163300
01221050214331614005152745054501 2 1202406145.163721
01221020254331764001100016174601 2 1202406145.024940
01221020214335764001100016174601 2 1202406145.025330
01221020254335764001100016174601 2 1202406145.025720
01221020254331764002100016174601 2 1202406145.030155
01221020214335764002100016174601 2 1202406145.030553
01221020254335764002100016174601 2 1202406145.030942
01221020214331764005100016174601 2 1202406145.031415
01221020254331764005100016174601 2 1202406145.031804
01221020214335764005100016174601 2 1202406145.032154
01221020254335764005100016174601 2 1202406145.032544
01221020254331764006100016174601 2 1202406145.033017
01221020214335764006100016174601 2 1202406145.033407
01221020254335764006100016174601 2 1202406145.033757
01221060254331714001100016274601 2 1202406145.040920
01221060214335714001100016274601 2 1202406145.041310
01221060254335714001100016274601 2 1202406145.041700
01221060254331714002100016274601 2 1202406145.042122
01221060214335714002100016274601 2 1202406145.042513
01221060254335714002100016274601 2 1202406145.042902
01221060214331714005100016274601 2 1202406145.043329
01221060254331714005100016274601 2 1202406145.043718
01221060214335714005100016274601 2 1202406145.044108
01221060254335714005100016274601 2 1202406145.044457
01221060254331714006100016274601 2 1202406145.044925
01221060214335714006100016274601 2 1202406145.045315
01221060254335714006100016274601 2 1202406145.045705
01221020214331754001151645024502 2 1202406156.000341
01221020214331754002151645024502 2 1202406156.000809
01221020214331754005151645024502 2 1202406156.001238
01221050214331714001152645024502 2 1202406156.003748
01221050214331714002152645024502 2 1202406156.004211
01221050214331714005152645024502 2 1202406156.004640
01221020214331654001151745024502 2 1202406156.032649
01221020214331654002151745024502 2 1202406156.033120
01221020214331654005151745024502 2 1202406156.033550
01221050214331614001152745024502 2 1202406156.040212
01221050214331614002152745024502 2 1202406156.040636
01221050214331614005152745024502 2 1202406156.041103
01221020214331764001100016174605 2 1202406145.025600
01221020254331764001100016174605 2 1202406145.025950
01221020214335764001100016174605 2 1202406145.030340
01221020254335764001100016174605 2 1202406145.030729
01221020214331764002100016174605 2 1202406145.031208
01221020254331764002100016174605 2 1202406145.031557
01221020214335764002100016174605 2 1202406145.031947
01221020254335764002100016174605 2 1202406145.032337
01221020214331764005100016174605 2 1202406145.032815
01221020254331764005100016174605 2 1202406145.033205
01221020214335764005100016174605 2 1202406145.033555
01221020254335764005100016174605 2 1202406145.033945
01221020214331764006100016174605 2 1202406145.034426
01221020254331764006100016174605 2 1202406145.034815
01221020214335764006100016174605 2 1202406145.035205
01221020254335764006100016174605 2 1202406145.035600
01221060214331714001100016274605 2 1202406145.043053
01221060254331714001100016274605 2 1202406145.043443
01221060214335714001100016274605 2 1202406145.043833
01221060254335714001100016274605 2 1202406145.044223
01221060214331714002100016274605 2 1202406145.044657
01221060254331714002100016274605 2 1202406145.045046
01221060214335714002100016274605 2 1202406145.045436
01221060254335714002100016274605 2 1202406145.045828
01221060214331714005100016274605 2 1202406145.050318
01221060254331714005100016274605 2 1202406145.050722
01221060214335714005100016274605 2 1202406145.051112
01221060254335714005100016274605 2 1202406145.051508
01221060214331714006100016274605 2 1202406145.051942
01221060254331714006100016274605 2 1202406145.052332
01221060214335714006100016274605 2 1202406145.052727
01221060254335714006100016274605 2 1202406145.053129
01271036214132754001110045014202 2 1202406145.083518
01271036214132754002110045014202 2 1202406145.083936
01271036214132754005110045014202 2 1202406145.084352
01221020214331754001151645014501 2 1202406145.230614
01221020214331754002151645014501 2 1202406145.231043
01221020214331754005151645014501 2 1202406145.231502
01221050214331714001152645014501 2 1202406145.233501
01221050214331714002152645014501 2 1202406145.233922
01221050214331714005152645014501 2 1202406145.234345
01221020214331654001151745014501 2 1202406156.021230
01221020214331654002151745014501 2 1202406156.021656
01221020214331654005151745014501 2 1202406156.022117
01221050214331614001152745014501 2 1202406156.024346
01221050214331614002152745014501 2 1202406156.024805
01221050214331614005152745014501 2 1202406156.025222
01221020214331754001151645054505 2 1202406145.131201
01221020214331754002151645054505 2 1202406145.131623
01221020214331754005151645054505 2 1202406145.132047
01221050214331714001152645054505 2 1202406145.133928
01221050214331714002152645054505 2 1202406145.134416
01221050214331714005152645054505 2 1202406145.134848
01221020214331654001151745054505 2 1202406145.155119
01221020214331654002151745054505 2 1202406145.155540
01221020214331654005151745054505 2 1202406145.160002
01221050214331614001152745054505 2 1202406145.161748
01221050214331614002152745054505 2 1202406145.162206
01221050214331614005152745054505 2 1202406145.162624
01221020214331754001151645054502 2 1202406145.131414
01221020214331754002151645054502 2 1202406145.131834
01221020214331754005151645054502 2 1202406145.132256
01221050214331714001152645054502 2 1202406145.134225
01221050214331714002152645054502 2 1202406145.134700
01221050214331714005152645054502 2 1202406145.135126
01221020214331654001151745054502 2 1202406145.155233
01221020214331654002151745054502 2 1202406145.155658
01221020214331654005151745054502 2 1202406145.160122
01221050214331614001152745054502 2 1202406145.162001
01221050214331614002152745054502 2 1202406145.162423
01221050214331614005152745054502 2 1202406145.162848
01221020214331754001151645024501 2 1202406156.000143
01221020214331754002151645024501 2 1202406156.000609
01221020214331754005151645024501 2 1202406156.001028
01221050214331714001152645024501 2 1202406156.003231
01221050214331714002152645024501 2 1202406156.003648
01221050214331714005152645024501 2 1202406156.004106
01221020214331654001151745024501 2 1202406156.030922
01221020214331654002151745024501 2 1202406156.031347
01221020214331654005151745024501 2 1202406156.031805
01221050214331614001152745024501 2 1202406156.033853
01221050214331614002152745024501 2 1202406156.034313
01221050214331614005152745024501 2 1202406156.034744
01221020214331754001151645014502 2 1202406145.193504
01221020214331754002151645014502 2 1202406145.193921
01221020214331754005151645014502 2 1202406145.194339
01221050214331714001152645014502 2 1202406145.200347
01221050214331714002152645014502 2 1202406145.200818
01221050214331714005152645014502 2 1202406145.201238
01221020214331654001151745014502 2 1202406145.224253
01221020214331654002151745014502 2 1202406145.224714
01221020214331654005151745014502 2 1202406145.225138
01221050214331614001152745014502 2 1202406145.231651
01221050214331614002152745014502 2 1202406145.232110
01221050214331614005152745014502 2 1202406145.232529
01221020214331754001151645014505 2 1202406145.193924
01221020214331754002151645014505 2 1202406145.194344
01221020214331754005151645014505 2 1202406145.194814
01221050214331714001152645014505 2 1202406145.200648
01221050214331714002152645014505 2 1202406145.201111
01221050214331714005152645014505 2 1202406145.201546
01221020214331654001151745014505 2 1202406145.222802
01221020214331654002151745014505 2 1202406145.223223
01221020214331654005151745014505 2 1202406145.223648
01221050214331614001152745014505 2 1202406145.225502
01221050214331614002152745014505 2 1202406145.225924
01221050214331614005152745014505 2 1202406145.230345
01261037214132654001110042014501 2 1202406156.000809
01261037214132654002110042014501 2 1202406156.001235
01261037214132654005110042014501 2 1202406156.001654
01261007214532614001113042014501 2 1202406156.003721
01261007214532614002113042014501 2 1202406156.004140
01261007214532614005113042014501 2 1202406156.004603
01261037214132654001110042024501 2 1202406156.010827
01261037214132654002110042024501 2 1202406156.011242
01261037214132654005110042024501 2 1202406156.011701
01271036214132754001110045014201 2 1202406156.022558
01271036214132754002110045014201 2 1202406156.023013
01271036214132754005110045014201 2 1202406156.023429
01271006214532714001113045014201 2 1202406156.025535
01271006214532714002113045014201 2 1202406156.025955
01271006214532714005113045014201 2 1202406156.030411
