0121102225433166400100614201 2 1202408084.184413
0121102225433166400200614201 2 1202408084.184413
0121102521433112400105664201 2 1202408084.184440
0121102521433112400205664201 2 1202408084.184440
0121106620453516400110002453 2 1202408084.184538
0121106620453516400210002453 2 1202408084.184538
0121106620453516400510002453 2 1202408084.184538
0121106620453516400610002453 2 1202408084.184538
0121106224453512400110002003 6 1202408084.184548
0121106224453512400210002003 6 1202408084.184549
0121106224453512400510002003 6 1202408084.184549
0121106224453512400610002003 6 1202408084.184549
0121106620453516400110002403 2 1202408084.184557
0121106620453516400210002403 2 1202408084.184557
0121106620453516400510002403 2 1202408084.184557
0121106620453516400610002403 2 1202408084.184557
0121106224453512400110002053 6 1202408084.184615
0121106224453512400210002053 6 1202408084.184616
0121106224453512400510002053 6 1202408084.184616
0121106224453512400610002053 6 1202408084.184616
