0121106521433541400105224202 1202403155.223359
0121106521433551400105224202 1202403155.223426
0121106521433546400105224202 1202403155.223756
0121106521433556400105224202 1202403155.223852
0121106521433541400205224202 1202403155.224045
0121106521433551400205224202 1202403155.224112
0121106521433546400205224202 1202403155.224452
0121106521433556400205224202 1202403155.224550
0122102521433010400106224202 1202403155.224827
0122106521433010400106224202 1202403155.224845
0122102521433110400106224202 1202403155.224903
0122106521433110400106224202 1202403155.224921
0122100521433060400106224202 1202403155.224939
0122102521433060400106224202 1202403155.224957
0122103521433060400106224202 1202403155.225015
0122104521433060400106224202 1202403155.225033
0122105521433060400106224202 1202403155.225051
0122106521433060400106224202 1202403155.225109
0122100521433160400106224202 1202403155.225127
0122102521433160400106224202 1202403155.225145
0122103521433160400106224202 1202403155.225203
0122104521433160400106224202 1202403155.225221
0122105521433160400106224202 1202403155.225238
0122106521433160400106224202 1202403155.225256
0122106521433001400106224202 1202403155.225314
0122106521433011400106224202 1202403155.225332
0122106521433041400106224202 1202403155.225357
0122106521433141400106224202 1202403155.225415
0122106521433151400106224202 1202403155.225433
0122100521433061400106224202 1202403155.225451
0122104521433061400106224202 1202403155.225509
0122105521433061400106224202 1202403155.225527
0122106521433061400106224202 1202403155.225545
0122105521433161400106224202 1202403155.225619
0122102521433014400106224202 1202403155.225647
0122106521433014400106224202 1202403155.225705
0122102521433114400106224202 1202403155.225724
0122100521433064400106224202 1202403155.225744
0122102521433064400106224202 1202403155.225802
0122103521433064400106224202 1202403155.225820
0122104521433064400106224202 1202403155.225839
0122105521433064400106224202 1202403155.225857
0122106521433064400106224202 1202403155.225915
0122100521433006400106224202 1202403155.225933
0122102521433006400106224202 1202403155.225951
0122103521433006400106224202 1202403155.230009
0122104521433006400106224202 1202403155.230026
0122105521433006400106224202 1202403155.230044
0122106521433006400106224202 1202403155.230102
0122102521433016400106224202 1202403155.230120
0122104521433016400106224202 1202403155.230138
0122106521433016400106224202 1202403155.230156
0122102521433116400106224202 1202403155.230214
0122104521433116400106224202 1202403155.230232
0122100521433046400106224202 1202403155.230256
0122102521433046400106224202 1202403155.230314
0122103521433046400106224202 1202403155.230332
0122104521433046400106224202 1202403155.230350
0122105521433046400106224202 1202403155.230408
0122106521433046400106224202 1202403155.230426
0122100521433146400106224202 1202403155.230444
0122102521433146400106224202 1202403155.230502
0122103521433146400106224202 1202403155.230520
0122104521433146400106224202 1202403155.230538
0122105521433146400106224202 1202403155.230556
0122106521433146400106224202 1202403155.230615
0122100521433156400106224202 1202403155.230632
0122102521433156400106224202 1202403155.230650
0122103521433156400106224202 1202403155.230708
0122104521433156400106224202 1202403155.230726
0122105521433156400106224202 1202403155.230743
0122106521433156400106224202 1202403155.230801
0122100521433066400106224202 1202403155.230819
0122102521433066400106224202 1202403155.230837
0122103521433066400106224202 1202403155.230855
0122104521433066400106224202 1202403155.230913
0122105521433066400106224202 1202403155.230931
0122106521433066400106224202 1202403155.230949
0122102521433010400206224202 1202403155.231046
0122106521433010400206224202 1202403155.231104
0122102521433110400206224202 1202403155.231122
0122106521433110400206224202 1202403155.231140
0122100521433060400206224202 1202403155.231158
0122102521433060400206224202 1202403155.231216
0122103521433060400206224202 1202403155.231234
0122104521433060400206224202 1202403155.231252
0122105521433060400206224202 1202403155.231310
0122106521433060400206224202 1202403155.231328
0122100521433160400206224202 1202403155.231346
0122102521433160400206224202 1202403155.231404
0122103521433160400206224202 1202403155.231422
0122104521433160400206224202 1202403155.231440
0122105521433160400206224202 1202403155.231458
0122106521433160400206224202 1202403155.231516
0122106521433001400206224202 1202403155.231533
0122106521433011400206224202 1202403155.231551
0122106521433041400206224202 1202403155.231616
0122106521433141400206224202 1202403155.231634
0122106521433151400206224202 1202403155.231652
0122100521433061400206224202 1202403155.231710
0122104521433061400206224202 1202403155.231728
0122105521433061400206224202 1202403155.231746
0122106521433061400206224202 1202403155.231804
0122105521433161400206224202 1202403155.231838
0122102521433014400206224202 1202403155.231906
0122106521433014400206224202 1202403155.231924
0122102521433114400206224202 1202403155.231942
0122100521433064400206224202 1202403155.232000
0122102521433064400206224202 1202403155.232018
0122103521433064400206224202 1202403155.232036
0122104521433064400206224202 1202403155.232054
0122105521433064400206224202 1202403155.232112
0122106521433064400206224202 1202403155.232130
0122100521433006400206224202 1202403155.232148
0122102521433006400206224202 1202403155.232206
0122103521433006400206224202 1202403155.232223
0122104521433006400206224202 1202403155.232241
0122105521433006400206224202 1202403155.232259
0122106521433006400206224202 1202403155.232316
0122102521433016400206224202 1202403155.232334
0122104521433016400206224202 1202403155.232352
0122106521433016400206224202 1202403155.232410
0122102521433116400206224202 1202403155.232428
0122104521433116400206224202 1202403155.232446
0122100521433046400206224202 1202403155.232511
0122102521433046400206224202 1202403155.232529
0122103521433046400206224202 1202403155.232546
0122104521433046400206224202 1202403155.232604
0122105521433046400206224202 1202403155.232622
0122106521433046400206224202 1202403155.232640
0122100521433146400206224202 1202403155.232658
0122102521433146400206224202 1202403155.232716
0122103521433146400206224202 1202403155.232734
0122104521433146400206224202 1202403155.232753
0122105521433146400206224202 1202403155.232811
0122106521433146400206224202 1202403155.232829
0122100521433156400206224202 1202403155.232847
0122102521433156400206224202 1202403155.232904
0122103521433156400206224202 1202403155.232922
0122104521433156400206224202 1202403155.232940
0122105521433156400206224202 1202403155.232958
0122106521433156400206224202 1202403155.233015
0122100521433066400206224202 1202403155.233033
0122102521433066400206224202 1202403155.233051
0122103521433066400206224202 1202403155.233109
0122104521433066400206224202 1202403155.233127
0122105521433066400206224202 1202403155.233145
0122106521433066400206224202 1202403155.233203
