0122102625433510400105414201 1202403155.221016
0126102625433510400105414201 1202403155.221039
0126102625433515400105414201 1202403155.221206
0122102625433510400205414201 1202403155.222539
0126102625433510400205414201 1202403155.222602
0126102625433515400205414201 1202403155.222729
0122102625433510400105614201 1202403155.224656
0126102625433510400105614201 1202403155.224718
0126102625433515400105614201 1202403155.224904
0122102625433510400205614201 1202403155.230509
0126102625433510400205614201 1202403155.230531
0126102625433515400205614201 1202403155.230714
0122102521433062400106614201 1202403155.232327
0122102521433014400106614201 1202403155.232345
0122102521433064400106614201 1202403155.232403
0122102521433062400206614201 1202403155.232423
0122102521433014400206614201 1202403155.232440
0122102521433064400206614201 1202403155.232458
0122102521433010400106224201 1202403155.235401
0122106521433010400106224201 1202403155.235419
0122102521433110400106224201 1202403155.235437
0122106521433110400106224201 1202403155.235455
0122100521433060400106224201 1202403155.235513
0122102521433060400106224201 1202403155.235531
0122103521433060400106224201 1202403155.235549
0122104521433060400106224201 1202403155.235607
0122105521433060400106224201 1202403155.235625
0122106521433060400106224201 1202403155.235643
0122100521433160400106224201 1202403155.235700
0122102521433160400106224201 1202403155.235718
0122103521433160400106224201 1202403155.235736
0122104521433160400106224201 1202403155.235754
0122105521433160400106224201 1202403155.235812
0122106521433160400106224201 1202403155.235830
0122106521433001400106224201 1202403155.235848
0122106521433011400106224201 1202403155.235906
0122106521433041400106224201 1202403155.235930
0122106521433141400106224201 1202403155.235949
0122106521433151400106224201 1202403166.000006
0122100521433061400106224201 1202403166.000024
0122104521433061400106224201 1202403166.000042
0122105521433061400106224201 1202403166.000100
0122106521433061400106224201 1202403166.000118
0122105521433161400106224201 1202403166.000153
0122102521433014400106224201 1202403166.000221
0122106521433014400106224201 1202403166.000239
0122102521433114400106224201 1202403166.000257
0122100521433064400106224201 1202403166.000315
0122102521433064400106224201 1202403166.000333
0122103521433064400106224201 1202403166.000351
0122104521433064400106224201 1202403166.000409
0122105521433064400106224201 1202403166.000427
0122106521433064400106224201 1202403166.000445
0122100521433006400106224201 1202403166.000503
0122102521433006400106224201 1202403166.000521
0122103521433006400106224201 1202403166.000538
0122104521433006400106224201 1202403166.000556
0122105521433006400106224201 1202403166.000614
0122106521433006400106224201 1202403166.000632
0122102521433016400106224201 1202403166.000650
0122104521433016400106224201 1202403166.000708
0122106521433016400106224201 1202403166.000726
0122102521433116400106224201 1202403166.000744
0122104521433116400106224201 1202403166.000802
0122100521433046400106224201 1202403166.000826
0122102521433046400106224201 1202403166.000844
0122103521433046400106224201 1202403166.000902
0122104521433046400106224201 1202403166.000920
0122105521433046400106224201 1202403166.000938
0122106521433046400106224201 1202403166.000956
0122100521433146400106224201 1202403166.001014
0122102521433146400106224201 1202403166.001032
0122103521433146400106224201 1202403166.001050
0122104521433146400106224201 1202403166.001108
0122105521433146400106224201 1202403166.001126
0122106521433146400106224201 1202403166.001145
0122100521433156400106224201 1202403166.001203
0122102521433156400106224201 1202403166.001220
0122103521433156400106224201 1202403166.001238
0122104521433156400106224201 1202403166.001256
0122105521433156400106224201 1202403166.001314
0122106521433156400106224201 1202403166.001331
0122100521433066400106224201 1202403166.001349
0122102521433066400106224201 1202403166.001407
0122103521433066400106224201 1202403166.001425
0122104521433066400106224201 1202403166.001443
0122105521433066400106224201 1202403166.001501
0122106521433066400106224201 1202403166.001519
0122102521433010400206224201 1202403166.001616
0122106521433010400206224201 1202403166.001634
0122102521433110400206224201 1202403166.001652
0122106521433110400206224201 1202403166.001710
0122100521433060400206224201 1202403166.001728
0122102521433060400206224201 1202403166.001746
0122103521433060400206224201 1202403166.001804
0122104521433060400206224201 1202403166.001822
0122105521433060400206224201 1202403166.001840
0122106521433060400206224201 1202403166.001858
0122100521433160400206224201 1202403166.001916
0122102521433160400206224201 1202403166.001934
0122103521433160400206224201 1202403166.001952
0122104521433160400206224201 1202403166.002010
0122105521433160400206224201 1202403166.002028
0122106521433160400206224201 1202403166.002045
0122106521433001400206224201 1202403166.002103
0122106521433011400206224201 1202403166.002121
0122106521433041400206224201 1202403166.002146
0122106521433141400206224201 1202403166.002204
0122106521433151400206224201 1202403166.002222
0122100521433061400206224201 1202403166.002240
0122104521433061400206224201 1202403166.002258
0122105521433061400206224201 1202403166.002316
0122106521433061400206224201 1202403166.002333
0122105521433161400206224201 1202403166.002408
0122102521433014400206224201 1202403166.002436
0122106521433014400206224201 1202403166.002454
0122102521433114400206224201 1202403166.002512
0122100521433064400206224201 1202403166.002530
0122102521433064400206224201 1202403166.002548
0122103521433064400206224201 1202403166.002606
0122104521433064400206224201 1202403166.002624
0122105521433064400206224201 1202403166.002642
0122106521433064400206224201 1202403166.002700
0122100521433006400206224201 1202403166.002718
0122102521433006400206224201 1202403166.002736
0122103521433006400206224201 1202403166.002753
0122104521433006400206224201 1202403166.002811
0122105521433006400206224201 1202403166.002829
0122106521433006400206224201 1202403166.002847
0122102521433016400206224201 1202403166.002905
0122104521433016400206224201 1202403166.002922
0122106521433016400206224201 1202403166.002940
0122102521433116400206224201 1202403166.002959
0122104521433116400206224201 1202403166.003017
0122100521433046400206224201 1202403166.003041
0122102521433046400206224201 1202403166.003059
0122103521433046400206224201 1202403166.003117
0122104521433046400206224201 1202403166.003135
0122105521433046400206224201 1202403166.003153
0122106521433046400206224201 1202403166.003210
0122100521433146400206224201 1202403166.003229
0122102521433146400206224201 1202403166.003247
0122103521433146400206224201 1202403166.003305
0122104521433146400206224201 1202403166.003323
0122105521433146400206224201 1202403166.003341
0122106521433146400206224201 1202403166.003400
0122100521433156400206224201 1202403166.003418
0122102521433156400206224201 1202403166.003435
0122103521433156400206224201 1202403166.003453
0122104521433156400206224201 1202403166.003511
0122105521433156400206224201 1202403166.003529
0122106521433156400206224201 1202403166.003546
0122100521433066400206224201 1202403166.003604
0122102521433066400206224201 1202403166.003622
0122103521433066400206224201 1202403166.003640
0122104521433066400206224201 1202403166.003658
0122105521433066400206224201 1202403166.003716
0122106521433066400206224201 1202403166.003734
