0141102620033504420105124502 1202403166.035605
0141102620133504420105124502 1202403166.035627
0141102620333504420105124502 1202403166.035648
0141102620433504420105124502 1202403166.035710
0141102620533504420105124502 1202403166.035732
0141102620633504420105124502 1202403166.035754
0141102620033514420105124502 1202403166.035816
0141102620133514420105124502 1202403166.035838
0141102620333514420105124502 1202403166.035859
0141102620433514420105124502 1202403166.035921
0141102620533514420105124502 1202403166.035943
0141102620633514420105124502 1202403166.040005
0141102620033524420105124502 1202403166.040027
0141102620133524420105124502 1202403166.040049
0141102620333524420105124502 1202403166.040111
0141102620433524420105124502 1202403166.040132
0141102620533524420105124502 1202403166.040154
0141102620633524420105124502 1202403166.040216
0141102620033544420105124502 1202403166.040238
0141102620133544420105124502 1202403166.040300
0141102620333544420105124502 1202403166.040322
0141102620433544420105124502 1202403166.040344
0141102620533544420105124502 1202403166.040405
0141102620633544420105124502 1202403166.040427
0141102620033554420105124502 1202403166.040449
0141102620133554420105124502 1202403166.040511
0141102620333554420105124502 1202403166.040533
0141102620433554420105124502 1202403166.040555
0141102620533554420105124502 1202403166.040617
0141102620633554420105124502 1202403166.040639
0141102620033564420105124502 1202403166.040701
0141102620133564420105124502 1202403166.040723
0141102620333564420105124502 1202403166.040745
0141102620433564420105124502 1202403166.040807
0141102620533564420105124502 1202403166.040828
0141102620633564420105124502 1202403166.040850
0141102620033540420205124502 1202403166.040947
0141102620133540420205124502 1202403166.041009
0141102620333540420205124502 1202403166.041031
0141102620433540420205124502 1202403166.041052
0141102620533540420205124502 1202403166.041114
0141102620633540420205124502 1202403166.041139
0141102620033504420205124502 1202403166.041202
0141102620133504420205124502 1202403166.041224
0141102620333504420205124502 1202403166.041245
0141102620433504420205124502 1202403166.041308
0141102620533504420205124502 1202403166.041329
0141102620633504420205124502 1202403166.041402
0141102620033514420205124502 1202403166.041424
0141102620133514420205124502 1202403166.041445
0141102620333514420205124502 1202403166.041508
0141102620433514420205124502 1202403166.041530
0141102620533514420205124502 1202403166.041552
0141102620633514420205124502 1202403166.041624
0141102620033524420205124502 1202403166.041646
0141102620133524420205124502 1202403166.041708
0141102620333524420205124502 1202403166.041730
0141102620433524420205124502 1202403166.041752
0141102620533524420205124502 1202403166.041814
0141102620633524420205124502 1202403166.041846
0141102620033544420205124502 1202403166.041908
0141102620133544420205124502 1202403166.041930
0141102620333544420205124502 1202403166.041951
0141102620433544420205124502 1202403166.042013
0141102620533544420205124502 1202403166.042035
0141102620633544420205124502 1202403166.042107
0141102620033554420205124502 1202403166.042129
0141102620133554420205124502 1202403166.042151
0141102620333554420205124502 1202403166.042213
0141102620433554420205124502 1202403166.042235
0141102620533554420205124502 1202403166.042256
0141102620633554420205124502 1202403166.042329
0141102620033564420205124502 1202403166.042351
0141102620133564420205124502 1202403166.042413
0141102620333564420205124502 1202403166.042435
0141102620433564420205124502 1202403166.042457
0141102620533564420205124502 1202403166.042519
0141102620633564420205124502 1202403166.042552
0141102620033515420205124502 1202403166.042613
0141102620033545420205124502 1202403166.042709
0141102620133545420205124502 1202403166.042731
0141102620333545420205124502 1202403166.042752
0141102620433545420205124502 1202403166.042814
0141102620533545420205124502 1202403166.042836
0141102620633545420205124502 1202403166.042909
0141102520633016420102224502 1202403166.053853
0141102520633116420102224502 1202403166.053911
0141102520033046420102224502 1202403166.053930
0141102520633046420102224502 1202403166.053948
0141102520033146420102224502 1202403166.054006
0141102520633146420102224502 1202403166.054025
0141102620033504420105224502 1202403166.055144
0141102620133504420105224502 1202403166.055206
0141102620333504420105224502 1202403166.055228
0141102620433504420105224502 1202403166.055249
0141102620533504420105224502 1202403166.055311
0141102620633504420105224502 1202403166.055333
0141102620033514420105224502 1202403166.055355
0141102620133514420105224502 1202403166.055417
0141102620333514420105224502 1202403166.055439
0141102620433514420105224502 1202403166.055501
0141102620533514420105224502 1202403166.055523
0141102620633514420105224502 1202403166.055544
0141102620033524420105224502 1202403166.055606
0141102620133524420105224502 1202403166.055628
0141102620333524420105224502 1202403166.055650
0141102620433524420105224502 1202403166.055712
0141102620533524420105224502 1202403166.055733
0141102620633524420105224502 1202403166.055755
0141102620033544420105224502 1202403166.055817
0141102620133544420105224502 1202403166.055839
0141102620333544420105224502 1202403166.055901
0141102620433544420105224502 1202403166.055923
0141102620533544420105224502 1202403166.055944
0141102620633544420105224502 1202403166.060006
0141102620033554420105224502 1202403166.060028
0141102620133554420105224502 1202403166.060050
0141102620333554420105224502 1202403166.060112
0141102620433554420105224502 1202403166.060133
0141102620533554420105224502 1202403166.060155
0141102620633554420105224502 1202403166.060217
0141102620033564420105224502 1202403166.060239
0141102620133564420105224502 1202403166.060301
0141102620333564420105224502 1202403166.060323
0141102620433564420105224502 1202403166.060345
0141102620533564420105224502 1202403166.060406
0141102620633564420105224502 1202403166.060428
0141102620033540420205224502 1202403166.060525
0141102620133540420205224502 1202403166.060547
0141102620333540420205224502 1202403166.060609
0141102620433540420205224502 1202403166.060630
0141102620533540420205224502 1202403166.060652
0141102620633540420205224502 1202403166.060717
0141102620033504420205224502 1202403166.060740
0141102620133504420205224502 1202403166.060801
0141102620333504420205224502 1202403166.060823
0141102620433504420205224502 1202403166.060845
0141102620533504420205224502 1202403166.060910
0141102620633504420205224502 1202403166.060934
0141102620033514420205224502 1202403166.060957
0141102620133514420205224502 1202403166.061020
0141102620333514420205224502 1202403166.061044
0141102620433514420205224502 1202403166.061109
0141102620533514420205224502 1202403166.061132
0141102620633514420205224502 1202403166.061156
0141102620033524420205224502 1202403166.061219
0141102620133524420205224502 1202403166.061241
0141102620333524420205224502 1202403166.061303
0141102620433524420205224502 1202403166.061327
0141102620533524420205224502 1202403166.061352
0141102620633524420205224502 1202403166.061418
0141102620033544420205224502 1202403166.061443
0141102620133544420205224502 1202403166.061509
0141102620333544420205224502 1202403166.061533
0141102620433544420205224502 1202403166.061556
0141102620533544420205224502 1202403166.061618
0141102620633544420205224502 1202403166.061640
0141102620033554420205224502 1202403166.061702
0141102620133554420205224502 1202403166.061724
0141102620333554420205224502 1202403166.061745
0141102620433554420205224502 1202403166.061808
0141102620533554420205224502 1202403166.061833
0141102620633554420205224502 1202403166.061856
0141102620033564420205224502 1202403166.061918
0141102620133564420205224502 1202403166.061940
0141102620333564420205224502 1202403166.062002
0141102620433564420205224502 1202403166.062024
0141102620533564420205224502 1202403166.062045
0141102620633564420205224502 1202403166.062107
0141102620033515420205224502 1202403166.062129
0141102620033545420205224502 1202403166.062225
0141102620133545420205224502 1202403166.062246
0141102620333545420205224502 1202403166.062308
0141102620433545420205224502 1202403166.062330
0141102620533545420205224502 1202403166.062352
0141102620633545420205224502 1202403166.062413
0141102620033504420105424502 1202403166.073829
0141102620133504420105424502 1202403166.073851
0141102620333504420105424502 1202403166.073912
0141102620433504420105424502 1202403166.073934
0141102620533504420105424502 1202403166.073956
0141102620633504420105424502 1202403166.074018
0141102620033514420105424502 1202403166.074040
0141102620133514420105424502 1202403166.074101
0141102620333514420105424502 1202403166.074123
0141102620433514420105424502 1202403166.074145
0141102620533514420105424502 1202403166.074207
0141102620633514420105424502 1202403166.074228
0141102620033524420105424502 1202403166.074250
0141102620133524420105424502 1202403166.074312
0141102620333524420105424502 1202403166.074334
0141102620433524420105424502 1202403166.074356
0141102620533524420105424502 1202403166.074417
0141102620633524420105424502 1202403166.074439
0141102620033544420105424502 1202403166.074501
0141102620133544420105424502 1202403166.074523
0141102620333544420105424502 1202403166.074545
0141102620433544420105424502 1202403166.074606
0141102620533544420105424502 1202403166.074628
0141102620633544420105424502 1202403166.074650
0141102620033554420105424502 1202403166.074712
0141102620133554420105424502 1202403166.074734
0141102620333554420105424502 1202403166.074755
0141102620433554420105424502 1202403166.074817
0141102620533554420105424502 1202403166.074839
0141102620633554420105424502 1202403166.074901
0141102620033564420105424502 1202403166.074923
0141102620133564420105424502 1202403166.074945
0141102620333564420105424502 1202403166.075006
0141102620433564420105424502 1202403166.075028
0141102620533564420105424502 1202403166.075050
0141102620633564420105424502 1202403166.075112
0141102620033540420205424502 1202403166.075208
0141102620133540420205424502 1202403166.075230
0141102620333540420205424502 1202403166.075252
0141102620433540420205424502 1202403166.075314
0141102620533540420205424502 1202403166.075336
0141102620633540420205424502 1202403166.075402
0141102620033504420205424502 1202403166.075425
0141102620133504420205424502 1202403166.075447
0141102620333504420205424502 1202403166.075509
0141102620433504420205424502 1202403166.075530
0141102620533504420205424502 1202403166.075552
0141102620633504420205424502 1202403166.075616
0141102620033514420205424502 1202403166.075638
0141102620133514420205424502 1202403166.075700
0141102620333514420205424502 1202403166.075722
0141102620433514420205424502 1202403166.075743
0141102620533514420205424502 1202403166.075805
0141102620633514420205424502 1202403166.075829
0141102620033524420205424502 1202403166.075851
0141102620133524420205424502 1202403166.075913
0141102620333524420205424502 1202403166.075935
0141102620433524420205424502 1202403166.075957
0141102620533524420205424502 1202403166.080018
0141102620633524420205424502 1202403166.080043
0141102620033544420205424502 1202403166.080104
0141102620133544420205424502 1202403166.080126
0141102620333544420205424502 1202403166.080148
0141102620433544420205424502 1202403166.080210
0141102620533544420205424502 1202403166.080231
0141102620633544420205424502 1202403166.080256
0141102620033554420205424502 1202403166.080317
0141102620133554420205424502 1202403166.080339
0141102620333554420205424502 1202403166.080401
0141102620433554420205424502 1202403166.080423
0141102620533554420205424502 1202403166.080445
0141102620633554420205424502 1202403166.080509
0141102620033564420205424502 1202403166.080533
0141102620133564420205424502 1202403166.080557
0141102620333564420205424502 1202403166.080621
0141102620433564420205424502 1202403166.080645
0141102620533564420205424502 1202403166.080710
0141102620633564420205424502 1202403166.080734
0141102620033515420205424502 1202403166.080755
0141102620533515420205424502 1202403166.080817
0141102620033545420205424502 1202403166.080912
0141102620133545420205424502 1202403166.080934
0141102620333545420205424502 1202403166.080956
0141102620433545420205424502 1202403166.081018
0141102620533545420205424502 1202403166.081039
0141102620633545420205424502 1202403166.081104
0141102520633116420102624502 1202403166.083511
0141102520633116420202624502 1202403166.083639
0141102620033504420105624502 1202403166.084118
0141102620133504420105624502 1202403166.084140
0141102620333504420105624502 1202403166.084202
0141102620433504420105624502 1202403166.084224
0141102620533504420105624502 1202403166.084245
0141102620633504420105624502 1202403166.084307
0141102620033514420105624502 1202403166.084329
0141102620133514420105624502 1202403166.084351
0141102620333514420105624502 1202403166.084413
0141102620433514420105624502 1202403166.084434
0141102620533514420105624502 1202403166.084456
0141102620633514420105624502 1202403166.084518
0141102620033524420105624502 1202403166.084540
0141102620133524420105624502 1202403166.084602
0141102620333524420105624502 1202403166.084624
0141102620433524420105624502 1202403166.084646
0141102620533524420105624502 1202403166.084707
0141102620633524420105624502 1202403166.084729
0141102620033544420105624502 1202403166.084752
0141102620133544420105624502 1202403166.084814
0141102620333544420105624502 1202403166.084835
0141102620433544420105624502 1202403166.084857
0141102620533544420105624502 1202403166.084919
0141102620633544420105624502 1202403166.084941
0141102620033554420105624502 1202403166.085003
0141102620133554420105624502 1202403166.085025
0141102620333554420105624502 1202403166.085046
0141102620433554420105624502 1202403166.085108
0141102620533554420105624502 1202403166.085130
0141102620633554420105624502 1202403166.085152
0141102620033564420105624502 1202403166.085214
0141102620133564420105624502 1202403166.085236
0141102620333564420105624502 1202403166.085257
0141102620433564420105624502 1202403166.085319
0141102620533564420105624502 1202403166.085341
0141102620633564420105624502 1202403166.085403
0141102620033540420205624502 1202403166.085542
0141102620133540420205624502 1202403166.085609
0141102620333540420205624502 1202403166.085635
0141102620433540420205624502 1202403166.085702
0141102620533540420205624502 1202403166.085728
0141102620633540420205624502 1202403166.085755
0141102620033504420205624502 1202403166.085823
0141102620133504420205624502 1202403166.085850
0141102620333504420205624502 1202403166.085916
0141102620433504420205624502 1202403166.085943
0141102620533504420205624502 1202403166.090010
0141102620633504420205624502 1202403166.090037
0141102620033514420205624502 1202403166.090104
0141102620133514420205624502 1202403166.090131
0141102620333514420205624502 1202403166.090158
0141102620433514420205624502 1202403166.090225
0141102620533514420205624502 1202403166.090252
0141102620633514420205624502 1202403166.090319
0141102620033524420205624502 1202403166.090346
0141102620133524420205624502 1202403166.090413
0141102620333524420205624502 1202403166.090440
0141102620433524420205624502 1202403166.090507
0141102620533524420205624502 1202403166.090534
0141102620633524420205624502 1202403166.090600
0141102620033544420205624502 1202403166.090628
0141102620133544420205624502 1202403166.090654
0141102620333544420205624502 1202403166.090721
0141102620433544420205624502 1202403166.090748
0141102620533544420205624502 1202403166.090815
0141102620633544420205624502 1202403166.090842
0141102620033554420205624502 1202403166.090909
0141102620133554420205624502 1202403166.090935
0141102620333554420205624502 1202403166.091002
0141102620433554420205624502 1202403166.091029
0141102620533554420205624502 1202403166.091056
0141102620633554420205624502 1202403166.091123
0141102620033564420205624502 1202403166.091150
0141102620133564420205624502 1202403166.091217
0141102620333564420205624502 1202403166.091243
0141102620433564420205624502 1202403166.091310
0141102620533564420205624502 1202403166.091337
0141102620633564420205624502 1202403166.091404
0141102620033515420205624502 1202403166.091427
0141102620033545420205624502 1202403166.091601
0141102620133545420205624502 1202403166.091628
0141102620333545420205624502 1202403166.091655
0141102620433545420205624502 1202403166.091722
0141102620533545420205624502 1202403166.091749
0141102620633545420205624502 1202403166.091815
