0644153521313540424200200442 2 1202412146.210502
0144163521313144424200200040 2 1202412146.210623
0144153521313540424206200445 2 1202412146.211214
0644153521313540424200200442 2 1202412146.211454
0644153521313545424200260442 2 1202412146.211512
0145153521313545424200260442 2 1202412146.211629
0144153521613545424200260442 2 1202412146.211931
0144153521313540424206200445 2 1202412146.212243
0161152520333004424200400441 2 1202412146.213203
0161152520333004424200400442 2 1202412146.213206
0161152520333004424200400444 2 1202412146.213211
0121152520333004424206400441 2 1202412146.213339
0161152520333004424200400441 2 1202412146.213346
0161152520333004424200400442 2 1202412146.213350
0161152520333004424200400444 2 1202412146.213354
0161152520333004424200400441 2 1202412146.213358
0161152520333004424200400442 2 1202412146.213402
0161152520333004424200400444 2 1202412146.213406
0161152520333004424200400441 2 1202412146.213410
0161152520333004424200400442 2 1202412146.213413
0161152520333004424200400444 2 1202412146.213422
0161152520333004424200400441 2 1202412146.213427
0161152520333004424200400442 2 1202412146.213430
0161152520333004424200400444 2 1202412146.213437
0161152520333004424200400441 2 1202412146.213441
0161152520333004424200400442 2 1202412146.213444
0161152520333004424200400444 2 1202412146.213448
0161152520033004424200400441 2 1202412146.213456
0161152520133004424200400441 2 1202412146.213459
0161152520333004424200400441 2 1202412146.213503
0161152520433004424200400441 2 1202412146.213506
0161152520533004424200400441 2 1202412146.213509
0161152520633004424200400441 2 1202412146.213513
0161152520033004424200400442 2 1202412146.213518
0161152520133004424200400442 2 1202412146.213522
0161152520333004424200400442 2 1202412146.213525
0161152520433004424200400442 2 1202412146.213529
0161152520533004424200400442 2 1202412146.213532
0161152520633004424200400442 2 1202412146.213536
0161152520033004424200400444 2 1202412146.213545
0161152520133004424200400444 2 1202412146.213549
0161152520333004424200400444 2 1202412146.213552
0161152520433004424200400444 2 1202412146.213556
0161152520533004424200400444 2 1202412146.213559
0161152520633004424200400444 2 1202412146.213603
0161152520333004424200400441 2 1202412146.213610
0161152520333004424200400442 2 1202412146.213613
0161152520333004424200400444 2 1202412146.213618
0161152520333004424200400441 2 1202412146.213623
0161152520333004424200400442 2 1202412146.213627
0161152520333004424200400444 2 1202412146.213632
0161152520333004424200400441 2 1202412146.213648
0161152520333014424200400441 2 1202412146.213651
0161152520333024424200400441 2 1202412146.213655
0161152520333044424200400441 2 1202412146.213658
0161152520333054424200400441 2 1202412146.213702
0161152520333064424200400441 2 1202412146.213705
0161152520333004424200400442 2 1202412146.213713
0161152520333014424200400442 2 1202412146.213717
0161152520333024424200400442 2 1202412146.213720
0161152520333044424200400442 2 1202412146.213724
0161152520333054424200400442 2 1202412146.213727
0161152520333064424200400442 2 1202412146.213731
0161152520333004424200400444 2 1202412146.213748
0161152520333014424200400444 2 1202412146.213752
0161152520333024424200400444 2 1202412146.213755
0161152520333044424200400444 2 1202412146.213759
0161152520333054424200400444 2 1202412146.213802
0161152520333064424200400444 2 1202412146.213806
0161152520333004424200400441 2 1202412146.213822
0161152520333004424200400442 2 1202412146.213825
0161152520333004424200400444 2 1202412146.213830
0161152520333004424200400441 2 1202412146.213838
0161152520333004424200400442 2 1202412146.213842
0161152520333004424200400444 2 1202412146.213851
0161152520333004424200400441 2 1202412146.213902
0161152520333004424200400442 2 1202412146.213906
0161152520333004424200400444 2 1202412146.213915
0161152520333004424200400441 2 1202412146.213922
0161152520333004424200400442 2 1202412146.213925
0161152520333004424200400444 2 1202412146.213929
0161152520333004424200400441 2 1202412146.213934
0111152520333004424206400441 2 1202412146.213937
0121152520333004424206400441 2 1202412146.213941
0161152520333004424200400442 2 1202412146.213944
0111152520333004424206400442 2 1202412146.213948
0161152520333004424200400444 2 1202412146.213954
0141152520333004424206400444 2 1202412146.213958
0161152520333004424200400441 2 1202412146.214004
0161152520333004424200400442 2 1202412146.214007
0161152520333004424200400444 2 1202412146.214011
0161152520333004424200400441 2 1202412146.214015
0161152520333004424200400442 2 1202412146.214018
0161152520333004424200440442 2 1202412146.214022
0161152520333004424200400444 2 1202412146.214027
0161152520333004424200440444 2 1202412146.214030
0121152520333004424206400441 2 1202412146.214217
0121152520333004424206400441 2 1202412146.214403
0121162520333004424204400544 2 1202412146.214406
0121152520333004424206400441 2 1202412146.214636
0121152620633004424200400442 2 1202412146.214714
0121152620333104424200400144 2 1202412146.214739
0121152220333004424206400441 2 1202412146.214919
0121152520333004424206400441 2 1202412146.214922
0121152220333004424206400442 2 1202412146.214926
0121152220333004424206400444 2 1202412146.214931
0121152520333004424206400441 2 1202412146.215113
0121152520033004424206400441 2 1202412146.215502
0121152520333004424206400441 2 1202412146.215505
0121152520533004424206400145 2 1202412146.215537
0121152520633004424206400145 2 1202412146.215541
0121152520533004424206400146 2 1202412146.215555
0121152520633004424206400146 2 1202412146.215600
0121152520333004424206400441 2 1202412146.215800
0121152520333004424206400441 2 1202412146.220006
0121152520333104424206400441 2 1202412146.220009
0121152520333504424206400441 2 1202412146.220013
0121152520333104424206400442 2 1202412146.220019
0121152520333104424206400444 2 1202412146.220024
0121152520333004424206400441 2 1202412146.220559
0121152520333014424206400441 2 1202412146.220602
0121152520333024424206400441 2 1202412146.220606
0121152520333044424206400441 2 1202412146.220610
0121152520333054424206400441 2 1202412146.220613
0121152520333064424206400441 2 1202412146.220617
0121152520333004424206400441 2 1202412146.220956
0121152520333004424206400441 2 1202412146.221058
0121152520333004424206400441 2 1202412146.221216
0121152520333004424206400441 2 1202412146.221316
0121152520333004424206400441 2 1202412146.221324
0444162521333104424200210145 2 1202412146.221907
0644156521333104424200210240 2 1202412146.221913
0644150521333104424200210441 2 1202412146.221917
0544156521333104424200210442 2 1202412146.221923
0644156521333104424200210442 2 1202412146.221926
0644150521333104424200210445 2 1202412146.221934
0146102521333104424200210441 2 1202412146.222141
0146102521333104424200210442 2 1202412146.222147
0144160521333104424200210045 2 1202412146.222410
0144162521033104424200210040 2 1202412146.222424
0144162521633104424200210040 2 1202412146.222430
0144156521133104424200210442 2 1202412146.222650
0144156521633104424200210442 2 1202412146.222657
0144152521033104424206210640 2 1202412146.223133
0144152521633104424206210640 2 1202412146.223138
0144152521633104424200260442 2 1202412146.223159
0144152521363104424200200016 2 1202412146.223248
0144152521333004424200260442 2 1202412146.223440
0144152521333104424206220000 2 1202412146.223857
