1261669114
1261673210
1261677306
1261681402
1261685498
1261689594
1261693690
1261697786
1261931258
1261935354
1261939450
1261943546
1261947642
1261951738
1261955834
1261959930
1262193402
1262197498
1262201594
1262205690
1262209786
1262213882
1262217978
1262222074
1262455546
1262459642
1262463738
1262467834
1262471930
1262476026
1262480122
1262484218
1265863418
1265867514
1265871610
1265875706
1265879802
1265883898
1265887994
1265892090
1266125562
1266129658
1266133754
1266137850
1266141946
1266146042
1266150138
1266154234
1266387706
1266391802
1266395898
1266399994
1266404090
1266408186
1266412282
1266416378
1266649850
1266653946
1266658042
1266662138
1266666234
1266670330
1266674426
1266678522
1270057722
1270061818
1270065914
1270070010
1270074106
1270078202
1270082298
1270086394
1270319866
1270323962
1270328058
1270332154
1270336250
1270340346
1270344442
1270348538
1270582010
1270586106
1270590202
1270594298
1270598394
1270602490
1270606586
1270610682
1270844154
1270848250
1270852346
1270856442
1270860538
1270864634
1270868730
1270872826
1274252026
1274256122
1274260218
1274264314
1274268410
1274272506
1274276602
1274280698
1274514170
1274518266
1274522362
1274526458
1274530554
1274534650
1274538746
1274542842
1274776314
1274780410
1274784506
1274788602
1274792698
1274796794
1274800890
1274804986
1275038458
1275042554
1275046650
1275050746
1275054842
1275058938
1275063034
1275067130
1328777978
1328782074
1328786170
1328790266
1328794362
1328798458
1328802554
1328806650
1329040122
1329044218
1329048314
1329052410
1329056506
1329060602
1329064698
1329068794
1329302266
1329306362
1329310458
1329314554
1329318650
1329322746
1329326842
1329330938
1329564410
1329568506
1329572602
1329576698
1329580794
1329584890
1329588986
1329593082
1332972282
1332976378
1332980474
1332984570
1332988666
1332992762
1332996858
1333000954
1333234426
1333238522
1333242618
1333246714
1333250810
1333254906
1333259002
1333263098
1333496570
1333500666
1333504762
1333508858
1333512954
1333517050
1333521146
1333525242
1333758714
1333762810
1333766906
1333771002
1333775098
1333779194
1333783290
1333787386
1337166586
1337170682
1337174778
1337178874
1337182970
1337187066
1337191162
1337195258
1337428730
1337432826
1337436922
1337441018
1337445114
1337449210
1337453306
1337457402
1337690874
1337694970
1337699066
1337703162
1337707258
1337711354
1337715450
1337719546
1337953018
1337957114
1337961210
1337965306
1337969402
1337973498
1337977594
1337981690
1341360890
1341364986
1341369082
1341373178
1341377274
1341381370
1341385466
1341389562
1341623034
1341627130
1341631226
1341635322
1341639418
1341643514
1341647610
1341651706
1341885178
1341889274
1341893370
1341897466
1341901562
1341905658
1341909754
1341913850
1342147322
1342151418
1342155514
1342159610
1342163706
1342167802
1342171898
1342175994
1530104570
1530108666
1530112762
1530116858
1530120954
1530125050
1530129146
1530133242
1530366714
1530370810
1530374906
1530379002
1530383098
1530387194
1530391290
1530395386
1530628858
1530632954
1530637050
1530641146
1530645242
1530649338
1530653434
1530657530
1530891002
1530895098
1530899194
1530903290
1530907386
1530911482
1530915578
1530919674
1534298874
1534302970
1534307066
1534311162
1534315258
1534319354
1534323450
1534327546
1534561018
1534565114
1534569210
1534573306
1534577402
1534581498
1534585594
1534589690
1534823162
1534827258
1534831354
1534835450
1534839546
1534843642
1534847738
1534851834
1535085306
1535089402
1535093498
1535097594
1535101690
1535105786
1535109882
1535113978
1538493178
1538497274
1538501370
1538505466
1538509562
1538513658
1538517754
1538521850
1538755322
1538759418
1538763514
1538767610
1538771706
1538775802
1538779898
1538783994
1539017466
1539021562
1539025658
1539029754
1539033850
1539037946
1539042042
1539046138
1539279610
1539283706
1539287802
1539291898
1539295994
1539300090
1539304186
1539308282
1542687482
1542691578
1542695674
1542699770
1542703866
1542707962
1542712058
1542716154
1542949626
1542953722
1542957818
1542961914
1542966010
1542970106
1542974202
1542978298
1543211770
1543215866
1543219962
1543224058
1543228154
1543232250
1543236346
1543240442
1543473914
1543478010
1543482106
1543486202
1543490298
1543494394
1543498490
1543502586
1597213434
1597217530
1597221626
1597225722
1597229818
1597233914
1597238010
1597242106
1597475578
1597479674
1597483770
1597487866
1597491962
1597496058
1597500154
1597504250
1597737722
1597741818
1597745914
1597750010
1597754106
1597758202
1597762298
1597766394
1597999866
1598003962
1598008058
1598012154
1598016250
1598020346
1598024442
1598028538
1601407738
1601411834
1601415930
1601420026
1601424122
1601428218
1601432314
1601436410
1601669882
1601673978
1601678074
1601682170
1601686266
1601690362
1601694458
1601698554
1601932026
1601936122
1601940218
1601944314
1601948410
1601952506
1601956602
1601960698
1602194170
1602198266
1602202362
1602206458
1602210554
1602214650
1602218746
1602222842
1605602042
1605606138
1605610234
1605614330
1605618426
1605622522
1605626618
1605630714
1605864186
1605868282
1605872378
1605876474
1605880570
1605884666
1605888762
1605892858
1606126330
1606130426
1606134522
1606138618
1606142714
1606146810
1606150906
1606155002
1606388474
1606392570
1606396666
1606400762
1606404858
1606408954
1606413050
1606417146
1609796346
1609800442
1609804538
1609808634
1609812730
1609816826
1609820922
1609825018
1610058490
1610062586
1610066682
1610070778
1610074874
1610078970
1610083066
1610087162
1610320634
1610324730
1610328826
1610332922
1610337018
1610341114
1610345210
1610349306
1610582778
1610586874
1610590970
1610595066
1610599162
1610603258
1610607354
1610611450
1798540026
1798544122
1798548218
1798552314
1798556410
1798560506
1798564602
1798568698
1798802170
1798806266
1798810362
1798814458
1798818554
1798822650
1798826746
1798830842
1799064314
1799068410
1799072506
1799076602
1799080698
1799084794
1799088890
1799092986
1799326458
1799330554
1799334650
1799338746
1799342842
1799346938
1799351034
1799355130
1802734330
1802738426
1802742522
1802746618
1802750714
1802754810
1802758906
1802763002
1802996474
1803000570
1803004666
1803008762
1803012858
1803016954
1803021050
1803025146
1803258618
1803262714
1803266810
1803270906
1803275002
1803279098
1803283194
1803287290
1803520762
1803524858
1803528954
1803533050
1803537146
1803541242
1803545338
1803549434
1806928634
1806932730
1806936826
1806940922
1806945018
1806949114
1806953210
1806957306
1807190778
1807194874
1807198970
1807203066
1807207162
1807211258
1807215354
1807219450
1807452922
1807457018
1807461114
1807465210
1807469306
1807473402
1807477498
1807481594
1807715066
1807719162
1807723258
1807727354
1807731450
1807735546
1807739642
1807743738
1811122938
1811127034
1811131130
1811135226
1811139322
1811143418
1811147514
1811151610
1811385082
1811389178
1811393274
1811397370
1811401466
1811405562
1811409658
1811413754
1811647226
1811651322
1811655418
1811659514
1811663610
1811667706
1811671802
1811675898
1811909370
1811913466
1811917562
1811921658
1811925754
1811929850
1811933946
1811938042
1865648890
1865652986
1865657082
1865661178
1865665274
1865669370
1865673466
1865677562
1865911034
1865915130
1865919226
1865923322
1865927418
1865931514
1865935610
1865939706
1866173178
1866177274
1866181370
1866185466
1866189562
1866193658
1866197754
1866201850
1866435322
1866439418
1866443514
1866447610
1866451706
1866455802
1866459898
1866463994
1869843194
1869847290
1869851386
1869855482
1869859578
1869863674
1869867770
1869871866
1870105338
1870109434
1870113530
1870117626
1870121722
1870125818
1870129914
1870134010
1870367482
1870371578
1870375674
1870379770
1870383866
1870387962
1870392058
1870396154
1870629626
1870633722
1870637818
1870641914
1870646010
1870650106
1870654202
1870658298
1874037498
1874041594
1874045690
1874049786
1874053882
1874057978
1874062074
1874066170
1874299642
1874303738
1874307834
1874311930
1874316026
1874320122
1874324218
1874328314
1874561786
1874565882
1874569978
1874574074
1874578170
1874582266
1874586362
1874590458
1874823930
1874828026
1874832122
1874836218
1874840314
1874844410
1874848506
1874852602
1878231802
1878235898
1878239994
1878244090
1878248186
1878252282
1878256378
1878260474
1878493946
1878498042
1878502138
1878506234
1878510330
1878514426
1878518522
1878522618
1878756090
1878760186
1878764282
1878768378
1878772474
1878776570
1878780666
1878784762
1879018234
1879022330
1879026426
1879030522
1879034618
1879038714
1879042810
1879046906
2066975482
2066979578
2066983674
2066987770
2066991866
2066995962
2067000058
2067004154
2067237626
2067241722
2067245818
2067249914
2067254010
2067258106
2067262202
2067266298
2067499770
2067503866
2067507962
2067512058
2067516154
2067520250
2067524346
2067528442
2067761914
2067766010
2067770106
2067774202
2067778298
2067782394
2067786490
2067790586
2071169786
2071173882
2071177978
2071182074
2071186170
2071190266
2071194362
2071198458
2071431930
2071436026
2071440122
2071444218
2071448314
2071452410
2071456506
2071460602
2071694074
2071698170
2071702266
2071706362
2071710458
2071714554
2071718650
2071722746
2071956218
2071960314
2071964410
2071968506
2071972602
2071976698
2071980794
2071984890
2075364090
2075368186
2075372282
2075376378
2075380474
2075384570
2075388666
2075392762
2075626234
2075630330
2075634426
2075638522
2075642618
2075646714
2075650810
2075654906
2075888378
2075892474
2075896570
2075900666
2075904762
2075908858
2075912954
2075917050
2076150522
2076154618
2076158714
2076162810
2076166906
2076171002
2076175098
2076179194
2079558394
2079562490
2079566586
2079570682
2079574778
2079578874
2079582970
2079587066
2079820538
2079824634
2079828730
2079832826
2079836922
2079841018
2079845114
2079849210
2080082682
2080086778
2080090874
2080094970
2080099066
2080103162
2080107258
2080111354
2080344826
2080348922
2080353018
2080357114
2080361210
2080365306
2080369402
2080373498
2134084346
2134088442
2134092538
2134096634
2134100730
2134104826
2134108922
2134113018
2134346490
2134350586
2134354682
2134358778
2134362874
2134366970
2134371066
2134375162
2134608634
2134612730
2134616826
2134620922
2134625018
2134629114
2134633210
2134637306
2134870778
2134874874
2134878970
2134883066
2134887162
2134891258
2134895354
2134899450
2138278650
2138282746
2138286842
2138290938
2138295034
2138299130
2138303226
2138307322
2138540794
2138544890
2138548986
2138553082
2138557178
2138561274
2138565370
2138569466
2138802938
2138807034
2138811130
2138815226
2138819322
2138823418
2138827514
2138831610
2139065082
2139069178
2139073274
2139077370
2139081466
2139085562
2139089658
2139093754
2142472954
2142477050
2142481146
2142485242
2142489338
2142493434
2142497530
2142501626
2142735098
2142739194
2142743290
2142747386
2142751482
2142755578
2142759674
2142763770
2142997242
2143001338
2143005434
2143009530
2143013626
2143017722
2143021818
2143025914
2143259386
2143263482
2143267578
2143271674
2143275770
2143279866
2143283962
2143288058
2146667258
2146671354
2146675450
2146679546
2146683642
2146687738
2146691834
2146695930
2146929402
2146933498
2146937594
2146941690
2146945786
2146949882
2146953978
2146958074
2147191546
2147195642
2147199738
2147203834
2147207930
2147212026
2147216122
2147220218
2147453690
2147457786
2147461882
2147465978
2147470074
2147474170
2147478266
2147482362
