1568702462
1568735230
1568833534
1568866302
1568964606
1568997374
1569095678
1569128446
1569226750
1569259518
1569357822
1569390590
1569488894
1569521662
1569619966
1569652734
1569751038
1569783806
1569882110
1569914878
1570013182
1570045950
1570144254
1570177022
1570275326
1570308094
1570406398
1570439166
1570537470
1570570238
1570668542
1570701310
1570799614
1570832382
1570930686
1570963454
1571061758
1571094526
1571192830
1571225598
1571323902
1571356670
1571454974
1571487742
1571586046
1571618814
1571717118
1571749886
1571848190
1571880958
1571979262
1572012030
1572110334
1572143102
1572241406
1572274174
1572372478
1572405246
1572503550
1572536318
1572634622
1572667390
1572765694
1572798462
1572896766
1572929534
1573027838
1573060606
1573158910
1573191678
1573289982
1573322750
1573421054
1573453822
1573552126
1573584894
1573683198
1573715966
1573814270
1573847038
1573945342
1573978110
1574076414
1574109182
1574207486
1574240254
1574338558
1574371326
1574469630
1574502398
1574600702
1574633470
1574731774
1574764542
1574862846
1574895614
1574993918
1575026686
1575124990
1575157758
1575256062
1575288830
1575387134
1575419902
1575518206
1575550974
1575649278
1575682046
1575780350
1575813118
1575911422
1575944190
1576042494
1576075262
1576173566
1576206334
1576304638
1576337406
1576435710
1576468478
1576566782
1576599550
1576697854
1576730622
1576828926
1576861694
1576959998
1576992766
1602256894
1602289662
1602387966
1602420734
1602519038
1602551806
1602650110
1602682878
1602781182
1602813950
1602912254
1602945022
1603043326
1603076094
1603174398
1603207166
1603305470
1603338238
1603436542
1603469310
1603567614
1603600382
1603698686
1603731454
1603829758
1603862526
1603960830
1603993598
1604091902
1604124670
1604222974
1604255742
1604354046
1604386814
1604485118
1604517886
1604616190
1604648958
1604747262
1604780030
1604878334
1604911102
1605009406
1605042174
1605140478
1605173246
1605271550
1605304318
1605402622
1605435390
1605533694
1605566462
1605664766
1605697534
1605795838
1605828606
1605926910
1605959678
1606057982
1606090750
1606189054
1606221822
1606320126
1606352894
1606451198
1606483966
1606582270
1606615038
1606713342
1606746110
1606844414
1606877182
1606975486
1607008254
1607106558
1607139326
1607237630
1607270398
1607368702
1607401470
1607499774
1607532542
1607630846
1607663614
1607761918
1607794686
1607892990
1607925758
1608024062
1608056830
1608155134
1608187902
1608286206
1608318974
1608417278
1608450046
1608548350
1608581118
1608679422
1608712190
1608810494
1608843262
1608941566
1608974334
1609072638
1609105406
1609203710
1609236478
1609334782
1609367550
1609465854
1609498622
1609596926
1609629694
1609727998
1609760766
1609859070
1609891838
1609990142
1610022910
1610121214
1610153982
1610252286
1610285054
1610383358
1610416126
1610514430
1610547198
