SRNFGPR: searching [D=1, R=0] space....
[H[2J
-----------------printing current job allocations (largest_remaining: 1088391167)-------------------

	0.0061763952%

    00000000000011770081 : 00000000001088391167 :: ###################################
  * 00000000001088391168 : 00000000002176782335 :: ###################################
    00000000002178469871 : 00000000003265173503 :: ###################################
    00000000003265173504 : 00000000004353564671 :: ###################################
    00000000004395563797 : 00000000005441955839 :: ##################################
    00000000005453722429 : 00000000006530347007 :: ###################################
    00000000006530347008 : 00000000007618738175 :: ###################################
    00000000007618738176 : 00000000008707129343 :: ###################################
    00000000008707129344 : 00000000009795520511 :: ###################################
    00000000009795520512 : 00000000010883911679 :: ###################################

[H[2J
-----------------printing current job allocations (largest_remaining: 1084929627)-------------------

	0.1823103449%

    00000000000164104258 : 00000000001088391167 :: ##############################
    00000000001222453435 : 00000000002176782335 :: ###############################
  * 00000000002180243876 : 00000000003265173503 :: ###################################
    00000000003294889805 : 00000000004353564671 :: ###################################
    00000000004597467027 : 00000000005441955839 :: ###########################
    00000000005522562256 : 00000000006530347007 :: #################################
    00000000006664238489 : 00000000007618738175 :: ###############################
    00000000007623695807 : 00000000008163778064 :: #################
    00000000008736512237 : 00000000009795520511 :: ###################################
    00000000008235551437 : 00000000008707129343 :: ###############

[H[2J
-----------------printing current job allocations (largest_remaining: 947781642)-------------------

	0.3869984897%

    00000000000315300091 : 00000000001088391167 :: #########################
    00000000001239000844 : 00000000002176782335 :: ###############################
    00000000002185790867 : 00000000002723071822 :: #################
    00000000003721753417 : 00000000004353564671 :: ####################
    00000000004839724501 : 00000000005441955839 :: ###################
    00000000005668630375 : 00000000006530347007 :: ############################
  * 00000000006670956533 : 00000000007618738175 :: ###############################
    00000000007671042065 : 00000000008163778064 :: ################
    00000000002745845962 : 00000000003265173503 :: #################
    00000000008339032973 : 00000000008707129343 :: ############

[H[2J
-----------------printing current job allocations (largest_remaining: 904738792)-------------------

	0.4534091724%

    00000000000322062875 : 00000000001088391167 :: #########################
    00000000001322486092 : 00000000002176782335 :: ############################
    00000000002229132043 : 00000000002723071822 :: ################
    00000000003834210473 : 00000000004353564671 :: #################
    00000000004900011613 : 00000000005441955839 :: #################
    00000000005757391003 : 00000000006530347007 :: #########################
  * 00000000006713999383 : 00000000007618738175 :: #############################
    00000000007677769823 : 00000000008163778064 :: ################
    00000000002885313193 : 00000000003265173503 :: ############
    00000000008477509135 : 00000000008707129343 :: #######

[H[2J
-----------------printing current job allocations (largest_remaining: 897900822)-------------------

	0.4920699309%

    00000000000366152501 : 00000000001088391167 :: #######################
    00000000001372806569 : 00000000002176782335 :: ##########################
    00000000002231319742 : 00000000002723071822 :: ################
    00000000003945252235 : 00000000004353564671 :: #############
    00000000004951710960 : 00000000005441955839 :: ################
    00000000005759143016 : 00000000006530347007 :: #########################
  * 00000000006720837353 : 00000000007618738175 :: #############################
    00000000007721536817 : 00000000008163778064 :: ##############
    00000000002986704490 : 00000000003265173503 :: #########
    00000000008485202231 : 00000000008707129343 :: #######

[H[2J
-----------------printing current job allocations (largest_remaining: 854356686)-------------------

	0.5174993059%

    00000000000376152988 : 00000000001088391167 :: #######################
    00000000001379629969 : 00000000002176782335 :: ##########################
    00000000002237081503 : 00000000002723071822 :: ################
    00000000003994963159 : 00000000004353564671 :: ###########
    00000000005001589685 : 00000000005441955839 :: ##############
    00000000005764090031 : 00000000006530347007 :: #########################
  * 00000000006764381489 : 00000000007618738175 :: ############################
    00000000007722613897 : 00000000008163778064 :: ##############
    00000000003042582648 : 00000000003265173503 :: #######
    00000000008534351617 : 00000000008707129343 :: #####

[H[2J
-----------------printing current job allocations (largest_remaining: 847443846)-------------------

	0.5472788159%

    00000000000418135211 : 00000000001088391167 :: ######################
    00000000001424350114 : 00000000002176782335 :: ########################
    00000000002279784671 : 00000000002723071822 :: ##############
    00000000004044861611 : 00000000004353564671 :: ##########
    00000000005008183349 : 00000000005441955839 :: ##############
    00000000005806802119 : 00000000006530347007 :: #######################
  * 00000000006771294329 : 00000000007618738175 :: ############################
    00000000007723625975 : 00000000008163778064 :: ##############
    00000000003086615729 : 00000000003265173503 :: #####
    00000000008577901435 : 00000000008707129343 :: ####

[H[2J
-----------------printing current job allocations (largest_remaining: 803208784)-------------------

	0.5749245369%

    00000000000465527263 : 00000000001088391167 :: ####################
    00000000001479966043 : 00000000002176782335 :: #######################
    00000000002280638519 : 00000000002723071822 :: ##############
    00000000004093758533 : 00000000004353564671 :: ########
    00000000005058488913 : 00000000005441955839 :: ############
    00000000005808424891 : 00000000006530347007 :: #######################
  * 00000000006815529391 : 00000000007618738175 :: ##########################
    00000000007728189407 : 00000000008163778064 :: ##############
    00000000003126065173 : 00000000003265173503 :: ####
    00000000008585859995 : 00000000008707129343 :: ####

[H[2J
-----------------printing current job allocations (largest_remaining: 796582110)-------------------

	0.6200552200%

    00000000000466655036 : 00000000001088391167 :: ####################
    00000000001842838868 : 00000000002176782335 :: ###########
    00000000002281281296 : 00000000002723071822 :: ##############
    00000000004095418427 : 00000000004353564671 :: ########
    00000000005109248119 : 00000000005441955839 :: ###########
    00000000005813555363 : 00000000006530347007 :: #######################
  * 00000000006822156065 : 00000000007618738175 :: ##########################
    00000000007729227247 : 00000000008163778064 :: ##############
    00000000003143768255 : 00000000003265173503 :: ####
    00000000008629497821 : 00000000008707129343 :: ##

[H[2J
-----------------printing current job allocations (largest_remaining: 705654980)-------------------

	0.6835049351%

    00000000000467510219 : 00000000001088391167 :: ####################
    00000000001907993371 : 00000000002176782335 :: ########
    00000000002282164235 : 00000000002723071822 :: ##############
    00000000004100496217 : 00000000004353564671 :: ########
    00000000007359051560 : 00000000007618738175 :: ########
  * 00000000005824692027 : 00000000006530347007 :: #######################
    00000000006865823479 : 00000000007220500067 :: ###########
    00000000007772108359 : 00000000008163778064 :: ############
    00000000003187539179 : 00000000003265173503 :: ##
    00000000008635393175 : 00000000008707129343 :: ##

[H[2J
-----------------printing current job allocations (largest_remaining: 672013440)-------------------

	0.7109361599%

    00000000000472098056 : 00000000001088391167 :: ####################
    00000000001978304486 : 00000000002176782335 :: ######
    00000000002286059719 : 00000000002723071822 :: ##############
    00000000004144437065 : 00000000004353564671 :: ######
    00000000007480963973 : 00000000007618738175 :: ####
  * 00000000005858333567 : 00000000006530347007 :: ######################
    00000000006872535493 : 00000000007220500067 :: ###########
    00000000007778710366 : 00000000008163778064 :: ############
    00000000003193524251 : 00000000003265173503 :: ##
    00000000008636363873 : 00000000008707129343 :: ##

[H[2J
-----------------printing current job allocations (largest_remaining: 666774724)-------------------

	0.7420508588%

    00000000000473129815 : 00000000001088391167 :: ####################
    00000000002028109195 : 00000000002176782335 :: ####
    00000000002286566492 : 00000000002723071822 :: ##############
    00000000004194482107 : 00000000004353564671 :: #####
    00000000007571637781 : 00000000007618738175 :: #
  * 00000000005863572283 : 00000000006530347007 :: ######################
    00000000006916367299 : 00000000007220500067 :: ##########
    00000000007823092669 : 00000000008163778064 :: ###########
    00000000003197670073 : 00000000003265173503 :: ##
    00000000008685352769 : 00000000008707129343 :: 

[H[2J
-----------------printing current job allocations (largest_remaining: 572664678)-------------------

	0.7693138679%

  * 00000000000515726489 : 00000000001088391167 :: ##################
    00000000002128387027 : 00000000002176782335 :: #
    00000000002287437331 : 00000000002723071822 :: ##############
    00000000004246043461 : 00000000004353564671 :: ###
    00000000007578192733 : 00000000007618738175 :: #
    00000000005865006667 : 00000000006197660692 :: ###########
    00000000006923018263 : 00000000007220500067 :: #########
    00000000007829437895 : 00000000008163778064 :: ###########
    00000000003243950627 : 00000000003265173503 :: 
    00000000006210039522 : 00000000006530347007 :: ##########

[H[2J
-----------------printing current job allocations (largest_remaining: 176804104)-------------------

	0.8924701320%

    00000000000522876277 : 00000000000660092099 :: ####
    00000000002131103515 : 00000000002176782335 :: #
  * 00000000002330007043 : 00000000002506811147 :: #####
    00000000008074446901 : 00000000008163778064 :: ##
    00000000006162426784 : 00000000006197660692 :: #
    00000000005908653641 : 00000000006052632936 :: ####
    00000000000931966701 : 00000000001088391167 :: #####
    00000000007974770245 : 00000000008069028562 :: ###
    00000000002583096469 : 00000000002723071822 :: ####
    00000000006378902669 : 00000000006530347007 :: #####

[H[2J
-----------------printing current job allocations (largest_remaining: 22401417)-------------------

	0.9859031827%

  * 00000000000568048859 : 00000000000590450276 :: 
    00000000002138732854 : 00000000002156621666 :: 
    00000000002332057493 : 00000000002353355811 :: 
    00000000006008632055 : 00000000006030570933 :: 
    00000000002371062013 : 00000000002374917359 :: 
    00000000005910558367 : 00000000005928101675 :: 
    00000000002168940625 : 00000000002176782335 :: 
    00000000002380619929 : 00000000002399522569 :: 
    00000000005957786087 : 00000000005969365705 :: 
    00000000005970845737 : 00000000005981024205 :: 

[H[2J
-----------------printing current job allocations (largest_remaining: 653847)-------------------

	0.9996248734%

    00000000005959689835 : 00000000005960067671 :: 
    00000000005960803211 : 00000000005961198517 :: 
    00000000002337793415 : 00000000002337797281 :: 
  * 00000000006010307783 : 00000000006010961630 :: 
    00000000006015935230 : 00000000006016407525 :: 
    00000000005915388958 : 00000000005915810902 :: 
    00000000002388171527 : 00000000002388745264 :: 
    00000000002383235059 : 00000000002383630254 :: 
    00000000005959294451 : 00000000005959676596 :: 
    00000000005965627099 : 00000000005966033773 :: 

[H[2J
-----------------printing current job allocations (largest_remaining: 0)-------------------

	1.0000000000%

  * 00000000000000000000 : 00000000000000000000 :: 
    00000000000000000000 : 00000000000000000000 :: 
    00000000000000000000 : 00000000000000000000 :: 
    00000000000000000000 : 00000000000000000000 :: 
    00000000000000000000 : 00000000000000000000 :: 
    00000000000000000000 : 00000000000000000000 :: 
    00000000000000000000 : 00000000000000000000 :: 
    00000000000000000000 : 00000000000000000000 :: 
    00000000000000000000 : 00000000000000000000 :: 
    00000000000000000000 : 00000000000000000000 :: 

using [D=1, R=0]:
	space_size=10883911680
	thread_count=10
	minimum_split_size=6
	range_update_frequency=0
	display_rate=0
	fea_execution_limit=5000
	execution_limit=10000000000
	array_size=100000


	searched 10883911680 zvs
	using 10 threads
	in      16.00s [1202406296.040739:1202406296.040755],
	at 680244480.00 z/s.


pm counts:
z_is_good: 0       		 pm_ga: 10741531908		
pm_fea: 0       		pm_ns0: 0       		
pm_pco: 51      		pm_zr5: 54007   		
pm_zr6: 28116   		pm_ndi: 6734    		
pm_oer: 0       		pm_r0i: 7711    		
 pm_h0: 37317   		pm_f1e: 87      		
pm_erc: 722340  		pm_rmv: 13148   		
 pm_ot: 0       		pm_csm: 0       		
 pm_mm: 0       		pm_snm: 0       		
pm_bdl: 0       		pm_bdl2: 0       		
pm_erw: 0       		pm_mcal: 3906    		
pm_snl: 1780944 		 pm_h1: 0       		
 pm_h2: 0       		 pm_h3: 0       		
pm_per: 5406    		pmf_fea: 26569   		
pmf_ns0: 3792986 		pmf_pco: 6761145 		
pmf_zr5: 56115886		pmf_zr6: 37462128		
pmf_ndi: 12451138		pmf_per: 79056   		
pmf_mcal: 23031097		
[done]
