SRNFGPR: searching [D=1, R=0] space....
[H[2J
-----------------printing current job allocations (largest_remaining: 1088391167)-------------------

	0.0040144116%

    00000000000011771806 : 00000000001088391167 :: ###################################
    00000000001120311853 : 00000000002176782335 :: ##################################
  * 00000000002176782336 : 00000000003265173503 :: ###################################
    00000000003265173504 : 00000000004353564671 :: ###################################
    00000000004353564672 : 00000000005441955839 :: ###################################
    00000000005441955840 : 00000000006530347007 :: ###################################
    00000000006530347008 : 00000000007618738175 :: ###################################
    00000000007618738176 : 00000000008707129343 :: ###################################
    00000000008707129344 : 00000000009795520511 :: ###################################
    00000000009795520512 : 00000000010883911679 :: ###################################

[H[2J
-----------------printing current job allocations (largest_remaining: 1084420332)-------------------

	0.1837740808%

    00000000000170404255 : 00000000001088391167 :: ##############################
    00000000001222733333 : 00000000002176782335 :: ###############################
  * 00000000002180753171 : 00000000003265173503 :: ###################################
    00000000003294423113 : 00000000003809369087 :: #################
    00000000004554052069 : 00000000005441955839 :: #############################
    00000000005514277514 : 00000000006530347007 :: #################################
    00000000006663827663 : 00000000007618738175 :: ###############################
    00000000007623485603 : 00000000008707129343 :: ###################################
    00000000008736433361 : 00000000009795520511 :: ###################################
    00000000003942850741 : 00000000004353564671 :: #############

[H[2J
-----------------printing current job allocations (largest_remaining: 1063705498)-------------------

	0.3831083253%

    00000000000315725075 : 00000000001088391167 :: #########################
    00000000001271566651 : 00000000002176782335 :: #############################
    00000000002186635961 : 00000000002725245554 :: #################
    00000000003720755507 : 00000000003809369087 :: ##
    00000000004800161113 : 00000000005441955839 :: #####################
    00000000005656721540 : 00000000006530347007 :: ############################
    00000000006670586303 : 00000000007618738175 :: ###############################
  * 00000000007643423845 : 00000000008707129343 :: ###################################
    00000000002744186929 : 00000000003265173503 :: #################
    00000000003992739253 : 00000000004353564671 :: ###########

[H[2J
-----------------printing current job allocations (largest_remaining: 904969378)-------------------

	0.4407815485%

    00000000000324766760 : 00000000001088391167 :: #########################
    00000000001322183231 : 00000000002176782335 :: ############################
    00000000002230053043 : 00000000002725245554 :: ################
    00000000008225723821 : 00000000008707129343 :: ###############
    00000000004890579210 : 00000000005441955839 :: ##################
    00000000005756672801 : 00000000006530347007 :: #########################
  * 00000000006713768797 : 00000000007618738175 :: #############################
    00000000007672894307 : 00000000008189829213 :: #################
    00000000002840465044 : 00000000003265173503 :: ##############
    00000000004033565557 : 00000000004353564671 :: ##########

[H[2J
-----------------printing current job allocations (largest_remaining: 897991782)-------------------

	0.4779010193%

    00000000000367381187 : 00000000001088391167 :: #######################
    00000000001372806575 : 00000000002176782335 :: ##########################
    00000000002235815026 : 00000000002725245554 :: ################
    00000000008327652502 : 00000000008707129343 :: ############
    00000000004950348181 : 00000000005441955839 :: ################
    00000000005758222856 : 00000000006530347007 :: #########################
  * 00000000006720746393 : 00000000007618738175 :: #############################
    00000000007678882907 : 00000000008189829213 :: ################
    00000000002951770679 : 00000000003265173503 :: ##########
    00000000004051051307 : 00000000004353564671 :: ##########

[H[2J
-----------------printing current job allocations (largest_remaining: 854588674)-------------------

	0.5220323403%

    00000000000415444675 : 00000000001088391167 :: ######################
    00000000001379711345 : 00000000002176782335 :: ##########################
    00000000002279463011 : 00000000002725245554 :: ##############
    00000000008433761680 : 00000000008707129343 :: #########
    00000000005000912819 : 00000000005441955839 :: ##############
    00000000005763273259 : 00000000006530347007 :: #########################
  * 00000000006764149501 : 00000000007618738175 :: ############################
    00000000007721770283 : 00000000008189829213 :: ###############
    00000000003041841517 : 00000000003265173503 :: #######
    00000000004094670923 : 00000000004353564671 :: ########

[H[2J
-----------------printing current job allocations (largest_remaining: 847595268)-------------------

	0.5370208543%

    00000000000422388535 : 00000000001088391167 :: ######################
    00000000001429463509 : 00000000002176782335 :: ########################
    00000000002280067235 : 00000000002725245554 :: ##############
    00000000008484554399 : 00000000008707129343 :: #######
    00000000005007761718 : 00000000005441955839 :: ##############
    00000000005767437589 : 00000000006530347007 :: #########################
  * 00000000006771142907 : 00000000007618738175 :: ############################
    00000000007722783571 : 00000000008189829213 :: ###############
    00000000003075996265 : 00000000003265173503 :: ######
    00000000004096536947 : 00000000004353564671 :: ########

[H[2J
-----------------printing current job allocations (largest_remaining: 803400738)-------------------

	0.5642354651%

    00000000000465912035 : 00000000001088391167 :: ####################
    00000000001480087901 : 00000000002176782335 :: #######################
    00000000002280957838 : 00000000002725245554 :: ##############
    00000000008528217757 : 00000000008707129343 :: #####
    00000000005057794373 : 00000000005441955839 :: ############
    00000000005807592607 : 00000000006530347007 :: #######################
  * 00000000006815337437 : 00000000007618738175 :: ##########################
    00000000007723698659 : 00000000008189829213 :: ###############
    00000000003093360325 : 00000000003265173503 :: #####
    00000000004101375164 : 00000000004353564671 :: ########

[H[2J
-----------------printing current job allocations (largest_remaining: 796644576)-------------------

	0.6132896374%

    00000000000467172140 : 00000000001088391167 :: ####################
    00000000001847671237 : 00000000002176782335 :: ##########
    00000000002282039779 : 00000000002725245554 :: ##############
    00000000008535751441 : 00000000008707129343 :: #####
    00000000005108479625 : 00000000005441955839 :: ###########
    00000000005808769379 : 00000000006530347007 :: #######################
  * 00000000006822093599 : 00000000007618738175 :: ##########################
    00000000007728160747 : 00000000008189829213 :: ###############
    00000000003137496581 : 00000000003265173503 :: ####
    00000000004150600847 : 00000000004353564671 :: ######

[H[2J
-----------------printing current job allocations (largest_remaining: 716714824)-------------------

	0.6777255521%

    00000000000468532615 : 00000000001088391167 :: ####################
    00000000001908178014 : 00000000002176782335 :: ########
    00000000002286096443 : 00000000002725245554 :: ##############
    00000000008585035589 : 00000000008707129343 :: ####
    00000000007328359905 : 00000000007618738175 :: #########
  * 00000000005813632183 : 00000000006530347007 :: #######################
    00000000006865400735 : 00000000007220552555 :: ###########
    00000000007729143047 : 00000000008189829213 :: ###############
    00000000003186575021 : 00000000003265173503 :: ##
    00000000004197193343 : 00000000004353564671 :: #####

[H[2J
-----------------printing current job allocations (largest_remaining: 712477558)-------------------

	0.7190858788%

    00000000000472798942 : 00000000001088391167 :: ####################
    00000000001978508689 : 00000000002176782335 :: ######
    00000000002286743137 : 00000000002725245554 :: ##############
    00000000008628756367 : 00000000008707129343 :: ##
    00000000007459440469 : 00000000007618738175 :: #####
  * 00000000005817869449 : 00000000006530347007 :: #######################
    00000000006872471951 : 00000000007220552555 :: ###########
    00000000007771929692 : 00000000008189829213 :: #############
    00000000003193051505 : 00000000003265173503 :: ##
    00000000004336738837 : 00000000004353564671 :: 

[H[2J
-----------------printing current job allocations (largest_remaining: 572331856)-------------------

	0.7646262227%

  * 00000000000516059311 : 00000000001088391167 :: ##################
    00000000002028754681 : 00000000002176782335 :: ####
    00000000002287604842 : 00000000002725245554 :: ##############
    00000000008635152077 : 00000000008707129343 :: ##
    00000000007570635767 : 00000000007618738175 :: #
    00000000005858053627 : 00000000006193591144 :: ###########
    00000000006916159759 : 00000000007220552555 :: ##########
    00000000007778549371 : 00000000008189829213 :: #############
    00000000003194175995 : 00000000003265173503 :: ##
    00000000006368847162 : 00000000006530347007 :: #####

[H[2J
-----------------printing current job allocations (largest_remaining: 565420036)-------------------

	0.7969244340%

  * 00000000000522971131 : 00000000001088391167 :: ##################
    00000000002128463711 : 00000000002176782335 :: #
    00000000002330862397 : 00000000002725245554 :: #############
    00000000008636133307 : 00000000008707129343 :: ##
    00000000007577249431 : 00000000007618738175 :: #
    00000000005859310639 : 00000000006193591144 :: ###########
    00000000006922877107 : 00000000007220552555 :: #########
    00000000007822470589 : 00000000008189829213 :: ############
    00000000003236718523 : 00000000003265173503 :: 
    00000000006468466636 : 00000000006530347007 :: ##

[H[2J
-----------------printing current job allocations (largest_remaining: 329273667)-------------------

	0.8653754827%

    00000000000568091158 : 00000000000813108520 :: ########
    00000000002131094483 : 00000000002176782335 :: #
    00000000002336629783 : 00000000002528531034 :: ######
    00000000008679155219 : 00000000008707129343 :: 
    00000000008025131473 : 00000000008189829213 :: #####
  * 00000000005864317477 : 00000000006193591144 :: ##########
    00000000000929625472 : 00000000001088391167 :: #####
    00000000007829056867 : 00000000008007473283 :: #####
    00000000003244944415 : 00000000003265173503 :: 
    00000000002621967393 : 00000000002725245554 :: ###

[H[2J
-----------------printing current job allocations (largest_remaining: 121408321)-------------------

	0.9539600377%

    00000000000667622411 : 00000000000693731783 :: 
    00000000002138660521 : 00000000002176782335 :: #
    00000000002373070964 : 00000000002449369365 :: ##
    00000000008686791323 : 00000000008707129343 :: 
    00000000008182015934 : 00000000008189829213 :: 
  * 00000000005907773441 : 00000000006029181762 :: ####
    00000000001072294343 : 00000000001088391167 :: 
    00000000007913907150 : 00000000008007473283 :: ###
    00000000002472108254 : 00000000002528531034 :: #
    00000000000768188581 : 00000000000813108520 :: #

[H[2J
-----------------printing current job allocations (largest_remaining: 1710826)-------------------

	0.9988960127%

    00000000006009195697 : 00000000006009862571 :: 
    00000000002387937157 : 00000000002389247694 :: 
    00000000002382205063 : 00000000002383428288 :: 
    00000000006015325885 : 00000000006016937127 :: 
    00000000005959673059 : 00000000005960582764 :: 
    00000000005909294947 : 00000000005910723692 :: 
    00000000005958784187 : 00000000005959439197 :: 
  * 00000000005964924670 : 00000000005966635496 :: 
    00000000005914432109 : 00000000005916018176 :: 
    00000000006010025219 : 00000000006010938688 :: 

[H[2J
-----------------printing current job allocations (largest_remaining: 0)-------------------

	1.0000000000%

  * 00000000000000000000 : 00000000000000000000 :: 
    00000000000000000000 : 00000000000000000000 :: 
    00000000000000000000 : 00000000000000000000 :: 
    00000000000000000000 : 00000000000000000000 :: 
    00000000000000000000 : 00000000000000000000 :: 
    00000000000000000000 : 00000000000000000000 :: 
    00000000000000000000 : 00000000000000000000 :: 
    00000000000000000000 : 00000000000000000000 :: 
    00000000000000000000 : 00000000000000000000 :: 
    00000000000000000000 : 00000000000000000000 :: 

using [D=1, R=0]:
	space_size=10883911680
	thread_count=10
	minimum_split_size=6
	range_update_frequency=0
	display_rate=0
	fea_execution_limit=5000
	execution_limit=10000000000
	array_size=100000


	searched 10883911680 zvs
	using 10 threads
	in      16.00s [1202406296.035707:1202406296.035723],
	at 680244480.00 z/s.


pm counts:
z_is_good: 0       		 pm_ga: 10741531908		
pm_fea: 0       		pm_ns0: 0       		
pm_pco: 51      		pm_zr5: 54007   		
pm_zr6: 28116   		pm_ndi: 6734    		
pm_oer: 0       		pm_r0i: 7711    		
 pm_h0: 37317   		pm_f1e: 87      		
pm_erc: 722340  		pm_rmv: 13148   		
 pm_ot: 0       		pm_csm: 0       		
 pm_mm: 0       		pm_snm: 0       		
pm_bdl: 0       		pm_bdl2: 0       		
pm_erw: 0       		pm_mcal: 3906    		
pm_snl: 1780944 		 pm_h1: 0       		
 pm_h2: 0       		 pm_h3: 0       		
pm_per: 5406    		pmf_fea: 26569   		
pmf_ns0: 3792986 		pmf_pco: 6761145 		
pmf_zr5: 56115886		pmf_zr6: 37462128		
pmf_ndi: 12451138		pmf_per: 79056   		
pmf_mcal: 23031097		
[done]
