SRNFGPR: searching [D=2, R=0] space....

	0.0000000000%


	0.1968935882%


	0.2283799526%


	0.2639487039%


	0.3374199086%


	0.3601743016%


	0.3747597491%


	0.3899237004%


	0.4214138567%


	0.4517384745%


	0.4628167697%


	0.4768107749%


	0.4832314271%


	0.4972352801%


	0.5030906348%


	0.5083576978%


	0.5148261164%


	0.5323408412%


	0.5434315412%


	0.5492692532%


	0.5580179902%


	0.5644338117%


	0.5702668098%


	0.5755178762%


	0.5818826689%


	0.5882988710%


	0.5993770726%


	0.6075406252%


	0.6127915454%


	0.6372814946%


	0.6384609797%


	0.6408125809%


	0.6437429774%


	0.6437820071%


	0.6525540786%


	0.6583971292%


	0.6671545872%


	0.6735908239%


	0.6806021111%


	0.6905424116%


	0.6981890987%


	0.7069595330%


	0.7174850050%


	0.7262381663%


	0.7332445223%


	0.7414170361%


	0.7472580063%


	0.7566041568%


	0.7613578502%


	0.7724500789%


	0.7788766687%


	0.7905408290%


	0.8016221647%


	0.8080512677%


	0.8193870832%


	0.8252473327%


	0.8328442282%


	0.8357822081%


	0.8480606981%


	0.8638454364%


	0.8750902674%


	0.8780469063%


	0.8897561439%


	0.8947685916%


	0.9053952934%


	0.9101135879%


	0.9150932846%


	0.9157231937%


	0.9186619382%


	0.9186792309%


	0.9192888601%


	0.9274677655%


	0.9275731179%


	0.9281852146%


	0.9334804849%


	0.9335072142%


	0.9347315162%


	0.9423430283%


	0.9458892228%


	0.9482382094%


	0.9517675401%


	0.9517915755%


	0.9518062546%


	0.9518151932%


	0.9518253609%


	0.9538194789%


	0.9538276444%


	0.9538433691%


	0.9538561928%


	0.9538917144%


	0.9539235501%


	0.9539657815%


	0.9540030620%


	0.9540777515%


	0.9541478417%


	0.9541756454%


	0.9542089733%


	0.9542363750%


	0.9543439307%


	0.9543731445%


	0.9544660169%


	0.9545125042%


	0.9545646336%


	0.9545981971%


	0.9546537320%


	0.9553629799%


	0.9571479621%


	0.9571761810%


	0.9572178099%


	0.9607311441%


	0.9624952749%


	0.9625150384%


	0.9625336804%


	0.9625602475%


	0.9625993813%


	0.9626492913%


	0.9626955910%


	0.9627594304%


	0.9628240278%


	0.9629881772%


	0.9630433020%


	0.9631054874%


	0.9631820440%


	0.9649660586%


	0.9655825324%


	0.9656201738%


	0.9656357915%


	0.9656480491%


	0.9656557488%


	0.9656644606%


	0.9656730640%


	0.9656890162%


	0.9657195838%


	0.9657518606%


	0.9657706116%


	0.9657976525%


	0.9658521012%


	0.9658865824%


	0.9659324771%


	0.9660191910%


	0.9660678282%


	0.9661176907%


	0.9661450059%


	0.9661725136%


	0.9662018685%


	0.9662389500%


	0.9662821749%


	0.9663593277%


	0.9664750680%


	0.9665822540%


	0.9666227554%


	0.9666887655%


	0.9667429577%


	0.9668080858%


	0.9668454453%


	0.9669087738%


	0.9669351627%


	0.9698682864%


	0.9728037356%


	0.9728282930%


	0.9740375296%


	0.9758544725%


	0.9759009036%


	0.9759322505%


	0.9778098116%


	0.9790254386%


	0.9794567839%


	0.9795074032%


	0.9795316024%


	0.9795674343%


	0.9801966022%


	0.9824759299%


	0.9825188491%


	0.9831419992%


	0.9863593020%


	0.9864703320%


	0.9865065699%


	0.9865343122%


	0.9865796984%


	0.9866148249%


	0.9866529598%


	0.9867691614%


	0.9873948052%


	0.9923717154%


	0.9930056050%


	0.9943852477%


	0.9967495389%


	0.9967906829%


	0.9968326291%


	0.9968737530%


	0.9974104696%


	0.9974636446%


	0.9975246684%


	0.9976368985%


	0.9976600286%


	0.9976811896%


	0.9976946928%


	0.9977141857%


	0.9977277481%


	0.9977416274%


	0.9977757225%


	0.9979463526%


	0.9979894627%


	0.9980425110%


	0.9980744776%


	0.9980992086%


	0.9981149382%


	0.9981440980%


	0.9983853847%


	0.9984043658%


	0.9984443326%


	0.9984645016%


	0.9985609083%


	0.9985788371%


	0.9985909650%


	0.9986114398%


	0.9986421340%


	0.9986580576%


	0.9987077981%


	0.9987775371%


	0.9988065404%


	0.9988382643%


	0.9988902426%


	0.9989401991%


	0.9989810572%


	0.9990219094%


	0.9990679058%


	0.9991800189%


	0.9993052538%


	0.9993387353%


	0.9993678621%


	0.9994038599%


	0.9994451328%


	0.9994954728%


	0.9995272379%


	0.9995707071%


	0.9995902835%


	0.9996029191%


	0.9996169258%


	0.9996444539%


	0.9996702236%


	0.9997099785%


	0.9997667304%


	0.9998077185%


	0.9998768775%


	0.9999371860%


	0.9999871019%


	0.9999990324%


	1.0000000000%

using [D=2, R=0]:
	space_size=118689037748575
	thread_count=6
	cache_line_size=16
	minimum_split_size=6
	display_rate=0
	fea_execution_limit=5000
	execution_limit=10000000000
	array_size=100000


	searched 118689037748575 zvs
	using 6 threads
	in     249.00s [1202406307.202348:1202406307.202757],
	at 476662802203.11 z/s.


pm counts:
z_is_good: 0       		 pm_ga: 118684828539807		
pm_fea: 0       		pm_ns0: 3576    		
pm_pco: 4194    		pm_zr5: 451374  		
pm_zr6: 367447  		pm_ndi: 15604   		
pm_oer: 17280   		pm_r0i: 251048  		
 pm_h0: 855943  		pm_f1e: 1301    		
pm_erc: 11215047		pm_rmv: 5795    		
 pm_ot: 0       		pm_csm: 0       		
 pm_mm: 0       		pm_snm: 0       		
pm_bdl: 0       		pm_bdl2: 0       		
pm_erw: 0       		pm_mcal: 129164  		
pm_snl: 0       		 pm_h1: 0       		
 pm_h2: 0       		 pm_h3: 0       		
pm_per: 3723    		pm_snco: 0       		
pmf_fea: 583835  		pmf_ns0: 84017990		
pmf_pco: 101036575		pmf_zr5: 1317883576		
pmf_zr6: 1817141500		pmf_ndi: 353769480		
pmf_per: 1182087 		pmf_mcal: 520272067		
pmf_snco: 0       		pm_r1i: 162     		
[done_pm]
