SRNFGPR: searching [D=2, R=0] space....

	0.0032077746%


	0.1479665237%


	0.1969531580%


	0.2249572766%


	0.2850152374%


	0.3118423053%


	0.3398389885%


	0.3637527430%


	0.4045717014%


	0.4902775567%


	0.5106905001%


	0.5386901196%


	0.5626047432%


	0.5772007331%


	0.5970209907%


	0.6372712246%


	0.6559668730%


	0.6790356316%


	0.6959664081%


	0.7082293375%


	0.7251538850%


	0.7385928816%


	0.7479307718%


	0.7662494586%


	0.7819991256%


	0.7975453212%


	0.8068755875%


	0.8220402197%


	0.8254793860%


	0.8318848657%


	0.8377258723%


	0.8441543962%


	0.8558251048%


	0.8647380732%


	0.8729909435%


	0.8730061060%


	0.8759355473%


	0.8771208085%


	0.8789005378%


	0.8789190603%


	0.8789342074%


	0.8818668686%


	0.8868732825%


	0.8985526352%


	0.9119420010%


	0.9154895409%


	0.9190287534%


	0.9208602645%


	0.9249665474%


	0.9249842038%


	0.9283478008%


	0.9312692953%


	0.9347032891%


	0.9347060876%


	0.9347180120%


	0.9376494255%


	0.9376758319%


	0.9399660017%


	0.9451017381%


	0.9451755270%


	0.9452253953%


	0.9452681410%


	0.9453092216%


	0.9453331671%


	0.9453612726%


	0.9453775273%


	0.9454098527%


	0.9483465666%


	0.9483829497%


	0.9484257737%


	0.9484670666%


	0.9485164755%


	0.9486655475%


	0.9487280679%


	0.9487909851%


	0.9488407220%


	0.9489163400%


	0.9501462598%


	0.9513567974%


	0.9513995687%


	0.9514518365%


	0.9515105331%


	0.9515639943%


	0.9516023460%


	0.9516384373%


	0.9516680784%


	0.9517147666%


	0.9522713020%


	0.9541460383%


	0.9542046577%


	0.9543041935%


	0.9544253744%


	0.9545554494%


	0.9546137179%


	0.9546587022%


	0.9547228098%


	0.9547835435%


	0.9548294955%


	0.9554665749%


	0.9572454615%


	0.9572948227%


	0.9573204635%


	0.9614261706%


	0.9631953346%


	0.9632321267%


	0.9661513561%


	0.9661728971%


	0.9662070453%


	0.9662598920%


	0.9662957356%


	0.9669143127%


	0.9696136770%


	0.9696558476%


	0.9697050712%


	0.9697674627%


	0.9736139405%


	0.9750787432%


	0.9751407102%


	0.9751846311%


	0.9752440651%


	0.9753806155%


	0.9754350671%


	0.9811066254%


	0.9811651701%


	0.9812528775%


	0.9824855325%


	0.9836924289%


	0.9837264647%


	0.9837796572%


	0.9838095316%


	0.9844273880%


	0.9876993233%


	0.9892997979%


	0.9934180242%


	0.9946605388%


	0.9947107119%


	0.9952213979%


	0.9952724657%


	0.9953292901%


	0.9954051530%


	0.9957998917%


	0.9958623314%


	0.9959251329%


	0.9959755073%


	0.9960376864%


	0.9961002117%


	0.9961773337%


	0.9964981137%


	0.9965615837%


	0.9967069571%


	0.9970214313%


	0.9971535110%


	0.9971927518%


	0.9972376534%


	0.9975126211%


	0.9975502778%


	0.9976011402%


	0.9978401183%


	0.9979790717%


	0.9980537361%


	0.9980950304%


	0.9982444882%


	0.9982840411%


	0.9983408038%


	0.9984154179%


	0.9984874143%


	0.9985563139%


	0.9986347300%


	0.9987166136%


	0.9987898913%


	0.9990315752%


	0.9990742381%


	0.9991481998%


	0.9991756347%


	0.9992685023%


	0.9992924025%


	0.9993163624%


	0.9993567445%


	0.9993923335%


	0.9994379370%


	0.9995176873%


	0.9995987081%


	0.9996503248%


	0.9996843739%


	0.9997285801%


	0.9997977884%


	0.9998865633%


	0.9999365078%


	0.9999841722%


	0.9999983150%


	1.0000000000%

using [D=2, R=0]:
	space_size=118689037748575
	thread_count=10
	cache_line_size=100
	minimum_split_size=6
	display_rate=0
	fea_execution_limit=5000
	execution_limit=10000000000
	array_size=100000


	searched 118689037748575 zvs
	using 10 threads
	in     192.00s [1202407022.222308:1202407022.222620],
	at 618172071607.16 z/s.


pm counts:
z_is_good: 0       		 pm_ga: 118684826926031		
pm_fea: 0       		pm_ns0: 3576    		
pm_pco: 4194    		pm_zr5: 451374  		
pm_zr6: 366533  		pm_ndi: 15604   		
pm_oer: 17280   		pm_r0i: 251054  		
 pm_h0: 855817  		pm_f1e: 1301    		
pm_erc: 11215047		pm_rmv: 5795    		
 pm_ot: 0       		pm_csm: 0       		
 pm_mm: 0       		pm_snm: 0       		
pm_bdl: 0       		pm_bdl2: 0       		
pm_erw: 0       		pm_mcal: 129164  		
pm_snl: 0       		 pm_h1: 0       		
 pm_h2: 0       		 pm_h3: 0       		
pm_per: 3723    		pm_snco: 0       		
pmf_fea: 582491  		pmf_ns0: 84187522		
pmf_pco: 101168869		pmf_zr5: 1318887193		
pmf_zr6: 1816994126		pmf_ndi: 353989121		
pmf_per: 1180252 		pmf_mcal: 520512346		
pmf_snco: 0       		pm_r1i: 162     		
[done_pm]
