SRNFGPR: searching [D=1, R=0] space....
[H[2J
-----------------printing current job allocations (largest_remaining: 1088391167)-------------------

	0.0052503516%

    00000000000011769181 : 00000000001088391167 :: ###################################
    00000000001120312507 : 00000000002176782335 :: ##################################
    00000000002178469867 : 00000000003265173503 :: ###################################
    00000000003276939806 : 00000000004353564671 :: ###################################
  * 00000000004353564672 : 00000000005441955839 :: ###################################
    00000000005441955840 : 00000000006530347007 :: ###################################
    00000000006530347008 : 00000000007618738175 :: ###################################
    00000000007618738176 : 00000000008707129343 :: ###################################
    00000000008707129344 : 00000000009795520511 :: ###################################
    00000000009795520512 : 00000000010883911679 :: ###################################

[H[2J
-----------------printing current job allocations (largest_remaining: 1084374468)-------------------

	0.2332443634%

    00000000000133066914 : 00000000001088391167 :: ###############################
    00000000001228122431 : 00000000002176782335 :: ###############################
  * 00000000002180799035 : 00000000003265173503 :: ###################################
    00000000003294321971 : 00000000004353564671 :: ###################################
    00000000004597760965 : 00000000005441955839 :: ###########################
    00000000005554861988 : 00000000006530347007 :: ################################
    00000000006663271355 : 00000000007618738175 :: ###############################
    00000000007627156985 : 00000000008163777524 :: #################
    00000000008736808961 : 00000000009251324927 :: #################
    00000000008235713257 : 00000000008707129343 :: ###############

[H[2J
-----------------printing current job allocations (largest_remaining: 948759726)-------------------

	0.3882511355%

    00000000000314496643 : 00000000001088391167 :: #########################
    00000000001271986447 : 00000000002176782335 :: #############################
    00000000002186667067 : 00000000002725195009 :: #################
    00000000003696922328 : 00000000004353564671 :: #####################
    00000000004839182485 : 00000000005441955839 :: ###################
    00000000005673377620 : 00000000006530347007 :: ############################
  * 00000000006669978449 : 00000000007618738175 :: ###############################
    00000000007671055243 : 00000000008163777524 :: ################
    00000000002746028972 : 00000000003265173503 :: #################
    00000000008343138707 : 00000000008707129343 :: ############

[H[2J
-----------------printing current job allocations (largest_remaining: 947447274)-------------------

	0.4446271220%

    00000000000321153872 : 00000000001088391167 :: #########################
    00000000001322077631 : 00000000002176782335 :: ############################
    00000000002230085437 : 00000000002725195009 :: ################
    00000000003793185467 : 00000000004353564671 :: ##################
    00000000004890840457 : 00000000005441955839 :: ##################
    00000000005757357271 : 00000000006530347007 :: #########################
  * 00000000006671290901 : 00000000007618738175 :: ###############################
    00000000007677746491 : 00000000008163777524 :: ################
    00000000002885248501 : 00000000003265173503 :: ############
    00000000008477439191 : 00000000008707129343 :: #######

[H[2J
-----------------printing current job allocations (largest_remaining: 904140108)-------------------

	0.4912224390%

    00000000000365071747 : 00000000001088391167 :: #######################
    00000000001372292053 : 00000000002176782335 :: ##########################
    00000000002235847463 : 00000000002725195009 :: ################
    00000000003943276091 : 00000000004353564671 :: #############
    00000000004950454745 : 00000000005441955839 :: ################
    00000000005759097803 : 00000000006530347007 :: #########################
  * 00000000006714598067 : 00000000007618738175 :: #############################
    00000000007721534185 : 00000000008163777524 :: ##############
    00000000002986184869 : 00000000003265173503 :: #########
    00000000008485207511 : 00000000008707129343 :: #######

[H[2J
-----------------printing current job allocations (largest_remaining: 897469246)-------------------

	0.5165328522%

    00000000000371808266 : 00000000001088391167 :: #######################
    00000000001379304709 : 00000000002176782335 :: ##########################
    00000000002279473242 : 00000000002725195009 :: ##############
    00000000003992863679 : 00000000004353564671 :: ###########
    00000000005000995829 : 00000000005441955839 :: ##############
    00000000005764007087 : 00000000006530347007 :: #########################
  * 00000000006721268929 : 00000000007618738175 :: #############################
    00000000007722616427 : 00000000008163777524 :: ##############
    00000000003042379565 : 00000000003265173503 :: #######
    00000000008534323103 : 00000000008707129343 :: #####

[H[2J
-----------------printing current job allocations (largest_remaining: 854282844)-------------------

	0.5430472513%

    00000000000416732831 : 00000000001088391167 :: ######################
    00000000001390221319 : 00000000002176782335 :: ##########################
    00000000002280397927 : 00000000002725195009 :: ##############
    00000000004042898787 : 00000000004353564671 :: ##########
    00000000005008110773 : 00000000005441955839 :: ##############
    00000000005806845971 : 00000000006530347007 :: #######################
  * 00000000006764455331 : 00000000007618738175 :: ############################
    00000000007723674179 : 00000000008163777524 :: ##############
    00000000003086253067 : 00000000003265173503 :: #####
    00000000008578031029 : 00000000008707129343 :: ####

[H[2J
-----------------printing current job allocations (largest_remaining: 847546242)-------------------

	0.5623272326%

    00000000000423262075 : 00000000001088391167 :: ######################
    00000000001473633679 : 00000000002176782335 :: #######################
    00000000002281053310 : 00000000002725195009 :: ##############
    00000000004051082182 : 00000000004353564671 :: ##########
    00000000005058463391 : 00000000005441955839 :: ############
    00000000005808479326 : 00000000006530347007 :: #######################
  * 00000000006771191933 : 00000000007618738175 :: ############################
    00000000007728252865 : 00000000008163777524 :: ##############
    00000000003126104812 : 00000000003265173503 :: ####
    00000000008585939255 : 00000000008707129343 :: ####

[H[2J
-----------------printing current job allocations (largest_remaining: 803898216)-------------------

	0.6182854323%

    00000000000466058879 : 00000000001088391167 :: ####################
    00000000001833227384 : 00000000002176782335 :: ###########
    00000000002282140546 : 00000000002725195009 :: ##############
    00000000004094575480 : 00000000004353564671 :: ########
    00000000005109354383 : 00000000005441955839 :: ###########
    00000000005813648779 : 00000000006530347007 :: #######################
  * 00000000006814839959 : 00000000007618738175 :: ##########################
    00000000007729323181 : 00000000008163777524 :: ##############
    00000000003143783777 : 00000000003265173503 :: ####
    00000000008629554563 : 00000000008707129343 :: ##

[H[2J
-----------------printing current job allocations (largest_remaining: 673477926)-------------------

	0.6832635725%

    00000000000467121311 : 00000000001088391167 :: ####################
    00000000001906416749 : 00000000002176782335 :: ########
    00000000002286235148 : 00000000002725195009 :: ##############
    00000000004096133927 : 00000000004353564671 :: ########
    00000000007368573697 : 00000000007618738175 :: ########
  * 00000000005856869081 : 00000000006530347007 :: ######################
    00000000006821423807 : 00000000007216799990 :: #############
    00000000007772810687 : 00000000008163777524 :: ############
    00000000003187552139 : 00000000003265173503 :: ##
    00000000008635430875 : 00000000008707129343 :: ##

[H[2J
-----------------printing current job allocations (largest_remaining: 671917576)-------------------

	0.7018634293%

    00000000000468308339 : 00000000001088391167 :: ####################
    00000000001958423323 : 00000000002176782335 :: #######
    00000000002287118479 : 00000000002725195009 :: ##############
    00000000004100767085 : 00000000004353564671 :: ########
    00000000007492240707 : 00000000007618738175 :: ####
  * 00000000005858429431 : 00000000006530347007 :: ######################
    00000000006826258889 : 00000000007216799990 :: ############
    00000000007779487747 : 00000000008163777524 :: ############
    00000000003193557799 : 00000000003265173503 :: ##
    00000000008636414821 : 00000000008707129343 :: ##

[H[2J
-----------------printing current job allocations (largest_remaining: 666616860)-------------------

	0.7362287196%

    00000000000472460936 : 00000000001088391167 :: ####################
    00000000002017440631 : 00000000002176782335 :: #####
    00000000002319561784 : 00000000002725195009 :: #############
    00000000004145576540 : 00000000004353564671 :: ######
    00000000007572040627 : 00000000007618738175 :: #
  * 00000000005863730147 : 00000000006530347007 :: ######################
    00000000006871422013 : 00000000007216799990 :: ###########
    00000000007823705899 : 00000000008163777524 :: ###########
    00000000003203526240 : 00000000003265173503 :: ##
    00000000008685570587 : 00000000008707129343 :: 

[H[2J
-----------------printing current job allocations (largest_remaining: 614955456)-------------------

	0.7642482687%

  * 00000000000473435711 : 00000000001088391167 :: ####################
    00000000002118614389 : 00000000002176782335 :: #
    00000000002331350960 : 00000000002725195009 :: #############
    00000000004194371951 : 00000000004353564671 :: #####
    00000000007580243293 : 00000000007618738175 :: #
    00000000005865193541 : 00000000006197651062 :: ##########
    00000000006872809991 : 00000000007216799990 :: ###########
    00000000007830327409 : 00000000008163777524 :: ###########
    00000000003244133083 : 00000000003265173503 :: 
    00000000006260039093 : 00000000006530347007 :: ########

[H[2J
-----------------printing current job allocations (largest_remaining: 300175863)-------------------

	0.8410420326%

    00000000000517417559 : 00000000000782583167 :: ########
    00000000002129835958 : 00000000002176782335 :: #
    00000000002337101567 : 00000000002528913983 :: ######
    00000000004236551669 : 00000000004353564671 :: ###
    00000000000929653441 : 00000000001088391167 :: #####
    00000000005908721939 : 00000000006197651062 :: #########
  * 00000000006916624127 : 00000000007216799990 :: #########
    00000000008023889977 : 00000000008163777524 :: ####
    00000000002622500053 : 00000000002725195009 :: ###
    00000000006411625147 : 00000000006530347007 :: ###

[H[2J
-----------------printing current job allocations (largest_remaining: 119678672)-------------------

	0.9458843014%

  * 00000000000533192844 : 00000000000652871516 :: ###
    00000000002135091415 : 00000000002176782335 :: #
    00000000002380579843 : 00000000002454591880 :: ##
    00000000006115996532 : 00000000006197651062 :: ##
    00000000001076744859 : 00000000001088391167 :: 
    00000000005913987500 : 00000000005983895389 :: ##
    00000000006923110387 : 00000000006996337442 :: ##
    00000000002472450360 : 00000000002528913983 :: #
    00000000000767674141 : 00000000000782583167 :: 
    00000000006008029630 : 00000000006053830054 :: #

[H[2J
-----------------printing current job allocations (largest_remaining: 4638993)-------------------

	0.9972598713%

    00000000000569355080 : 00000000000572706709 :: 
    00000000005969281585 : 00000000005970858194 :: 
    00000000002383324955 : 00000000002386383190 :: 
    00000000005964958069 : 00000000005967869379 :: 
    00000000002387485835 : 00000000002390701359 :: 
    00000000005915523733 : 00000000005919252705 :: 
    00000000005958763441 : 00000000005961564086 :: 
    00000000006015333703 : 00000000006019834568 :: 
    00000000005964325667 : 00000000005964366204 :: 
  * 00000000006009594907 : 00000000006014233900 :: 

[H[2J
-----------------printing current job allocations (largest_remaining: 0)-------------------

	1.0000000000%

  * 00000000000000000000 : 00000000000000000000 :: 
    00000000000000000000 : 00000000000000000000 :: 
    00000000000000000000 : 00000000000000000000 :: 
    00000000000000000000 : 00000000000000000000 :: 
    00000000000000000000 : 00000000000000000000 :: 
    00000000000000000000 : 00000000000000000000 :: 
    00000000000000000000 : 00000000000000000000 :: 
    00000000000000000000 : 00000000000000000000 :: 
    00000000000000000000 : 00000000000000000000 :: 
    00000000000000000000 : 00000000000000000000 :: 

using [D=1, R=0]:
	space_size=10883911680
	thread_count=10
	minimum_split_size=6
	range_update_frequency=0
	display_rate=0
	fea_execution_limit=5000
	execution_limit=10000000000
	array_size=100000


	searched 10883911680 zvs
	using 10 threads
	in      17.00s [1202406296.035537:1202406296.035554],
	at 640230098.82 z/s.


pm counts:
z_is_good: 0       		 pm_ga: 10741531908		
pm_fea: 0       		pm_ns0: 0       		
pm_pco: 51      		pm_zr5: 54007   		
pm_zr6: 28116   		pm_ndi: 6734    		
pm_oer: 0       		pm_r0i: 7711    		
 pm_h0: 37317   		pm_f1e: 87      		
pm_erc: 722340  		pm_rmv: 13148   		
 pm_ot: 0       		pm_csm: 0       		
 pm_mm: 0       		pm_snm: 0       		
pm_bdl: 0       		pm_bdl2: 0       		
pm_erw: 0       		pm_mcal: 3906    		
pm_snl: 1780944 		 pm_h1: 0       		
 pm_h2: 0       		 pm_h3: 0       		
pm_per: 5406    		pmf_fea: 26569   		
pmf_ns0: 3792986 		pmf_pco: 6761145 		
pmf_zr5: 56115886		pmf_zr6: 37462128		
pmf_ndi: 12451138		pmf_per: 79056   		
pmf_mcal: 23031097		
[done]
