0046103621113540424200000122 2 1202502064.120728
0612106621313541424200000122 2 1202502064.121313
0616106621313541424200000122 2 1202502064.121318
0612106621313544424200000122 2 1202502064.124211
0616106621313544424200000122 2 1202502064.124216
0111106621333154424200000122 2 1202502064.125044
0611106621333154424200000122 2 1202502064.125049
0112106621333154424200000122 2 1202502064.125054
0612106621333154424200000122 2 1202502064.125059
0616106621333154424200000122 2 1202502064.125105
0046153621113045424200000122 2 1202502064.125829
0546153621113545424200000122 2 1202502064.130031
0612102021343520464200000122 2 1202502064.131234
0110162021343520464200000122 1 1202502064.131240
0610162021343520464200000122 1 1202502064.131244
0510162021343121464200000122 1 1202502064.131332
0612102021343521464200000122 2 1202502064.131349
0110162021343521464200000122 1 1202502064.131406
0610162021343521464200000122 1 1202502064.131411
0510162021343122464200000122 1 1202502064.131440
0612102021343525464200000122 1 1202502064.131551
0110162021343525464200000122 1 1202502064.131604
0610162021343525464200000122 1 1202502064.131609
0121102220363050424223643404 2 1202502064.132314
0121102220363051424223643404 2 1202502064.132322
0122105021363102424223643404 2 1202502064.132327
0122105021363112424223643404 2 1202502064.132332
0122105021363122424223643404 2 1202502064.132338
0122105021363142424223643404 2 1202502064.132343
0111102220363052424223643404 2 1202502064.132348
0121102220363052424223643404 2 1202502064.132353
0122100021363152424223643404 2 1202502064.132357
0122102021363152424223643404 2 1202502064.132402
0122103021363152424223643404 2 1202502064.132407
0122105021363152424223643404 2 1202502064.132412
0122106021363152424223643404 2 1202502064.132416
0121102220363054424223643404 2 1202502064.132523
0121102220363005424223643404 2 1202502064.132603
0121102220363015424223643404 2 1202502064.132608
0121102220363025424223643404 2 1202502064.132613
0121102220363045424223643404 2 1202502064.132618
0121102220363055424223643404 2 1202502064.132623
0121102220363000424523643404 2 1202502064.133318
0121102220363010424523643404 2 1202502064.133323
0121102220363020424523643404 2 1202502064.133328
0121102220363040424523643404 2 1202502064.133427
0121102220363050424523643404 2 1202502064.133533
0121102220363001424523643404 2 1202502064.133538
0121102220363011424523643404 2 1202502064.133544
0121102220363021424523643404 2 1202502064.133549
0121102220363041424523643404 2 1202502064.133600
0121102220363051424523643404 2 1202502064.133611
0111102220363002424523643404 2 1202502064.133617
0121102220363002424523643404 2 1202502064.133621
0122100021363102424523643404 2 1202502064.133626
0122102021363102424523643404 2 1202502064.133631
0122103021363102424523643404 2 1202502064.133635
0122105021363102424523643404 2 1202502064.133640
0122106021363102424523643404 2 1202502064.133645
0111102220363012424523643404 2 1202502064.133650
0121102220363012424523643404 2 1202502064.133655
0122100021363112424523643404 2 1202502064.133659
0122102021363112424523643404 2 1202502064.133704
0122103021363112424523643404 2 1202502064.133709
0122105021363112424523643404 2 1202502064.133714
0122106021363112424523643404 2 1202502064.133718
0111102220363022424523643404 2 1202502064.133724
0121102220363022424523643404 2 1202502064.133728
0122100021363122424523643404 2 1202502064.133733
0122102021363122424523643404 2 1202502064.133738
0122103021363122424523643404 2 1202502064.133742
0122105021363122424523643404 2 1202502064.133747
0122106021363122424523643404 2 1202502064.133752
0111102220363042424523643404 2 1202502064.133757
0121102220363042424523643404 2 1202502064.133802
0122100021363142424523643404 2 1202502064.133809
0122102021363142424523643404 2 1202502064.133814
0122103021363142424523643404 2 1202502064.133819
0122105021363142424523643404 2 1202502064.133823
0122106021363142424523643404 2 1202502064.133828
0111102220363052424523643404 2 1202502064.133833
0121102220363052424523643404 2 1202502064.133838
0122100021363152424523643404 2 1202502064.133843
0122102021363152424523643404 2 1202502064.133847
0122103021363152424523643404 2 1202502064.133852
0122105021363152424523643404 2 1202502064.133857
0122106021363152424523643404 2 1202502064.133902
0121102220363004424523643404 2 1202502064.133923
0121102220363014424523643404 2 1202502064.134019
0121102220363024424523643404 2 1202502064.134115
0121102220363044424523643404 2 1202502064.134238
0121102220363054424523643404 2 1202502064.134416
0121102220363005424523643404 2 1202502064.134455
0121102220363015424523643404 2 1202502064.134501
0121102220363025424523643404 2 1202502064.134506
0121102220363045424523643404 2 1202502064.134511
0121102220363055424523643404 2 1202502064.134517
0121105220663200434224043124 2 1202502064.140939
0121105220663210434224043124 2 1202502064.140945
0121105220663220434224043124 2 1202502064.140951
0121105220663240434224043124 2 1202502064.140957
0121105220663250434224043124 2 1202502064.141003
0121105220663201434224043124 2 1202502064.141009
0121105220663211434224043124 2 1202502064.141015
0121105220663221434224043124 2 1202502064.141021
0121105220663241434224043124 2 1202502064.141027
0121105220663251434224043124 2 1202502064.141033
0121105220663202434224043124 2 1202502064.141039
0121105220663212434224043124 2 1202502064.141045
0121105220663222434224043124 2 1202502064.141051
0121105220663242434224043124 2 1202502064.141057
0121105220663252434224043124 2 1202502064.141103
0121105220663204434224043124 2 1202502064.141109
0121105220663214434224043124 2 1202502064.141115
0121105220663224434224043124 2 1202502064.141120
0121105220663244434224043124 2 1202502064.141126
0121105220663254434224043124 2 1202502064.141132
0121105220663205434224043124 2 1202502064.141138
0121105220663215434224043124 2 1202502064.141144
0121105220663225434224043124 2 1202502064.141150
0121105220663245434224043124 2 1202502064.141156
0121105220663255434224043124 2 1202502064.141202
0121105220663200434524043124 2 1202502064.145539
0121105220663210434524043124 2 1202502064.145545
0121105220663220434524043124 2 1202502064.145551
0121105220663240434524043124 2 1202502064.145557
0121105220663250434524043124 2 1202502064.145603
0121105220663201434524043124 2 1202502064.145609
0121105220663211434524043124 2 1202502064.145615
0121105220663221434524043124 2 1202502064.145621
0121105220663241434524043124 2 1202502064.145626
0121105220663251434524043124 2 1202502064.145632
0121105220663202434524043124 2 1202502064.145638
0121105220663212434524043124 2 1202502064.145644
0121105220663222434524043124 2 1202502064.145650
0121105220663242434524043124 2 1202502064.145656
0121105220663252434524043124 2 1202502064.145702
0121105220663204434524043124 2 1202502064.145708
0121105220663214434524043124 2 1202502064.145714
0121105220663224434524043124 2 1202502064.145719
0121105220663244434524043124 2 1202502064.145725
0121105220663254434524043124 2 1202502064.145731
0121105220663205434524043124 2 1202502064.145737
0121105220663215434524043124 2 1202502064.145743
0121105220663225434524043124 2 1202502064.145749
0121105220663245434524043124 2 1202502064.145755
0121105220663255434524043124 2 1202502064.145801
0122106021353102424234043124 2 1202502064.150054
0122106021353112424234043124 2 1202502064.150107
0122106021353122424234043124 2 1202502064.150119
0122106021353142424234043124 2 1202502064.150132
0522106225313144424210003445 2 1202502064.164102
0125103021163000424220003445 2 1202502064.171830
0125100021363100424220003445 2 1202502064.171835
0125102021363100424220003445 2 1202502064.171840
0125103021363100424220003445 2 1202502064.171844
0125105021363100424220003445 1 1202502064.171849
0125106021363100424220003445 2 1202502064.171854
0125103021163010424220003445 2 1202502064.171901
0125100021363110424220003445 2 1202502064.171906
0125102021363110424220003445 2 1202502064.171910
0125103021363110424220003445 2 1202502064.171915
0125105021363110424220003445 1 1202502064.171920
0125106021363110424220003445 2 1202502064.171925
0125103021163020424220003445 2 1202502064.171931
0125100021363120424220003445 2 1202502064.171936
0125102021363120424220003445 2 1202502064.171941
0125103021363120424220003445 2 1202502064.171946
0125105021363120424220003445 1 1202502064.171950
0125106021363120424220003445 2 1202502064.171955
0125103021163040424220003445 2 1202502064.172006
0125100021363140424220003445 2 1202502064.172019
0125102021363140424220003445 2 1202502064.172029
0125103021363140424220003445 2 1202502064.172034
0125105021363140424220003445 1 1202502064.172039
0125106021363140424220003445 2 1202502064.172044
0125103021163050424220003445 2 1202502064.172051
0125100021363150424220003445 2 1202502064.172056
0125102021363150424220003445 2 1202502064.172101
0125103021363150424220003445 2 1202502064.172105
0125105021363150424220003445 1 1202502064.172110
0125106021363150424220003445 2 1202502064.172115
0125103021163001424220003445 2 1202502064.172121
0125100021363101424220003445 2 1202502064.172127
0125102021363101424220003445 2 1202502064.172131
0125103021363101424220003445 2 1202502064.172136
0125105021363101424220003445 1 1202502064.172141
0125106021363101424220003445 2 1202502064.172145
0125103021163011424220003445 2 1202502064.172152
0125100021363111424220003445 2 1202502064.172157
0125102021363111424220003445 2 1202502064.172202
0125103021363111424220003445 2 1202502064.172207
0125105021363111424220003445 1 1202502064.172211
0125106021363111424220003445 2 1202502064.172216
0125103021163021424220003445 2 1202502064.172223
0125100021363121424220003445 2 1202502064.172228
0125102021363121424220003445 2 1202502064.172233
0125103021363121424220003445 2 1202502064.172237
0125105021363121424220003445 1 1202502064.172242
0125106021363121424220003445 2 1202502064.172247
0125103021163041424220003445 2 1202502064.172253
0125100021363141424220003445 2 1202502064.172259
0125102021363141424220003445 2 1202502064.172303
0125103021363141424220003445 2 1202502064.172308
0125105021363141424220003445 1 1202502064.172313
0125106021363141424220003445 2 1202502064.172317
0125103021163051424220003445 2 1202502064.172324
0125100021363151424220003445 2 1202502064.172329
0125102021363151424220003445 2 1202502064.172334
0125103021363151424220003445 2 1202502064.172339
0125105021363151424220003445 1 1202502064.172343
0125106021363151424220003445 2 1202502064.172348
0125103021163002424220003445 2 1202502064.172355
0125100021363102424220003445 2 1202502064.172400
0125102021363102424220003445 2 1202502064.172405
0125103021363102424220003445 2 1202502064.172409
0125105021363102424220003445 1 1202502064.172414
0125106021363102424220003445 2 1202502064.172419
0125103021163012424220003445 2 1202502064.172425
0125100021363112424220003445 2 1202502064.172431
0125102021363112424220003445 2 1202502064.172435
0125103021363112424220003445 2 1202502064.172440
0125105021363112424220003445 1 1202502064.172445
0125106021363112424220003445 2 1202502064.172449
0125103021163022424220003445 2 1202502064.172456
0125100021363122424220003445 2 1202502064.172501
0125102021363122424220003445 2 1202502064.172506
0125103021363122424220003445 2 1202502064.172510
0125105021363122424220003445 1 1202502064.172515
0125106021363122424220003445 2 1202502064.172520
0125103021163042424220003445 2 1202502064.172527
0125100021363142424220003445 2 1202502064.172532
0125102021363142424220003445 2 1202502064.172537
0125103021363142424220003445 2 1202502064.172541
0125105021363142424220003445 1 1202502064.172546
0125106021363142424220003445 2 1202502064.172551
0125103021163052424220003445 2 1202502064.172557
0125100021363152424220003445 2 1202502064.172603
0125102021363152424220003445 2 1202502064.172607
0125103021363152424220003445 2 1202502064.172612
0125105021363152424220003445 1 1202502064.172617
0125106021363152424220003445 2 1202502064.172621
0125103021163004424220003445 2 1202502064.172645
0125100021363104424220003445 2 1202502064.172701
0125102021363104424220003445 2 1202502064.172706
0125103021363104424220003445 2 1202502064.172710
0125105021363104424220003445 1 1202502064.172715
0125106021363104424220003445 2 1202502064.172720
0125103021163014424220003445 2 1202502064.172745
0125100021363114424220003445 2 1202502064.172800
0125102021363114424220003445 2 1202502064.172805
0125103021363114424220003445 2 1202502064.172810
0125105021363114424220003445 1 1202502064.172815
0125106021363114424220003445 2 1202502064.172819
0125103021163024424220003445 2 1202502064.172844
0125100021363124424220003445 2 1202502064.172900
0125102021363124424220003445 2 1202502064.172905
0125103021363124424220003445 2 1202502064.172909
0125105021363124424220003445 1 1202502064.172914
0125106021363124424220003445 2 1202502064.172919
0125103021163044424220003445 2 1202502064.172944
0125100021363144424220003445 2 1202502064.173002
0125102021363144424220003445 2 1202502064.173010
0125103021363144424220003445 2 1202502064.173014
0125105021363144424220003445 1 1202502064.173019
0125106021363144424220003445 2 1202502064.173024
0125103021163054424220003445 2 1202502064.173048
0125100021363154424220003445 2 1202502064.173104
0125102021363154424220003445 2 1202502064.173109
0125103021363154424220003445 2 1202502064.173114
0125105021363154424220003445 1 1202502064.173118
0125106021363154424220003445 2 1202502064.173123
0122103021163005424220003445 2 1202502064.173131
0125103021163005424220003445 2 1202502064.173135
0125100021363105424220003445 2 1202502064.173140
0125102021363105424220003445 2 1202502064.173145
0125103021363105424220003445 2 1202502064.173150
0125105021363105424220003445 1 1202502064.173154
0125106021363105424220003445 2 1202502064.173159
0125103021163015424220003445 2 1202502064.173206
0125100021363115424220003445 2 1202502064.173211
0125102021363115424220003445 2 1202502064.173216
0125103021363115424220003445 2 1202502064.173220
0125105021363115424220003445 1 1202502064.173225
0125106021363115424220003445 2 1202502064.173230
0125103021163025424220003445 2 1202502064.173236
0125100021363125424220003445 2 1202502064.173242
0125102021363125424220003445 2 1202502064.173246
0125103021363125424220003445 2 1202502064.173251
0125105021363125424220003445 1 1202502064.173256
0125106021363125424220003445 2 1202502064.173300
0125103021163045424220003445 2 1202502064.173307
0125100021363145424220003445 2 1202502064.173312
0125102021363145424220003445 2 1202502064.173317
0125103021363145424220003445 2 1202502064.173322
0125105021363145424220003445 1 1202502064.173326
0125106021363145424220003445 2 1202502064.173331
0125103021163055424220003445 2 1202502064.173337
0125100021363155424220003445 2 1202502064.173343
0125102021363155424220003445 2 1202502064.173347
0125103021363155424220003445 2 1202502064.173352
0125105021363155424220003445 1 1202502064.173357
0125106021363155424220003445 2 1202502064.173401
0122105526363000454220003445 1 1202502064.173454
0122105526363010454220003445 1 1202502064.173502
0122105526363020454220003445 1 1202502064.173512
0122105526363040454220003445 1 1202502064.173555
0122105526363050454220003445 1 1202502064.173644
0122105526363001454220003445 1 1202502064.173651
0122105526363011454220003445 1 1202502064.173659
0122105526363021454220003445 1 1202502064.173706
0112102526303041454220003445 1 1202502064.173713
0122105526363041454220003445 1 1202502064.173719
0122105526363051454220003445 1 1202502064.173729
0122105526363002454220003445 1 1202502064.173736
0122105526363012454220003445 1 1202502064.173744
0122105526363022454220003445 1 1202502064.173752
0122103021163042454220003445 2 1202502064.173759
0122105526363042454220003445 1 1202502064.173804
0122105526363052454220003445 1 1202502064.173811
0122103021163004454220003445 2 1202502064.174000
0122105526363004454220003445 1 1202502064.174010
0122105526333104454220003445 1 1202502064.174035
0122105526363014454220003445 1 1202502064.174258
0122105526333114454220003445 1 1202502064.174323
0122105526363024454220003445 1 1202502064.174547
0122105526333124454220003445 1 1202502064.174612
0122105526363044454220003445 1 1202502064.174844
0122105526333144454220003445 1 1202502064.174920
0122105526363054454220003445 1 1202502064.175146
0122105526333154454220003445 1 1202502064.175211
0122105526363005454220003445 1 1202502064.175249
0122105526333105454220003445 1 1202502064.175254
0122105526363015454220003445 1 1202502064.175301
0122105526333115454220003445 1 1202502064.175306
0122105526363025454220003445 1 1202502064.175313
0122105526333125454220003445 1 1202502064.175318
0112102526303045454220003445 1 1202502064.175325
0122103021163045454220003445 2 1202502064.175330
0122105526363045454220003445 1 1202502064.175335
0122105526333145454220003445 1 1202502064.175340
0122105526363055454220003445 1 1202502064.175347
0122105526333155454220003445 1 1202502064.175352
0125103021163000424520003445 2 1202502064.175703
0125100021363100424520003445 2 1202502064.175708
0125102021363100424520003445 2 1202502064.175712
0125103021363100424520003445 2 1202502064.175717
0125105021363100424520003445 1 1202502064.175722
0125106021363100424520003445 2 1202502064.175726
0125103021163010424520003445 2 1202502064.175733
0125100021363110424520003445 2 1202502064.175738
0125102021363110424520003445 2 1202502064.175743
0125103021363110424520003445 2 1202502064.175748
0125105021363110424520003445 1 1202502064.175753
0125106021363110424520003445 2 1202502064.175757
0125103021163020424520003445 2 1202502064.175804
0125100021363120424520003445 2 1202502064.175809
0125102021363120424520003445 2 1202502064.175814
0125103021363120424520003445 2 1202502064.175818
0125105021363120424520003445 1 1202502064.175823
0125106021363120424520003445 2 1202502064.175828
0125103021163040424520003445 2 1202502064.175839
0125100021363140424520003445 2 1202502064.175852
0125102021363140424520003445 2 1202502064.175902
0125103021363140424520003445 2 1202502064.175907
0125105021363140424520003445 1 1202502064.175912
0125106021363140424520003445 2 1202502064.175917
0125103021163050424520003445 2 1202502064.175924
0125100021363150424520003445 2 1202502064.175929
0125102021363150424520003445 2 1202502064.175933
0125103021363150424520003445 2 1202502064.175938
0125105021363150424520003445 1 1202502064.175943
0125106021363150424520003445 2 1202502064.175947
0125103021163001424520003445 2 1202502064.175954
0125100021363101424520003445 2 1202502064.180000
0125102021363101424520003445 2 1202502064.180004
0125103021363101424520003445 2 1202502064.180009
0125105021363101424520003445 1 1202502064.180014
0125106021363101424520003445 2 1202502064.180018
0125103021163011424520003445 2 1202502064.180025
0125100021363111424520003445 2 1202502064.180031
0125102021363111424520003445 2 1202502064.180035
0125103021363111424520003445 2 1202502064.180040
0125105021363111424520003445 1 1202502064.180045
0125106021363111424520003445 2 1202502064.180049
0125103021163021424520003445 2 1202502064.180056
0125100021363121424520003445 2 1202502064.180102
0125102021363121424520003445 2 1202502064.180106
0125103021363121424520003445 2 1202502064.180111
0125105021363121424520003445 1 1202502064.180116
0125106021363121424520003445 2 1202502064.180120
0125103021163041424520003445 2 1202502064.180127
0125100021363141424520003445 2 1202502064.180133
0125102021363141424520003445 2 1202502064.180138
0125103021363141424520003445 2 1202502064.180142
0125105021363141424520003445 1 1202502064.180147
0125106021363141424520003445 2 1202502064.180152
0125103021163051424520003445 2 1202502064.180159
0125100021363151424520003445 2 1202502064.180204
0125102021363151424520003445 2 1202502064.180209
0125103021363151424520003445 2 1202502064.180213
0125105021363151424520003445 1 1202502064.180218
0125106021363151424520003445 2 1202502064.180223
0125103021163002424520003445 2 1202502064.180229
0125100021363102424520003445 2 1202502064.180235
0125102021363102424520003445 2 1202502064.180239
0125103021363102424520003445 2 1202502064.180244
0125105021363102424520003445 1 1202502064.180249
0125106021363102424520003445 2 1202502064.180253
0125103021163012424520003445 2 1202502064.180300
0125100021363112424520003445 2 1202502064.180305
0125102021363112424520003445 2 1202502064.180310
0125103021363112424520003445 2 1202502064.180314
0125105021363112424520003445 1 1202502064.180319
0125106021363112424520003445 2 1202502064.180324
0125103021163022424520003445 2 1202502064.180331
0125100021363122424520003445 2 1202502064.180336
0125102021363122424520003445 2 1202502064.180340
0125103021363122424520003445 2 1202502064.180345
0125105021363122424520003445 1 1202502064.180350
0125106021363122424520003445 2 1202502064.180355
0125103021163042424520003445 2 1202502064.180401
0125100021363142424520003445 2 1202502064.180407
0125102021363142424520003445 2 1202502064.180411
0125103021363142424520003445 2 1202502064.180416
0125105021363142424520003445 1 1202502064.180421
0125106021363142424520003445 2 1202502064.180425
0125103021163052424520003445 2 1202502064.180432
0125100021363152424520003445 2 1202502064.180437
0125102021363152424520003445 2 1202502064.180442
0125103021363152424520003445 2 1202502064.180447
0125105021363152424520003445 1 1202502064.180451
0125106021363152424520003445 2 1202502064.180456
0125103021163004424520003445 2 1202502064.180521
0125100021363104424520003445 2 1202502064.180536
0125102021363104424520003445 2 1202502064.180540
0125103021363104424520003445 2 1202502064.180545
0125105021363104424520003445 1 1202502064.180550
0125106021363104424520003445 2 1202502064.180554
0125103021163014424520003445 2 1202502064.180619
0125100021363114424520003445 2 1202502064.180634
0125102021363114424520003445 2 1202502064.180639
0125103021363114424520003445 2 1202502064.180643
0125105021363114424520003445 1 1202502064.180648
0125106021363114424520003445 2 1202502064.180653
0125103021163024424520003445 2 1202502064.180718
0125100021363124424520003445 2 1202502064.180733
0125102021363124424520003445 2 1202502064.180737
0125103021363124424520003445 2 1202502064.180742
0125105021363124424520003445 1 1202502064.180747
0125106021363124424520003445 2 1202502064.180751
0125103021163044424520003445 2 1202502064.180817
0125100021363144424520003445 2 1202502064.180834
0125102021363144424520003445 2 1202502064.180841
0125103021363144424520003445 2 1202502064.180846
0125105021363144424520003445 1 1202502064.180851
0125106021363144424520003445 2 1202502064.180856
0125103021163054424520003445 2 1202502064.180921
0125100021363154424520003445 2 1202502064.180935
0125102021363154424520003445 2 1202502064.180940
0125103021363154424520003445 2 1202502064.180945
0125105021363154424520003445 1 1202502064.180949
0125106021363154424520003445 2 1202502064.180954
0122103021163005424520003445 2 1202502064.181001
0125103021163005424520003445 2 1202502064.181006
0125100021363105424520003445 2 1202502064.181011
0125102021363105424520003445 2 1202502064.181015
0125103021363105424520003445 2 1202502064.181020
0125105021363105424520003445 1 1202502064.181025
0125106021363105424520003445 2 1202502064.181029
0125103021163015424520003445 2 1202502064.181036
0125100021363115424520003445 2 1202502064.181041
0125102021363115424520003445 2 1202502064.181046
0125103021363115424520003445 2 1202502064.181051
0125105021363115424520003445 1 1202502064.181055
0125106021363115424520003445 2 1202502064.181100
0125103021163025424520003445 2 1202502064.181107
0125100021363125424520003445 2 1202502064.181112
0125102021363125424520003445 2 1202502064.181117
0125103021363125424520003445 2 1202502064.181121
0125105021363125424520003445 1 1202502064.181126
0125106021363125424520003445 2 1202502064.181131
0125103021163045424520003445 2 1202502064.181137
0125100021363145424520003445 2 1202502064.181143
0125102021363145424520003445 2 1202502064.181147
0125103021363145424520003445 2 1202502064.181152
0125105021363145424520003445 1 1202502064.181157
0125106021363145424520003445 2 1202502064.181201
0125103021163055424520003445 2 1202502064.181208
0125100021363155424520003445 2 1202502064.181213
0125102021363155424520003445 2 1202502064.181217
0125103021363155424520003445 2 1202502064.181222
0125105021363155424520003445 1 1202502064.181227
0125106021363155424520003445 2 1202502064.181231
0122105526363000454520003445 1 1202502064.181326
0122105526363010454520003445 1 1202502064.181333
0122105526363020454520003445 1 1202502064.181343
0122105526363040454520003445 1 1202502064.181427
0122105526363050454520003445 1 1202502064.181515
0122105526363001454520003445 1 1202502064.181523
0122105526363011454520003445 1 1202502064.181532
0122105526363021454520003445 1 1202502064.181540
0112102526303041454520003445 1 1202502064.181548
0122105526363041454520003445 1 1202502064.181554
0122105526363051454520003445 1 1202502064.181605
0122105526363002454520003445 1 1202502064.181612
0122105526363012454520003445 1 1202502064.181620
0122105526363022454520003445 1 1202502064.181627
0122103021163042454520003445 2 1202502064.181634
0122105526363042454520003445 1 1202502064.181639
0122105526363052454520003445 1 1202502064.181646
0122103021163004454520003445 2 1202502064.181835
0122105526363004454520003445 1 1202502064.181844
0122105526333104454520003445 1 1202502064.181909
0122105526363014454520003445 1 1202502064.182133
0122105526333114454520003445 1 1202502064.182158
0122105526363024454520003445 1 1202502064.182422
0122105526333124454520003445 1 1202502064.182447
0122105526363044454520003445 1 1202502064.182719
0122105526333144454520003445 1 1202502064.182754
0122105526363054454520003445 1 1202502064.183021
0122105526333154454520003445 1 1202502064.183046
0122105526363005454520003445 1 1202502064.183123
0122105526333105454520003445 1 1202502064.183128
0122105526363015454520003445 1 1202502064.183135
0122105526333115454520003445 1 1202502064.183140
0122105526363025454520003445 1 1202502064.183147
0122105526333125454520003445 1 1202502064.183152
0112102526303045454520003445 1 1202502064.183159
0122103021163045454520003445 2 1202502064.183204
0122105526363045454520003445 1 1202502064.183208
0122105526333145454520003445 1 1202502064.183213
0122105526363055454520003445 1 1202502064.183220
0122105526333155454520003445 1 1202502064.183225
