0012162521303040424200000660 1 1202502053.012335
0011162021353040424200000660 2 1202502053.012344
0012162521303540424200000660 1 1202502053.012359
0011162021353540424200000660 2 1202502053.012410
0122105021633404424224463122 2 1202502053.014217
0122105021633414424224463122 2 1202502053.014236
0122105021633424424224463122 2 1202502053.014255
0122105021633444424224463122 2 1202502053.014315
0122100021633454424224463122 2 1202502053.014434
0122102021633454424224463122 2 1202502053.014439
0122103021633454424224463122 2 1202502053.014444
0122105021633454424224463122 2 1202502053.014448
0122106021633454424224463122 2 1202502053.014453
0122105021643200434224463122 2 1202502053.014506
0122105021643210434224463122 2 1202502053.014511
0122105021643220434224463122 2 1202502053.014516
0122105021643240434224463122 2 1202502053.014521
0122100021643250434224463122 2 1202502053.014526
0122102021643250434224463122 2 1202502053.014531
0122103021643250434224463122 2 1202502053.014536
0122105021643250434224463122 2 1202502053.014540
0122106021643250434224463122 2 1202502053.014545
0122105021643201434224463122 2 1202502053.014550
0122105021643211434224463122 2 1202502053.014555
0122105021643221434224463122 2 1202502053.014600
0122105021643241434224463122 2 1202502053.014605
0122100021643251434224463122 2 1202502053.014610
0122102021643251434224463122 2 1202502053.014615
0122103021643251434224463122 2 1202502053.014620
0122105021643251434224463122 2 1202502053.014624
0122106021643251434224463122 2 1202502053.014629
0122105021643202434224463122 2 1202502053.014634
0122105021643212434224463122 2 1202502053.014639
0122105021643222434224463122 2 1202502053.014644
0122105021643242434224463122 2 1202502053.014649
0122100021643252434224463122 2 1202502053.014654
0122102021643252434224463122 2 1202502053.014659
0122103021643252434224463122 2 1202502053.014703
0122105021643252434224463122 2 1202502053.014708
0122106021643252434224463122 2 1202502053.014713
0122105021643204434224463122 2 1202502053.014718
0122105021643214434224463122 2 1202502053.014723
0122105021643224434224463122 2 1202502053.014728
0122105021643244434224463122 2 1202502053.014733
0122100021643254434224463122 2 1202502053.014738
0122102021643254434224463122 2 1202502053.014743
0122103021643254434224463122 2 1202502053.014747
0122105021643254434224463122 2 1202502053.014752
0122106021643254434224463122 2 1202502053.014757
0122100021643205434224463122 2 1202502053.014802
0122102021643205434224463122 2 1202502053.014807
0122103021643205434224463122 2 1202502053.014811
0122105021643205434224463122 2 1202502053.014816
0122106021643205434224463122 2 1202502053.014821
0122100021643215434224463122 2 1202502053.014826
0122102021643215434224463122 2 1202502053.014830
0122103021643215434224463122 2 1202502053.014835
0122105021643215434224463122 2 1202502053.014840
0122106021643215434224463122 2 1202502053.014844
0122100021643225434224463122 2 1202502053.014849
0122102021643225434224463122 2 1202502053.014854
0122103021643225434224463122 2 1202502053.014859
0122105021643225434224463122 2 1202502053.014904
0122106021643225434224463122 2 1202502053.014908
0122100021643245434224463122 2 1202502053.014913
0122102021643245434224463122 2 1202502053.014918
0122103021643245434224463122 2 1202502053.014923
0122105021643245434224463122 2 1202502053.014927
0122106021643245434224463122 2 1202502053.014932
0122100021643255434224463122 2 1202502053.014937
0122102021643255434224463122 2 1202502053.014942
0122103021643255434224463122 2 1202502053.014946
0122105021643255434224463122 2 1202502053.014951
0122106021643255434224463122 2 1202502053.014956
0122100021633404424524463122 2 1202502053.020314
0122102021633404424524463122 2 1202502053.020319
0122103021633404424524463122 2 1202502053.020324
0122105021633404424524463122 2 1202502053.020328
0122106021633404424524463122 2 1202502053.020333
0122100021633414424524463122 2 1202502053.020452
0122102021633414424524463122 2 1202502053.020457
0122103021633414424524463122 2 1202502053.020502
0122105021633414424524463122 2 1202502053.020507
0122106021633414424524463122 2 1202502053.020511
0122100021633424424524463122 2 1202502053.020631
0122102021633424424524463122 2 1202502053.020635
0122103021633424424524463122 2 1202502053.020640
0122105021633424424524463122 2 1202502053.020645
0122106021633424424524463122 2 1202502053.020650
0122103021613444424524463122 2 1202502053.020926
0122100021633444424524463122 2 1202502053.020931
0122102021633444424524463122 2 1202502053.020935
0122103021633444424524463122 2 1202502053.020940
0122105021633444424524463122 2 1202502053.020945
0122106021633444424524463122 2 1202502053.020950
0122100021633454424524463122 2 1202502053.021109
0122102021633454424524463122 2 1202502053.021114
0122103021633454424524463122 2 1202502053.021118
0122105021633454424524463122 2 1202502053.021123
0122106021633454424524463122 2 1202502053.021128
0122100021643200434524463122 2 1202502053.021141
0122102021643200434524463122 2 1202502053.021145
0122103021643200434524463122 2 1202502053.021150
0122105021643200434524463122 2 1202502053.021155
0122106021643200434524463122 2 1202502053.021200
0122100021643210434524463122 2 1202502053.021204
0122102021643210434524463122 2 1202502053.021209
0122103021643210434524463122 2 1202502053.021214
0122105021643210434524463122 2 1202502053.021219
0122106021643210434524463122 2 1202502053.021223
0122100021643220434524463122 2 1202502053.021228
0122102021643220434524463122 2 1202502053.021233
0122103021643220434524463122 2 1202502053.021238
0122105021643220434524463122 2 1202502053.021242
0122106021643220434524463122 2 1202502053.021247
0122100021643240434524463122 2 1202502053.021252
0122102021643240434524463122 2 1202502053.021257
0122103021643240434524463122 2 1202502053.021302
0122105021643240434524463122 2 1202502053.021306
0122106021643240434524463122 2 1202502053.021311
0122100021643250434524463122 2 1202502053.021316
0122102021643250434524463122 2 1202502053.021321
0122103021643250434524463122 2 1202502053.021325
0122105021643250434524463122 2 1202502053.021330
0122106021643250434524463122 2 1202502053.021335
0122100021643201434524463122 2 1202502053.021340
0122102021643201434524463122 2 1202502053.021344
0122103021643201434524463122 2 1202502053.021349
0122105021643201434524463122 2 1202502053.021354
0122106021643201434524463122 2 1202502053.021359
0122100021643211434524463122 2 1202502053.021404
0122102021643211434524463122 2 1202502053.021408
0122103021643211434524463122 2 1202502053.021413
0122105021643211434524463122 2 1202502053.021418
0122106021643211434524463122 2 1202502053.021422
0122100021643221434524463122 2 1202502053.021427
0122102021643221434524463122 2 1202502053.021432
0122103021643221434524463122 2 1202502053.021437
0122105021643221434524463122 2 1202502053.021441
0122106021643221434524463122 2 1202502053.021446
0122100021643241434524463122 2 1202502053.021451
0122102021643241434524463122 2 1202502053.021456
0122103021643241434524463122 2 1202502053.021501
0122105021643241434524463122 2 1202502053.021505
0122106021643241434524463122 2 1202502053.021510
0122100021643251434524463122 2 1202502053.021515
0122102021643251434524463122 2 1202502053.021520
0122103021643251434524463122 2 1202502053.021524
0122105021643251434524463122 2 1202502053.021529
0122106021643251434524463122 2 1202502053.021534
0122100021643202434524463122 2 1202502053.021539
0122102021643202434524463122 2 1202502053.021543
0122103021643202434524463122 2 1202502053.021548
0122105021643202434524463122 2 1202502053.021553
0122106021643202434524463122 2 1202502053.021558
0122100021643212434524463122 2 1202502053.021602
0122102021643212434524463122 2 1202502053.021607
0122103021643212434524463122 2 1202502053.021612
0122105021643212434524463122 2 1202502053.021617
0122106021643212434524463122 2 1202502053.021621
0122100021643222434524463122 2 1202502053.021626
0122102021643222434524463122 2 1202502053.021631
0122103021643222434524463122 2 1202502053.021636
0122105021643222434524463122 2 1202502053.021640
0122106021643222434524463122 2 1202502053.021645
0122100021643242434524463122 2 1202502053.021650
0122102021643242434524463122 2 1202502053.021655
0122103021643242434524463122 2 1202502053.021659
0122105021643242434524463122 2 1202502053.021704
0122106021643242434524463122 2 1202502053.021709
0122100021643252434524463122 2 1202502053.021714
0122102021643252434524463122 2 1202502053.021719
0122103021643252434524463122 2 1202502053.021723
0122105021643252434524463122 2 1202502053.021728
0122106021643252434524463122 2 1202502053.021733
0122100021643204434524463122 2 1202502053.021738
0122102021643204434524463122 2 1202502053.021742
0122103021643204434524463122 2 1202502053.021747
0122105021643204434524463122 2 1202502053.021752
0122106021643204434524463122 2 1202502053.021757
0122100021643214434524463122 2 1202502053.021801
0122102021643214434524463122 2 1202502053.021806
0122103021643214434524463122 2 1202502053.021811
0122105021643214434524463122 2 1202502053.021816
0122106021643214434524463122 2 1202502053.021820
0122100021643224434524463122 2 1202502053.021825
0122102021643224434524463122 2 1202502053.021830
0122103021643224434524463122 2 1202502053.021835
0122105021643224434524463122 2 1202502053.021839
0122106021643224434524463122 2 1202502053.021844
0122100021643244434524463122 2 1202502053.021849
0122102021643244434524463122 2 1202502053.021854
0122103021643244434524463122 2 1202502053.021858
0122105021643244434524463122 2 1202502053.021903
0122106021643244434524463122 2 1202502053.021908
0122100021643254434524463122 2 1202502053.021913
0122102021643254434524463122 2 1202502053.021918
0122103021643254434524463122 2 1202502053.021922
0122105021643254434524463122 2 1202502053.021927
0122106021643254434524463122 2 1202502053.021932
0122100021643205434524463122 2 1202502053.021937
0122102021643205434524463122 2 1202502053.021941
0122103021643205434524463122 2 1202502053.021946
0122105021643205434524463122 2 1202502053.021951
0122106021643205434524463122 2 1202502053.021955
0122100021643215434524463122 2 1202502053.022000
0122102021643215434524463122 2 1202502053.022005
0122103021643215434524463122 2 1202502053.022010
0122105021643215434524463122 2 1202502053.022014
0122106021643215434524463122 2 1202502053.022019
0122100021643225434524463122 2 1202502053.022024
0122102021643225434524463122 2 1202502053.022029
0122103021643225434524463122 2 1202502053.022034
0122105021643225434524463122 2 1202502053.022038
0122106021643225434524463122 2 1202502053.022043
0122100021643245434524463122 2 1202502053.022048
0122102021643245434524463122 2 1202502053.022053
0122103021643245434524463122 2 1202502053.022057
0122105021643245434524463122 2 1202502053.022102
0122106021643245434524463122 2 1202502053.022107
0122100021643255434524463122 2 1202502053.022112
0122102021643255434524463122 2 1202502053.022116
0122103021643255434524463122 2 1202502053.022121
0122105021643255434524463122 2 1202502053.022126
0122106021643255434524463122 2 1202502053.022130
0122153021613440424200003504 2 1202502053.022428
0122150021633404424200003504 2 1202502053.022651
0122152021633404424200003504 2 1202502053.022656
0122153021633404424200003504 2 1202502053.022702
0122155021633404424200003504 2 1202502053.022707
0122156021633404424200003504 2 1202502053.022713
0122150021633414424200003504 2 1202502053.022837
0122152021633414424200003504 2 1202502053.022842
0122153021633414424200003504 2 1202502053.022848
0122155021633414424200003504 2 1202502053.022853
0122156021633414424200003504 2 1202502053.022859
0122150021633424424200003504 2 1202502053.023023
0122152021633424424200003504 2 1202502053.023029
0122153021633424424200003504 2 1202502053.023034
0122155021633424424200003504 2 1202502053.023040
0122156021633424424200003504 2 1202502053.023045
0122153021613444424200003504 2 1202502053.023223
0122150021633444424200003504 2 1202502053.023229
0122152021633444424200003504 2 1202502053.023235
0122153021633444424200003504 2 1202502053.023240
0122155021633444424200003504 2 1202502053.023246
0122156021633444424200003504 2 1202502053.023251
0122150021633454424200003504 2 1202502053.023440
0122152021633454424200003504 2 1202502053.023445
0122153021633454424200003504 2 1202502053.023451
0122155021633454424200003504 2 1202502053.023456
0122156021633454424200003504 2 1202502053.023502
0124105526333105424220003504 1 1202502053.134035
0124105526333115424220003504 1 1202502053.134043
0124105526333125424220003504 1 1202502053.134051
0124105526333145424220003504 1 1202502053.134059
0124105526333155424220003504 1 1202502053.134107
0111102220343000464220003504 2 1202502053.135543
0121102220343000464220003504 2 1202502053.135548
0111102520343000464220003504 2 1202502053.135553
0121102520343000464220003504 2 1202502053.135557
0111102521343000464220003504 5 1202502053.135602
0121102521343000464220003504 5 1202502053.135606
0111102523343000464220003504 5 1202502053.135611
0121102523343000464220003504 5 1202502053.135616
0111102524343000464220003504 5 1202502053.135620
0121102524343000464220003504 5 1202502053.135625
0122105524343000464220003504 1 1202502053.135630
0111102526343000464220003504 5 1202502053.135634
0121102526343000464220003504 5 1202502053.135639
0111102220343010464220003504 2 1202502053.135646
0121102220343010464220003504 2 1202502053.135651
0111102520343010464220003504 2 1202502053.135656
0121102520343010464220003504 2 1202502053.135700
0111102521343010464220003504 5 1202502053.135705
0121102521343010464220003504 5 1202502053.135710
0111102523343010464220003504 5 1202502053.135714
0121102523343010464220003504 5 1202502053.135719
0111102524343010464220003504 5 1202502053.135724
0121102524343010464220003504 5 1202502053.135728
0122105524343010464220003504 1 1202502053.135733
0111102526343010464220003504 5 1202502053.135737
0121102526343010464220003504 5 1202502053.135742
0111102220343020464220003504 2 1202502053.135750
0121102220343020464220003504 2 1202502053.135754
0111102520343020464220003504 2 1202502053.135759
0121102520343020464220003504 2 1202502053.135804
0111102521343020464220003504 5 1202502053.135808
0121102521343020464220003504 5 1202502053.135813
0111102523343020464220003504 5 1202502053.135818
0121102523343020464220003504 5 1202502053.135822
0111102524343020464220003504 5 1202502053.135827
0121102524343020464220003504 5 1202502053.135832
0122105524343020464220003504 1 1202502053.135836
0111102526343020464220003504 5 1202502053.135841
0121102526343020464220003504 5 1202502053.135846
0111102220343040464220003504 2 1202502053.135853
0121102220343040464220003504 2 1202502053.135858
0111102520343040464220003504 2 1202502053.135902
0121102520343040464220003504 2 1202502053.135907
0111102521343040464220003504 5 1202502053.135912
0121102521343040464220003504 5 1202502053.135916
0111102523343040464220003504 5 1202502053.135921
0121102523343040464220003504 5 1202502053.135925
0111102524343040464220003504 5 1202502053.135930
0121102524343040464220003504 5 1202502053.135935
0122105524343040464220003504 1 1202502053.135939
0111102526343040464220003504 5 1202502053.135944
0121102526343040464220003504 5 1202502053.135949
0111102220343050464220003504 2 1202502053.135956
0121102220343050464220003504 2 1202502053.140001
0111102520343050464220003504 2 1202502053.140005
0121102520343050464220003504 2 1202502053.140010
0111102521343050464220003504 5 1202502053.140015
0121102521343050464220003504 5 1202502053.140019
0111102523343050464220003504 5 1202502053.140024
0121102523343050464220003504 5 1202502053.140028
0111102524343050464220003504 5 1202502053.140033
0121102524343050464220003504 5 1202502053.140038
0122105524343050464220003504 1 1202502053.140042
0111102526343050464220003504 5 1202502053.140047
0121102526343050464220003504 5 1202502053.140052
0121102220343001464220003504 2 1202502053.140059
0121102520343001464220003504 2 1202502053.140104
0121102521343001464220003504 5 1202502053.140108
0121102523343001464220003504 5 1202502053.140113
0121102524343001464220003504 5 1202502053.140117
0122105524343001464220003504 1 1202502053.140122
0121102526343001464220003504 5 1202502053.140127
0121102220343011464220003504 2 1202502053.140134
0121102520343011464220003504 2 1202502053.140139
0121102521343011464220003504 5 1202502053.140144
0121102523343011464220003504 5 1202502053.140148
0121102524343011464220003504 5 1202502053.140153
0122105524343011464220003504 1 1202502053.140157
0121102526343011464220003504 5 1202502053.140202
0121102220343021464220003504 2 1202502053.140210
0121102520343021464220003504 2 1202502053.140214
0121102521343021464220003504 5 1202502053.140219
0121102523343021464220003504 5 1202502053.140224
0121102524343021464220003504 5 1202502053.140228
0122105524343021464220003504 1 1202502053.140233
0121102526343021464220003504 5 1202502053.140237
0121102220343041464220003504 2 1202502053.140245
0121102520343041464220003504 2 1202502053.140250
0121102521343041464220003504 5 1202502053.140254
0121102523343041464220003504 5 1202502053.140259
0121102524343041464220003504 5 1202502053.140304
0122105524343041464220003504 1 1202502053.140308
0121102526343041464220003504 5 1202502053.140313
0121102220343051464220003504 2 1202502053.140321
0121102520343051464220003504 2 1202502053.140325
0121102521343051464220003504 5 1202502053.140330
0121102523343051464220003504 5 1202502053.140335
0121102524343051464220003504 5 1202502053.140339
0122105524343051464220003504 1 1202502053.140344
0121102526343051464220003504 5 1202502053.140348
0122100021343151464220003504 5 1202502053.140354
0111102220343002464220003504 2 1202502053.140401
0121102220343002464220003504 2 1202502053.140405
0111102520343002464220003504 2 1202502053.140410
0121102520343002464220003504 2 1202502053.140415
0121102521343002464220003504 5 1202502053.140419
0121102523343002464220003504 5 1202502053.140424
0121102524343002464220003504 5 1202502053.140429
0122105524343002464220003504 1 1202502053.140433
0121102526343002464220003504 5 1202502053.140438
0121105020343102464220003504 1 1202502053.140443
0111102220343012464220003504 2 1202502053.140450
0121102220343012464220003504 2 1202502053.140454
0111102520343012464220003504 2 1202502053.140459
0121102520343012464220003504 2 1202502053.140504
0121102521343012464220003504 5 1202502053.140508
0121102523343012464220003504 5 1202502053.140513
0121102524343012464220003504 5 1202502053.140518
0122105524343012464220003504 1 1202502053.140522
0121102526343012464220003504 5 1202502053.140527
0121105020343112464220003504 1 1202502053.140532
0111102220343022464220003504 2 1202502053.140539
0121102220343022464220003504 2 1202502053.140544
0111102520343022464220003504 2 1202502053.140549
0121102520343022464220003504 2 1202502053.140553
0121102521343022464220003504 5 1202502053.140558
0121102523343022464220003504 5 1202502053.140602
0121102524343022464220003504 5 1202502053.140607
0122105524343022464220003504 1 1202502053.140612
0121102526343022464220003504 5 1202502053.140616
0121105020343122464220003504 1 1202502053.140621
0111102220343042464220003504 2 1202502053.140628
0121102220343042464220003504 2 1202502053.140633
0111102520343042464220003504 2 1202502053.140638
0121102520343042464220003504 2 1202502053.140642
0121102521343042464220003504 5 1202502053.140647
0121102523343042464220003504 5 1202502053.140651
0121102524343042464220003504 5 1202502053.140656
0122105524343042464220003504 1 1202502053.140701
0121102526343042464220003504 5 1202502053.140705
0121105020343142464220003504 1 1202502053.140710
0111102220343052464220003504 2 1202502053.140717
0121102220343052464220003504 2 1202502053.140722
0111102520343052464220003504 2 1202502053.140727
0121102520343052464220003504 2 1202502053.140731
0121102521343052464220003504 5 1202502053.140736
0121102523343052464220003504 5 1202502053.140740
0121102524343052464220003504 5 1202502053.140745
0122105524343052464220003504 1 1202502053.140750
0121102526343052464220003504 5 1202502053.140754
0121105020343152464220003504 1 1202502053.140759
0121102220343004464220003504 2 1202502053.140806
0121102520343004464220003504 2 1202502053.140811
0121102521343004464220003504 5 1202502053.140815
0121102523343004464220003504 5 1202502053.140820
0121102524343004464220003504 5 1202502053.140825
0122105524343004464220003504 1 1202502053.140829
0121102526343004464220003504 5 1202502053.140834
0121102220343014464220003504 2 1202502053.140841
0121102520343014464220003504 2 1202502053.140845
0121102521343014464220003504 5 1202502053.140850
0121102523343014464220003504 5 1202502053.140854
0121102524343014464220003504 5 1202502053.140859
0122105524343014464220003504 1 1202502053.140904
0121102526343014464220003504 5 1202502053.140908
0121102220343024464220003504 2 1202502053.140916
0121102520343024464220003504 2 1202502053.140921
0121102521343024464220003504 5 1202502053.140925
0121102523343024464220003504 5 1202502053.140930
0121102524343024464220003504 5 1202502053.140934
0122105524343024464220003504 1 1202502053.140939
0121102526343024464220003504 5 1202502053.140944
0121102220343044464220003504 2 1202502053.140951
0121102520343044464220003504 2 1202502053.140956
0121102521343044464220003504 5 1202502053.141000
0121102523343044464220003504 5 1202502053.141005
0121102524343044464220003504 5 1202502053.141009
0122105524343044464220003504 1 1202502053.141014
0121102526343044464220003504 5 1202502053.141019
0121102220343054464220003504 2 1202502053.141026
0121102520343054464220003504 2 1202502053.141030
0121102521343054464220003504 5 1202502053.141035
0121102523343054464220003504 5 1202502053.141040
0121102524343054464220003504 5 1202502053.141044
0122105524343054464220003504 1 1202502053.141049
0121102526343054464220003504 5 1202502053.141053
0111102220343005464220003504 2 1202502053.141101
0121102220343005464220003504 2 1202502053.141106
0111102520343005464220003504 2 1202502053.141110
0121102520343005464220003504 2 1202502053.141115
0111102521343005464220003504 5 1202502053.141120
0121102521343005464220003504 5 1202502053.141124
0111102523343005464220003504 5 1202502053.141129
0121102523343005464220003504 5 1202502053.141133
0111102524343005464220003504 5 1202502053.141138
0121102524343005464220003504 5 1202502053.141143
0122105524343005464220003504 1 1202502053.141147
0111102526343005464220003504 5 1202502053.141152
0121102526343005464220003504 5 1202502053.141157
0122105524333105464220003504 1 1202502053.141202
0121105020343105464220003504 1 1202502053.141207
0122100021343105464220003504 2 1202502053.141211
0122102021343105464220003504 2 1202502053.141216
0122103021343105464220003504 2 1202502053.141221
0121105021343105464220003504 1 1202502053.141225
0122105021343105464220003504 1 1202502053.141230
0122106021343105464220003504 2 1202502053.141235
0121105023343105464220003504 1 1202502053.141239
0121105024343105464220003504 1 1202502053.141244
0121105026343105464220003504 1 1202502053.141249
0111102220343015464220003504 2 1202502053.141256
0121102220343015464220003504 2 1202502053.141300
0111102520343015464220003504 2 1202502053.141305
0121102520343015464220003504 2 1202502053.141310
0111102521343015464220003504 5 1202502053.141314
0121102521343015464220003504 5 1202502053.141319
0111102523343015464220003504 5 1202502053.141324
0121102523343015464220003504 5 1202502053.141328
0111102524343015464220003504 5 1202502053.141333
0121102524343015464220003504 5 1202502053.141338
0122105524343015464220003504 1 1202502053.141342
0111102526343015464220003504 5 1202502053.141347
0121102526343015464220003504 5 1202502053.141351
0122105524333115464220003504 1 1202502053.141357
0121105020343115464220003504 1 1202502053.141401
0122100021343115464220003504 2 1202502053.141406
0122102021343115464220003504 2 1202502053.141411
0122103021343115464220003504 2 1202502053.141415
0121105021343115464220003504 1 1202502053.141420
0122105021343115464220003504 1 1202502053.141425
0122106021343115464220003504 2 1202502053.141430
0121105023343115464220003504 1 1202502053.141434
0121105024343115464220003504 1 1202502053.141439
0121105026343115464220003504 1 1202502053.141444
0111102220343025464220003504 2 1202502053.141451
0121102220343025464220003504 2 1202502053.141456
0111102520343025464220003504 2 1202502053.141500
0121102520343025464220003504 2 1202502053.141505
0111102521343025464220003504 5 1202502053.141510
0121102521343025464220003504 5 1202502053.141514
0111102523343025464220003504 5 1202502053.141519
0121102523343025464220003504 5 1202502053.141523
0111102524343025464220003504 5 1202502053.141528
0121102524343025464220003504 5 1202502053.141533
0122105524343025464220003504 1 1202502053.141537
0111102526343025464220003504 5 1202502053.141542
0121102526343025464220003504 5 1202502053.141547
0122105524333125464220003504 1 1202502053.141552
0121105020343125464220003504 1 1202502053.141556
0122100021343125464220003504 2 1202502053.141601
0122102021343125464220003504 2 1202502053.141606
0122103021343125464220003504 2 1202502053.141611
0121105021343125464220003504 1 1202502053.141615
0122105021343125464220003504 1 1202502053.141620
0122106021343125464220003504 2 1202502053.141625
0121105023343125464220003504 1 1202502053.141629
0121105024343125464220003504 1 1202502053.141634
0121105026343125464220003504 1 1202502053.141639
0111102220343045464220003504 2 1202502053.141646
0121102220343045464220003504 2 1202502053.141650
0111102520343045464220003504 2 1202502053.141655
0121102520343045464220003504 2 1202502053.141659
0111102521343045464220003504 5 1202502053.141704
0121102521343045464220003504 5 1202502053.141709
0111102523343045464220003504 5 1202502053.141713
0121102523343045464220003504 5 1202502053.141718
0111102524343045464220003504 5 1202502053.141723
0121102524343045464220003504 5 1202502053.141727
0122105524343045464220003504 1 1202502053.141732
0111102526343045464220003504 5 1202502053.141737
0121102526343045464220003504 5 1202502053.141741
0122105524333145464220003504 1 1202502053.141746
0121105020343145464220003504 1 1202502053.141751
0122100021343145464220003504 2 1202502053.141756
0122102021343145464220003504 2 1202502053.141801
0122103021343145464220003504 2 1202502053.141805
0121105021343145464220003504 1 1202502053.141810
0122105021343145464220003504 1 1202502053.141815
0122106021343145464220003504 2 1202502053.141819
0121105023343145464220003504 1 1202502053.141824
0121105024343145464220003504 1 1202502053.141829
0121105026343145464220003504 1 1202502053.141833
0111102220343055464220003504 2 1202502053.141840
0121102220343055464220003504 2 1202502053.141845
0111102520343055464220003504 2 1202502053.141850
0121102520343055464220003504 2 1202502053.141854
0111102521343055464220003504 5 1202502053.141859
0121102521343055464220003504 5 1202502053.141903
0111102523343055464220003504 5 1202502053.141908
0121102523343055464220003504 5 1202502053.141913
0111102524343055464220003504 5 1202502053.141917
0121102524343055464220003504 5 1202502053.141922
0122105524343055464220003504 1 1202502053.141927
0111102526343055464220003504 5 1202502053.141931
0121102526343055464220003504 5 1202502053.141936
0122105524333155464220003504 1 1202502053.141941
0121105020343155464220003504 1 1202502053.141946
0122100021343155464220003504 2 1202502053.141950
0122102021343155464220003504 2 1202502053.141955
0122103021343155464220003504 2 1202502053.142000
0121105021343155464220003504 1 1202502053.142005
0122105021343155464220003504 1 1202502053.142009
0122106021343155464220003504 2 1202502053.142014
0121105023343155464220003504 1 1202502053.142019
0121105024343155464220003504 1 1202502053.142023
0121105026343155464220003504 1 1202502053.142028
0124105526333105424520003504 1 1202502053.142654
0124105526333115424520003504 1 1202502053.142702
0124105526333125424520003504 1 1202502053.142710
0124105526333145424520003504 1 1202502053.142718
0124105526333155424520003504 1 1202502053.142726
0111102220343000464520003504 2 1202502053.144159
0121102220343000464520003504 2 1202502053.144204
0111102520343000464520003504 2 1202502053.144209
0121102520343000464520003504 2 1202502053.144213
0111102521343000464520003504 5 1202502053.144218
0121102521343000464520003504 5 1202502053.144223
0111102523343000464520003504 5 1202502053.144227
0121102523343000464520003504 5 1202502053.144232
0111102524343000464520003504 5 1202502053.144237
0121102524343000464520003504 5 1202502053.144241
0122105524343000464520003504 1 1202502053.144246
0111102526343000464520003504 5 1202502053.144251
0121102526343000464520003504 5 1202502053.144255
0111102220343010464520003504 2 1202502053.144303
0121102220343010464520003504 2 1202502053.144307
0111102520343010464520003504 2 1202502053.144312
0121102520343010464520003504 2 1202502053.144317
0111102521343010464520003504 5 1202502053.144321
0121102521343010464520003504 5 1202502053.144326
0111102523343010464520003504 5 1202502053.144331
0121102523343010464520003504 5 1202502053.144335
0111102524343010464520003504 5 1202502053.144340
0121102524343010464520003504 5 1202502053.144344
0122105524343010464520003504 1 1202502053.144349
0111102526343010464520003504 5 1202502053.144354
0121102526343010464520003504 5 1202502053.144358
0111102220343020464520003504 2 1202502053.144406
0121102220343020464520003504 2 1202502053.144411
0111102520343020464520003504 2 1202502053.144415
0121102520343020464520003504 2 1202502053.144420
0111102521343020464520003504 5 1202502053.144425
0121102521343020464520003504 5 1202502053.144429
0111102523343020464520003504 5 1202502053.144434
0121102523343020464520003504 5 1202502053.144439
0111102524343020464520003504 5 1202502053.144443
0121102524343020464520003504 5 1202502053.144448
0122105524343020464520003504 1 1202502053.144452
0111102526343020464520003504 5 1202502053.144457
0121102526343020464520003504 5 1202502053.144502
0111102220343040464520003504 2 1202502053.144509
0121102220343040464520003504 2 1202502053.144514
0111102520343040464520003504 2 1202502053.144518
0121102520343040464520003504 2 1202502053.144523
0111102521343040464520003504 5 1202502053.144528
0121102521343040464520003504 5 1202502053.144532
0111102523343040464520003504 5 1202502053.144537
0121102523343040464520003504 5 1202502053.144542
0111102524343040464520003504 5 1202502053.144546
0121102524343040464520003504 5 1202502053.144551
0122105524343040464520003504 1 1202502053.144556
0111102526343040464520003504 5 1202502053.144600
0121102526343040464520003504 5 1202502053.144605
0111102220343050464520003504 2 1202502053.144612
0121102220343050464520003504 2 1202502053.144617
0111102520343050464520003504 2 1202502053.144622
0121102520343050464520003504 2 1202502053.144626
0111102521343050464520003504 5 1202502053.144631
0121102521343050464520003504 5 1202502053.144635
0111102523343050464520003504 5 1202502053.144640
0121102523343050464520003504 5 1202502053.144645
0111102524343050464520003504 5 1202502053.144649
0121102524343050464520003504 5 1202502053.144654
0122105524343050464520003504 1 1202502053.144659
0111102526343050464520003504 5 1202502053.144703
0121102526343050464520003504 5 1202502053.144708
0121102220343001464520003504 2 1202502053.144715
0121102520343001464520003504 2 1202502053.144720
0121102521343001464520003504 5 1202502053.144725
0121102523343001464520003504 5 1202502053.144729
0121102524343001464520003504 5 1202502053.144734
0122105524343001464520003504 1 1202502053.144738
0121102526343001464520003504 5 1202502053.144743
0121102220343011464520003504 2 1202502053.144751
0121102520343011464520003504 2 1202502053.144755
0121102521343011464520003504 5 1202502053.144800
0121102523343011464520003504 5 1202502053.144805
0121102524343011464520003504 5 1202502053.144809
0122105524343011464520003504 1 1202502053.144814
0121102526343011464520003504 5 1202502053.144818
0121102220343021464520003504 2 1202502053.144826
0121102520343021464520003504 2 1202502053.144831
0121102521343021464520003504 5 1202502053.144835
0121102523343021464520003504 5 1202502053.144840
0121102524343021464520003504 5 1202502053.144845
0122105524343021464520003504 1 1202502053.144849
0121102526343021464520003504 5 1202502053.144854
0121102220343041464520003504 2 1202502053.144901
0121102520343041464520003504 2 1202502053.144906
0121102521343041464520003504 5 1202502053.144911
0121102523343041464520003504 5 1202502053.144915
0121102524343041464520003504 5 1202502053.144920
0122105524343041464520003504 1 1202502053.144924
0121102526343041464520003504 5 1202502053.144929
0121102220343051464520003504 2 1202502053.144937
0121102520343051464520003504 2 1202502053.144942
0121102521343051464520003504 5 1202502053.144946
0121102523343051464520003504 5 1202502053.144951
0121102524343051464520003504 5 1202502053.144955
0122105524343051464520003504 1 1202502053.145000
0121102526343051464520003504 5 1202502053.145005
0122100021343151464520003504 5 1202502053.145010
0111102220343002464520003504 2 1202502053.145017
0121102220343002464520003504 2 1202502053.145022
0111102520343002464520003504 2 1202502053.145026
0121102520343002464520003504 2 1202502053.145031
0121102521343002464520003504 5 1202502053.145036
0121102523343002464520003504 5 1202502053.145040
0121102524343002464520003504 5 1202502053.145045
0122105524343002464520003504 1 1202502053.145049
0121102526343002464520003504 5 1202502053.145054
0121105020343102464520003504 1 1202502053.145059
0111102220343012464520003504 2 1202502053.145106
0121102220343012464520003504 2 1202502053.145111
0111102520343012464520003504 2 1202502053.145115
0121102520343012464520003504 2 1202502053.145120
0121102521343012464520003504 5 1202502053.145125
0121102523343012464520003504 5 1202502053.145129
0121102524343012464520003504 5 1202502053.145134
0122105524343012464520003504 1 1202502053.145138
0121102526343012464520003504 5 1202502053.145143
0121105020343112464520003504 1 1202502053.145148
0111102220343022464520003504 2 1202502053.145155
0121102220343022464520003504 2 1202502053.145200
0111102520343022464520003504 2 1202502053.145205
0121102520343022464520003504 2 1202502053.145209
0121102521343022464520003504 5 1202502053.145214
0121102523343022464520003504 5 1202502053.145218
0121102524343022464520003504 5 1202502053.145223
0122105524343022464520003504 1 1202502053.145228
0121102526343022464520003504 5 1202502053.145232
0121105020343122464520003504 1 1202502053.145237
0111102220343042464520003504 2 1202502053.145244
0121102220343042464520003504 2 1202502053.145249
0111102520343042464520003504 2 1202502053.145254
0121102520343042464520003504 2 1202502053.145258
0121102521343042464520003504 5 1202502053.145303
0121102523343042464520003504 5 1202502053.145307
0121102524343042464520003504 5 1202502053.145312
0122105524343042464520003504 1 1202502053.145317
0121102526343042464520003504 5 1202502053.145321
0121105020343142464520003504 1 1202502053.145326
0111102220343052464520003504 2 1202502053.145333
0121102220343052464520003504 2 1202502053.145338
0111102520343052464520003504 2 1202502053.145343
0121102520343052464520003504 2 1202502053.145347
0121102521343052464520003504 5 1202502053.145352
0121102523343052464520003504 5 1202502053.145356
0121102524343052464520003504 5 1202502053.145401
0122105524343052464520003504 1 1202502053.145406
0121102526343052464520003504 5 1202502053.145410
0121105020343152464520003504 1 1202502053.145415
0121102220343004464520003504 2 1202502053.145422
0121102520343004464520003504 2 1202502053.145427
0121102521343004464520003504 5 1202502053.145431
0121102523343004464520003504 5 1202502053.145436
0121102524343004464520003504 5 1202502053.145441
0122105524343004464520003504 1 1202502053.145445
0121102526343004464520003504 5 1202502053.145450
0121102220343014464520003504 2 1202502053.145457
0121102520343014464520003504 2 1202502053.145501
0121102521343014464520003504 5 1202502053.145506
0121102523343014464520003504 5 1202502053.145510
0121102524343014464520003504 5 1202502053.145515
0122105524343014464520003504 1 1202502053.145520
0121102526343014464520003504 5 1202502053.145524
0121102220343024464520003504 2 1202502053.145532
0121102520343024464520003504 2 1202502053.145536
0121102521343024464520003504 5 1202502053.145541
0121102523343024464520003504 5 1202502053.145546
0121102524343024464520003504 5 1202502053.145550
0122105524343024464520003504 1 1202502053.145555
0121102526343024464520003504 5 1202502053.145600
0121102220343044464520003504 2 1202502053.145607
0121102520343044464520003504 2 1202502053.145611
0121102521343044464520003504 5 1202502053.145616
0121102523343044464520003504 5 1202502053.145621
0121102524343044464520003504 5 1202502053.145625
0122105524343044464520003504 1 1202502053.145630
0121102526343044464520003504 5 1202502053.145634
0121102220343054464520003504 2 1202502053.145642
0121102520343054464520003504 2 1202502053.145646
0121102521343054464520003504 5 1202502053.145651
0121102523343054464520003504 5 1202502053.145656
0121102524343054464520003504 5 1202502053.145700
0122105524343054464520003504 1 1202502053.145705
0121102526343054464520003504 5 1202502053.145709
0111102220343005464520003504 2 1202502053.145717
0121102220343005464520003504 2 1202502053.145722
0111102520343005464520003504 2 1202502053.145726
0121102520343005464520003504 2 1202502053.145731
0111102521343005464520003504 5 1202502053.145736
0121102521343005464520003504 5 1202502053.145740
0111102523343005464520003504 5 1202502053.145745
0121102523343005464520003504 5 1202502053.145749
0111102524343005464520003504 5 1202502053.145754
0121102524343005464520003504 5 1202502053.145759
0122105524343005464520003504 1 1202502053.145803
0111102526343005464520003504 5 1202502053.145808
0121102526343005464520003504 5 1202502053.145813
0122105524333105464520003504 1 1202502053.145818
0121105020343105464520003504 1 1202502053.145823
0122100021343105464520003504 2 1202502053.145827
0122102021343105464520003504 2 1202502053.145832
0122103021343105464520003504 2 1202502053.145837
0121105021343105464520003504 1 1202502053.145841
0122105021343105464520003504 1 1202502053.145846
0122106021343105464520003504 2 1202502053.145851
0121105023343105464520003504 1 1202502053.145855
0121105024343105464520003504 1 1202502053.145900
0121105026343105464520003504 1 1202502053.145905
0111102220343015464520003504 2 1202502053.145912
0121102220343015464520003504 2 1202502053.145916
0111102520343015464520003504 2 1202502053.145921
0121102520343015464520003504 2 1202502053.145926
0111102521343015464520003504 5 1202502053.145930
0121102521343015464520003504 5 1202502053.145935
0111102523343015464520003504 5 1202502053.145940
0121102523343015464520003504 5 1202502053.145944
0111102524343015464520003504 5 1202502053.145949
0121102524343015464520003504 5 1202502053.145954
0122105524343015464520003504 1 1202502053.145958
0111102526343015464520003504 5 1202502053.150003
0121102526343015464520003504 5 1202502053.150008
0122105524333115464520003504 1 1202502053.150013
0121105020343115464520003504 1 1202502053.150017
0122100021343115464520003504 2 1202502053.150022
0122102021343115464520003504 2 1202502053.150027
0122103021343115464520003504 2 1202502053.150032
0121105021343115464520003504 1 1202502053.150036
0122105021343115464520003504 1 1202502053.150041
0122106021343115464520003504 2 1202502053.150046
0121105023343115464520003504 1 1202502053.150050
0121105024343115464520003504 1 1202502053.150055
0121105026343115464520003504 1 1202502053.150100
0111102220343025464520003504 2 1202502053.150107
0121102220343025464520003504 2 1202502053.150112
0111102520343025464520003504 2 1202502053.150116
0121102520343025464520003504 2 1202502053.150121
0111102521343025464520003504 5 1202502053.150126
0121102521343025464520003504 5 1202502053.150130
0111102523343025464520003504 5 1202502053.150135
0121102523343025464520003504 5 1202502053.150139
0111102524343025464520003504 5 1202502053.150144
0121102524343025464520003504 5 1202502053.150149
0122105524343025464520003504 1 1202502053.150153
0111102526343025464520003504 5 1202502053.150158
0121102526343025464520003504 5 1202502053.150203
0122105524333125464520003504 1 1202502053.150208
0121105020343125464520003504 1 1202502053.150213
0122100021343125464520003504 2 1202502053.150217
0122102021343125464520003504 2 1202502053.150222
0122103021343125464520003504 2 1202502053.150227
0121105021343125464520003504 1 1202502053.150231
0122105021343125464520003504 1 1202502053.150236
0122106021343125464520003504 2 1202502053.150241
0121105023343125464520003504 1 1202502053.150245
0121105024343125464520003504 1 1202502053.150250
0121105026343125464520003504 1 1202502053.150255
0111102220343045464520003504 2 1202502053.150302
0121102220343045464520003504 2 1202502053.150306
0111102520343045464520003504 2 1202502053.150311
0121102520343045464520003504 2 1202502053.150316
0111102521343045464520003504 5 1202502053.150320
0121102521343045464520003504 5 1202502053.150325
0111102523343045464520003504 5 1202502053.150330
0121102523343045464520003504 5 1202502053.150334
0111102524343045464520003504 5 1202502053.150339
0121102524343045464520003504 5 1202502053.150343
0122105524343045464520003504 1 1202502053.150348
0111102526343045464520003504 5 1202502053.150353
0121102526343045464520003504 5 1202502053.150357
0122105524333145464520003504 1 1202502053.150403
0121105020343145464520003504 1 1202502053.150407
0122100021343145464520003504 2 1202502053.150412
0122102021343145464520003504 2 1202502053.150417
0122103021343145464520003504 2 1202502053.150421
0121105021343145464520003504 1 1202502053.150426
0122105021343145464520003504 1 1202502053.150431
0122106021343145464520003504 2 1202502053.150436
0121105023343145464520003504 1 1202502053.150440
0121105024343145464520003504 1 1202502053.150445
0121105026343145464520003504 1 1202502053.150450
0111102220343055464520003504 2 1202502053.150457
0121102220343055464520003504 2 1202502053.150501
0111102520343055464520003504 2 1202502053.150506
0121102520343055464520003504 2 1202502053.150511
0111102521343055464520003504 5 1202502053.150515
0121102521343055464520003504 5 1202502053.150520
0111102523343055464520003504 5 1202502053.150524
0121102523343055464520003504 5 1202502053.150529
0111102524343055464520003504 5 1202502053.150534
0121102524343055464520003504 5 1202502053.150538
0122105524343055464520003504 1 1202502053.150543
0111102526343055464520003504 5 1202502053.150548
0121102526343055464520003504 5 1202502053.150552
0122105524333155464520003504 1 1202502053.150557
0121105020343155464520003504 1 1202502053.150602
0122100021343155464520003504 2 1202502053.150607
0122102021343155464520003504 2 1202502053.150612
0122103021343155464520003504 2 1202502053.150616
0121105021343155464520003504 1 1202502053.150621
0122105021343155464520003504 1 1202502053.150626
0122106021343155464520003504 2 1202502053.150630
0121105023343155464520003504 1 1202502053.150635
0121105024343155464520003504 1 1202502053.150640
0121105026343155464520003504 1 1202502053.150644
0111102220343050464200003224 2 1202502053.151357
0121102220343050464200003224 2 1202502053.151401
0121102220343051464200003224 2 1202502053.151414
0122100021343151464200003224 2 1202502053.151419
0122105021343102464200003224 2 1202502053.151426
0111102220343502464200003224 2 1202502053.151431
0122105021343112464200003224 2 1202502053.151437
0111102220343512464200003224 2 1202502053.151443
0122105021343122464200003224 2 1202502053.151448
0111102220343522464200003224 2 1202502053.151454
0122105021343142464200003224 2 1202502053.151459
0111102220343542464200003224 2 1202502053.151505
0111102220343052464200003224 2 1202502053.151510
0121102220343052464200003224 2 1202502053.151515
0122100021343152464200003224 2 1202502053.151520
0122102021343152464200003224 2 1202502053.151524
0122103021343152464200003224 2 1202502053.151529
0122105021343152464200003224 2 1202502053.151534
0122106021343152464200003224 2 1202502053.151539
0111102220343552464200003224 2 1202502053.151544
0121102220343054464200003224 2 1202502053.151556
0121102220343005464200003224 2 1202502053.151602
0121102220343015464200003224 2 1202502053.151608
0121102220343025464200003224 2 1202502053.151614
0121102220343045464200003224 2 1202502053.151620
0121102220343055464200003224 2 1202502053.151627
0122153021143555464200003224 2 1202502053.151633
0522103021143000464210003224 2 1202502053.163244
0122103025143000464210003224 2 1202502053.163249
0522103025143000464210003224 2 1202502053.163254
0522123025143000464210003224 2 1202502053.163258
0522133025143000464210003224 2 1202502053.163303
0522163025143000464210003224 2 1202502053.163308
0522103225143000464210003224 2 1202502053.163315
0522123225143000464210003224 2 1202502053.163320
0522133225143000464210003224 2 1202502053.163325
0522163225143000464210003224 2 1202502053.163329
0522103325143000464210003224 2 1202502053.163334
0522123325143000464210003224 2 1202502053.163339
0522133325143000464210003224 2 1202502053.163343
0522163325143000464210003224 2 1202502053.163348
0522103625143000464210003224 2 1202502053.163353
0522123625143000464210003224 2 1202502053.163358
0522133625143000464210003224 2 1202502053.163402
0522163625143000464210003224 2 1202502053.163407
0111102220343050464210003224 2 1202502053.163426
0121102220343050464210003224 2 1202502053.163430
0522120025343501464210003224 2 1202502053.163501
0522130025343501464210003224 2 1202502053.163506
0522160025343501464210003224 2 1202502053.163511
0522100225343501464210003224 2 1202502053.163515
0522120225343501464210003224 2 1202502053.163520
0522130225343501464210003224 2 1202502053.163525
0522160225343501464210003224 2 1202502053.163529
0522100325343501464210003224 2 1202502053.163534
0522120325343501464210003224 2 1202502053.163539
0522130325343501464210003224 2 1202502053.163544
0522160325343501464210003224 2 1202502053.163548
0522100625343501464210003224 2 1202502053.163553
0522120625343501464210003224 2 1202502053.163558
0522130625343501464210003224 2 1202502053.163602
0522160625343501464210003224 2 1202502053.163607
0522120025343511464210003224 2 1202502053.163613
0522130025343511464210003224 2 1202502053.163618
0522160025343511464210003224 2 1202502053.163622
0522100225343511464210003224 2 1202502053.163630
0522120225343511464210003224 2 1202502053.163634
0522130225343511464210003224 2 1202502053.163639
0522160225343511464210003224 2 1202502053.163644
0522100325343511464210003224 2 1202502053.163649
0522120325343511464210003224 2 1202502053.163653
0522130325343511464210003224 2 1202502053.163658
0522160325343511464210003224 2 1202502053.163703
0522100625343511464210003224 2 1202502053.163707
0522120625343511464210003224 2 1202502053.163712
0522130625343511464210003224 2 1202502053.163717
0522160625343511464210003224 2 1202502053.163722
0522120025343521464210003224 2 1202502053.163727
0522130025343521464210003224 2 1202502053.163732
0522160025343521464210003224 2 1202502053.163737
0522100225343521464210003224 2 1202502053.163741
0522120225343521464210003224 2 1202502053.163746
0522130225343521464210003224 2 1202502053.163751
0522160225343521464210003224 2 1202502053.163756
0522100325343521464210003224 2 1202502053.163800
0522120325343521464210003224 2 1202502053.163805
0522130325343521464210003224 2 1202502053.163810
0522160325343521464210003224 2 1202502053.163814
0522100625343521464210003224 2 1202502053.163819
0522120625343521464210003224 2 1202502053.163824
0522130625343521464210003224 2 1202502053.163828
0522160625343521464210003224 2 1202502053.163833
0522120025343541464210003224 2 1202502053.163839
0522130025343541464210003224 2 1202502053.163843
0522160025343541464210003224 2 1202502053.163848
0522100225343541464210003224 2 1202502053.163853
0522120225343541464210003224 2 1202502053.163858
0522130225343541464210003224 2 1202502053.163902
0522160225343541464210003224 2 1202502053.163907
0522100325343541464210003224 2 1202502053.163912
0522120325343541464210003224 2 1202502053.163916
0522130325343541464210003224 2 1202502053.163921
0522160325343541464210003224 2 1202502053.163926
0522100625343541464210003224 2 1202502053.163930
0522120625343541464210003224 2 1202502053.163935
0522130625343541464210003224 2 1202502053.163940
0522160625343541464210003224 2 1202502053.163944
0121102220343051464210003224 2 1202502053.163949
0522120025343551464210003224 2 1202502053.163955
0522130025343551464210003224 2 1202502053.164000
0522160025343551464210003224 2 1202502053.164004
0522100225343551464210003224 2 1202502053.164012
0522120225343551464210003224 2 1202502053.164017
0522130225343551464210003224 2 1202502053.164021
0522160225343551464210003224 2 1202502053.164026
0522100325343551464210003224 2 1202502053.164031
0522120325343551464210003224 2 1202502053.164035
0522130325343551464210003224 2 1202502053.164040
0522160325343551464210003224 2 1202502053.164045
0522100625343551464210003224 2 1202502053.164049
0522120625343551464210003224 2 1202502053.164054
0522130625343551464210003224 2 1202502053.164059
0522160625343551464210003224 2 1202502053.164104
0522102021343102464210003224 2 1202502053.164109
0522103021343102464210003224 2 1202502053.164113
0522106021343102464210003224 2 1202502053.164118
0122102025343102464210003224 2 1202502053.164123
0522102025343102464210003224 2 1202502053.164128
0122103025343102464210003224 2 1202502053.164132
0522103025343102464210003224 2 1202502053.164137
0122106025343102464210003224 2 1202502053.164142
0522106025343102464210003224 2 1202502053.164146
0122102021343502464210003224 2 1202502053.164152
0522102021343502464210003224 2 1202502053.164157
0122103021343502464210003224 2 1202502053.164201
0522103021343502464210003224 2 1202502053.164206
0122106021343502464210003224 2 1202502053.164211
0522106021343502464210003224 2 1202502053.164215
0122102025343502464210003224 2 1202502053.164220
0122103025343502464210003224 2 1202502053.164225
0122106025343502464210003224 2 1202502053.164229
0522102021343112464210003224 2 1202502053.164246
0522103021343112464210003224 2 1202502053.164251
0522106021343112464210003224 2 1202502053.164255
0122102025343112464210003224 2 1202502053.164300
0522102025343112464210003224 2 1202502053.164305
0122103025343112464210003224 2 1202502053.164309
0522103025343112464210003224 2 1202502053.164314
0122106025343112464210003224 2 1202502053.164319
0522106025343112464210003224 2 1202502053.164323
0122102021343512464210003224 2 1202502053.164329
0522102021343512464210003224 2 1202502053.164334
0122103021343512464210003224 2 1202502053.164338
0522103021343512464210003224 2 1202502053.164343
0122106021343512464210003224 2 1202502053.164348
0522106021343512464210003224 2 1202502053.164353
0522120025343512464210003224 2 1202502053.164357
0522130025343512464210003224 2 1202502053.164402
0522160025343512464210003224 2 1202502053.164407
0122102025343512464210003224 2 1202502053.164411
0522102025343512464210003224 2 1202502053.164416
0522122025343512464210003224 2 1202502053.164421
0522132025343512464210003224 2 1202502053.164425
0522162025343512464210003224 2 1202502053.164430
0122103025343512464210003224 2 1202502053.164435
0522103025343512464210003224 2 1202502053.164440
0522123025343512464210003224 2 1202502053.164444
0522133025343512464210003224 2 1202502053.164449
0522163025343512464210003224 2 1202502053.164454
0122106025343512464210003224 2 1202502053.164458
0522106025343512464210003224 2 1202502053.164503
0522126025343512464210003224 2 1202502053.164508
0522136025343512464210003224 2 1202502053.164513
0522166025343512464210003224 2 1202502053.164517
0522100225343512464210003224 2 1202502053.164525
0522120225343512464210003224 2 1202502053.164530
0522130225343512464210003224 2 1202502053.164534
0522160225343512464210003224 2 1202502053.164539
0522102225343512464210003224 2 1202502053.164546
0522122225343512464210003224 2 1202502053.164551
0522132225343512464210003224 2 1202502053.164556
0522162225343512464210003224 2 1202502053.164601
0522103225343512464210003224 2 1202502053.164608
0522123225343512464210003224 2 1202502053.164613
0522133225343512464210003224 2 1202502053.164618
0522163225343512464210003224 2 1202502053.164622
0522106225343512464210003224 2 1202502053.164630
0522126225343512464210003224 2 1202502053.164635
0522136225343512464210003224 2 1202502053.164639
0522166225343512464210003224 2 1202502053.164644
0522100325343512464210003224 2 1202502053.164649
0522120325343512464210003224 2 1202502053.164653
0522130325343512464210003224 2 1202502053.164658
0522160325343512464210003224 2 1202502053.164703
0522102325343512464210003224 2 1202502053.164708
0522122325343512464210003224 2 1202502053.164712
0522132325343512464210003224 2 1202502053.164717
0522162325343512464210003224 2 1202502053.164722
0522103325343512464210003224 2 1202502053.164726
0522123325343512464210003224 2 1202502053.164731
0522133325343512464210003224 2 1202502053.164736
0522163325343512464210003224 2 1202502053.164740
0522106325343512464210003224 2 1202502053.164745
0522126325343512464210003224 2 1202502053.164750
0522136325343512464210003224 2 1202502053.164755
0522166325343512464210003224 2 1202502053.164759
0522100625343512464210003224 2 1202502053.164804
0522120625343512464210003224 2 1202502053.164809
0522130625343512464210003224 2 1202502053.164813
0522160625343512464210003224 2 1202502053.164818
0522102625343512464210003224 2 1202502053.164823
0522122625343512464210003224 2 1202502053.164828
0522132625343512464210003224 2 1202502053.164832
0522162625343512464210003224 2 1202502053.164837
0522103625343512464210003224 2 1202502053.164842
0522123625343512464210003224 2 1202502053.164846
0522133625343512464210003224 2 1202502053.164851
0522163625343512464210003224 2 1202502053.164856
0522106625343512464210003224 2 1202502053.164901
0522126625343512464210003224 2 1202502053.164905
0522136625343512464210003224 2 1202502053.164910
0522166625343512464210003224 2 1202502053.164915
0522102021343122464210003224 2 1202502053.164920
0522103021343122464210003224 2 1202502053.164925
0522106021343122464210003224 2 1202502053.164929
0122102025343122464210003224 2 1202502053.164934
0522102025343122464210003224 2 1202502053.164939
0122103025343122464210003224 2 1202502053.164943
0522103025343122464210003224 2 1202502053.164948
0122106025343122464210003224 2 1202502053.164953
0522106025343122464210003224 2 1202502053.164957
0122102021343522464210003224 2 1202502053.165003
0522102021343522464210003224 2 1202502053.165008
0122103021343522464210003224 2 1202502053.165012
0522103021343522464210003224 2 1202502053.165017
0122106021343522464210003224 2 1202502053.165022
0522106021343522464210003224 2 1202502053.165027
0122102025343522464210003224 2 1202502053.165031
0122103025343522464210003224 2 1202502053.165036
0122106025343522464210003224 2 1202502053.165041
0522102021343142464210003224 2 1202502053.165057
0522103021343142464210003224 2 1202502053.165102
0522106021343142464210003224 2 1202502053.165106
0122102025343142464210003224 2 1202502053.165111
0522102025343142464210003224 2 1202502053.165116
0122103025343142464210003224 2 1202502053.165120
0522103025343142464210003224 2 1202502053.165125
0122106025343142464210003224 2 1202502053.165130
0522106025343142464210003224 2 1202502053.165135
0122102021343542464210003224 2 1202502053.165140
0522102021343542464210003224 2 1202502053.165145
0122103021343542464210003224 2 1202502053.165150
0522103021343542464210003224 2 1202502053.165154
0122106021343542464210003224 2 1202502053.165159
0522106021343542464210003224 2 1202502053.165204
0122102025343542464210003224 2 1202502053.165208
0122103025343542464210003224 2 1202502053.165213
0122106025343542464210003224 2 1202502053.165218
0111102220343052464210003224 2 1202502053.165234
0121102220343052464210003224 2 1202502053.165238
0122102021343152464210003224 2 1202502053.165243
0522102021343152464210003224 2 1202502053.165248
0122103021343152464210003224 2 1202502053.165253
0522103021343152464210003224 2 1202502053.165258
0122106021343152464210003224 2 1202502053.165302
0522106021343152464210003224 2 1202502053.165307
0122102025343152464210003224 2 1202502053.165312
0522102025343152464210003224 2 1202502053.165316
0122103025343152464210003224 2 1202502053.165321
0522103025343152464210003224 2 1202502053.165326
0122106025343152464210003224 2 1202502053.165330
0522106025343152464210003224 2 1202502053.165335
0122102021343552464210003224 2 1202502053.165341
0522102021343552464210003224 2 1202502053.165345
0122103021343552464210003224 2 1202502053.165350
0522103021343552464210003224 2 1202502053.165355
0122106021343552464210003224 2 1202502053.165400
0522106021343552464210003224 2 1202502053.165404
0122102025343552464210003224 2 1202502053.165409
0122103025343552464210003224 2 1202502053.165414
0122106025343552464210003224 2 1202502053.165418
0121102220343054464210003224 2 1202502053.165439
0121102220343005464210003224 2 1202502053.165445
0122102021343105464210003224 2 1202502053.165450
0522102021343105464210003224 2 1202502053.165454
0122103021343105464210003224 2 1202502053.165459
0522103021343105464210003224 2 1202502053.165504
0122106021343105464210003224 2 1202502053.165508
0522106021343105464210003224 2 1202502053.165513
0122102025343105464210003224 2 1202502053.165518
0522102025343105464210003224 2 1202502053.165522
0122103025343105464210003224 2 1202502053.165527
0522103025343105464210003224 2 1202502053.165532
0122106025343105464210003224 2 1202502053.165536
0522106025343105464210003224 2 1202502053.165541
0122102021343505464210003224 2 1202502053.165547
0522102021343505464210003224 2 1202502053.165551
0122103021343505464210003224 2 1202502053.165556
0522103021343505464210003224 2 1202502053.165601
0122106021343505464210003224 2 1202502053.165605
0522106021343505464210003224 2 1202502053.165610
0122102025343505464210003224 2 1202502053.165615
0122103025343505464210003224 2 1202502053.165619
0122106025343505464210003224 2 1202502053.165624
0121102220343015464210003224 2 1202502053.165629
0122102021343115464210003224 2 1202502053.165634
0522102021343115464210003224 2 1202502053.165638
0122103021343115464210003224 2 1202502053.165643
0522103021343115464210003224 2 1202502053.165648
0122106021343115464210003224 2 1202502053.165653
0522106021343115464210003224 2 1202502053.165657
0122102025343115464210003224 2 1202502053.165702
0522102025343115464210003224 2 1202502053.165707
0122103025343115464210003224 2 1202502053.165711
0522103025343115464210003224 2 1202502053.165716
0122106025343115464210003224 2 1202502053.165721
0522106025343115464210003224 2 1202502053.165725
0122102021343515464210003224 2 1202502053.165731
0522102021343515464210003224 2 1202502053.165735
0122103021343515464210003224 2 1202502053.165740
0522103021343515464210003224 2 1202502053.165745
0122106021343515464210003224 2 1202502053.165749
0522106021343515464210003224 2 1202502053.165754
0522120025343515464210003224 2 1202502053.165759
0522130025343515464210003224 2 1202502053.165804
0522160025343515464210003224 2 1202502053.165808
0122102025343515464210003224 2 1202502053.165813
0522102025343515464210003224 2 1202502053.165818
0522122025343515464210003224 2 1202502053.165822
0522132025343515464210003224 2 1202502053.165827
0522162025343515464210003224 2 1202502053.165832
0122103025343515464210003224 2 1202502053.165836
0522103025343515464210003224 2 1202502053.165841
0522123025343515464210003224 2 1202502053.165846
0522133025343515464210003224 2 1202502053.165851
0522163025343515464210003224 2 1202502053.165855
0122106025343515464210003224 2 1202502053.165900
0522106025343515464210003224 2 1202502053.165905
0522126025343515464210003224 2 1202502053.165909
0522136025343515464210003224 2 1202502053.165914
0522166025343515464210003224 2 1202502053.165919
0522100225343515464210003224 2 1202502053.165926
0522120225343515464210003224 2 1202502053.165931
0522130225343515464210003224 2 1202502053.165936
0522160225343515464210003224 2 1202502053.165940
0522102225343515464210003224 2 1202502053.165945
0522122225343515464210003224 2 1202502053.165950
0522132225343515464210003224 2 1202502053.165954
0522162225343515464210003224 2 1202502053.165959
0522103225343515464210003224 2 1202502053.170004
0522123225343515464210003224 2 1202502053.170009
0522133225343515464210003224 2 1202502053.170013
0522163225343515464210003224 2 1202502053.170018
0522106225343515464210003224 2 1202502053.170023
0522126225343515464210003224 2 1202502053.170027
0522136225343515464210003224 2 1202502053.170032
0522166225343515464210003224 2 1202502053.170037
0522100325343515464210003224 2 1202502053.170041
0522120325343515464210003224 2 1202502053.170046
0522130325343515464210003224 2 1202502053.170051
0522160325343515464210003224 2 1202502053.170055
0522102325343515464210003224 2 1202502053.170100
0522122325343515464210003224 2 1202502053.170105
0522132325343515464210003224 2 1202502053.170110
0522162325343515464210003224 2 1202502053.170114
0522103325343515464210003224 2 1202502053.170119
0522123325343515464210003224 2 1202502053.170124
0522133325343515464210003224 2 1202502053.170128
0522163325343515464210003224 2 1202502053.170133
0522106325343515464210003224 2 1202502053.170138
0522126325343515464210003224 2 1202502053.170142
0522136325343515464210003224 2 1202502053.170147
0522166325343515464210003224 2 1202502053.170152
0522100625343515464210003224 2 1202502053.170157
0522120625343515464210003224 2 1202502053.170201
0522130625343515464210003224 2 1202502053.170206
0522160625343515464210003224 2 1202502053.170211
0522102625343515464210003224 2 1202502053.170215
0522122625343515464210003224 2 1202502053.170220
0522132625343515464210003224 2 1202502053.170225
0522162625343515464210003224 2 1202502053.170229
0522103625343515464210003224 2 1202502053.170234
0522123625343515464210003224 2 1202502053.170239
0522133625343515464210003224 2 1202502053.170243
0522163625343515464210003224 2 1202502053.170248
0522106625343515464210003224 2 1202502053.170253
0522126625343515464210003224 2 1202502053.170258
0522136625343515464210003224 2 1202502053.170302
0522166625343515464210003224 2 1202502053.170307
0121102220343025464210003224 2 1202502053.170312
0122102021343125464210003224 2 1202502053.170317
0522102021343125464210003224 2 1202502053.170321
0122103021343125464210003224 2 1202502053.170326
0522103021343125464210003224 2 1202502053.170331
0122106021343125464210003224 2 1202502053.170335
0522106021343125464210003224 2 1202502053.170340
0122102025343125464210003224 2 1202502053.170345
0522102025343125464210003224 2 1202502053.170350
0122103025343125464210003224 2 1202502053.170354
0522103025343125464210003224 2 1202502053.170359
0122106025343125464210003224 2 1202502053.170404
0522106025343125464210003224 2 1202502053.170408
0122102021343525464210003224 2 1202502053.170414
0522102021343525464210003224 2 1202502053.170418
0122103021343525464210003224 2 1202502053.170423
0522103021343525464210003224 2 1202502053.170428
0122106021343525464210003224 2 1202502053.170432
0522106021343525464210003224 2 1202502053.170437
0122102025343525464210003224 2 1202502053.170442
0122103025343525464210003224 2 1202502053.170447
0122106025343525464210003224 2 1202502053.170451
0121102220343045464210003224 2 1202502053.170456
0122102021343145464210003224 2 1202502053.170501
0522102021343145464210003224 2 1202502053.170506
0122103021343145464210003224 2 1202502053.170510
0522103021343145464210003224 2 1202502053.170515
0122106021343145464210003224 2 1202502053.170520
0522106021343145464210003224 2 1202502053.170524
0122102025343145464210003224 2 1202502053.170529
0522102025343145464210003224 2 1202502053.170534
0122103025343145464210003224 2 1202502053.170538
0522103025343145464210003224 2 1202502053.170543
0122106025343145464210003224 2 1202502053.170548
0522106025343145464210003224 2 1202502053.170553
0122102021343545464210003224 2 1202502053.170558
0522102021343545464210003224 2 1202502053.170603
0122103021343545464210003224 2 1202502053.170607
0522103021343545464210003224 2 1202502053.170612
0122106021343545464210003224 2 1202502053.170617
0522106021343545464210003224 2 1202502053.170621
0122102025343545464210003224 2 1202502053.170626
0122103025343545464210003224 2 1202502053.170631
0122106025343545464210003224 2 1202502053.170635
0121102220343055464210003224 2 1202502053.170640
0122102021343155464210003224 2 1202502053.170645
0522102021343155464210003224 2 1202502053.170650
0122103021343155464210003224 2 1202502053.170655
0522103021343155464210003224 2 1202502053.170659
0122106021343155464210003224 2 1202502053.170704
0522106021343155464210003224 2 1202502053.170709
0122102025343155464210003224 2 1202502053.170713
0522102025343155464210003224 2 1202502053.170718
0122103025343155464210003224 2 1202502053.170723
0522103025343155464210003224 2 1202502053.170728
0122106025343155464210003224 2 1202502053.170732
0522106025343155464210003224 2 1202502053.170737
0122102021343555464210003224 2 1202502053.170742
0522102021343555464210003224 2 1202502053.170747
0122103021343555464210003224 2 1202502053.170752
0522103021343555464210003224 2 1202502053.170756
0122106021343555464210003224 2 1202502053.170801
0522106021343555464210003224 2 1202502053.170806
0122102025343555464210003224 2 1202502053.170810
0122103025343555464210003224 2 1202502053.170815
0122106025343555464210003224 2 1202502053.170820
0125103021143000464220003224 2 1202502053.172642
0111102520343000464220003224 2 1202502053.172646
0121102520343000464220003224 2 1202502053.172651
0111102521343000464220003224 5 1202502053.172656
0125100021343100464220003224 2 1202502053.172701
0125102021343100464220003224 2 1202502053.172705
0125103021343100464220003224 2 1202502053.172710
0125105021343100464220003224 1 1202502053.172715
0125106021343100464220003224 2 1202502053.172719
0125103021143010464220003224 2 1202502053.172726
0111102520343010464220003224 2 1202502053.172730
0121102520343010464220003224 2 1202502053.172735
0125100021343110464220003224 2 1202502053.172740
0125102021343110464220003224 2 1202502053.172745
0125103021343110464220003224 2 1202502053.172749
0125105021343110464220003224 1 1202502053.172754
0125106021343110464220003224 2 1202502053.172759
0125103021143020464220003224 2 1202502053.172806
0111102520343020464220003224 2 1202502053.172810
0121102520343020464220003224 2 1202502053.172815
0125100021343120464220003224 2 1202502053.172820
0125102021343120464220003224 2 1202502053.172825
0125103021343120464220003224 2 1202502053.172829
0125105021343120464220003224 1 1202502053.172834
0125106021343120464220003224 2 1202502053.172839
0125103021143040464220003224 2 1202502053.172845
0111102520343040464220003224 2 1202502053.172850
0121102520343040464220003224 2 1202502053.172854
0125100021343140464220003224 2 1202502053.172859
0125102021343140464220003224 2 1202502053.172904
0125103021343140464220003224 2 1202502053.172909
0125105021343140464220003224 1 1202502053.172913
0125106021343140464220003224 2 1202502053.172918
0122103021143050464220003224 2 1202502053.172925
0125103021143050464220003224 2 1202502053.172929
0111102220343050464220003224 2 1202502053.172934
0121102220343050464220003224 2 1202502053.172939
0111102520343050464220003224 2 1202502053.172943
0121102520343050464220003224 2 1202502053.172948
0111102521343050464220003224 5 1202502053.172953
0125100021343150464220003224 2 1202502053.172958
0125102021343150464220003224 2 1202502053.173002
0125103021343150464220003224 2 1202502053.173007
0125105021343150464220003224 1 1202502053.173012
0125106021343150464220003224 2 1202502053.173016
0125103021143001464220003224 2 1202502053.173023
0121102520343001464220003224 2 1202502053.173027
0125100021343101464220003224 2 1202502053.173032
0125102021343101464220003224 2 1202502053.173037
0125103021343101464220003224 2 1202502053.173042
0121105021343101464220003224 1 1202502053.173046
0122105021343101464220003224 1 1202502053.173051
0125105021343101464220003224 1 1202502053.173056
0125106021343101464220003224 2 1202502053.173100
0125103021143011464220003224 2 1202502053.173107
0121102520343011464220003224 2 1202502053.173112
0125100021343111464220003224 2 1202502053.173117
0125102021343111464220003224 2 1202502053.173121
0125103021343111464220003224 2 1202502053.173126
0121105021343111464220003224 1 1202502053.173131
0122105021343111464220003224 1 1202502053.173136
0125105021343111464220003224 1 1202502053.173140
0125106021343111464220003224 2 1202502053.173145
0125103021143021464220003224 2 1202502053.173151
0121102520343021464220003224 2 1202502053.173156
0125100021343121464220003224 2 1202502053.173201
0125102021343121464220003224 2 1202502053.173206
0125103021343121464220003224 2 1202502053.173210
0121105021343121464220003224 1 1202502053.173215
0122105021343121464220003224 1 1202502053.173220
0125105021343121464220003224 1 1202502053.173225
0125106021343121464220003224 2 1202502053.173229
0125103021143041464220003224 2 1202502053.173236
0121102520343041464220003224 2 1202502053.173240
0125100021343141464220003224 2 1202502053.173246
0125102021343141464220003224 2 1202502053.173250
0125103021343141464220003224 2 1202502053.173255
0121105021343141464220003224 1 1202502053.173300
0122105021343141464220003224 1 1202502053.173304
0125105021343141464220003224 1 1202502053.173309
0125106021343141464220003224 2 1202502053.173314
0125103021143051464220003224 2 1202502053.173320
0121102220343051464220003224 2 1202502053.173325
0121102520343051464220003224 2 1202502053.173330
0122100021343151464220003224 2 1202502053.173335
0125100021343151464220003224 2 1202502053.173339
0125102021343151464220003224 2 1202502053.173344
0125103021343151464220003224 2 1202502053.173349
0121105021343151464220003224 1 1202502053.173353
0122105021343151464220003224 1 1202502053.173358
0125105021343151464220003224 1 1202502053.173403
0125106021343151464220003224 2 1202502053.173407
0125103021143002464220003224 2 1202502053.173414
0111102520343002464220003224 2 1202502053.173419
0121102520343002464220003224 2 1202502053.173423
0121105020343102464220003224 1 1202502053.173428
0125100021343102464220003224 2 1202502053.173433
0125102021343102464220003224 2 1202502053.173438
0125103021343102464220003224 2 1202502053.173442
0121105021343102464220003224 1 1202502053.173447
0122105021343102464220003224 1 1202502053.173452
0125105021343102464220003224 1 1202502053.173457
0125106021343102464220003224 2 1202502053.173501
0125103021143012464220003224 2 1202502053.173508
0111102520343012464220003224 2 1202502053.173512
0121102520343012464220003224 2 1202502053.173517
0121105020343112464220003224 1 1202502053.173522
0125100021343112464220003224 2 1202502053.173527
0125102021343112464220003224 2 1202502053.173531
0125103021343112464220003224 2 1202502053.173536
0121105021343112464220003224 1 1202502053.173541
0122105021343112464220003224 1 1202502053.173545
0125105021343112464220003224 1 1202502053.173550
0125106021343112464220003224 2 1202502053.173555
0125103021143022464220003224 2 1202502053.173601
0111102520343022464220003224 2 1202502053.173606
0121102520343022464220003224 2 1202502053.173611
0121105020343122464220003224 1 1202502053.173616
0125100021343122464220003224 2 1202502053.173620
0125102021343122464220003224 2 1202502053.173625
0125103021343122464220003224 2 1202502053.173630
0121105021343122464220003224 1 1202502053.173635
0122105021343122464220003224 1 1202502053.173639
0125105021343122464220003224 1 1202502053.173644
0125106021343122464220003224 2 1202502053.173649
0125103021143042464220003224 2 1202502053.173655
0111102520343042464220003224 2 1202502053.173700
0121102520343042464220003224 2 1202502053.173704
0121105020343142464220003224 1 1202502053.173709
0125100021343142464220003224 2 1202502053.173714
0125102021343142464220003224 2 1202502053.173719
0125103021343142464220003224 2 1202502053.173723
0121105021343142464220003224 1 1202502053.173728
0122105021343142464220003224 1 1202502053.173733
0125105021343142464220003224 1 1202502053.173738
0125106021343142464220003224 2 1202502053.173742
0125103021143052464220003224 2 1202502053.173749
0111102220343052464220003224 2 1202502053.173753
0121102220343052464220003224 2 1202502053.173758
0111102520343052464220003224 2 1202502053.173803
0121102520343052464220003224 2 1202502053.173807
0121105020343152464220003224 1 1202502053.173812
0122100021343152464220003224 2 1202502053.173817
0125100021343152464220003224 2 1202502053.173822
0122102021343152464220003224 2 1202502053.173826
0125102021343152464220003224 2 1202502053.173831
0122103021343152464220003224 2 1202502053.173836
0125103021343152464220003224 2 1202502053.173841
0121105021343152464220003224 1 1202502053.173845
0122105021343152464220003224 1 1202502053.173850
0125105021343152464220003224 1 1202502053.173855
0122106021343152464220003224 2 1202502053.173859
0125106021343152464220003224 2 1202502053.173904
0125103021143004464220003224 2 1202502053.173910
0121102520343004464220003224 2 1202502053.173915
0125100021343104464220003224 2 1202502053.173920
0125102021343104464220003224 2 1202502053.173925
0125103021343104464220003224 2 1202502053.173929
0125105021343104464220003224 1 1202502053.173934
0125106021343104464220003224 2 1202502053.173939
0125103021143014464220003224 2 1202502053.173945
0121102520343014464220003224 2 1202502053.173950
0125100021343114464220003224 2 1202502053.173955
0125102021343114464220003224 2 1202502053.174000
0125103021343114464220003224 2 1202502053.174004
0125105021343114464220003224 1 1202502053.174009
0125106021343114464220003224 2 1202502053.174014
0125103021143024464220003224 2 1202502053.174020
0121102520343024464220003224 2 1202502053.174025
0125100021343124464220003224 2 1202502053.174030
0125102021343124464220003224 2 1202502053.174034
0125103021343124464220003224 2 1202502053.174039
0125105021343124464220003224 1 1202502053.174044
0125106021343124464220003224 2 1202502053.174049
0125103021143044464220003224 2 1202502053.174054
0121102520343044464220003224 2 1202502053.174059
0125100021343144464220003224 2 1202502053.174104
0125102021343144464220003224 2 1202502053.174109
0125103021343144464220003224 2 1202502053.174114
0125105021343144464220003224 1 1202502053.174118
0125106021343144464220003224 2 1202502053.174123
0125103021143054464220003224 2 1202502053.174129
0121102220343054464220003224 2 1202502053.174134
0121102520343054464220003224 2 1202502053.174138
0125100021343154464220003224 2 1202502053.174144
0125102021343154464220003224 2 1202502053.174148
0125103021343154464220003224 2 1202502053.174153
0125105021343154464220003224 1 1202502053.174158
0125106021343154464220003224 2 1202502053.174202
0122103021143005464220003224 2 1202502053.174208
0125103021143005464220003224 2 1202502053.174213
0111102220343005464220003224 2 1202502053.174218
0121102220343005464220003224 2 1202502053.174222
0111102520343005464220003224 2 1202502053.174227
0121102520343005464220003224 2 1202502053.174232
0111102521343005464220003224 5 1202502053.174236
0121105020343105464220003224 1 1202502053.174242
0125100021343105464220003224 2 1202502053.174246
0125102021343105464220003224 2 1202502053.174251
0125103021343105464220003224 2 1202502053.174256
0125105021343105464220003224 1 1202502053.174300
0125106021343105464220003224 2 1202502053.174305
0125103021143015464220003224 2 1202502053.174311
0111102220343015464220003224 2 1202502053.174316
0121102220343015464220003224 2 1202502053.174321
0111102520343015464220003224 2 1202502053.174325
0121102520343015464220003224 2 1202502053.174330
0111102521343015464220003224 5 1202502053.174335
0121105020343115464220003224 1 1202502053.174340
0125100021343115464220003224 2 1202502053.174344
0125102021343115464220003224 2 1202502053.174349
0125103021343115464220003224 2 1202502053.174354
0125105021343115464220003224 1 1202502053.174358
0125106021343115464220003224 2 1202502053.174403
0125103021143025464220003224 2 1202502053.174409
0111102220343025464220003224 2 1202502053.174414
0121102220343025464220003224 2 1202502053.174419
0111102520343025464220003224 2 1202502053.174423
0121102520343025464220003224 2 1202502053.174428
0111102521343025464220003224 5 1202502053.174433
0121105020343125464220003224 1 1202502053.174438
0125100021343125464220003224 2 1202502053.174442
0125102021343125464220003224 2 1202502053.174447
0125103021343125464220003224 2 1202502053.174452
0125105021343125464220003224 1 1202502053.174457
0125106021343125464220003224 2 1202502053.174501
0125103021143045464220003224 2 1202502053.174507
0111102220343045464220003224 2 1202502053.174512
0121102220343045464220003224 2 1202502053.174517
0111102520343045464220003224 2 1202502053.174521
0121102520343045464220003224 2 1202502053.174526
0111102521343045464220003224 5 1202502053.174531
0121105020343145464220003224 1 1202502053.174536
0125100021343145464220003224 2 1202502053.174541
0125102021343145464220003224 2 1202502053.174545
0125103021343145464220003224 2 1202502053.174550
0125105021343145464220003224 1 1202502053.174555
0125106021343145464220003224 2 1202502053.174559
0122103021143055464220003224 2 1202502053.174606
0125103021143055464220003224 2 1202502053.174610
0111102220343055464220003224 2 1202502053.174615
0121102220343055464220003224 2 1202502053.174620
0111102520343055464220003224 2 1202502053.174624
0121102520343055464220003224 2 1202502053.174629
0111102521343055464220003224 5 1202502053.174634
0121105020343155464220003224 1 1202502053.174639
0125100021343155464220003224 2 1202502053.174643
0125102021343155464220003224 2 1202502053.174648
0125103021343155464220003224 2 1202502053.174653
0125105021343155464220003224 1 1202502053.174657
0125106021343155464220003224 2 1202502053.174702
0122103021143000464520003224 2 1202502053.180639
0125103021143000464520003224 2 1202502053.180643
0111102220343000464520003224 2 1202502053.180648
0121102220343000464520003224 2 1202502053.180652
0111102520343000464520003224 2 1202502053.180657
0121102520343000464520003224 2 1202502053.180702
0111102521343000464520003224 5 1202502053.180706
0125100021343100464520003224 2 1202502053.180712
0125102021343100464520003224 2 1202502053.180716
0125103021343100464520003224 2 1202502053.180721
0125105021343100464520003224 1 1202502053.180726
0125106021343100464520003224 2 1202502053.180730
0125103021143010464520003224 2 1202502053.180736
0111102220343010464520003224 2 1202502053.180741
0121102220343010464520003224 2 1202502053.180746
0111102520343010464520003224 2 1202502053.180750
0121102520343010464520003224 2 1202502053.180755
0125100021343110464520003224 2 1202502053.180800
0125102021343110464520003224 2 1202502053.180805
0125103021343110464520003224 2 1202502053.180810
0125105021343110464520003224 1 1202502053.180815
0125106021343110464520003224 2 1202502053.180819
0125103021143020464520003224 2 1202502053.180826
0111102220343020464520003224 2 1202502053.180830
0121102220343020464520003224 2 1202502053.180835
0111102520343020464520003224 2 1202502053.180840
0121102520343020464520003224 2 1202502053.180844
0125100021343120464520003224 2 1202502053.180849
0125102021343120464520003224 2 1202502053.180854
0125103021343120464520003224 2 1202502053.180859
0125105021343120464520003224 1 1202502053.180903
0125106021343120464520003224 2 1202502053.180908
0125103021143040464520003224 2 1202502053.180914
0111102220343040464520003224 2 1202502053.180919
0121102220343040464520003224 2 1202502053.180924
0111102520343040464520003224 2 1202502053.180928
0121102520343040464520003224 2 1202502053.180933
0125100021343140464520003224 2 1202502053.180938
0125102021343140464520003224 2 1202502053.180943
0125103021343140464520003224 2 1202502053.180947
0125105021343140464520003224 1 1202502053.180952
0125106021343140464520003224 2 1202502053.180957
0122103021143050464520003224 2 1202502053.181003
0125103021143050464520003224 2 1202502053.181008
0111102220343050464520003224 2 1202502053.181012
0121102220343050464520003224 2 1202502053.181017
0111102520343050464520003224 2 1202502053.181022
0121102520343050464520003224 2 1202502053.181026
0111102521343050464520003224 5 1202502053.181031
0125100021343150464520003224 2 1202502053.181036
0125102021343150464520003224 2 1202502053.181041
0125103021343150464520003224 2 1202502053.181045
0125105021343150464520003224 1 1202502053.181050
0125106021343150464520003224 2 1202502053.181055
0125103021143001464520003224 2 1202502053.181101
0121102220343001464520003224 2 1202502053.181105
0121102520343001464520003224 2 1202502053.181110
0122100021343101464520003224 2 1202502053.181115
0125100021343101464520003224 2 1202502053.181120
0125102021343101464520003224 2 1202502053.181124
0125103021343101464520003224 2 1202502053.181129
0121105021343101464520003224 1 1202502053.181134
0122105021343101464520003224 1 1202502053.181139
0125105021343101464520003224 1 1202502053.181143
0125106021343101464520003224 2 1202502053.181148
0125103021143011464520003224 2 1202502053.181154
0121102220343011464520003224 2 1202502053.181159
0121102520343011464520003224 2 1202502053.181204
0122100021343111464520003224 2 1202502053.181209
0125100021343111464520003224 2 1202502053.181213
0125102021343111464520003224 2 1202502053.181218
0125103021343111464520003224 2 1202502053.181223
0121105021343111464520003224 1 1202502053.181227
0122105021343111464520003224 1 1202502053.181232
0125105021343111464520003224 1 1202502053.181237
0125106021343111464520003224 2 1202502053.181242
0125103021143021464520003224 2 1202502053.181248
0121102220343021464520003224 2 1202502053.181253
0121102520343021464520003224 2 1202502053.181257
0122100021343121464520003224 2 1202502053.181302
0125100021343121464520003224 2 1202502053.181307
0125102021343121464520003224 2 1202502053.181312
0125103021343121464520003224 2 1202502053.181316
0121105021343121464520003224 1 1202502053.181321
0122105021343121464520003224 1 1202502053.181326
0125105021343121464520003224 1 1202502053.181330
0125106021343121464520003224 2 1202502053.181335
0125103021143041464520003224 2 1202502053.181341
0121102220343041464520003224 2 1202502053.181346
0121102520343041464520003224 2 1202502053.181351
0122100021343141464520003224 2 1202502053.181356
0125100021343141464520003224 2 1202502053.181400
0125102021343141464520003224 2 1202502053.181405
0125103021343141464520003224 2 1202502053.181410
0121105021343141464520003224 1 1202502053.181414
0122105021343141464520003224 1 1202502053.181419
0125105021343141464520003224 1 1202502053.181424
0125106021343141464520003224 2 1202502053.181429
0125103021143051464520003224 2 1202502053.181435
0121102220343051464520003224 2 1202502053.181440
0121102520343051464520003224 2 1202502053.181444
0122100021343151464520003224 2 1202502053.181449
0125100021343151464520003224 2 1202502053.181454
0125102021343151464520003224 2 1202502053.181459
0125103021343151464520003224 2 1202502053.181503
0121105021343151464520003224 1 1202502053.181508
0122105021343151464520003224 1 1202502053.181513
0125105021343151464520003224 1 1202502053.181518
0125106021343151464520003224 2 1202502053.181522
0125103021143002464520003224 2 1202502053.181529
0111102220343002464520003224 2 1202502053.181533
0121102220343002464520003224 2 1202502053.181538
0111102520343002464520003224 2 1202502053.181543
0121102520343002464520003224 2 1202502053.181547
0121105020343102464520003224 1 1202502053.181552
0122100021343102464520003224 2 1202502053.181557
0125100021343102464520003224 2 1202502053.181602
0122102021343102464520003224 2 1202502053.181606
0125102021343102464520003224 2 1202502053.181611
0122103021343102464520003224 2 1202502053.181616
0125103021343102464520003224 2 1202502053.181620
0121105021343102464520003224 1 1202502053.181625
0122105021343102464520003224 1 1202502053.181630
0125105021343102464520003224 1 1202502053.181635
0122106021343102464520003224 2 1202502053.181639
0125106021343102464520003224 2 1202502053.181644
0125103021143012464520003224 2 1202502053.181650
0111102220343012464520003224 2 1202502053.181655
0121102220343012464520003224 2 1202502053.181700
0111102520343012464520003224 2 1202502053.181704
0121102520343012464520003224 2 1202502053.181709
0121105020343112464520003224 1 1202502053.181714
0122100021343112464520003224 2 1202502053.181719
0125100021343112464520003224 2 1202502053.181723
0122102021343112464520003224 2 1202502053.181728
0125102021343112464520003224 2 1202502053.181733
0122103021343112464520003224 2 1202502053.181737
0125103021343112464520003224 2 1202502053.181742
0121105021343112464520003224 1 1202502053.181747
0122105021343112464520003224 1 1202502053.181752
0125105021343112464520003224 1 1202502053.181756
0122106021343112464520003224 2 1202502053.181801
0125106021343112464520003224 2 1202502053.181806
0125103021143022464520003224 2 1202502053.181812
0111102220343022464520003224 2 1202502053.181817
0121102220343022464520003224 2 1202502053.181821
0111102520343022464520003224 2 1202502053.181826
0121102520343022464520003224 2 1202502053.181831
0121105020343122464520003224 1 1202502053.181836
0122100021343122464520003224 2 1202502053.181840
0125100021343122464520003224 2 1202502053.181845
0122102021343122464520003224 2 1202502053.181850
0125102021343122464520003224 2 1202502053.181854
0122103021343122464520003224 2 1202502053.181859
0125103021343122464520003224 2 1202502053.181904
0121105021343122464520003224 1 1202502053.181909
0122105021343122464520003224 1 1202502053.181913
0125105021343122464520003224 1 1202502053.181918
0122106021343122464520003224 2 1202502053.181923
0125106021343122464520003224 2 1202502053.181927
0125103021143042464520003224 2 1202502053.181934
0111102220343042464520003224 2 1202502053.181938
0121102220343042464520003224 2 1202502053.181943
0111102520343042464520003224 2 1202502053.181948
0121102520343042464520003224 2 1202502053.181952
0121105020343142464520003224 1 1202502053.181957
0122100021343142464520003224 2 1202502053.182002
0125100021343142464520003224 2 1202502053.182007
0122102021343142464520003224 2 1202502053.182012
0125102021343142464520003224 2 1202502053.182016
0122103021343142464520003224 2 1202502053.182021
0125103021343142464520003224 2 1202502053.182026
0121105021343142464520003224 1 1202502053.182030
0122105021343142464520003224 1 1202502053.182035
0125105021343142464520003224 1 1202502053.182040
0122106021343142464520003224 2 1202502053.182045
0125106021343142464520003224 2 1202502053.182049
0125103021143052464520003224 2 1202502053.182056
0111102220343052464520003224 2 1202502053.182100
0121102220343052464520003224 2 1202502053.182105
0111102520343052464520003224 2 1202502053.182110
0121102520343052464520003224 2 1202502053.182114
0121105020343152464520003224 1 1202502053.182119
0122100021343152464520003224 2 1202502053.182124
0125100021343152464520003224 2 1202502053.182129
0122102021343152464520003224 2 1202502053.182133
0125102021343152464520003224 2 1202502053.182138
0122103021343152464520003224 2 1202502053.182143
0125103021343152464520003224 2 1202502053.182147
0121105021343152464520003224 1 1202502053.182152
0122105021343152464520003224 1 1202502053.182157
0125105021343152464520003224 1 1202502053.182202
0122106021343152464520003224 2 1202502053.182206
0125106021343152464520003224 2 1202502053.182211
0125103021143004464520003224 2 1202502053.182217
0121102220343004464520003224 2 1202502053.182222
0121102520343004464520003224 2 1202502053.182226
0125100021343104464520003224 2 1202502053.182231
0125102021343104464520003224 2 1202502053.182236
0125103021343104464520003224 2 1202502053.182241
0125105021343104464520003224 1 1202502053.182246
0125106021343104464520003224 2 1202502053.182250
0125103021143014464520003224 2 1202502053.182256
0121102220343014464520003224 2 1202502053.182301
0121102520343014464520003224 2 1202502053.182306
0125100021343114464520003224 2 1202502053.182311
0125102021343114464520003224 2 1202502053.182315
0125103021343114464520003224 2 1202502053.182320
0125105021343114464520003224 1 1202502053.182325
0125106021343114464520003224 2 1202502053.182329
0125103021143024464520003224 2 1202502053.182336
0121102220343024464520003224 2 1202502053.182340
0121102520343024464520003224 2 1202502053.182345
0125100021343124464520003224 2 1202502053.182350
0125102021343124464520003224 2 1202502053.182355
0125103021343124464520003224 2 1202502053.182359
0125105021343124464520003224 1 1202502053.182404
0125106021343124464520003224 2 1202502053.182409
0125103021143044464520003224 2 1202502053.182415
0121102220343044464520003224 2 1202502053.182419
0121102520343044464520003224 2 1202502053.182424
0125100021343144464520003224 2 1202502053.182429
0125102021343144464520003224 2 1202502053.182433
0125103021343144464520003224 2 1202502053.182438
0125105021343144464520003224 1 1202502053.182443
0125106021343144464520003224 2 1202502053.182448
0125103021143054464520003224 2 1202502053.182454
0121102220343054464520003224 2 1202502053.182458
0121102520343054464520003224 2 1202502053.182503
0125100021343154464520003224 2 1202502053.182508
0125102021343154464520003224 2 1202502053.182513
0125103021343154464520003224 2 1202502053.182517
0125105021343154464520003224 1 1202502053.182522
0125106021343154464520003224 2 1202502053.182527
0122103021143005464520003224 2 1202502053.182533
0125103021143005464520003224 2 1202502053.182538
0111102220343005464520003224 2 1202502053.182542
0121102220343005464520003224 2 1202502053.182547
0111102520343005464520003224 2 1202502053.182552
0121102520343005464520003224 2 1202502053.182556
0111102521343005464520003224 5 1202502053.182601
0121105020343105464520003224 1 1202502053.182606
0125100021343105464520003224 2 1202502053.182611
0125102021343105464520003224 2 1202502053.182615
0125103021343105464520003224 2 1202502053.182620
0125105021343105464520003224 1 1202502053.182625
0125106021343105464520003224 2 1202502053.182629
0125103021143015464520003224 2 1202502053.182636
0111102220343015464520003224 2 1202502053.182640
0121102220343015464520003224 2 1202502053.182645
0111102520343015464520003224 2 1202502053.182650
0121102520343015464520003224 2 1202502053.182654
0111102521343015464520003224 5 1202502053.182659
0121105020343115464520003224 1 1202502053.182704
0125100021343115464520003224 2 1202502053.182709
0125102021343115464520003224 2 1202502053.182713
0125103021343115464520003224 2 1202502053.182718
0125105021343115464520003224 1 1202502053.182723
0125106021343115464520003224 2 1202502053.182727
0125103021143025464520003224 2 1202502053.182734
0111102220343025464520003224 2 1202502053.182738
0121102220343025464520003224 2 1202502053.182743
0111102520343025464520003224 2 1202502053.182748
0121102520343025464520003224 2 1202502053.182752
0111102521343025464520003224 5 1202502053.182757
0121105020343125464520003224 1 1202502053.182802
0125100021343125464520003224 2 1202502053.182807
0125102021343125464520003224 2 1202502053.182811
0125103021343125464520003224 2 1202502053.182816
0125105021343125464520003224 1 1202502053.182821
0125106021343125464520003224 2 1202502053.182825
0125103021143045464520003224 2 1202502053.182832
0111102220343045464520003224 2 1202502053.182836
0121102220343045464520003224 2 1202502053.182841
0111102520343045464520003224 2 1202502053.182846
0121102520343045464520003224 2 1202502053.182850
0111102521343045464520003224 5 1202502053.182855
0121105020343145464520003224 1 1202502053.182900
0125100021343145464520003224 2 1202502053.182905
0125102021343145464520003224 2 1202502053.182909
0125103021343145464520003224 2 1202502053.182914
0125105021343145464520003224 1 1202502053.182919
0125106021343145464520003224 2 1202502053.182923
0122103021143055464520003224 2 1202502053.182930
0125103021143055464520003224 2 1202502053.182934
0111102220343055464520003224 2 1202502053.182939
0121102220343055464520003224 2 1202502053.182944
0111102520343055464520003224 2 1202502053.182948
0121102520343055464520003224 2 1202502053.182953
0111102521343055464520003224 5 1202502053.182958
0121105020343155464520003224 1 1202502053.183003
0125100021343155464520003224 2 1202502053.183007
0125102021343155464520003224 2 1202502053.183012
0125103021343155464520003224 2 1202502053.183017
0125105021343155464520003224 1 1202502053.183021
0125106021343155464520003224 2 1202502053.183026
0122105021343102464230003224 2 1202502053.183318
0122105021343112464230003224 2 1202502053.183324
0122105021343122464230003224 2 1202502053.183331
0122105021343142464230003224 2 1202502053.183337
0126150024533142404202612135 6 1202502053.184921
0021100021513041424202612135 2 1202502053.191933
0025105021013144424202612135 2 1202502053.194133
0141102020433014454202612135 6 1202502053.200621
0141102020433114454202612135 6 1202502053.200625
0141102020033064454202612135 6 1202502053.200632
0141102020133064454202612135 6 1202502053.200636
0141102020333064454202612135 6 1202502053.200640
0141102020433064454202612135 6 1202502053.200644
0141102020533064454202612135 6 1202502053.200648
0141102020033164454202612135 6 1202502053.200652
0141102020133164454202612135 6 1202502053.200655
0141102020333164454202612135 6 1202502053.200659
0141102020433164454202612135 6 1202502053.200703
0141102020533164454202612135 6 1202502053.200707
0021100020513041464202612135 6 1202502053.205314
0021150020513041464202612135 6 1202502053.205321
0021100021513041464202612135 2 1202502053.205330
0021100023513041464202612135 6 1202502053.205339
0021100024513041464202612135 6 1202502053.205347
0021100025513041464202612135 6 1202502053.205355
0114102523503141464202612135 1 1202502053.205407
0114102523503144464202612135 1 1202502053.212522
0025105020013144464202612135 6 1202502053.212535
0025105021013144464202612135 2 1202502053.212545
0025105023013144464202612135 6 1202502053.212558
0025105024013144464202612135 6 1202502053.212608
0025105025013144464202612135 6 1202502053.212618
0021150020513064464202612135 6 1202502053.214807
0026155020513045464202612135 6 1202502053.220146
0114102025533146464202612135 2 1202502053.220430
0126150024533142404602612135 6 1202502053.222010
0021100021513041424602612135 2 1202502053.225009
0025105021013144424602612135 2 1202502053.231207
0021100020513041464602612135 6 1202502064.002247
0021150020513041464602612135 6 1202502064.002255
0021100021513041464602612135 2 1202502064.002303
0021100023513041464602612135 6 1202502064.002313
0021100024513041464602612135 6 1202502064.002321
0021100025513041464602612135 6 1202502064.002329
0114102523503141464602612135 1 1202502064.002341
0114102523503144464602612135 1 1202502064.005452
0025105020013144464602612135 6 1202502064.005506
0025105021013144464602612135 2 1202502064.005516
0025105023013144464602612135 6 1202502064.005528
0025105024013144464602612135 6 1202502064.005538
0025105025013144464602612135 6 1202502064.005548
0021150020513064464602612135 6 1202502064.011739
0026155020513045464602612135 6 1202502064.013118
0114102025533146464602612135 2 1202502064.013357
