0516102021303040424200000142 1 1202502053.011034
0526103021013040424200000142 2 1202502053.011047
0526103021113040424200000142 2 1202502053.011055
0516102021313040424200000142 2 1202502053.011103
0526103021313040424200000142 2 1202502053.011112
0526103021413040424200000142 2 1202502053.011120
0526103021513040424200000142 2 1202502053.011128
0526103021613040424200000142 2 1202502053.011136
0516102021333040424200000142 2 1202502053.011144
0516102021343040424200000142 2 1202502053.011153
0516102021353040424200000142 2 1202502053.011201
0516102021363040424200000142 2 1202502053.011210
0516102021363521424200000142 2 1202502053.011359
0425160021313641424200000142 2 1202502053.011442
0614102021353641424200000142 2 1202502053.011448
0526103021613042424200000142 2 1202502053.011531
0526100021033104424200000142 2 1202502053.011628
0526102021033104424200000142 2 1202502053.011636
0526103021033104424200000142 2 1202502053.011644
0526105021033104424200000142 2 1202502053.011652
0526106021033104424200000142 2 1202502053.011700
0526100021133104424200000142 2 1202502053.011709
0526102021133104424200000142 2 1202502053.011717
0526103021133104424200000142 2 1202502053.011725
0526105021133104424200000142 2 1202502053.011733
0526106021133104424200000142 2 1202502053.011741
0526100021333104424200000142 2 1202502053.011750
0526102021333104424200000142 2 1202502053.011758
0526103021333104424200000142 2 1202502053.011806
0526105021333104424200000142 2 1202502053.011815
0526106021333104424200000142 2 1202502053.011828
0526100021433104424200000142 2 1202502053.011844
0526102021433104424200000142 2 1202502053.011852
0526103021433104424200000142 2 1202502053.011900
0526105021433104424200000142 2 1202502053.011909
0526106021433104424200000142 2 1202502053.011917
0526100021533104424200000142 2 1202502053.011925
0526102021533104424200000142 2 1202502053.011933
0526103021533104424200000142 2 1202502053.011941
0526105021533104424200000142 2 1202502053.011950
0526106021533104424200000142 2 1202502053.011958
0526100021633104424200000142 2 1202502053.012006
0526102021633104424200000142 2 1202502053.012014
0526103021633104424200000142 2 1202502053.012023
0526105021633104424200000142 2 1202502053.012031
0424165021633104424200000142 2 1202502053.012035
0526106021633104424200000142 2 1202502053.012043
0526100021033114424200000142 2 1202502053.012118
0526102021033114424200000142 2 1202502053.012126
0526103021033114424200000142 2 1202502053.012135
0526105021033114424200000142 2 1202502053.012143
0526106021033114424200000142 2 1202502053.012151
0526100021133114424200000142 2 1202502053.012159
0526102021133114424200000142 2 1202502053.012207
0526103021133114424200000142 2 1202502053.012216
0526105021133114424200000142 2 1202502053.012224
0526106021133114424200000142 2 1202502053.012232
0526100021333114424200000142 2 1202502053.012240
0526102021333114424200000142 2 1202502053.012249
0526103021333114424200000142 2 1202502053.012257
0526105021333114424200000142 2 1202502053.012306
0526106021333114424200000142 2 1202502053.012319
0526100021433114424200000142 2 1202502053.012335
0526102021433114424200000142 2 1202502053.012343
0526103021433114424200000142 2 1202502053.012351
0526105021433114424200000142 2 1202502053.012400
0526106021433114424200000142 2 1202502053.012408
0526100021533114424200000142 2 1202502053.012416
0526102021533114424200000142 2 1202502053.012424
0526103021533114424200000142 2 1202502053.012433
0526105021533114424200000142 2 1202502053.012441
0526106021533114424200000142 2 1202502053.012449
0526100021633114424200000142 2 1202502053.012457
0526102021633114424200000142 2 1202502053.012505
0526103021633114424200000142 2 1202502053.012514
0526105021633114424200000142 2 1202502053.012522
0526106021633114424200000142 2 1202502053.012531
0516102021363024424200000142 1 1202502053.012606
0526100021033124424200000142 2 1202502053.012615
0526102021033124424200000142 2 1202502053.012623
0526103021033124424200000142 2 1202502053.012631
0526105021033124424200000142 2 1202502053.012639
0526106021033124424200000142 2 1202502053.012648
0526100021133124424200000142 2 1202502053.012656
0526102021133124424200000142 2 1202502053.012704
0526103021133124424200000142 2 1202502053.012712
0526105021133124424200000142 2 1202502053.012720
0526106021133124424200000142 2 1202502053.012729
0526100021333124424200000142 2 1202502053.012737
0526102021333124424200000142 2 1202502053.012745
0526103021333124424200000142 2 1202502053.012753
0526105021333124424200000142 2 1202502053.012802
0526106021333124424200000142 2 1202502053.012815
0526100021433124424200000142 2 1202502053.012831
0526102021433124424200000142 2 1202502053.012839
0526103021433124424200000142 2 1202502053.012848
0526105021433124424200000142 2 1202502053.012856
0526106021433124424200000142 2 1202502053.012904
0526100021533124424200000142 2 1202502053.012912
0526102021533124424200000142 2 1202502053.012920
0526103021533124424200000142 2 1202502053.012929
0526105021533124424200000142 2 1202502053.012937
0526106021533124424200000142 2 1202502053.012945
0526100021633124424200000142 2 1202502053.012953
0526102021633124424200000142 2 1202502053.013002
0526103021633124424200000142 2 1202502053.013010
0526105021633124424200000142 2 1202502053.013018
0526106021633124424200000142 2 1202502053.013026
0425160021313144424200000142 2 1202502053.013112
0526100021033144424200000142 2 1202502053.013120
0526102021033144424200000142 2 1202502053.013128
0526103021033144424200000142 2 1202502053.013137
0526105021033144424200000142 2 1202502053.013145
0526106021033144424200000142 2 1202502053.013153
0526100021133144424200000142 2 1202502053.013201
0526102021133144424200000142 2 1202502053.013209
0526103021133144424200000142 2 1202502053.013218
0526105021133144424200000142 2 1202502053.013226
0526106021133144424200000142 2 1202502053.013234
0526100021333144424200000142 2 1202502053.013243
0526102021333144424200000142 2 1202502053.013251
0526103021333144424200000142 2 1202502053.013259
0526105021333144424200000142 2 1202502053.013308
0526106021333144424200000142 2 1202502053.013321
0526100021433144424200000142 2 1202502053.013337
0526102021433144424200000142 2 1202502053.013345
0526103021433144424200000142 2 1202502053.013354
0526105021433144424200000142 2 1202502053.013402
0526106021433144424200000142 2 1202502053.013410
0526100021533144424200000142 2 1202502053.013418
0526102021533144424200000142 2 1202502053.013426
0526103021533144424200000142 2 1202502053.013435
0526105021533144424200000142 2 1202502053.013443
0526106021533144424200000142 2 1202502053.013451
0526100021633144424200000142 2 1202502053.013459
0526102021633144424200000142 2 1202502053.013508
0526103021633144424200000142 2 1202502053.013516
0526105021633144424200000142 2 1202502053.013524
0424165021633144424200000142 2 1202502053.013532
0426165021633144424200000142 2 1202502053.013537
0526106021633144424200000142 2 1202502053.013545
0024165021633644424200000142 2 1202502053.013725
0526100021033154424200000142 2 1202502053.013802
0526102021033154424200000142 2 1202502053.013810
0526103021033154424200000142 2 1202502053.013818
0526105021033154424200000142 2 1202502053.013827
0526106021033154424200000142 2 1202502053.013835
0526100021133154424200000142 2 1202502053.013843
0526102021133154424200000142 2 1202502053.013851
0526103021133154424200000142 2 1202502053.013859
0526105021133154424200000142 2 1202502053.013908
0526106021133154424200000142 2 1202502053.013916
0526100021333154424200000142 2 1202502053.013924
0526102021333154424200000142 2 1202502053.013938
0526103021333154424200000142 2 1202502053.013952
0526105021333154424200000142 2 1202502053.014005
0526106021333154424200000142 2 1202502053.014024
0526100021433154424200000142 2 1202502053.014049
0526102021433154424200000142 2 1202502053.014057
0526103021433154424200000142 2 1202502053.014105
0526105021433154424200000142 2 1202502053.014113
0526106021433154424200000142 2 1202502053.014121
0526100021533154424200000142 2 1202502053.014130
0526102021533154424200000142 2 1202502053.014138
0526103021533154424200000142 2 1202502053.014146
0526105021533154424200000142 2 1202502053.014154
0526106021533154424200000142 2 1202502053.014203
0526100021633154424200000142 2 1202502053.014211
0526102021633154424200000142 2 1202502053.014224
0526103021633154424200000142 2 1202502053.014236
0526105021633154424200000142 2 1202502053.014249
0526106021633154424200000142 2 1202502053.014302
0424166021133654424200000142 2 1202502053.014316
0021160021633654424200000142 2 1202502053.014340
0421160021633654424200000142 2 1202502053.014345
0424160021633654424200000142 2 1202502053.014349
0421162021633654424200000142 2 1202502053.014355
0424162021633654424200000142 2 1202502053.014359
0424163021633654424200000142 2 1202502053.014405
0424165021633654424200000142 2 1202502053.014411
0424166021633654424200000142 2 1202502053.014417
0526100021033164424200000142 2 1202502053.014450
0526102021033164424200000142 2 1202502053.014458
0526103021033164424200000142 2 1202502053.014507
0526105021033164424200000142 2 1202502053.014515
0526106021033164424200000142 2 1202502053.014523
0526100021133164424200000142 2 1202502053.014531
0526102021133164424200000142 2 1202502053.014540
0526103021133164424200000142 2 1202502053.014548
0526105021133164424200000142 2 1202502053.014556
0526106021133164424200000142 2 1202502053.014604
0526100021333164424200000142 2 1202502053.014613
0526102021333164424200000142 2 1202502053.014629
0526103021333164424200000142 2 1202502053.014649
0526105021333164424200000142 2 1202502053.014711
0526106021333164424200000142 2 1202502053.014732
0526100021433164424200000142 2 1202502053.014748
0526102021433164424200000142 2 1202502053.014756
0526103021433164424200000142 2 1202502053.014805
0526105021433164424200000142 2 1202502053.014813
0526106021433164424200000142 2 1202502053.014821
0526100021533164424200000142 2 1202502053.014829
0526102021533164424200000142 2 1202502053.014838
0526103021533164424200000142 2 1202502053.014846
0526105021533164424200000142 2 1202502053.014854
0526106021533164424200000142 2 1202502053.014902
0526100021633164424200000142 2 1202502053.014911
0526102021633164424200000142 2 1202502053.014919
0526103021633164424200000142 2 1202502053.014927
0526105021633164424200000142 2 1202502053.014936
0526106021633164424200000142 2 1202502053.014944
0516102021363525424200000142 1 1202502053.015049
0422163021613145424200000142 2 1202502053.015109
0424163021613145424200000142 2 1202502053.015113
0010162021363645424200000142 1 1202502053.015147
0110152026303046424200000142 1 1202502053.015252
0110152021303146424200000142 1 1202502053.015301
0120153021113146424200000142 2 1202502053.015308
0110152021313146424200000142 2 1202502053.015318
0110152021333146424200000142 2 1202502053.015332
0110152021343146424200000142 2 1202502053.015338
0110152021353146424200000142 2 1202502053.015344
0110152021363146424200000142 1 1202502053.015355
0211162021343625464200000142 1 1202502053.020109
0111162225303540424200000552 1 1202502053.020440
0624100021313641424200000552 2 1202502053.020553
0614102021303144424200000552 1 1202502053.021219
0624103021113144424200000552 2 1202502053.021225
0614102021313144424200000552 2 1202502053.021231
0614102021333144424200000552 2 1202502053.021240
0614102021343144424200000552 2 1202502053.021302
0614102021353144424200000552 2 1202502053.021307
0614102021363144424200000552 2 1202502053.021315
0111162225303544424200000552 1 1202502053.021329
