1798540026
1798544122
1798548218
1798552314
1798556410
1798560506
1798564602
1798568698
1798802170
1798806266
1798810362
1798814458
1798818554
1798822650
1798826746
1798830842
1799064314
1799068410
1799072506
1799076602
1799080698
1799084794
1799088890
1799092986
1799326458
1799330554
1799334650
1799338746
1799342842
1799346938
1799351034
1799355130
1802734330
1802738426
1802742522
1802746618
1802750714
1802754810
1802758906
1802763002
1802996474
1803000570
1803004666
1803008762
1803012858
1803016954
1803021050
1803025146
1803258618
1803262714
1803266810
1803270906
1803275002
1803279098
1803283194
1803287290
1803520762
1803524858
1803528954
1803533050
1803537146
1803541242
1803545338
1803549434
1806928634
1806932730
1806936826
1806940922
1806945018
1806949114
1806953210
1806957306
1807190778
1807194874
1807198970
1807203066
1807207162
1807211258
1807215354
1807219450
1807452922
1807457018
1807461114
1807465210
1807469306
1807473402
1807477498
1807481594
1807715066
1807719162
1807723258
1807727354
1807731450
1807735546
1807739642
1807743738
1811122938
1811127034
1811131130
1811135226
1811139322
1811143418
1811147514
1811151610
1811385082
1811389178
1811393274
1811397370
1811401466
1811405562
1811409658
1811413754
1811647226
1811651322
1811655418
1811659514
1811663610
1811667706
1811671802
1811675898
1811909370
1811913466
1811917562
1811921658
1811925754
1811929850
1811933946
1811938042
