01221020214331754001151645014502 2 1202406145.193504
01221020214331754002151645014502 2 1202406145.193921
01221020214331754005151645014502 2 1202406145.194339
01221050214331714001152645014502 2 1202406145.200347
01221050214331714002152645014502 2 1202406145.200818
01221050214331714005152645014502 2 1202406145.201238
01221020214331654001151745014502 2 1202406145.224253
01221020214331654002151745014502 2 1202406145.224714
01221020214331654005151745014502 2 1202406145.225138
01221050214331614001152745014502 2 1202406145.231651
01221050214331614002152745014502 2 1202406145.232110
01221050214331614005152745014502 2 1202406145.232529
