01271036214132754001110045014202 2 1202406145.083518
01271036214132754002110045014202 2 1202406145.083936
01271036214132754005110045014202 2 1202406145.084352
01221020214331754001151645014501 2 1202406145.230614
01221020214331754002151645014501 2 1202406145.231043
01221020214331754005151645014501 2 1202406145.231502
01221050214331714001152645014501 2 1202406145.233501
01221050214331714002152645014501 2 1202406145.233922
01221050214331714005152645014501 2 1202406145.234345
01221020214331654001151745014501 2 1202406156.021230
01221020214331654002151745014501 2 1202406156.021656
01221020214331654005151745014501 2 1202406156.022117
01221050214331614001152745014501 2 1202406156.024346
01221050214331614002152745014501 2 1202406156.024805
01221050214331614005152745014501 2 1202406156.025222
