014110242003351042010500 1202309166.140112
014110242053351042010500 1202309166.140113
014110242003354042010500 1202309166.140116
014110242003351442010500 1202309166.140122
014110242003351542010500 1202309166.140126
014110242053351042020500 1202309166.140129
014110242003354042020500 1202309166.140132
014110242003351542020500 1202309166.140138
014110242003351042010510 1202309166.141353
014110242003354042010510 1202309166.141356
014110242033354042010510 1202309166.141358
014110242003350442010510 1202309166.141402
014110242033350442010510 1202309166.141404
014110242003351442010510 1202309166.141405
014110242003354442010510 1202309166.141409
014110242003355442010510 1202309166.141411
014110242003351542010510 1202309166.141414
014110242003354542010510 1202309166.141416
014110242033354542010510 1202309166.141417
014110242003354042020510 1202309166.141420
014110242033354042020510 1202309166.141422
014110242003351542020510 1202309166.141426
014110242003354542020510 1202309166.141428
014110242033354542020510 1202309166.141429
014110242003351042010520 1202309166.142621
014110242003354042010520 1202309166.142623
014110242033354042010520 1202309166.142625
014110242033350442010520 1202309166.142628
014110242053350442010520 1202309166.142630
014110242003351442010520 1202309166.142631
014110242003354442010520 1202309166.142634
014110242033354442010520 1202309166.142636
014110242053354442010520 1202309166.142637
014110242003351542010520 1202309166.142639
014110242003354542010520 1202309166.142641
014110242033354542010520 1202309166.142642
014110242053354542010520 1202309166.142643
014110242003354042020520 1202309166.142646
014110242033354042020520 1202309166.142648
014110242053354042020520 1202309166.142649
014110242003351542020520 1202309166.142653
014110242003354542020520 1202309166.142655
014110242033354542020520 1202309166.142656
014110242053354542020520 1202309166.142658
014110242003351042010540 1202309166.135345
014110242053351042010540 1202309166.135347
014110242003354042010540 1202309166.135350
014110242003351442010540 1202309166.135357
014110242053351442010540 1202309166.135358
014110242003354442010540 1202309166.135401
014110242003355442010540 1202309166.135406
014110242003351542010540 1202309166.135411
014110242053351542010540 1202309166.135412
014110242003354542010540 1202309166.135415
014110242003354042020540 1202309166.135420
014110242003351542020540 1202309166.135429
014110242053351542020540 1202309166.135431
014110242003354542020540 1202309166.135434
014110242003351042010550 1202309166.140833
014110242003354042010550 1202309166.140835
014110242003351442010550 1202309166.140841
014110242003351542010550 1202309166.140847
014110242003354042020550 1202309166.140851
014110242003351542020550 1202309166.140857
014510252030354042021011 1202309166.142744
014510252030354442021011 1202309166.142755
014510052003354042021021 1202309166.144419
014510052003355142021021 1202309166.144450
014510052013355142021021 1202309166.144452
014110222003351042020502 1202309166.153512
014110222053351042020502 1202309166.153513
014110222003354042020502 1202309166.153516
014110222003351542020502 1202309166.153533
014110222053351542020502 1202309166.153534
014110222003354042011502 1202309166.153548
014110242003354042011502 1202309166.153549
014110252003354042011502 1202309166.153551
014110222003354042021502 1202309166.153610
014110242003354042021502 1202309166.153611
014110252003354042021502 1202309166.153613
014110222003350442020512 1202309166.144003
014110222003351542020512 1202309166.144011
014110222003354542020512 1202309166.144013
014110252003354042011512 1202309166.144032
014110252033354042011512 1202309166.144035
014110252003354042021512 1202309166.144107
014110222033354042051512 1202309166.144132
014110242033354042051512 1202309166.144133
014110252003354042011022 1202309166.144300
014510252003354042011022 1202309166.144302
014110252003351042021022 1202309166.144425
014510252003351042021022 1202309166.144426
014510052003355042021022 1202309166.144508
014110252003355042021022 1202309166.144510
014110552033354242021022 1202309166.144550
014510452003351042051022 1202309166.144837
014510552003351042051022 1202309166.144839
014510052003354042051022 1202309166.144908
014110252003354042051022 1202309166.144910
014110552033354042051022 1202309166.144926
014510052013355042051022 1202309166.144943
014110552033354442051022 1202309166.145413
014110222003351542020522 1202309166.152849
014510202003354042011522 1202309166.152909
014510222003354042011522 1202309166.152910
014510242003354042011522 1202309166.152912
014110252003354042011522 1202309166.152913
014510252003354042011522 1202309166.152914
014510502033354042011522 1202309166.152920
014510522033354042011522 1202309166.152922
014510542033354042011522 1202309166.152924
014510402003351042021522 1202309166.153016
014510422003351042021522 1202309166.153017
014510442003351042021522 1202309166.153018
014510002003354042021522 1202309166.153046
014510022003354042021522 1202309166.153049
014510042003354042021522 1202309166.153052
014510402003351042051522 1202309166.153332
014510422003351042051522 1202309166.153333
014510442003351042051522 1202309166.153334
014510002003354042051522 1202309166.153405
014510022003354042051522 1202309166.153407
014110222003354042051522 1202309166.153409
014510042003354042051522 1202309166.153411
014110242003354042051522 1202309166.153413
014510052003354042051522 1202309166.153416
014110252003354042051522 1202309166.153417
014110222003350442020542 1202309166.160639
014110222003351542020542 1202309166.160709
014110222053351542020542 1202309166.160711
014110222003354542020542 1202309166.160714
014110252003354042011542 1202309166.160731
014110222003355042011542 1202309166.160738
014110242003355042011542 1202309166.160740
014110252003355042011542 1202309166.160741
014110252003354042021542 1202309166.160908
014110222003355042021542 1202309166.160915
014110242003355042021542 1202309166.160917
014110252003355042021542 1202309166.160918
014110222003351442010552 1202309166.162339
014110222003354442010552 1202309166.162343
014110222003351042020552 1202309166.162348
014110222003350442020552 1202309166.162352
014110222003351542020552 1202309166.162415
014110222003354542020552 1202309166.162418
