0 1 1
4 2 1
8 3 1
14 3 2
31 3 3
41 4 3
45 5 3
63 5 4
79 5 5
96 5 6
112 6 6
125 6 7
149 6 8
174 6 9
200 6 10
218 7 10
240 7 11
281 7 12
316 7 13
352 7 14
389 7 15
409 8 15
442 8 16
496 8 17
563 8 18
611 8 19
660 8 20
682 9 20
727 9 21
795 9 22
878 9 23
939 10 23
943 11 23
992 11 24
1087 11 25
1163 11 26
1190 12 26
1194 13 26
1319 13 27
1386 13 28
1453 13 29
1521 13 30
1612 13 31
1704 13 32
1838 13 33
1919 13 34
2001 13 35
2084 13 36
2192 13 37
2223 14 37
2227 15 37
2308 15 38
2419 15 39
2531 15 40
2661 15 41
2793 15 42
3053 15 43
3182 15 44
3312 15 45
3652 15 46
3687 16 46
3691 17 46
3979 17 47
4086 17 48
4194 17 49
4338 18 49
4819 18 50
4862 19 50
5300 19 51
5689 19 52
6114 19 53
6157 20 53
6161 21 53
6253 22 53
6447 22 54
6712 23 54
7517 23 55
7651 24 55
7968 25 55
8286 26 55
8533 26 56
8657 26 57
8782 26 58
8960 26 59
9138 26 60
9593 27 60
9597 28 60
10217 28 61
10700 28 62
11512 29 62
11516 30 62
12145 30 63
12281 30 64
13155 30 65
13762 31 65
14085 32 65
14653 32 66
15302 32 67
16740 32 68
17114 32 69
17307 32 70
17377 33 70
17381 34 70
18051 34 71
18203 34 72
18356 34 73
18509 34 74
18980 34 75
19764 34 76
21429 34 77
21758 34 78
21832 35 78
21836 36 78
23317 36 79
23613 36 80
24821 37 80
24825 38 80
25357 38 81
26902 38 82
27423 39 82
28036 39 83
28360 39 84
29832 40 84
31505 40 85
32284 40 86
32372 41 86
33996 41 87
34537 42 87
35120 42 88
36652 42 89
37327 42 90
39011 43 90
39015 44 90
39392 44 91
40331 44 92
41966 44 93
42502 44 94
42841 45 94
44039 45 95
44917 45 96
45204 46 96
46187 46 97
47467 46 98
47567 47 98
48596 48 98
48861 48 99
49896 48 100
51029 48 101
52522 49 101
53672 49 102
54520 49 103
56575 49 104
57583 49 105
57954 50 105
59517 50 106
59741 50 107
61179 50 108
61775 50 109
62612 51 109
64634 51 110
65250 51 111
66121 51 112
69339 52 112
69728 52 113
71465 52 114
71704 52 115
72165 52 116
72405 52 117
73300 52 118
74843 52 119
75090 52 120
77266 52 121
77861 52 122
78655 53 122
81281 53 123
82850 53 124
84561 53 125
85329 53 126
86279 53 127
86546 53 128
87058 53 129
87403 53 130
87749 53 131
88024 53 132
88300 53 133
89893 53 134
90338 53 135
92242 53 136
92891 53 137
94672 54 137
95092 55 137
97586 55 138
98029 56 138
99877 56 139
101782 56 140
103019 56 141
103897 56 142
106054 57 142
106058 58 142
107175 58 143
108222 58 144
112881 59 144
113175 59 145
113766 59 146
115889 60 146
118278 60 147
119472 60 148
120567 60 149
121835 61 149
122538 61 150
123500 61 151
125237 61 152
125637 61 153
127248 61 154
128816 61 155
133439 62 155
135551 62 156
136900 62 157
141787 63 157
141791 64 157
143745 64 158
144158 64 159
147218 64 160
148772 64 161
149937 65 161
149941 66 161
153140 66 162
154664 66 163
158934 67 163
159355 67 164
159975 67 165
165372 67 166
167309 67 167
169332 67 168
172144 67 169
172893 67 170
175533 67 171
178745 67 172
180343 68 172
181661 69 172
183059 69 173
186407 69 174
187196 70 174
190168 70 175
190315 71 175
193738 71 176
196633 71 177
199215 72 177
199219 73 177
199991 73 178
201958 73 179
205625 73 180
208845 73 181
212563 73 182
214312 74 182
214316 75 182
216659 75 183
221306 75 184
224893 75 185
227293 76 185
229454 76 186
232930 77 186
233614 77 187
237512 78 187
238866 78 188
243158 78 189
244049 78 190
245275 78 191
245619 79 191
247122 79 192
247623 79 193
249510 79 194
250407 79 195
253309 80 195
256038 80 196
259681 81 196
262054 81 197
264136 82 197
266890 82 198
268740 82 199
275891 82 200
276893 82 201
281620 82 202
283592 83 202
286660 83 203
287559 84 203
293359 84 204
294482 84 205
302092 85 205
302096 86 205
310325 86 206
311108 86 207
321191 86 208
322011 87 208
322015 88 208
324090 88 209
331153 88 210
332593 88 211
335938 89 211
335942 90 211
342272 90 212
342819 90 213
352520 91 213
352524 92 213
355216 92 214
362284 92 215
368785 93 215
370835 94 215
371550 94 216
372477 94 217
380079 95 217
384203 96 217
384767 96 218
390396 96 219
394592 97 219
394596 98 219
406191 98 220
407627 99 220
407631 100 220
413545 101 220
415592 101 221
418389 101 222
422337 102 222
422341 103 222
427518 103 223
428159 104 223
428163 105 223
438268 105 224
439795 106 224
439799 107 224
446445 108 224
446449 109 224
448603 109 225
452194 110 225
452198 111 225
455544 112 225
456783 112 226
458599 112 227
460701 113 227
465482 114 227
468036 115 227
470702 116 227
477181 117 227
478370 118 227
481422 118 228
482466 119 228
484933 120 228
488912 120 229
489161 121 229
494702 122 229
495202 123 229
498913 124 229
501803 125 229
505193 125 230
507001 126 230
507930 126 231
511503 127 231
517489 128 231
519108 128 232
520507 129 232
523760 130 232
523764 131 232
530959 132 232
530963 133 232
531574 133 233
536515 134 233
536519 135 233
541524 135 234
544646 136 234
544650 137 234
550472 138 234
552145 138 235
553901 139 235
558378 140 235
561134 141 235
565393 142 235
566802 142 236
569230 143 236
575220 144 236
579454 145 236
581652 145 237
584438 146 237
585623 147 237
592618 148 237
597161 148 238
597467 149 238
601921 150 238
607107 150 239
607417 151 239
611840 152 239
614318 153 239
622221 154 239
622853 154 240
626585 155 240
629965 155 241
632191 156 241
638371 157 241
641952 157 242
643106 158 242
645240 159 242
649179 159 243
651500 160 243
658523 161 243
663715 162 243
668820 163 243
669914 164 243
675166 164 244
678937 165 244
684402 166 244
688229 166 245
692441 167 245
701364 168 245
706145 168 246
707661 169 246
711387 170 246
719203 171 246
727270 171 247
729089 172 247
736734 173 247
741320 174 247
746403 174 248
747807 175 248
757484 176 248
762864 176 249
764779 177 249
773604 177 250
776116 178 250
780163 179 250
783948 179 251
793034 180 251
794898 180 252
802987 181 252
805633 182 252
810987 182 253
814122 183 253
818367 183 254
823921 184 254
827734 184 255
832160 185 255
834896 186 255
834900 187 255
847758 188 255
847762 189 255
849295 189 256
856043 189 257
859078 190 257
859082 191 257
869763 192 257
872103 192 258
880155 193 258
883822 193 259
889555 194 259
894397 195 259
902898 196 259
903950 196 260
910287 197 260
913916 197 261
917977 198 261
925847 199 261
928097 199 262
931171 200 262
941231 201 262
943574 201 263
953610 202 263
961771 202 264
963234 203 264
968027 204 264
978093 204 265
978512 205 265
987985 206 265
993830 207 265
999958 208 265
1007481 209 265
1013873 209 266
1018432 210 266
1025482 210 267
1026465 211 267
1029423 212 267
1042517 213 267
1044480 213 268
1051127 214 268
1059816 215 268
1061967 215 269
1072214 216 269
1075197 217 269
1080794 217 270
1083557 218 270
1093925 218 271
1096045 219 271
1106265 220 271
1114629 220 272
1116327 221 272
1123001 221 273
1135266 222 273
1139551 222 274
1143344 223 274
1149542 224 274
1153402 224 275
1158678 225 275
1165318 225 276
1174904 226 276
1183525 227 276
1194489 228 276
1200213 228 277
1204356 229 277
1219257 229 278
1219726 230 278
1230269 231 278
1231950 231 279
1234739 232 279
1244580 233 279
1249134 233 280
1261743 233 281
1264068 234 281
1265020 235 281
1271812 236 281
1278043 236 282
1284090 237 282
1288049 238 282
1291924 238 283
1305106 239 283
1308720 239 284
1318959 240 284
1321380 241 284
1332629 241 285
1335252 242 285
1336480 242 286
1339205 242 287
1346611 243 287
1352856 243 288
1355789 243 289
1360808 244 289
1369890 245 289
1384434 246 289
1395059 246 290
1396056 247 290
1400701 247 291
1408412 248 291
1420116 249 291
1429152 249 292
1429932 249 293
1435019 250 293
1446220 251 293
1452561 252 293
1467917 253 293
1481391 254 293
1482174 254 294
1491459 254 295
1496166 255 295
1510985 255 296
1512780 256 296
1523717 256 297
1526325 257 297
1529438 258 297
1542900 259 297
1556078 260 297
1561066 260 298
1565947 260 299
1566477 261 299
1578149 262 299
1594518 262 300
1595816 263 300
1601986 264 300
1604108 264 301
1619482 265 301
1624474 265 302
1629977 266 302
1631596 267 302
1631600 268 302
1652676 268 303
1660762 269 303
1660766 270 303
1677069 270 304
1680563 271 304
1680567 272 304
1686875 272 305
1698152 273 305
1705840 274 305
1718861 275 305
1732299 275 306
1733121 275 307
1738431 276 307
1744751 277 307
1754365 278 307
1767000 279 307
1778068 280 307
1783167 281 307
1792471 281 308
1795758 281 309
1802681 282 309
1817846 283 309
1832073 284 309
1836693 284 310
1838802 284 311
1850519 285 311
1866636 286 311
1876895 287 311
1891604 287 312
1894392 287 313
1895549 288 313
1897878 289 313
1912988 290 313
1923980 290 314
1926415 290 315
1928872 291 315
1940427 292 315
1957199 293 315
1968779 294 315
1977998 294 316
1980014 294 317
1986886 295 317
1994936 296 317
0 1 1
3 2 1
7 2 2
15 3 2
19 3 3
25 3 4
37 4 4
41 5 4
55 6 4
66 6 5
88 6 6
129 6 7
150 7 7
168 8 7
185 8 8
210 9 8
294 9 9
324 9 10
348 10 10
394 11 10
398 12 10
426 12 11
479 12 12
604 12 13
645 12 14
687 12 15
717 13 15
721 14 15
835 14 16
919 14 17
993 14 18
1068 14 19
1215 15 19
1263 15 20
1345 15 21
1446 16 21
1450 17 21
1489 18 21
1582 18 22
1747 19 22
1829 20 22
2228 20 23
2390 21 23
2869 22 23
2873 23 23
3098 23 24
3166 23 25
3273 23 26
3279 23 27
3419 24 27
3523 25 27
3527 26 27
3869 26 28
4005 26 29
4192 26 30
4434 26 31
4750 27 31
4820 27 32
5009 28 32
5013 29 32
5261 29 33
5733 30 33
5737 31 33
6881 32 33
6951 32 34
7532 32 35
7670 33 35
7674 34 35
8737 35 35
8741 36 35
8818 37 35
9070 37 36
9076 37 37
9574 38 37
9785 39 37
10092 39 38
10794 40 38
11166 41 38
11477 41 39
11702 41 40
11785 42 40
12041 43 40
13355 44 40
13994 45 40
14576 46 40
14770 47 40
14774 48 40
14912 48 41
15357 48 42
15833 48 43
16146 48 44
16257 49 44
16261 50 44
16540 50 45
16729 50 46
18831 50 47
19328 50 48
19887 51 48
19891 52 48
20600 53 48
20604 54 48
20838 54 49
21992 55 49
22099 55 50
23544 56 50
23759 56 51
24533 57 51
25505 58 51
26863 59 51
27274 59 52
27563 59 53
27691 60 53
28352 60 54
29060 61 54
29265 61 55
29271 61 56
30093 61 57
30726 61 58
30959 61 59
31094 62 59
31706 62 60
32340 62 61
32595 63 61
36214 64 61
37477 65 61
39782 65 62
40511 66 62
40649 67 62
43055 68 62
43366 69 62
44410 70 62
45855 70 63
46012 71 63
46445 72 63
46656 72 64
46876 72 65
47218 72 66
47654 72 67
47812 72 68
49714 73 68
50949 73 69
51183 73 70
51639 73 71
52029 73 72
52480 74 72
54570 74 73
54735 75 73
55047 76 73
55051 77 73
56400 77 74
57023 77 75
57972 78 75
57976 79 75
58470 79 76
61061 79 77
61501 79 78
61762 79 79
62219 79 80
63274 80 80
63278 81 80
65968 82 80
65972 83 80
66428 84 80
68787 84 81
68973 85 81
71062 86 81
71531 86 82
74430 87 82
76659 88 82
76924 89 82
78421 90 82
81414 91 82
84453 91 83
84872 92 83
86925 93 83
89937 94 83
92626 95 83
95699 96 83
98619 97 83
100648 97 84
101549 98 84
104032 98 85
105855 99 85
107647 99 86
109510 100 86
111047 100 87
115318 101 87
116027 101 88
118311 101 89
118841 101 90
119191 101 91
121306 102 91
121728 102 92
125308 103 92
125651 103 93
128452 104 93
134046 104 94
137278 105 94
139833 106 94
141578 106 95
145623 107 95
147455 107 96
150509 107 97
151365 107 98
151751 108 98
152208 108 99
154420 108 100
154836 108 101
157398 108 102
158408 109 102
165543 110 102
167315 110 103
169932 110 104
171461 110 105
172318 110 106
173191 111 106
175622 111 107
175628 111 108
178999 112 108
185126 112 109
187556 113 109
192154 113 110
200621 113 111
205132 113 112
205673 113 113
205679 113 114
208394 113 115
208633 114 115
209622 114 116
210483 115 116
210487 116 116
211380 116 117
214877 116 118
224497 116 119
224741 117 119
224745 118 119
225749 118 120
233716 119 120
233720 120 120
237602 120 121
244471 121 121
244475 122 121
245805 123 121
262579 124 121
263495 124 122
265782 125 122
269067 125 123
269737 126 123
273202 127 123
275843 127 124
275849 127 125
276619 128 125
277388 128 126
277895 128 127
285530 129 127
290929 130 127
293172 130 128
298458 131 128
308018 132 128
308895 132 129
312748 133 129
313707 134 129
316437 134 130
317908 135 130
325750 136 130
331735 136 131
334503 136 132
336859 137 132
342355 138 132
346663 138 133
347200 139 133
352756 140 133
361983 141 133
366916 142 133
367444 142 134
375352 143 134
379977 143 135
385796 144 135
392834 145 135
403782 146 135
409093 146 136
409935 147 136
414553 148 136
421050 148 137
422554 149 137
425790 149 138
428672 150 138
435697 150 139
442447 151 139
447902 152 139
459315 153 139
464952 154 139
474181 155 139
485142 156 139
485658 156 140
494459 157 140
499821 158 140
500111 158 141
500117 158 142
503136 159 142
503140 160 142
506821 160 143
512484 161 143
512488 162 143
520822 162 144
527219 163 144
527223 164 144
528529 164 145
538366 165 145
538370 166 145
540196 166 146
552663 166 147
555212 166 148
555795 167 148
555799 168 148
563136 169 148
568746 170 148
577266 171 148
579458 171 149
580743 171 150
590738 172 150
593469 172 151
602893 173 151
621754 173 152
624889 174 152
628216 174 153
628716 174 154
638502 174 155
640543 174 156
642445 175 156
643376 175 157
644731 175 158
649295 175 159
654847 175 160
656810 175 161
658258 175 162
660033 175 163
660039 175 164
666103 176 164
680013 177 164
682330 177 165
682986 177 166
685922 177 167
688238 177 168
693875 178 168
694586 178 169
706570 179 169
709199 180 169
718668 181 169
719501 182 169
722666 182 170
724168 183 170
735215 183 171
742419 184 171
752852 185 171
764270 185 172
767841 186 172
773454 186 173
778203 187 173
778755 187 174
783210 187 175
790251 187 176
794941 187 177
795990 188 177
800707 188 178
802290 189 178
809502 189 179
813686 190 179
827648 191 179
838276 192 179
849966 193 179
851203 193 180
864638 193 181
866487 194 181
884176 194 182
891519 195 182
898183 195 183
904762 196 183
917734 197 183
927330 198 183
936078 198 184
939712 198 185
945923 198 186
945929 198 187
948392 199 187
954330 199 188
954730 199 189
955801 199 190
964993 199 191
967374 199 192
968086 200 192
978515 200 193
979985 200 194
987011 200 195
987428 200 196
993441 200 197
996280 200 198
997268 201 198
1006508 201 199
1022365 201 200
1023137 202 200
1023771 202 201
1025847 202 202
1026277 202 203
1035577 202 204
1038861 202 205
1042694 203 205
1052348 203 206
1059015 204 206
1076662 205 206
1084905 205 207
1086812 205 208
1091364 206 208
1099666 207 208
1102110 207 209
1104845 207 210
1118849 208 210
1127961 209 210
1142658 210 210
1146325 210 211
1170911 210 212
1173240 211 212
1179021 212 212
1202017 213 212
1217511 213 213
1218869 213 214
1222129 214 214
1241475 215 214
1249128 216 214
1249132 217 214
1258036 217 215
1295989 218 215
1295993 219 215
1297960 219 216
1312935 219 217
1330431 220 217
1330435 221 217
1351891 222 217
1351895 223 217
1385911 223 218
1388024 223 219
1396481 224 219
1396485 225 219
1422159 226 219
1422163 227 219
1447528 228 219
1447532 229 219
1460712 229 220
1470581 229 221
1476339 229 222
1488040 229 223
1497523 230 223
1497527 231 223
1502755 231 224
1513937 231 225
1520496 231 226
1525919 231 227
1539864 232 227
1539868 233 227
1594047 234 227
1594051 235 227
1607959 235 228
1635792 236 228
1635796 237 228
1675209 237 229
1677891 237 230
1684558 237 231
1686231 237 232
1719943 238 232
1719947 239 232
1722655 239 233
1732910 239 234
1738547 239 235
1747892 239 236
1754488 240 236
1754492 241 236
1769189 241 237
1780167 242 237
1780171 243 237
1800726 244 237
1800730 245 237
1813478 246 237
1821760 247 237
1828203 247 238
1837377 248 238
1863815 249 238
1889162 250 238
1891318 251 238
1908456 252 238
1910660 252 239
1911176 253 239
1922601 254 239
1925079 255 239
1930091 256 239
1943343 256 240
1943867 257 240
1950087 258 240
1962471 258 241
1962477 258 242
1963967 259 242
1970159 260 242
1984984 261 242
1998241 261 243
0 1 1
3 2 1
7 2 2
15 3 2
19 3 3
28 4 3
48 4 4
66 4 5
82 5 5
86 6 5
102 7 5
125 7 6
135 8 6
139 9 6
187 9 7
211 9 8
282 9 9
310 10 9
373 10 10
398 11 10
402 12 10
514 12 11
546 12 12
729 13 12
784 13 13
918 13 14
997 13 15
1040 13 16
1072 14 16
1199 14 17
1236 15 17
1240 16 17
1438 17 17
1477 17 18
1521 18 18
1593 18 19
1734 18 20
1784 19 20
1826 20 20
1902 20 21
1963 20 22
2025 20 23
2080 21 23
2194 22 23
2437 23 23
2573 23 24
2680 23 25
2839 23 26
2990 23 27
3208 23 28
3427 23 29
3528 24 29
3785 25 29
3917 26 29
4306 26 30
4386 26 31
4525 26 32
5037 26 33
5096 27 33
5100 28 33
5216 28 34
5407 28 35
5653 29 35
5775 29 36
5924 29 37
6330 29 38
6772 30 38
6857 30 39
7286 30 40
7494 31 40
7905 32 40
7909 33 40
9066 33 41
9288 33 42
9484 33 43
9589 33 44
9796 33 45
10139 33 46
11570 33 47
11759 33 48
12045 34 48
12466 34 49
12804 34 50
13052 35 50
13565 35 51
14300 36 51
14425 37 51
14772 37 52
15474 38 52
16233 39 52
16403 39 53
17738 40 53
17742 41 53
17994 42 53
18571 43 53
18837 44 53
18930 45 53
19719 46 53
20305 47 53
20874 47 54
21271 48 54
21829 49 54
22728 50 54
23314 50 55
23923 51 55
24135 52 55
24139 53 55
24576 53 56
24766 53 57
26658 54 57
26662 55 57
26850 55 58
28881 55 59
29085 56 59
29089 57 59
31910 58 59
31914 59 59
32683 59 60
34748 59 61
35102 60 61
35106 61 61
39070 61 62
40077 61 63
40207 62 63
40211 63 63
41465 63 64
45107 63 65
45988 63 66
46429 63 67
47926 63 68
48770 63 69
49530 63 70
50213 63 71
50350 64 71
51701 64 72
52464 64 73
53051 65 73
55908 65 74
56048 66 74
56321 67 74
56325 68 74
57929 68 75
60689 68 76
61339 68 77
62209 68 78
63310 68 79
63456 69 79
63460 70 79
64484 70 80
65938 70 81
67503 71 81
67507 72 81
68079 72 82
68898 72 83
71866 73 83
71870 74 83
74231 75 83
74235 76 83
74394 77 83
75249 77 84
76965 77 85
78912 78 85
79648 78 86
81700 78 87
82731 78 88
85156 78 89
87548 79 89
88838 79 90
89501 79 91
89672 80 91
90550 81 91
91317 81 92
93441 82 92
94525 83 92
99032 84 92
100678 84 93
102532 84 94
102714 85 94
102890 86 94
104153 86 95
107063 86 96
107246 87 96
109554 88 96
112574 88 97
113195 88 98
114461 89 98
117714 90 98
118625 90 99
124805 91 99
124994 92 99
126402 92 100
127455 93 100
129008 94 100
132581 95 100
134291 96 100
136451 97 100
136771 97 101
141481 98 101
141883 99 101
141887 100 101
146952 101 101
146956 102 101
147709 102 102
150541 103 102
150545 104 102
152438 104 103
152868 105 103
152872 106 103
159240 107 103
160667 108 103
162299 109 103
162629 109 104
167504 110 104
167891 110 105
169820 110 106
171990 110 107
172577 111 107
176332 112 107
178905 113 107
180405 113 108
182952 114 108
184459 115 108
187208 116 108
187817 117 108
188518 118 108
191361 119 108
194752 120 108
195938 121 108
198969 122 108
200962 123 108
204105 124 108
204856 125 108
208010 126 108
211229 126 109
211601 127 109
214694 128 109
216434 129 109
217720 130 109
221987 131 109
227025 132 109
230537 133 109
232303 134 109
235317 135 109
236199 136 109
236203 137 109
244791 138 109
244795 139 109
248579 140 109
248583 141 109
254310 141 110
256419 142 110
256423 143 110
261192 144 110
261196 145 110
266088 145 111
266660 146 111
269847 147 111
277043 148 111
281852 149 111
285809 150 111
289310 151 111
293274 152 111
296910 152 112
297229 153 112
301466 154 112
304741 154 113
306213 154 114
306536 155 114
311483 155 115
314056 156 115
319172 157 115
325582 158 115
333748 159 115
351025 160 115
353693 161 115
360695 162 115
367427 163 115
369570 163 116
373224 164 116
377484 165 116
383415 166 116
384774 166 117
388442 167 117
389327 167 118
391426 168 118
400535 168 119
403502 169 119
407217 170 119
407695 170 120
411038 171 120
412489 171 121
418517 172 121
424867 173 121
430979 174 121
439175 175 121
443048 176 121
446377 177 121
453225 178 121
460934 179 121
470747 180 121
473669 180 122
476505 180 123
479219 181 123
480319 182 123
481174 182 124
484465 183 124
484839 184 124
493943 185 124
503568 186 124
505254 186 125
508271 187 125
510703 188 125
521442 189 125
523394 189 126
531378 189 127
533452 190 127
538717 190 128
539657 191 128
543961 192 128
545592 192 129
546550 192 130
550661 192 131
552411 192 132
554560 193 132
558528 193 133
560063 194 133
563326 195 133
566395 195 134
569819 196 134
572317 196 135
572768 196 136
575900 197 136
578971 198 136
586013 199 136
588497 199 137
590799 200 137
598743 201 137
601145 202 137
607216 203 137
611815 204 137
616609 204 138
619399 205 138
622591 206 138
628744 207 138
634183 208 138
635862 209 138
642615 209 139
644645 209 140
645910 210 140
649381 211 140
650748 212 140
650752 213 140
663652 214 140
663656 215 140
670078 216 140
670082 217 140
682738 218 140
682742 219 140
684865 219 141
693042 220 141
693046 221 141
697843 222 141
697847 223 141
703457 224 141
706338 224 142
706799 225 142
721910 226 142
724165 227 142
727849 228 142
741957 229 142
744669 230 142
755221 231 142
760923 231 143
767522 232 143
769849 233 143
777814 234 143
782437 235 143
784492 235 144
794889 236 144
801724 236 145
803335 237 145
806607 238 145
815311 239 145
822393 240 145
829226 241 145
832075 241 146
834698 242 146
835191 243 146
842795 244 146
848723 245 146
850345 245 147
854927 246 147
858165 247 147
871077 248 147
879991 249 147
887430 250 147
890472 250 148
893248 251 148
902382 252 148
909218 252 149
909739 253 149
910988 253 150
914016 253 151
917730 254 151
923875 255 151
926038 255 152
927024 255 153
928857 255 154
932072 256 154
935931 257 154
936794 257 155
938623 257 156
946337 258 156
966781 259 156
969886 260 156
984380 260 157
987649 261 157
995050 262 157
1009965 263 157
1020609 263 158
1023082 264 158
1038037 265 158
1042200 266 158
1051130 267 158
1059535 268 158
1073309 269 158
1085371 270 158
1090189 271 158
1099709 272 158
1105480 272 159
1111220 273 159
1115326 273 160
1120176 274 160
1129158 274 161
1133464 275 161
1147007 276 161
1152067 277 161
1162296 278 161
1169329 279 161
1194557 280 161
1200797 281 161
1208771 281 162
1211042 282 162
1212691 282 163
1221994 283 163
1242162 283 164
1243619 284 164
1244771 285 164
1244775 286 164
1258887 287 164
1258891 288 164
1276679 289 164
1276683 290 164
1287151 291 164
1287155 292 164
1297287 293 164
1297291 294 164
1302228 294 165
1304165 294 166
1308094 294 167
1311034 295 167
1317792 296 167
1329791 297 167
1335438 298 167
1349962 298 168
1352505 299 168
1356438 300 168
1364081 301 168
1375336 302 168
1378932 303 168
1406144 304 168
1411472 305 168
1419446 306 168
1431536 307 168
1445212 308 168
1458144 309 168
1468196 310 168
1476895 311 168
1492537 312 168
1503839 313 168
1506685 313 169
1508737 314 169
1516504 315 169
1519435 316 169
1538177 317 169
1547611 318 169
1551194 319 169
1557483 320 169
1572922 321 169
1581935 321 170
1585108 322 170
1595014 323 170
1613682 323 171
1614958 324 171
1626364 325 171
1649444 326 171
1662148 327 171
1670391 327 172
1677499 328 172
1689508 329 172
1700116 330 172
1705845 331 172
1710860 331 173
1728420 332 173
1752270 333 173
1755411 333 174
1759132 333 175
1773786 334 175
1782496 335 175
1793899 336 175
1804044 337 175
1815110 338 175
1823909 338 176
1830892 338 177
1834999 339 177
1866057 340 177
1888805 340 178
1889505 341 178
1901892 341 179
1905981 342 179
1918069 343 179
1919619 343 180
1933499 343 181
1948018 344 181
1984958 345 181
0 1 1
3 2 1
7 2 2
15 3 2
18 3 3
25 3 4
39 3 5
45 4 5
83 4 6
99 5 6
103 6 6
115 6 7
122 6 8
140 7 8
176 8 8
180 9 8
199 9 9
206 9 10
247 9 11
323 10 11
348 10 12
355 10 13
408 10 14
481 10 15
488 10 16
531 10 17
555 11 17
652 11 18
659 11 19
688 12 19
692 13 19
734 13 20
888 13 21
895 13 22
972 14 22
1152 14 23
1159 14 24
1195 15 24
1310 15 25
1455 16 25
1692 17 25
1920 17 26
1927 17 27
2088 18 27
2092 19 27
2208 20 27
2269 20 28
2276 20 29
2386 20 30
2565 21 30
3036 21 31
3110 21 32
3233 21 33
3368 22 33
3480 23 33
3583 24 33
3587 25 33
3888 26 33
4074 27 33
4681 28 33
4685 29 33
4794 29 34
4801 29 35
5268 30 35
5272 31 35
5340 32 35
5453 32 36
5460 32 37
6163 33 37
6372 34 37
6513 34 38
6520 34 39
6596 35 39
7129 35 40
7204 36 40
8147 36 41
8154 36 42
9290 37 42
10429 37 43
10606 38 43
12144 39 43
12148 40 43
12287 40 44
12294 40 45
12438 40 46
12934 40 47
12941 40 48
13159 40 49
13320 41 49
15661 41 50
16001 41 51
16731 42 51
17321 43 51
17636 44 51
17923 44 52
17930 44 53
18129 44 54
19218 44 55
19225 44 56
19966 45 56
20192 45 57
21395 45 58
21654 46 58
22447 47 58
23698 47 59
24918 48 59
26023 48 60
26588 49 60
27268 49 61
28078 50 61
28809 51 61
28813 52 61
30716 53 61
30720 54 61
32815 54 62
34295 54 63
34302 54 64
34528 55 64
34932 55 65
34939 55 66
35533 55 67
37096 56 67
37464 56 68
37801 57 68
40240 58 68
40643 58 69
41774 58 70
42636 59 70
43022 59 71
43029 59 72
43482 59 73
43721 60 73
45030 61 73
47748 62 73
49789 62 74
50176 63 74
50407 63 75
53205 63 76
53447 63 77
53454 63 78
55832 63 79
55967 64 79
55971 65 79
56914 65 80
56921 65 81
60307 66 81
60311 67 81
61263 68 81
63036 68 82
66583 69 82
68515 69 83
68700 69 84
68967 69 85
69245 70 85
69422 70 86
69429 70 87
70168 70 88
72719 71 88
73641 71 89
75438 72 89
76695 72 90
77499 72 91
77506 72 92
77701 72 93
78492 72 94
78499 72 95
85227 72 96
89390 73 96
90212 73 97
90219 73 98
90973 73 99
92600 73 100
92910 73 101
93221 73 102
93661 74 102
93665 75 102
99034 76 102
99038 77 102
100339 77 103
100346 77 104
101186 77 105
101193 77 106
102229 77 107
105097 78 107
106635 79 107
110959 80 107
113628 81 107
113632 82 107
115163 83 107
115167 84 107
115344 85 107
122717 86 107
126191 86 108
126376 87 108
126981 88 108
127516 88 109
127914 89 109
130149 89 110
131268 90 110
133861 91 110
139362 92 110
139985 92 111
139992 92 112
142262 92 113
142637 93 113
146684 94 113
148919 94 114
148926 94 115
149124 95 115
153369 96 115
156104 97 115
156504 98 115
156508 99 115
156906 99 116
157973 99 117
161569 100 117
161573 101 117
162341 101 118
168992 101 119
171838 102 119
171842 103 119
180904 104 119
180908 105 119
182943 106 119
182947 107 119
186472 108 119
189126 109 119
189999 110 119
190703 110 120
193477 111 120
194549 111 121
194556 111 122
196526 112 122
197835 112 123
198066 113 123
202599 113 124
202606 113 125
202843 114 125
204354 115 125
207492 115 126
207728 116 126
209508 116 127
209515 116 128
211145 116 129
212832 117 129
213549 118 129
215433 119 129
216232 120 129
218430 121 129
221924 122 129
224354 123 129
227629 124 129
233804 125 129
237161 125 130
237168 125 131
237993 125 132
238971 126 132
240619 127 132
242711 128 132
244385 129 132
247013 130 132
251138 131 132
253240 132 132
259960 133 132
264148 134 132
267793 135 132
271047 136 132
274917 137 132
281279 138 132
285107 139 132
290302 140 132
291701 141 132
301385 142 132
306869 143 132
307457 144 132
307461 145 132
312975 146 132
312979 147 132
318834 147 133
318841 147 134
322142 148 134
322146 149 134
331953 149 135
333477 150 135
333481 151 135
339375 152 135
339379 153 135
344488 154 135
347150 155 135
351631 156 135
352884 157 135
353424 157 136
358153 158 136
361390 159 136
363263 160 136
367452 161 136
368939 161 137
372509 162 137
375343 163 137
378814 164 137
379882 164 138
385309 165 138
389447 166 138
394208 167 138
396454 168 138
399022 169 138
399369 170 138
402740 170 139
403088 171 139
407642 172 139
408967 173 139
412558 173 140
412565 173 141
413935 174 141
422201 175 141
426752 176 141
428507 177 141
440031 178 141
448348 179 141
453441 179 142
453448 179 143
453969 180 143
461613 181 143
465331 182 143
467432 182 144
468170 183 144
469996 184 144
476422 185 144
484284 186 144
489776 187 144
493125 187 145
494533 188 145
495614 188 146
500163 189 146
503716 190 146
505966 191 146
513876 192 146
517294 193 146
517298 194 146
528727 195 146
528731 196 146
534723 197 146
534727 198 146
549906 199 146
549910 200 146
560456 201 146
560460 202 146
572356 203 146
572360 204 146
578970 204 147
578977 204 148
583663 205 148
583667 206 148
590713 207 148
590717 208 148
600764 209 148
600768 210 148
615554 211 148
615558 212 148
622989 213 148
629660 214 148
632372 215 148
635327 215 149
635334 215 150
639573 216 150
650153 217 150
657809 218 150
660917 218 151
665503 219 151
668536 220 151
677094 221 151
685654 222 151
690003 223 151
701290 224 151
705265 225 151
709664 226 151
721558 227 151
729770 228 151
739471 229 151
749117 230 151
754124 231 151
764089 232 151
766790 232 152
769549 232 153
772077 233 153
779384 233 154
786757 234 154
789084 235 154
799399 235 155
800819 236 155
801302 237 155
808962 238 155
816262 239 155
821080 240 155
830339 241 155
841508 242 155
848245 243 155
853218 244 155
855598 244 156
865863 245 156
870678 245 157
873605 246 157
881348 247 157
883818 248 157
887872 248 158
893980 248 159
894498 249 159
900214 250 159
910277 250 160
911229 251 160
917713 252 160
927220 252 161
927939 252 162
928654 252 163
931179 253 163
937280 254 163
948447 254 164
948967 255 164
951263 255 165
953291 256 165
960512 257 165
967521 258 165
977900 259 165
991724 260 165
1006152 261 165
1025387 262 165
1033291 263 165
1042306 263 166
1045209 264 166
1047946 264 167
1050694 265 167
1056234 265 168
1057803 266 168
1068339 267 168
1079680 268 168
1086816 269 168
1103937 270 168
1109616 271 168
1123504 272 168
1125703 273 168
1137448 274 168
1143647 275 168
1145785 276 168
1145789 277 168
1156335 278 168
1156339 279 168
1174301 280 168
1174305 281 168
1190246 282 168
1190250 283 168
1218204 284 168
1218208 285 168
1247456 286 168
1247460 287 168
1253617 287 169
1259605 287 170
1262400 288 170
1262404 289 170
1267922 289 171
1267929 289 172
1275097 289 173
1288425 290 173
1288429 291 173
1306770 292 173
1306774 293 173
1308420 293 174
1308427 293 175
1311140 293 176
1313410 294 176
1322917 295 176
1329997 296 176
1344388 297 176
1360145 298 176
1369632 299 176
1382787 300 176
1398397 301 176
1429150 302 176
1438718 303 176
1452354 304 176
1463591 304 177
1466230 305 177
1483438 306 177
1507553 307 177
1524928 308 177
1540148 309 177
1540509 309 178
1578110 310 178
1583629 311 178
1592550 311 179
1597407 311 180
1599249 312 180
1611930 312 181
1617391 313 181
1628981 313 182
1629622 314 182
1638864 315 182
1640737 315 183
1648163 316 183
1658482 317 183
1661603 317 184
1664891 317 185
1668933 317 186
1669582 318 186
1675836 318 187
1681566 319 187
1685985 319 188
1687906 320 188
1689455 320 189
1700269 320 190
1700880 320 191
1701493 320 192
1702786 321 192
1712871 322 192
1726985 322 193
1728968 323 193
1730930 324 193
1740596 325 193
1741257 326 193
1747571 327 193
1751660 327 194
1760501 328 194
1762946 329 194
1772814 330 194
1788013 331 194
1795434 332 194
1799567 333 194
1807930 333 195
1819220 334 195
1829514 335 195
1847001 336 195
1854110 337 195
1860801 338 195
1876867 339 195
1882976 340 195
1886204 340 196
1891160 340 197
1899923 341 197
1916009 341 198
1918003 342 198
1925751 342 199
1928359 343 199
1953558 344 199
1958060 344 200
1958067 344 201
1969963 345 201
1988197 346 201
0 1 1
3 2 1
7 2 2
15 3 2
19 3 3
24 4 3
33 4 4
42 5 4
63 5 5
92 6 5
109 7 5
146 7 6
184 7 7
222 8 7
239 8 8
265 8 9
279 9 9
318 10 9
399 11 9
536 12 9
564 13 9
585 13 10
702 13 11
738 14 11
884 14 12
941 14 13
975 14 14
1005 15 14
1075 16 14
1195 16 15
1226 17 15
1266 18 15
1376 19 15
1541 19 16
1670 20 16
1851 20 17
1928 21 17
2074 21 18
2192 21 19
2242 21 20
2463 21 21
2561 22 21
2672 22 22
2872 23 22
2966 24 22
3049 24 23
3139 24 24
3299 24 25
3410 24 26
3498 25 26
3502 26 26
3632 26 27
4036 26 28
4690 27 28
5250 27 29
5701 27 30
5816 28 30
5993 29 30
6062 29 31
6176 29 32
6309 29 33
7181 30 33
7254 30 34
7629 30 35
7756 31 35
7873 31 36
8459 32 36
8984 33 36
9288 34 36
10432 35 36
10556 35 37
10650 35 38
10898 36 38
11125 36 39
11207 37 39
11411 37 40
11505 37 41
11788 37 42
11875 38 42
12490 39 42
12760 40 42
13036 40 43
13516 41 43
14197 42 43
14294 42 44
14709 42 45
14803 43 45
15504 44 45
15857 45 45
16305 46 45
17988 46 46
18178 47 46
18834 48 46
18838 49 46
21120 50 46
21124 51 46
21878 51 47
22167 51 48
23138 51 49
23548 51 50
23712 52 50
23716 53 50
24578 53 51
24755 53 52
25511 54 52
26253 54 53
26633 54 54
28991 54 55
29108 55 55
29827 55 56
30050 56 56
31831 57 56
32440 58 56
32562 59 56
33479 59 57
33745 59 58
34192 60 58
34320 61 58
35912 62 58
36216 62 59
37301 62 60
38411 62 61
38839 63 61
39412 64 61
40950 65 61
41548 66 61
42626 67 61
43406 68 61
44650 69 61
45259 69 62
45860 69 63
49222 70 63
49635 71 63
49931 72 63
52192 73 63
53330 74 63
54360 74 64
55548 75 64
55860 76 64
57757 77 64
58069 77 65
58903 78 65
61449 79 65
62499 79 66
64124 80 66
65197 80 67
65781 80 68
66106 81 68
66110 82 68
66716 82 69
68151 83 69
71241 84 69
71490 85 69
74025 86 69
74470 87 69
75501 88 69
77011 89 69
83019 90 69
83352 90 70
83684 90 71
88995 91 71
91942 92 71
93061 93 71
94828 94 71
96021 94 72
98321 95 72
99097 95 73
99863 95 74
100115 95 75
101095 96 75
102207 97 75
106201 98 75
112598 99 75
114640 99 76
114984 100 76
116872 100 77
118427 101 77
123631 102 77
124782 103 77
125942 103 78
131529 103 79
133998 104 79
134164 104 80
137046 105 80
142874 106 80
143174 106 81
147284 106 82
148109 107 82
149467 108 82
151787 109 82
154988 110 82
154992 111 82
156969 112 82
158097 112 83
158926 112 84
159957 112 85
160468 112 86
163515 112 87
163704 112 88
169794 113 88
169798 114 88
175861 115 88
178930 116 88
181530 117 88
181716 117 89
186030 118 89
189944 118 90
192373 118 91
192956 119 91
193628 119 92
198622 120 92
200828 121 92
204742 121 93
206863 121 94
207944 121 95
208154 121 96
208516 122 96
216081 123 96
217428 123 97
218150 124 97
221535 125 97
222089 126 97
226463 127 97
233756 128 97
234130 128 98
235532 128 99
235919 128 100
239591 129 100
243609 129 101
245283 129 102
246468 129 103
253244 130 103
255481 130 104
256444 130 105
257581 131 105
261323 132 105
261930 132 106
267615 132 107
268161 132 108
268997 132 109
270162 132 110
276391 133 110
277554 134 110
280990 135 110
284757 136 110
289088 137 110
295789 137 111
299287 138 111
300646 138 112
302581 138 113
303716 138 114
305162 139 114
305599 139 115
314177 140 115
322881 140 116
323696 141 116
328751 142 116
331905 142 117
335399 143 117
344541 143 118
344970 144 118
350351 145 118
350838 145 119
358229 146 119
361963 146 120
363571 147 120
373364 148 120
383176 149 120
384447 149 121
385406 150 121
394825 151 121
400016 151 122
412374 152 122
413006 152 123
415158 153 123
417041 153 124
430912 154 124
432052 154 125
433882 154 126
434808 154 127
435516 154 128
438987 155 128
439853 156 128
445086 157 128
446143 157 129
448578 157 130
450725 157 131
453938 158 131
463391 159 131
472810 160 131
473566 160 132
481095 161 132
486843 161 133
487963 162 133
498505 163 133
499268 163 134
505208 163 135
509067 164 135
509806 164 136
510324 164 137
518807 165 137
522688 165 138
530681 166 138
532215 166 139
535321 166 140
548398 166 141
562550 166 142
566057 166 143
569591 167 143
578170 167 144
578708 167 145
583593 168 145
589027 168 146
590448 168 147
591497 168 148
608194 168 149
614913 169 149
627132 170 149
643262 171 149
653538 172 149
657543 172 150
675651 173 150
676474 174 150
681464 174 151
684618 175 151
687096 175 152
702829 176 152
705037 176 153
709239 176 154
717989 177 154
727277 177 155
733394 177 156
734217 177 157
737082 178 157
743538 179 157
749220 180 157
750778 180 158
752093 181 158
774056 182 158
775689 183 158
781780 184 158
787725 184 159
795940 184 160
798112 185 160
801292 185 161
803108 185 162
809741 185 163
814373 186 163
815789 186 164
820151 186 165
835420 187 165
837790 188 165
857963 189 165
866109 190 165
889302 191 165
896315 192 165
911972 193 165
917836 194 165
926065 194 166
929879 194 167
930922 195 167
936082 196 167
939907 197 167
946983 198 167
953578 199 167
963856 200 167
969915 201 167
969919 202 167
980100 203 167
994764 204 167
1004126 205 167
1005903 205 168
1016564 206 168
1026218 206 169
1030256 207 169
1039428 207 170
1042099 208 170
1048457 209 170
1057490 210 170
1071425 211 170
1084029 211 171
1093139 212 171
1101808 213 171
1105614 214 171
1112890 215 171
1128533 216 171
1144827 216 172
1146244 217 172
1181141 218 172
1187694 218 173
1192870 219 173
1195047 220 173
1195402 220 174
1203201 220 175
1204020 220 176
1219344 221 176
1229211 221 177
1245201 222 177
1253639 222 178
1263995 223 178
1294959 224 178
1300654 225 178
1321523 225 179
1343090 225 180
1343464 225 181
1359149 225 182
1362049 226 182
1380024 226 183
1382568 227 183
1408152 227 184
1421080 228 184
1429902 229 184
1437105 230 184
1441343 230 185
1453667 231 185
1458697 232 185
1477386 233 185
1494415 233 186
1502482 233 187
1507247 234 187
1507251 235 187
1524064 236 187
1524769 236 188
1528927 236 189
1535664 237 189
1543075 237 190
1572204 238 190
1589963 238 191
1592268 238 192
1601217 239 192
1606012 239 193
1646281 240 193
1672126 241 193
1685689 242 193
1685693 243 193
1689076 243 194
1732104 243 195
1738975 244 195
1747437 245 195
1759620 246 195
1783015 247 195
1789163 248 195
1802309 249 195
1811540 250 195
1826101 251 195
1845893 252 195
1849555 253 195
1851797 253 196
1865695 253 197
1874555 253 198
1890001 254 198
1890005 255 198
1893384 255 199
1923727 255 200
1927489 256 200
1927493 257 200
1943973 257 201
1945935 258 201
1955704 258 202
1990911 259 202
0 1 1
4 2 1
8 3 1
10 3 2
20 4 2
24 5 2
27 5 3
40 5 4
54 5 5
71 6 5
89 7 5
129 7 6
150 7 7
185 8 7
221 8 8
244 9 8
248 10 8
296 10 9
322 10 10
366 10 11
416 11 11
538 12 11
542 13 11
587 13 12
622 13 13
719 13 14
802 14 14
806 15 14
1014 16 14
1018 17 14
1096 17 15
1180 17 16
1381 17 17
1444 17 18
1486 18 18
1490 19 18
1623 19 19
1703 19 20
1841 19 21
2119 19 22
2311 20 22
2315 21 22
2407 21 23
2739 21 24
2864 22 24
3163 22 25
3279 23 25
3375 23 26
3515 23 27
3818 24 27
3966 24 28
4053 25 28
4174 25 29
4413 25 30
4552 25 31
4624 25 32
4827 26 32
5039 26 33
5749 27 33
5753 28 33
5875 28 34
6320 29 34
6324 30 34
6693 30 35
6775 30 36
6894 30 37
6979 30 38
7604 31 38
7744 31 39
7874 32 39
8059 32 40
8674 32 41
9357 32 42
9431 33 42
9775 34 42
9946 34 43
10163 35 43
10167 36 43
10322 36 44
10726 36 45
11037 36 46
11193 37 46
11818 37 47
12503 37 48
12616 37 49
12930 37 50
13013 38 50
13123 38 51
14198 39 51
14378 39 52
14769 40 52
15121 40 53
15578 41 53
15761 41 54
16788 41 55
17507 41 56
17721 41 57
18050 41 58
18330 42 58
18424 43 58
18682 43 59
20285 43 60
21093 43 61
21868 43 62
22840 44 62
24319 44 63
24641 45 63
24910 45 64
25977 45 65
26119 45 66
27224 45 67
27592 46 67
27596 47 67
27818 47 68
29432 48 68
29715 48 69
32153 48 70
32954 49 70
32958 50 70
33286 50 71
34891 51 71
34895 52 71
36310 52 72
36996 52 73
37696 52 74
38513 52 75
38764 52 76
39360 52 77
39941 52 78
41401 52 79
42042 53 79
42046 54 79
42299 55 79
42303 56 79
43529 56 80
45539 56 81
46472 56 82
46990 56 83
47384 57 83
48408 58 83
49243 59 83
49247 60 83
51566 60 84
53084 61 84
55856 61 85
57809 62 85
58393 62 86
59684 62 87
61581 62 88
64237 63 88
66032 63 89
66168 64 89
66699 65 89
66703 66 89
68007 66 90
68559 66 91
69519 66 92
71106 67 92
71825 68 92
72847 69 92
72851 70 92
74611 70 93
76160 70 94
76936 71 94
76940 72 94
78915 72 95
79422 73 95
82124 74 95
84114 74 96
85096 74 97
87872 74 98
88502 74 99
92600 74 100
93764 75 100
94952 76 100
94956 77 100
99826 77 101
100146 78 101
102845 78 102
103010 79 102
104907 80 102
104911 81 102
109481 81 103
109652 82 103
109656 83 103
110822 83 104
112302 83 105
117157 83 106
117786 83 107
120769 83 108
123849 84 108
129687 85 108
131024 86 108
131028 87 108
131657 88 108
132299 88 109
132820 89 109
135573 89 110
137116 89 111
140497 89 112
148544 89 113
148731 90 113
148735 91 113
149676 91 114
150704 92 114
150708 93 114
151394 93 115
154068 93 116
159259 93 117
161729 94 117
161733 95 117
163312 95 118
174112 95 119
175771 96 119
175775 97 119
179276 97 120
183727 98 120
183731 99 120
184669 99 121
187440 99 122
188779 100 122
192514 100 123
198423 100 124
198633 101 124
198637 102 124
203561 103 124
203565 104 124
209000 105 124
214082 106 124
214086 107 124
214583 107 125
222945 107 126
225540 107 127
226730 108 127
226734 109 127
230926 110 127
232650 110 128
235493 111 128
235497 112 128
236308 112 129
240925 113 129
242804 114 129
242808 115 129
245679 116 129
246878 116 130
249161 116 131
251011 117 131
251256 118 131
251260 119 131
253914 120 131
253918 121 131
260884 122 131
263996 123 131
264000 124 131
265970 124 132
266499 125 132
266503 126 132
267132 127 132
267136 128 132
282049 129 132
282053 130 132
282325 131 132
282329 132 132
285133 132 133
287445 132 134
290025 132 135
292972 133 135
292976 134 135
295530 134 136
296734 135 136
296738 136 136
301574 136 137
305395 137 137
306926 137 138
312208 137 139
318598 138 139
318602 139 139
322501 140 139
322505 141 139
326681 141 140
327538 142 140
328653 142 141
331775 143 141
331779 144 141
333288 144 142
336590 144 143
347403 145 143
349347 146 143
349351 147 143
350711 147 144
353131 147 145
354052 148 145
354056 149 145
357790 150 145
360321 150 146
367459 150 147
370486 151 147
374287 152 147
374291 153 147
379043 153 148
380835 153 149
383832 154 149
388626 155 149
391271 155 150
391595 156 150
391599 157 150
396819 158 150
396823 159 150
402453 159 151
409932 160 151
412758 161 151
414410 161 152
415716 162 152
415720 163 152
420082 163 153
420863 164 153
428769 165 153
428773 166 153
431106 166 154
433772 167 154
437438 168 154
444619 168 155
457611 168 156
459935 169 156
459939 170 156
470528 170 157
472866 171 157
472870 172 157
478379 173 157
479188 173 158
482246 174 158
486334 175 158
486338 176 158
489825 177 158
492304 177 159
500448 177 160
505239 178 160
505243 179 160
512117 180 160
516147 181 160
526745 182 160
526749 183 160
530489 183 161
531907 183 162
534030 184 162
534413 185 162
534417 186 162
535207 186 163
547451 186 164
551666 187 164
561863 187 165
567834 187 166
571021 188 166
571025 189 166
571417 190 166
571421 191 166
583472 192 166
586271 193 166
586816 194 166
586820 195 166
587747 195 167
599392 196 167
608728 197 167
610074 198 167
610078 199 167
614869 199 168
617703 200 168
617707 201 168
618126 202 168
618130 203 168
620156 203 169
621518 203 170
626750 204 170
632475 205 170
652274 205 171
654124 206 171
654128 207 171
654559 208 171
654563 209 171
660672 209 172
671276 209 173
685194 210 173
685198 211 173
691303 211 174
698905 211 175
699345 212 175
703554 213 175
709315 214 175
709319 215 175
717316 215 176
718815 216 176
720903 216 177
725549 216 178
729976 217 178
744674 217 179
747858 217 180
752803 218 180
752807 219 180
756134 219 181
763494 220 181
769362 221 181
771912 221 182
787375 221 183
796481 221 184
799058 222 184
799062 223 184
810238 224 184
823785 224 185
824248 225 185
824252 226 185
832705 226 186
839380 227 186
842618 228 186
852033 229 186
864690 229 187
865635 230 187
865639 231 187
869328 231 188
882534 231 189
888318 232 189
888322 233 189
890182 233 190
890831 234 190
890835 235 190
896538 235 191
906146 235 192
911249 236 192
928041 237 192
936428 238 192
941969 238 193
950846 239 193
953932 239 194
961004 240 194
966330 240 195
976051 241 195
976840 241 196
1011405 241 197
1012446 242 197
1012450 243 197
1013524 244 197
1013528 245 197
1023438 245 198
1037805 245 199
1051767 245 200
1058837 246 200
1058841 247 200
1065946 247 201
1078634 247 202
1093106 248 202
1093110 249 202
1103515 250 202
1106501 250 203
1113233 251 203
1121187 251 204
1131730 252 204
1132251 253 204
1132255 254 204
1149748 254 205
1152118 254 206
1155665 255 206
1158385 255 207
1166559 256 207
1188363 256 208
1192660 257 208
1199985 257 209
1200517 258 209
1201049 259 209
1201053 260 209
1222856 260 210
1247630 260 211
1258252 261 211
1258256 262 211
1268938 262 212
1283543 263 212
1283547 264 212
1285629 264 213
1293170 265 213
1311839 266 213
1311843 267 213
1324315 267 214
1337708 268 214
1337712 269 214
1344817 270 214
1350712 270 215
1354349 271 215
1354353 272 215
1361894 273 215
1368296 273 216
1370398 273 217
1376185 274 217
1389995 275 217
1398170 276 217
1408793 277 217
1410827 277 218
1416367 277 219
1423537 278 219
1435931 279 219
1439174 279 220
1444422 280 220
1458515 281 220
1459093 282 220
1459097 283 220
1467247 284 220
1483481 285 220
1483485 286 220
1489890 286 221
1502076 287 221
1503898 287 222
1507094 287 223
1525526 288 223
1526117 289 223
1526121 290 223
1543578 291 223
1543582 292 223
1548841 292 224
1551350 292 225
1551953 293 225
1559244 293 226
1569971 293 227
1573941 294 227
1574873 294 228
1587428 295 228
1587432 296 228
1597137 297 228
1597141 298 228
1597931 298 229
1598545 299 229
1598549 300 229
1621513 300 230
1629562 300 231
1651597 300 232
1659115 301 232
1659119 302 232
1659741 303 232
1659745 304 232
1691984 305 232
1691988 306 232
1695723 307 232
1695727 308 232
1699025 308 233
1702860 308 234
1718393 308 235
1752723 309 235
1752727 310 235
1760536 310 236
1767089 310 237
1774093 311 237
1797844 311 238
1800980 311 239
1802819 312 239
1802823 313 239
1812356 313 240
1829817 313 241
1832211 314 241
1849466 315 241
1850756 316 241
1850760 317 241
1862578 318 241
1877352 318 242
1883493 318 243
1890044 319 243
1890048 320 243
1898853 320 244
1902023 321 244
1913394 322 244
1934758 323 244
1953428 323 245
1959756 323 246
1979296 323 247
1988141 324 247
1988145 325 247
0 1 1
3 2 1
7 2 2
15 3 2
18 3 3
25 3 4
40 3 5
51 4 5
55 5 5
89 5 6
109 5 7
116 5 8
140 5 9
166 5 10
193 5 11
209 6 11
213 7 11
249 8 11
272 8 12
315 8 13
351 8 14
388 8 15
410 9 15
443 9 16
499 9 17
524 10 17
528 11 17
583 11 18
649 12 18
653 13 18
690 13 19
760 13 20
824 13 21
923 13 22
976 13 23
1030 13 24
1175 14 24
1266 15 24
1270 16 24
1321 16 25
1521 16 26
1581 16 27
1642 16 28
1845 17 28
1849 18 28
1914 19 28
1918 20 28
2317 20 29
2587 20 30
2823 20 31
2975 21 31
2979 22 31
3162 22 32
3428 22 33
3588 22 34
4009 22 35
4059 23 35
4063 24 35
4206 24 36
4333 24 37
4508 24 38
4567 25 38
4842 25 39
5240 25 40
5375 25 41
5507 26 41
5511 27 41
6095 28 41
6231 28 42
6487 28 43
6726 29 43
6730 30 43
7970 30 44
8037 31 44
8412 31 45
8679 32 45
8683 33 45
9141 33 46
9322 34 46
9784 34 47
10250 34 48
10397 35 48
10401 36 48
11772 36 49
12044 36 50
12124 37 50
12488 37 51
13528 37 52
13794 37 53
15966 38 53
15970 39 53
16269 39 54
16443 40 54
16447 41 54
16857 41 55
17114 41 56
17293 42 56
17297 43 56
17576 43 57
18672 43 58
19135 43 59
19323 44 59
19892 45 59
20946 45 60
21699 46 60
22910 46 61
23013 47 61
23543 47 62
24383 47 63
24678 48 63
24682 49 63
25332 50 63
25336 51 63
26170 51 64
27318 51 65
27453 51 66
28492 51 67
31643 52 67
31647 53 67
32142 54 67
32146 55 67
32845 55 68
32986 55 69
34191 55 70
39229 55 71
40328 55 72
40480 55 73
40836 56 73
40840 57 73
41305 58 73
41454 58 74
41934 58 75
42475 58 76
43116 59 76
43120 60 76
43523 60 77
44990 60 78
46365 60 79
47286 61 79
47838 61 80
48719 61 81
48887 61 82
53722 61 83
56069 62 83
56073 63 83
57256 63 84
57895 64 84
59185 64 85
59466 64 86
63774 65 86
64417 66 86
66205 66 87
67077 67 87
67556 68 87
67560 69 87
67734 69 88
68676 69 89
69399 70 89
72257 70 90
72960 70 91
76051 70 92
76519 71 92
76942 72 92
76946 73 92
77529 73 93
78873 73 94
85099 74 94
85537 74 95
86673 75 95
89212 75 96
91857 75 97
92971 75 98
94663 75 99
98123 75 100
98284 76 100
99195 77 100
99199 78 100
103193 78 101
105522 79 101
105770 80 101
107345 80 102
107516 81 102
107858 82 102
107862 83 102
109785 83 103
110327 84 103
113388 84 104
113918 84 105
114406 85 105
116069 85 106
118701 86 106
118705 87 106
119656 87 107
123068 87 108
125158 87 109
131311 88 109
131315 89 109
133263 90 109
133806 91 109
136440 91 110
140680 91 111
141567 91 112
144987 91 113
153247 91 114
153480 91 115
154405 91 116
154859 91 117
155698 92 117
155702 93 117
156163 94 117
156167 95 117
158636 95 118
164619 96 118
164623 97 118
166758 97 119
166765 97 120
167254 97 121
167500 97 122
179851 97 123
179858 97 124
185021 97 125
186352 98 125
186356 99 125
190608 99 126
192035 99 127
195266 100 127
199801 101 127
200255 101 128
202005 102 128
202009 103 128
210759 104 128
212597 104 129
213417 104 130
215581 104 131
218501 105 131
219324 105 132
221769 106 132
221773 107 132
222488 107 133
230970 107 134
233468 108 134
238351 108 135
242329 109 135
242333 110 135
250367 110 136
251162 110 137
257190 110 138
258163 111 138
267594 112 138
269645 113 138
270202 114 138
270206 115 138
272824 115 139
274574 115 140
277107 115 141
281591 116 141
281872 116 142
282445 116 143
287593 117 143
287597 118 143
292779 119 143
292783 120 143
295486 120 144
295742 121 144
300447 121 145
302984 122 145
302988 123 145
306494 124 145
309713 125 145
318069 126 145
318073 127 145
320072 127 146
325116 127 147
332507 128 147
332511 129 147
335675 130 147
337229 130 148
344282 131 148
351267 132 148
351271 133 148
355228 133 149
356788 134 149
357876 134 150
360228 134 151
369034 134 152
369318 135 152
374268 135 153
383447 135 154
385555 136 154
385559 137 154
391030 137 155
396139 138 155
396748 138 156
400248 139 156
401987 140 156
409087 141 156
409091 142 156
409389 143 156
409393 144 156
419097 144 157
422775 145 157
427760 145 158
438131 146 158
446371 147 158
446679 148 158
446683 149 158
454496 149 159
456341 150 159
462197 150 160
463495 150 161
472785 151 161
475304 151 162
475311 151 163
476059 152 163
477566 152 164
479476 152 165
480891 153 165
481210 154 165
481214 155 165
490202 155 166
495582 155 167
496767 156 167
498015 156 168
507294 156 169
510469 157 169
519307 158 169
522271 159 169
522275 160 169
523276 160 170
538671 161 170
540322 161 171
548711 162 171
554710 163 171
557189 163 172
560025 163 173
562713 164 173
565544 165 173
565548 166 173
566603 166 174
574579 167 174
577148 168 174
577152 169 174
584502 169 175
585792 170 175
585796 171 175
586152 172 175
586156 173 175
594932 173 176
598650 174 176
606712 174 177
621125 175 177
621129 176 177
634785 176 178
637078 177 178
640830 177 179
645023 178 179
649817 179 179
657422 179 180
658217 180 180
664436 181 180
670899 181 181
673467 182 181
675713 182 182
680937 182 183
681314 183 183
683349 183 184
690049 183 185
691785 184 185
696416 185 185
704321 186 185
710638 187 185
714006 188 185
714010 189 185
717990 189 186
719581 190 186
725073 190 187
728418 191 187
728422 192 187
733286 193 187
740753 194 187
740757 195 187
746253 196 187
746818 197 187
746822 198 187
754743 199 187
758141 199 188
765473 200 188
776037 201 188
781456 202 188
787775 203 188
791575 204 188
791998 205 188
792002 206 188
802483 207 188
812262 207 189
812269 207 190
817930 208 190
818621 209 190
818625 210 190
824935 211 190
824939 212 190
830389 213 190
836455 213 191
836462 213 192
850386 214 192
850390 215 192
872080 216 192
880713 217 192
887365 218 192
893377 219 192
895525 219 193
895532 219 194
902640 220 194
902644 221 194
913207 222 194
913933 222 195
915942 222 196
921428 223 196
922478 223 197
929979 224 197
929983 225 197
937422 226 197
937426 227 197
937897 228 197
937901 229 197
955983 229 198
966746 230 198
966750 231 198
973987 231 199
975133 231 200
982029 232 200
997823 233 200
997827 234 200
998313 235 200
998317 236 200
1009616 236 201
1023786 236 202
1028234 237 202
1028238 238 202
1033142 238 203
1044108 239 203
1044112 240 203
1048435 241 203
1056061 241 204
1062018 242 204
1065133 242 205
1075266 243 205
1075270 244 205
1088847 245 205
1088851 246 205
1100367 247 205
1106632 248 205
1114283 248 206
1124915 248 207
1130647 249 207
1130651 250 207
1138358 251 207
1142306 251 208
1150733 251 209
1152354 252 209
1152358 253 209
1159176 254 209
1159180 255 209
1169849 256 209
1178947 257 209
1188628 257 210
1189161 258 210
1189695 259 210
1189699 260 210
1206637 261 210
1216250 262 210
1216254 263 210
1222074 263 211
1229573 263 212
1242774 263 213
1253076 264 213
1253080 265 213
1265764 266 213
1271778 266 214
1274167 267 214
1279027 268 214
1284005 268 215
1287368 269 215
1288799 269 216
1302634 270 216
1312589 270 217
1317246 271 217
1324692 272 217
1331900 273 217
1342338 273 218
1346343 274 218
1357890 275 218
1367303 276 218
1373716 277 218
1377861 277 219
1385193 278 219
1386865 279 219
1386869 280 219
1392458 280 220
1395786 281 220
1406186 282 220
1406190 283 220
1417271 283 221
1423298 283 222
1433223 284 222
1434779 284 223
1444235 284 224
1446536 285 224
1450102 286 224
1450106 287 224
1461594 287 225
1462778 288 225
1462782 289 225
1471247 290 225
1481582 290 226
1489071 291 226
1489075 292 226
1518923 293 226
1528425 294 226
1534066 294 227
1543682 295 227
1550912 296 227
1550916 297 227
1569911 297 228
1572942 298 228
1591292 298 229
1595126 299 229
1595741 300 229
1595745 301 229
1604006 301 230
1609213 302 230
1609217 303 230
1613104 304 230
1629425 304 231
1640465 305 231
1640469 306 231
1659766 307 231
1659770 308 231
1670383 308 232
1697957 309 232
1705415 309 233
1717246 310 233
1722983 310 234
1728417 311 234
1728421 312 234
1736447 313 234
1745070 314 234
1760907 315 234
1763733 315 235
1764383 316 235
1773614 317 235
1782039 318 235
1782043 319 235
1785099 319 236
1785106 319 237
1790180 319 238
1791604 319 239
1811165 319 240
1812728 320 240
1812732 321 240
1814356 322 240
1814360 323 240
1829494 324 240
1840407 325 240
1841339 325 241
1843981 326 241
1860855 327 241
1869804 327 242
1872313 327 243
1876740 328 243
1881992 328 244
1889653 329 244
1891487 329 245
1899933 329 246
1900612 330 246
1901292 331 246
1901296 332 246
1918911 333 246
1935471 334 246
1940951 335 246
1940955 336 246
1948518 337 246
1948522 338 246
1959052 339 246
1963001 339 247
1977097 340 247
1977101 341 247
1977803 342 247
1977807 343 247
1981934 343 248
1991624 343 249
0 1 1
4 2 1
8 3 1
12 3 2
25 3 3
36 4 3
40 5 3
50 5 4
70 5 5
91 5 6
108 6 6
126 6 7
155 6 8
185 6 9
204 7 9
231 7 10
251 8 10
255 9 10
300 9 11
360 9 12
412 9 13
436 10 13
440 11 13
467 12 13
471 13 13
531 13 14
649 13 15
708 13 16
794 13 17
865 14 17
933 14 18
969 15 18
973 16 18
1068 16 19
1200 16 20
1383 16 21
1422 17 21
1426 18 21
1582 18 22
1645 18 23
1876 18 24
1978 18 25
2023 19 25
2027 20 25
2231 20 26
2419 20 27
2561 21 27
2657 21 28
2872 21 29
3019 21 30
3123 21 31
3313 21 32
3604 21 33
3780 21 34
4077 22 34
4212 23 34
4312 24 34
4316 25 34
4501 25 35
4611 26 35
4807 26 36
4931 27 36
5019 27 37
5695 28 37
5699 29 37
6133 29 38
6613 29 39
6778 30 39
7179 30 40
7425 30 41
7700 30 42
8298 31 42
8491 32 42
8989 32 43
9125 33 43
9129 34 43
9930 35 43
10252 35 44
10889 36 44
10893 37 44
11158 37 45
11415 37 46
12027 37 47
12995 37 48
13157 37 49
13458 37 50
13540 38 50
13827 38 51
15012 38 52
15278 38 53
15469 39 53
15717 40 53
16259 40 54
16460 40 55
16792 40 56
17257 40 57
18347 40 58
18932 40 59
19500 40 60
20059 41 60
20063 42 60
20700 43 60
21152 43 61
21700 43 62
23022 43 63
24813 43 64
25544 43 65
26162 43 66
26394 44 66
27118 45 66
27122 46 66
27366 46 67
27613 46 68
28330 47 68
28334 48 68
28624 48 69
29289 48 70
30684 48 71
31144 48 72
33727 49 72
34485 49 73
34927 49 74
35102 49 75
35278 49 76
36057 49 77
36692 50 77
36696 51 77
37881 51 78
38452 51 79
38670 52 79
38674 53 79
39186 54 79
40067 54 80
41436 54 81
42393 54 82
42785 54 83
44108 54 84
48890 55 84
51212 56 84
51216 57 84
51612 57 85
53577 57 86
54039 58 86
54043 59 86
54236 59 87
55313 60 87
56523 61 87
56527 62 87
58981 62 88
59492 62 89
60983 62 90
62724 63 90
62924 63 91
63640 63 92
64794 64 92
64798 65 92
69355 65 93
70086 65 94
70929 65 95
73067 65 96
75244 66 96
75248 67 96
76276 68 96
76280 69 96
78199 69 97
83655 70 97
83804 71 97
83808 72 97
85993 73 97
86616 73 98
87385 74 98
89816 74 99
90374 75 99
91545 76 99
91549 77 99
93846 77 100
95415 78 100
95745 79 100
95749 80 100
97477 80 101
98358 80 102
102968 80 103
104897 81 103
106763 82 103
106767 83 103
107665 83 104
112393 83 105
112628 83 106
113076 83 107
113418 84 107
115083 85 107
115087 86 107
119644 86 108
119827 87 108
119831 88 108
125382 89 108
126399 90 108
128862 90 109
137494 90 110
138156 90 111
138885 90 112
140084 90 113
140275 91 113
140279 92 113
146861 92 114
149013 92 115
150118 92 116
154237 93 116
154241 94 116
158475 94 117
159514 94 118
163284 95 118
163288 96 118
168547 96 119
169440 97 119
169794 97 120
172882 97 121
176501 97 122
179134 98 122
179138 99 122
179347 100 122
179351 101 122
180965 101 123
181464 101 124
187674 101 125
191407 102 125
191411 103 125
192046 104 125
194046 105 125
194266 106 125
194270 107 125
194815 107 126
199017 108 126
199913 109 126
199917 110 126
201456 111 126
201460 112 126
205155 113 126
205714 113 127
206361 113 128
212107 113 129
212880 114 129
212884 115 129
216557 115 130
216905 116 130
216909 117 130
223072 118 130
225977 119 130
234705 119 131
238845 119 132
241357 120 132
241361 121 132
246372 121 133
253158 121 134
253521 122 134
256864 122 135
258505 122 136
259392 122 137
260574 123 137
265409 124 137
267978 125 137
267982 126 137
270226 126 138
272552 127 138
280791 128 138
295197 129 138
295201 130 138
302232 131 138
302236 132 138
303254 132 139
312081 132 140
312357 133 140
312361 134 140
314020 134 141
321063 135 141
321881 136 141
329748 137 141
329752 138 141
332563 138 142
335489 138 143
340173 139 143
344402 140 143
351541 141 143
351545 142 143
351840 143 143
351844 144 143
353309 144 144
356236 144 145
360265 144 146
362316 145 146
367042 146 146
369055 146 147
369658 147 147
369963 148 147
369967 149 147
378469 149 148
381209 150 148
384013 150 149
391613 151 149
395552 152 149
395556 153 149
400821 154 149
400825 155 149
401150 156 149
401154 157 149
405054 157 150
411212 158 150
411216 159 150
413303 159 151
417535 159 152
418512 160 152
420509 161 152
425987 161 153
432659 161 154
435467 162 154
435471 163 154
440412 164 154
444641 165 154
453573 165 155
454237 166 155
464080 166 156
465584 167 156
465588 168 156
469132 168 157
472634 169 157
477130 170 157
478692 171 157
483553 171 158
485035 172 158
485039 173 158
498377 173 159
498738 174 159
498742 175 159
502638 175 160
504704 176 160
513277 177 160
513281 178 160
513650 179 160
513654 180 160
515825 180 161
523012 180 162
528126 181 162
532315 181 163
538466 182 163
544495 183 163
544874 184 163
544878 185 163
554780 186 163
559776 186 164
565615 187 164
565619 188 164
567209 188 165
571097 188 166
573148 189 166
578131 190 166
578135 191 166
593210 191 167
593753 192 167
605629 192 168
609904 193 168
624061 194 168
626942 194 169
630058 195 169
630611 196 169
630615 197 169
637370 197 170
641981 197 171
643766 197 172
647131 198 172
653863 199 172
660384 199 173
665218 200 173
672589 201 173
680099 201 174
682169 202 174
682586 203 174
682590 204 174
698552 204 175
699378 205 175
703035 206 175
703039 207 175
713897 207 176
721856 208 176
731248 209 176
734600 209 177
740018 209 178
740451 210 178
740884 211 178
740888 212 178
749919 213 178
749923 214 178
751061 214 179
757612 215 179
760282 216 179
767199 216 180
768228 217 180
786893 218 180
786897 219 180
789828 219 181
803746 220 181
803750 221 181
806747 221 182
809576 222 182
815872 222 183
817667 223 183
817671 224 183
828188 225 183
832258 226 183
837547 227 183
843620 228 183
845081 228 184
863627 228 185
865216 229 185
865220 230 185
865694 231 185
865698 232 185
883973 232 186
888688 233 186
888692 234 186
901360 234 187
907571 235 187
917769 235 188
920325 236 188
920329 237 188
922394 238 188
922398 239 188
932897 240 188
938314 240 189
947368 241 189
956549 242 189
961503 242 190
962593 242 191
967915 243 191
978813 243 192
987724 244 192
987728 245 192
989705 245 193
996369 246 193
1003098 247 193
1006019 248 193
1009766 249 193
1010842 250 193
1010846 251 193
1028364 251 194
1033190 252 194
1042164 253 194
1042168 254 194
1044318 254 195
1055538 255 195
1067144 255 196
1072111 256 196
1072637 257 196
1072641 258 196
1074335 258 197
1084948 259 197
1084952 260 197
1095154 261 197
1110061 262 197
1110065 263 197
1128278 263 198
1139662 264 198
1147834 264 199
1162667 264 200
1168087 265 200
1172453 265 201
1174746 266 201
1175293 267 201
1175297 268 201
1181632 268 202
1184198 268 203
1196289 269 203
1199903 270 203
1199907 271 203
1209467 272 203
1209471 273 203
1225165 274 203
1228826 274 204
1244508 275 204
1244512 276 204
1256583 276 205
1258307 276 206
1280593 276 207
1282584 276 208
1283152 277 208
1287500 277 209
1296260 278 209
1301472 278 210
1303487 278 211
1307397 279 211
1314484 279 212
1315246 280 212
1322772 280 213
1325803 281 213
1325807 282 213
1336588 282 214
1344017 283 214
1350234 283 215
1360371 284 215
1361919 284 216
1371126 285 216
1371130 286 216
1382807 286 217
1396114 287 217
1396118 288 217
1405303 289 217
1408422 289 218
1418050 290 218
1447058 291 218
1447062 292 218
1464140 293 218
1471242 293 219
1481944 293 220
1486484 294 220
1486488 295 220
1490260 296 220
1497654 296 221
1502199 296 222
1505903 297 222
1505907 298 222
1509932 298 223
1517806 299 223
1524238 300 223
1536681 300 224
1542421 301 224
1553196 302 224
1567368 303 224
1583856 304 224
1589372 305 224
1591929 305 225
1610878 306 225
1610882 307 225
1617235 307 226
1635313 308 226
1635317 309 226
1637043 309 227
1642795 309 228
1649439 310 228
1661233 311 228
1671752 312 228
1671756 313 228
1675333 313 229
1679421 314 229
1710725 314 230
1714995 315 230
1714999 316 230
1721624 316 231
1736197 317 231
1736201 318 231
1737763 318 232
1749919 319 232
1763041 319 233
1767890 320 233
1779420 320 234
1796181 320 235
1810034 321 235
1810038 322 235
1814604 322 236
1828920 323 236
1828924 324 236
1864287 324 237
1866628 324 238
1870468 325 238
1886843 326 238
1896935 327 238
1911865 328 238
1919089 329 238
1919093 330 238
1921746 331 238
1934753 331 239
1936779 332 239
1936783 333 239
1944176 333 240
1952304 333 241
1966646 334 241
1966650 335 241
1969274 336 241
1969278 337 241
1998747 338 241
0 1 1
4 2 1
8 3 1
12 3 2
25 3 3
36 4 3
40 5 3
58 5 4
83 6 4
87 7 4
109 7 5
136 7 6
203 8 6
207 9 6
238 9 7
263 9 8
289 9 9
364 10 9
420 10 10
450 10 11
481 10 12
571 11 12
600 12 12
670 12 13
732 12 14
772 12 15
853 13 15
857 14 15
934 14 16
977 14 17
1021 14 18
1138 14 19
1271 14 20
1356 14 21
1410 14 22
1478 15 22
1581 15 23
1619 16 23
1726 16 24
1848 16 25
1910 17 25
1914 18 25
2134 19 25
2138 20 25
2194 20 26
2294 20 27
2344 21 27
2640 21 28
2711 21 29
3013 21 30
3272 21 31
3349 21 32
3455 22 32
3549 23 32
3553 24 32
3659 24 33
4101 24 34
4230 24 35
4316 25 35
4625 26 35
4795 26 36
4857 27 36
4973 27 37
5184 27 38
5277 27 39
5539 27 40
5672 27 41
6497 27 42
6769 27 43
6871 27 44
7338 28 44
7616 28 45
7834 28 46
8044 28 47
8193 29 47
8197 30 47
8747 31 47
8751 32 47
9212 33 47
9655 33 48
10042 33 49
10449 34 49
11182 34 50
11408 34 51
12051 35 51
12384 35 52
13670 35 53
13893 36 53
14320 37 53
14324 38 53
14732 38 54
15483 38 55
15805 38 56
15889 39 56
16173 40 56
16177 41 56
16598 41 57
17854 41 58
18588 41 59
18936 42 59
18940 43 59
19126 44 59
20593 45 59
21120 45 60
21479 45 61
21729 45 62
22382 45 63
22802 45 64
23359 45 65
23507 45 66
23654 45 67
24254 45 68
24353 46 68
24357 47 68
24503 47 69
25106 48 69
26120 48 70
26592 48 71
27529 48 72
28765 48 73
30796 49 73
30800 50 73
31803 50 74
32336 50 75
33771 51 75
33930 51 76
34820 51 77
35644 52 77
35648 53 77
38212 54 77
38701 54 78
38925 55 78
40604 56 78
41626 56 79
43051 56 80
43402 57 80
43406 58 80
45675 58 81
46352 59 81
48576 60 81
48705 61 81
48709 62 81
49993 62 82
52581 62 83
52763 62 84
53299 62 85
54432 63 85
54436 64 85
55534 64 86
57581 65 86
57585 66 86
60766 66 87
61531 66 88
62666 67 88
64439 68 88
64443 69 88
66704 70 88
66708 71 88
69324 71 89
71295 71 90
72523 72 90
72968 73 90
72972 74 90
75283 74 91
79871 75 91
82694 76 91
82698 77 91
83261 77 92
85071 77 93
85482 77 94
86219 77 95
86756 78 95
88378 79 95
88382 80 95
88554 81 95
88558 82 95
89146 82 96
92804 82 97
96153 82 98
97966 83 98
97970 84 98
98149 85 98
98153 86 98
100990 86 99
105282 86 100
107596 86 101
109228 86 102
111549 86 103
113339 87 103
113343 88 103
113773 89 103
113777 90 103
115381 90 104
117585 90 105
119557 90 106
121949 90 107
124024 91 107
126342 91 108
128664 92 108
128668 93 108
130257 93 109
131424 94 109
137784 94 110
138177 95 110
142865 95 111
143487 95 112
143919 95 113
146407 96 113
150735 96 114
151284 96 115
151707 97 115
155652 97 116
157159 98 116
158406 98 117
159346 99 117
160210 100 117
160214 101 117
167543 102 117
171948 102 118
177032 103 118
177961 103 119
179953 103 120
181321 103 121
186699 103 122
189703 103 123
191980 103 124
192399 104 124
193867 105 124
198316 105 125
201619 105 126
203963 106 126
205969 106 127
220061 107 127
220065 108 127
221271 108 128
222253 108 129
223294 109 129
223522 110 129
223526 111 129
225321 111 130
227892 111 131
230785 112 131
233163 112 132
236925 112 133
241326 113 133
245027 114 133
247435 115 133
249490 115 134
251366 115 135
256316 116 135
257330 117 135
257334 118 135
260577 118 136
262388 119 136
262392 120 136
270099 121 136
270103 122 136
270963 122 137
275709 122 138
283780 122 139
290101 122 140
290813 123 140
293452 124 140
293456 125 140
294951 125 141
301834 126 141
301838 127 141
302654 127 142
304557 128 142
304561 129 142
309385 129 143
311345 129 144
319132 129 145
328065 129 146
331612 129 147
333597 130 147
333601 131 147
346607 131 148
347763 131 149
349740 132 149
352223 133 149
352227 134 149
352889 135 149
352893 136 149
355470 136 150
356616 136 151
368604 136 152
371176 136 153
377164 137 153
377168 138 153
378554 139 153
378558 140 153
380698 140 154
384840 140 155
397375 140 156
399107 141 156
399111 142 156
409408 142 157
423082 143 157
425005 143 158
428796 143 159
430575 143 160
434160 144 160
436741 144 161
440768 144 162
455863 144 163
461124 145 163
461128 146 163
466362 146 164
467680 146 165
480599 147 165
480603 148 165
485525 148 166
488037 148 167
498881 149 167
498885 150 167
508740 150 168
509398 151 168
511637 152 168
521640 152 169
527936 152 170
530568 152 171
536649 153 171
536653 154 171
552307 155 171
562938 155 172
564992 155 173
566191 155 174
567620 156 174
567624 157 174
575671 157 175
581500 157 176
584865 157 177
592308 158 177
592312 159 177
599190 160 177
601453 160 178
609325 160 179
614441 160 180
618385 161 180
618389 162 180
630156 163 180
630160 164 180
630913 165 180
630917 166 180
633705 166 181
648359 166 182
661532 166 183
663355 166 184
666053 167 184
666057 168 184
675927 169 184
682795 170 184
682799 171 184
684863 172 184
685220 173 184
685224 174 184
697619 175 184
706260 176 184
706623 177 184
706627 178 184
715475 179 184
717524 180 184
717528 181 184
719305 181 185
729932 181 186
735879 182 186
736990 183 186
736994 184 186
744433 184 187
745577 185 187
745581 186 187
748356 187 187
764874 187 188
773612 188 188
773616 189 188
776586 189 189
780685 189 190
793889 190 190
793893 191 190
794990 192 190
794994 193 190
798767 193 191
815760 194 191
818896 194 192
820773 195 192
824270 196 192
835476 196 193
847950 196 194
849516 197 194
851883 197 195
856083 198 195
878128 198 196
878538 199 196
878542 200 196
881466 201 196
881470 202 196
891598 202 197
893401 203 197
910432 203 198
912647 203 199
916092 204 199
924820 204 200
936934 204 201
947575 204 202
964631 204 203
966652 205 203
979672 206 203
979676 207 203
995196 208 203
995200 209 203
1003018 210 203
1007888 211 203
1011865 211 204
1017284 212 204
1019972 212 205
1022766 213 205
1035659 214 205
1035663 215 205
1041192 216 205
1049019 216 206
1061766 217 206
1061770 218 206
1065618 219 206
1065622 220 206
1067906 220 207
1073852 220 208
1081491 221 208
1085751 222 208
1093458 223 208
1105737 224 208
1108343 224 209
1117052 225 209
1124410 226 209
1125583 226 210
1126051 227 210
1126055 228 210
1142001 229 210
1148994 230 210
1150289 231 210
1150293 232 210
1160042 232 211
1167623 233 211
1173262 233 212
1176698 233 213
1188504 234 213
1193942 235 213
1195384 236 213
1207471 237 213
1209239 238 213
1209243 239 213
1211216 239 214
1217404 240 214
1217408 241 214
1223208 242 214
1226578 242 215
1243343 243 215
1249124 243 216
1249625 244 216
1249629 245 216
1260671 246 216
1260675 247 216
1266918 247 217
1277099 247 218
1282313 248 218
1282317 249 218
1298348 250 218
1314527 251 218
1314531 252 218
1323238 252 219
1330020 253 219
1331060 254 219
1331064 255 219
1332936 255 220
1340831 256 220
1340835 257 220
1345642 258 220
1355699 258 221
1357779 258 222
1364528 259 222
1364532 260 222
1373044 261 222
1377469 261 223
1378699 261 224
1379898 261 225
1381486 262 225
1388475 263 225
1388479 264 225
1389023 265 225
1389027 266 225
1401418 267 225
1419037 267 226
1424484 268 226
1435073 269 226
1442893 270 226
1450046 271 226
1450050 272 226
1457914 273 226
1467063 274 226
1472699 274 227
1476649 275 227
1485546 276 227
1492964 276 228
1495417 277 228
1506264 278 228
1509904 279 228
1513560 280 228
1513564 281 228
1524912 281 229
1534799 281 230
1536116 282 230
1545204 283 230
1557881 284 230
1560883 285 230
1560887 286 230
1575975 287 230
1577693 287 231
1592398 287 232
1594348 288 232
1606506 289 232
1610433 289 233
1621263 289 234
1623017 290 234
1633472 291 234
1635635 292 234
1635639 293 234
1653830 293 235
1656367 294 235
1658165 295 235
1658169 296 235
1666347 297 235
1666351 298 235
1677304 299 235
1699364 300 235
1706228 300 236
1711372 301 236
1711376 302 236
1713053 302 237
1720750 302 238
1745754 302 239
1746987 303 239
1756865 304 239
1756869 305 239
1771157 306 239
1771161 307 239
1776763 308 239
1788909 308 240
1799230 308 241
1812389 309 241
1812393 310 241
1834759 310 242
1840018 311 242
1842837 312 242
1842841 313 242
1843486 314 242
1843490 315 242
1864542 315 243
1873263 316 243
1873267 317 243
1887387 317 244
1895052 317 245
1906575 317 246
1918569 318 246
1918573 319 246
1927488 319 247
1943007 320 247
1943011 321 247
1955204 322 247
1964170 322 248
1974580 323 248
1974584 324 248
1986171 324 249
