02421020210331024001 2 1202410222.184242
02421020211331024001 2 1202410222.184316
02421020212331024001 2 1202410222.184350
02421020213331024001 2 1202410222.184424
02421020214331024001 2 1202410222.184458
02421020210331124001 2 1202410222.184537
02421020211331124001 2 1202410222.184611
02421020212331124001 2 1202410222.184645
02421020213331124001 2 1202410222.184719
02421020214331124001 2 1202410222.184753
02421020210331224001 2 1202410222.184832
02421020211331224001 2 1202410222.184906
02421020212331224001 2 1202410222.184941
02421020213331224001 2 1202410222.185015
02421020214331224001 2 1202410222.185049
02421020210331424001 2 1202410222.185140
02421020211331424001 2 1202410222.185213
02421020212331424001 2 1202410222.185247
02421020213331424001 2 1202410222.185321
02421020214331424001 2 1202410222.185355
00221000213130404201 2 1202410222.185723
00221004213130404201 2 1202410222.185804
00221000213130414201 2 1202410222.190001
00221004213130414201 2 1202410222.190042
00221004213130024201 2 1202410222.190143
00221004213130124201 2 1202410222.190231
00221004213130224201 2 1202410222.190318
00221004213130424201 2 1202410222.190404
00221004213130044201 2 1202410222.190452
00221004213130144201 2 1202410222.190540
01111120204331144201 2 1202410222.190608
00221004213130244201 2 1202410222.190654
00221000213130444201 2 1202410222.190831
00221004213130444201 2 1202410222.190913
01111120204331444201 2 1202410222.191021
00221000213130404202 2 1202410222.191642
00221004213130404202 2 1202410222.191723
00221000213130414202 2 1202410222.191900
00221004213130414202 2 1202410222.191941
00221004213130024202 2 1202410222.192037
00221004213130124202 2 1202410222.192119
00221004213130224202 2 1202410222.192201
00221004213130424202 2 1202410222.192243
00221004213130044202 2 1202410222.192326
00221004213130144202 2 1202410222.192409
01111120204331144202 2 1202410222.192435
00221004213130244202 2 1202410222.192518
00221000213130444202 2 1202410222.192650
00221004213130444202 2 1202410222.192731
01111120204331444202 2 1202410222.192837
