00221000213131424242 2 1202502042.175822
00221000213331044242 2 1202502042.175824
00221020213331044242 2 1202502042.175825
00221030213331044242 2 1202502042.175827
00221000213331144242 2 1202502042.175829
