SRNFGPR: searching [D=1, R=0] space....
[H[2J
-----------------printing current job allocations-------------------
  * 0:1813985279 :: ###################

    1813985280:3627970559 :: ###################

    3627970560:5441955839 :: ###################

    5441955840:7255941119 :: ###################

    7255941120:9069926399 :: ###################

    9069926400:10883911679 :: ###################



[H[2J
-----------------printing current job allocations-------------------
    0:906992639 :: #########

  * 1813985280:3627970559 :: ###################

    3627970560:5441955839 :: ###################

    5441955840:7255941119 :: ###################

    7255941120:9069926399 :: ###################

    9069926400:10883911679 :: ###################



[H[2J
-----------------printing current job allocations-------------------
    0:906992639 :: #########

  * 1813985280:3627970559 :: ###################

    3627970560:5441955839 :: ###################

    5441955840:7255941119 :: ###################

    7255941120:9069926399 :: ###################

    9069926400:10883911679 :: ###################



[H[2J
-----------------printing current job allocations-------------------
    0:906992639 :: #########

  * 1813985280:3627970559 :: ###################

    3627970560:5441955839 :: ###################

    5441955840:7255941119 :: ###################

    7255941120:9069926399 :: ###################

    9069926400:10883911679 :: ###################



[H[2J
-----------------printing current job allocations-------------------
    0:906992639 :: #########

  * 1813985280:3627970559 :: ###################

    3627970560:5441955839 :: ###################

    5441955840:7255941119 :: ###################

    7255941120:9069926399 :: ###################

    9069926400:10883911679 :: ###################



[H[2J
-----------------printing current job allocations-------------------
    0:906992639 :: #########

  * 1813985280:3627970559 :: ###################

    3627970560:5441955839 :: ###################

    5441955840:7255941119 :: ###################

    7255941120:9069926399 :: ###################

    9069926400:10883911679 :: ###################



[H[2J
-----------------printing current job allocations-------------------
    0:906992639 :: #########

  * 1813985280:3627970559 :: ###################

    3627970560:5441955839 :: ###################

    5441955840:7255941119 :: ###################

    7255941120:9069926399 :: ###################

    9069926400:10883911679 :: ###################



[H[2J
-----------------printing current job allocations-------------------
    0:906992639 :: #########

  * 1813985280:3627970559 :: ###################

    3627970560:5441955839 :: ###################

    5441955840:7255941119 :: ###################

    7255941120:9069926399 :: ###################

    9069926400:10883911679 :: ###################



[H[2J
-----------------printing current job allocations-------------------
    0:906992639 :: #########

  * 1813985280:3627970559 :: ###################

    3627970560:5441955839 :: ###################

    5441955840:7255941119 :: ###################

    7255941120:9069926399 :: ###################

    9069926400:10883911679 :: ###################



[H[2J
-----------------printing current job allocations-------------------
    0:906992639 :: #########

  * 1813985280:3627970559 :: ###################

    3627970560:5441955839 :: ###################

    5441955840:7255941119 :: ###################

    7255941120:9069926399 :: ###################

    9069926400:10883911679 :: ###################



[H[2J
-----------------printing current job allocations-------------------
    0:906992639 :: #########

  * 1813985280:3627970559 :: ###################

    3627970560:5441955839 :: ###################

    5441955840:7255941119 :: ###################

    7255941120:9069926399 :: ###################

    9069926400:10883911679 :: ###################



[H[2J
-----------------printing current job allocations-------------------
    0:906992639 :: #########

  * 1813985280:3627970559 :: ###################

    3627970560:5441955839 :: ###################

    5441955840:7255941119 :: ###################

    7259362555:9069926399 :: ###################

    9069926400:10883911679 :: ###################



[H[2J
-----------------printing current job allocations-------------------
    0:906992639 :: #########

  * 1813985280:3627970559 :: ###################

    3627970560:5441955839 :: ###################

    5441955840:7255941119 :: ###################

    7259362555:9069926399 :: ###################

    9069926400:10883911679 :: ###################



[H[2J
-----------------printing current job allocations-------------------
    0:906992639 :: #########

  * 1813985280:3627970559 :: ###################

    3627970560:5441955839 :: ###################

    5441955840:7255941119 :: ###################

    7259362555:9069926399 :: ###################

    9069926400:10883911679 :: ###################



[H[2J
-----------------printing current job allocations-------------------
    0:906992639 :: #########

  * 1813985280:3627970559 :: ###################

    3627970560:5441955839 :: ###################

    5441955840:7255941119 :: ###################

    7259362555:9069926399 :: ###################

    9069926400:10883911679 :: ###################



[H[2J
-----------------printing current job allocations-------------------
    0:906992639 :: #########

  * 1813985280:3627970559 :: ###################

    3627970560:5441955839 :: ###################

    5441955840:7255941119 :: ###################

    7259362555:9069926399 :: ###################

    9069926400:10883911679 :: ###################



[H[2J
-----------------printing current job allocations-------------------
    0:906992639 :: #########

  * 1813985280:3627970559 :: ###################

    3627970560:5441955839 :: ###################

    5441955840:7255941119 :: ###################

    7259362555:9069926399 :: ###################

    9069926400:10883911679 :: ###################



[H[2J
-----------------printing current job allocations-------------------
    0:906992639 :: #########

  * 1813985280:3627970559 :: ###################

    3627970560:5441955839 :: ###################

    5441955840:7255941119 :: ###################

    7259362555:9069926399 :: ###################

    9069926400:10883911679 :: ###################



[H[2J
-----------------printing current job allocations-------------------
    0:906992639 :: #########

    1817406715:3627970559 :: ###################

  * 3627970560:5441955839 :: ###################

    5441955840:7255941119 :: ###################

    7259362555:9069926399 :: ###################

    9069926400:10883911679 :: ###################



[H[2J
-----------------printing current job allocations-------------------
    0:906992639 :: #########

    1817406715:3627970559 :: ###################

  * 3627970560:5441955839 :: ###################

    5441955840:7255941119 :: ###################

    7259362555:9069926399 :: ###################

    9069926400:10883911679 :: ###################



[H[2J
-----------------printing current job allocations-------------------
    0:906992639 :: #########

    1817406715:3627970559 :: ###################

  * 3627970560:5441955839 :: ###################

    5441955840:7255941119 :: ###################

    7267815061:9069926399 :: ###################

    9069926400:10883911679 :: ###################



[H[2J
-----------------printing current job allocations-------------------
    0:906992639 :: #########

    1817406715:3627970559 :: ###################

  * 3627970560:5441955839 :: ###################

    5441955840:7255941119 :: ###################

    7267815061:9069926399 :: ###################

    9069926400:10883911679 :: ###################



[H[2J
-----------------printing current job allocations-------------------
    13491355:906992639 :: #########

    1817406715:3627970559 :: ###################

    3631391995:5441955839 :: ###################

  * 5441955840:7255941119 :: ###################

    7267815061:9069926399 :: ###################

    9069926400:10883911679 :: ###################



[H[2J
-----------------printing current job allocations-------------------
    13491355:906992639 :: #########

    1817406715:3627970559 :: ###################

    3631391995:5441955839 :: ###################

  * 5441955840:7255941119 :: ###################

    7267815061:9069926399 :: ###################

    9069926400:10883911679 :: ###################



[H[2J
-----------------printing current job allocations-------------------
    13491355:906992639 :: #########

    1817406715:3627970559 :: ###################

    3631391995:5441955839 :: ###################

  * 5441955840:7255941119 :: ###################

    7267815061:9069926399 :: ###################

    9069926400:10883911679 :: ###################



[H[2J
-----------------printing current job allocations-------------------
    13491355:906992639 :: #########

    1817406715:3627970559 :: ###################

    3631391995:5441955839 :: ###################

  * 5441955840:7255941119 :: ###################

    7267815061:9069926399 :: ###################

    9069926400:10883911679 :: ###################



[H[2J
-----------------printing current job allocations-------------------
    13491355:906992639 :: #########

    1817406715:3627970559 :: ###################

    3631391995:5441955839 :: ###################

  * 5441955840:7255941119 :: ###################

    7267815061:9069926399 :: ###################

    9069926400:10883911679 :: ###################



[H[2J
-----------------printing current job allocations-------------------
    13491355:906992639 :: #########

    1817406715:3627970559 :: ###################

    3631391995:5441955839 :: ###################

  * 5441955840:7255941119 :: ###################

    7267815061:9069926399 :: ###################

    9069926400:10883911679 :: ###################



[H[2J
-----------------printing current job allocations-------------------
    13491355:906992639 :: #########

    1817406715:3627970559 :: ###################

    3631391995:5441955839 :: ###################

  * 5441955840:7255941119 :: ###################

    7267815061:9069926399 :: ###################

    9069926400:10883911679 :: ###################



[H[2J
-----------------printing current job allocations-------------------
    13491355:906992639 :: #########

    1825859221:3627970559 :: ###################

    3631391995:5441955839 :: ###################

  * 5441955840:7255941119 :: ###################

    7267815061:9069926399 :: ###################

    9069926400:10883911679 :: ###################



[H[2J
-----------------printing current job allocations-------------------
    13491355:906992639 :: #########

    1825859221:3627970559 :: ###################

    3631391995:5441955839 :: ###################

    5455447195:7255941119 :: ###################

    7267815061:9069926399 :: ###################

  * 9069926400:10883911679 :: ###################



[H[2J
-----------------printing current job allocations-------------------
    13491355:906992639 :: #########

    1825859221:3627970559 :: ###################

    3631391995:5441955839 :: ###################

    5455447195:7255941119 :: ###################

    7267815061:9069926399 :: ###################

  * 9069926400:10883911679 :: ###################



[H[2J
-----------------printing current job allocations-------------------
    13491355:906992639 :: #########

    1825859221:3627970559 :: ###################

    3631391995:5441955839 :: ###################

    5455447195:7255941119 :: ###################

    7267815061:9069926399 :: ###################

  * 9069926400:10883911679 :: ###################



[H[2J
-----------------printing current job allocations-------------------
    13491355:906992639 :: #########

    1825859221:3627970559 :: ###################

    3631391995:5441955839 :: ###################

    5455447195:7255941119 :: ###################

    7267815061:9069926399 :: ###################

  * 920483994:10883911679 :: #############################################################################################################



[H[2J
-----------------printing current job allocations-------------------
    13491355:906992639 :: #########

    1825859221:3627970559 :: ###################

    3631391995:5441955839 :: ###################

    5455447195:7255941119 :: ###################

    7267815061:9069926399 :: ###################

  * 920483994:10883911679 :: #############################################################################################################



[H[2J
-----------------printing current job allocations-------------------
    13491355:906992639 :: #########

    1825859221:3627970559 :: ###################

    3631391995:5441955839 :: ###################

    5455447195:7255941119 :: ###################

    7267815061:9069926399 :: ###################

  * 920483994:10883911679 :: #############################################################################################################



[H[2J
-----------------printing current job allocations-------------------
    13491355:906992639 :: #########

    1825859221:3627970559 :: ###################

    3631391995:5441955839 :: ###################

    5455447195:7255941119 :: ###################

    7267815061:9069926399 :: ###################

  * 920483994:10883911679 :: #############################################################################################################



[H[2J
-----------------printing current job allocations-------------------
    13491355:906992639 :: #########

    1825859221:3627970559 :: ###################

    3631391995:5441955839 :: ###################

    5455447195:7255941119 :: ###################

    7267815061:9069926399 :: ###################

  * 920483994:10883911679 :: #############################################################################################################



[H[2J
-----------------printing current job allocations-------------------
    13491355:906992639 :: #########

    1825859221:3627970559 :: ###################

    3631391995:5441955839 :: ###################

    5455447195:7255941119 :: ###################

    7267815061:9069926399 :: ###################

  * 920483994:10883911679 :: #############################################################################################################



[H[2J
-----------------printing current job allocations-------------------
    13491355:906992639 :: #########

    1825859221:3627970559 :: ###################

    3639844501:5441955839 :: ###################

    5455447195:7255941119 :: ###################

    7267815061:9069926399 :: ###################

  * 920483994:10883911679 :: #############################################################################################################



[H[2J
-----------------printing current job allocations-------------------
    13491355:906992639 :: #########

    1825859221:3627970559 :: ###################

    3639844501:5441955839 :: ###################

    5455447195:7255941119 :: ###################

    7269587987:9069926399 :: ###################

  * 920483994:10883911679 :: #############################################################################################################



[H[2J
-----------------printing current job allocations-------------------
    18576856:906992639 :: #########

    1825859221:3627970559 :: ###################

    3639844501:5441955839 :: ###################

    5455447195:7255941119 :: ###################

    7269587987:9069926399 :: ###################

  * 920483994:10883911679 :: #############################################################################################################



[H[2J
-----------------printing current job allocations-------------------
    18576856:906992639 :: #########

    1825859221:3627970559 :: ###################

    3639844501:5441955839 :: ###################

    5455447195:7255941119 :: ###################

    7269587987:9069926399 :: ###################

  * 920483994:10883911679 :: #############################################################################################################



[H[2J
-----------------printing current job allocations-------------------
    18576856:906992639 :: #########

    1825859221:3627970559 :: ###################

    3639844501:5441955839 :: ###################

    5455447195:7255941119 :: ###################

    7269587987:9069926399 :: ###################

  * 920483994:10883911679 :: #############################################################################################################



[H[2J
-----------------printing current job allocations-------------------
    18576856:906992639 :: #########

    1825859221:3627970559 :: ###################

    3639844501:5441955839 :: ###################

    5455447195:7255941119 :: ###################

    7269587987:9069926399 :: ###################

  * 920483994:10883911679 :: #############################################################################################################



[H[2J
-----------------printing current job allocations-------------------
    18576856:906992639 :: #########

    1825859221:3627970559 :: ###################

    3639844501:5441955839 :: ###################

    5455447195:7255941119 :: ###################

    7269587987:9069926399 :: ###################

  * 920483994:10883911679 :: #############################################################################################################



[H[2J
-----------------printing current job allocations-------------------
    18576856:906992639 :: #########

    1827632147:3627970559 :: ###################

    3639844501:5441955839 :: ###################

    5455447195:7255941119 :: ###################

    7269587987:9069926399 :: ###################

  * 920483994:10883911679 :: #############################################################################################################



[H[2J
-----------------printing current job allocations-------------------
    18576856:906992639 :: #########

    1827632147:3627970559 :: ###################

    3639844501:5441955839 :: ###################

    5455447195:7255941119 :: ###################

    7269587987:9069926399 :: ###################

  * 920483994:10883911679 :: #############################################################################################################



[H[2J
-----------------printing current job allocations-------------------
    18576856:906992639 :: #########

    1827632147:3627970559 :: ###################

    3639844501:5441955839 :: ###################

    5455447195:7255941119 :: ###################

    7269587987:9069926399 :: ###################

  * 920483994:10883911679 :: #############################################################################################################



[H[2J
-----------------printing current job allocations-------------------
    18576856:906992639 :: #########

    1827632147:3627970559 :: ###################

    3639844501:5441955839 :: ###################

    5455447195:7255941119 :: ###################

    7269587987:9069926399 :: ###################

  * 920483994:10883911679 :: #############################################################################################################



[H[2J
-----------------printing current job allocations-------------------
    18576856:906992639 :: #########

    1827632147:3627970559 :: ###################

    3641617427:5441955839 :: ###################

    5455447195:7255941119 :: ###################

    7269587987:9069926399 :: ###################

  * 920483994:10883911679 :: #############################################################################################################



[H[2J
-----------------printing current job allocations-------------------
    18576856:906992639 :: #########

    1827632147:3627970559 :: ###################

    3641617427:5441955839 :: ###################

    5460532696:7255941119 :: ###################

    7269587987:9069926399 :: ###################

  * 925569495:10883911679 :: #############################################################################################################



[H[2J
-----------------printing current job allocations-------------------
    18576856:906992639 :: #########

    1827632147:3627970559 :: ###################

    3641617427:5441955839 :: ###################

    5460532696:7255941119 :: ###################

    7269587987:9069926399 :: ###################

  * 925569495:10883911679 :: #############################################################################################################



[H[2J
-----------------printing current job allocations-------------------
    18576856:906992639 :: #########

    1827632147:3627970559 :: ###################

    3641617427:5441955839 :: ###################

    5460532696:7255941119 :: ###################

    7269587987:9069926399 :: ###################

  * 925569495:10883911679 :: #############################################################################################################



[H[2J
-----------------printing current job allocations-------------------
    18576856:906992639 :: #########

    1827632147:3627970559 :: ###################

    3641617427:5441955839 :: ###################

    5460532696:7255941119 :: ###################

    7269587987:9069926399 :: ###################

  * 925569495:10883911679 :: #############################################################################################################



[H[2J
-----------------printing current job allocations-------------------
    18576856:906992639 :: #########

    1827632147:3627970559 :: ###################

    3641617427:5441955839 :: ###################

    5460532696:7255941119 :: ###################

    7269587987:9069926399 :: ###################

  * 925569495:10883911679 :: #############################################################################################################



[H[2J
-----------------printing current job allocations-------------------
    18576856:906992639 :: #########

    1827632147:3627970559 :: ###################

    3641617427:5441955839 :: ###################

    5460532696:7255941119 :: ###################

    7269587987:9069926399 :: ###################

  * 925569495:10883911679 :: #############################################################################################################



[H[2J
-----------------printing current job allocations-------------------
    18576856:906992639 :: #########

    1827632147:3627970559 :: ###################

    3641617427:5441955839 :: ###################

    5460532696:7255941119 :: ###################

    7274673488:9069926399 :: ###################

  * 925569495:10883911679 :: #############################################################################################################



[H[2J
-----------------printing current job allocations-------------------
    18576856:906992639 :: #########

    1827632147:3627970559 :: ###################

    3641617427:5441955839 :: ###################

    5460532696:7255941119 :: ###################

    7274673488:9069926399 :: ###################

  * 925569495:10883911679 :: #############################################################################################################



[H[2J
-----------------printing current job allocations-------------------
    18576856:906992639 :: #########

    1827632147:3627970559 :: ###################

    3641617427:5441955839 :: ###################

    5460532696:7255941119 :: ###################

    7274673488:9069926399 :: ###################

  * 925569495:10883911679 :: #############################################################################################################



[H[2J
-----------------printing current job allocations-------------------
    18576856:906992639 :: #########

    1827632147:3627970559 :: ###################

    3641617427:5441955839 :: ###################

    5460532696:7255941119 :: ###################

    7274673488:9069926399 :: ###################

  * 925569495:10883911679 :: #############################################################################################################



[H[2J
-----------------printing current job allocations-------------------
    18576856:906992639 :: #########

    1832717648:3627970559 :: ###################

    3646702928:5441955839 :: ###################

    5460532696:7255941119 :: ###################

    7274673488:9069926399 :: ###################

  * 925569495:10883911679 :: #############################################################################################################



[H[2J
-----------------printing current job allocations-------------------
    18576856:906992639 :: #########

    1832717648:3627970559 :: ###################

    3646702928:5441955839 :: ###################

    5460532696:7255941119 :: ###################

    7274673488:9069926399 :: ###################

  * 925569495:10883911679 :: #############################################################################################################



[H[2J
-----------------printing current job allocations-------------------
    22109112:906992639 :: #########

    1832717648:3627970559 :: ###################

    3646702928:5441955839 :: ###################

    5460532696:7255941119 :: ###################

    7274673488:9069926399 :: ###################

  * 925569495:10883911679 :: #############################################################################################################



[H[2J
-----------------printing current job allocations-------------------
    22109112:906992639 :: #########

    1832717648:3627970559 :: ###################

    3646702928:5441955839 :: ###################

    5460532696:7255941119 :: ###################

    7274673488:9069926399 :: ###################

  * 925569495:10883911679 :: #############################################################################################################



[H[2J
-----------------printing current job allocations-------------------
    22109112:906992639 :: #########

    1832717648:3627970559 :: ###################

    3646702928:5441955839 :: ###################

    5460532696:7255941119 :: ###################

    7274673488:9069926399 :: ###################

  * 925569495:10883911679 :: #############################################################################################################



[H[2J
-----------------printing current job allocations-------------------
    22109112:906992639 :: #########

    1832717648:3627970559 :: ###################

    3646702928:5441955839 :: ###################

    5460532696:7255941119 :: ###################

    7274673488:9069926399 :: ###################

  * 925569495:10883911679 :: #############################################################################################################



[H[2J
-----------------printing current job allocations-------------------
    22109112:906992639 :: #########

    1832717648:3627970559 :: ###################

    3646702928:5441955839 :: ###################

    5460532696:7255941119 :: ###################

    7274673488:9069926399 :: ###################

  * 925569495:10883911679 :: #############################################################################################################



[H[2J
-----------------printing current job allocations-------------------
    22109112:906992639 :: #########

    1832717648:3627970559 :: ###################

    3646702928:5441955839 :: ###################

    5460532696:7255941119 :: ###################

    7274673488:9069926399 :: ###################

  * 925569495:10883911679 :: #############################################################################################################



[H[2J
-----------------printing current job allocations-------------------
    22109112:906992639 :: #########

    1832717648:3627970559 :: ###################

    3646702928:5441955839 :: ###################

    5460532696:7255941119 :: ###################

    7274673488:9069926399 :: ###################

  * 925569495:10883911679 :: #############################################################################################################



[H[2J
-----------------printing current job allocations-------------------
    22109112:906992639 :: #########

    1832717648:3627970559 :: ###################

    3646702928:5441955839 :: ###################

    5460532696:7255941119 :: ###################

    7274673488:9069926399 :: ###################

  * 925569495:10883911679 :: #############################################################################################################



[H[2J
-----------------printing current job allocations-------------------
    22109112:906992639 :: #########

    1832717648:3627970559 :: ###################

    3646702928:5441955839 :: ###################

    5460532696:7255941119 :: ###################

    7274673488:9069926399 :: ###################

  * 925569495:10883911679 :: #############################################################################################################



[H[2J
-----------------printing current job allocations-------------------
    22109112:906992639 :: #########

    1832717648:3627970559 :: ###################

    3646702928:5441955839 :: ###################

    5460532696:7255941119 :: ###################

    7274673488:9069926399 :: ###################

  * 925569495:10883911679 :: #############################################################################################################



[H[2J
-----------------printing current job allocations-------------------
    22109112:906992639 :: #########

    1832717648:3627970559 :: ###################

    3660295359:5441955839 :: ###################

    5460532696:7255941119 :: ###################

    7274673488:9069926399 :: ###################

  * 929101536:10883911679 :: #############################################################################################################



[H[2J
-----------------printing current job allocations-------------------
    22109112:906992639 :: #########

    1832717648:3627970559 :: ###################

    3660295359:5441955839 :: ###################

    5460532696:7255941119 :: ###################

    7274673488:9069926399 :: ###################

  * 929101536:10883911679 :: #############################################################################################################



[H[2J
-----------------printing current job allocations-------------------
    22109112:906992639 :: #########

    1832717648:3627970559 :: ###################

    3660295359:5441955839 :: ###################

    5460532696:7255941119 :: ###################

    7274673488:9069926399 :: ###################

  * 929101536:10883911679 :: #############################################################################################################



