SRNFGPR: searching [D=1, R=0] space....
[H[2J
-----------------printing current job allocations (largest_remaining: 1813985279)-------------------
  * 00000000000000000000 : 00000000001813985279 :: ###########################################################

    00000000001813985280 : 00000000003627970559 :: ###########################################################

    00000000003627970560 : 00000000005441955839 :: ###########################################################

    00000000005441955840 : 00000000007255941119 :: ###########################################################

    00000000007255941120 : 00000000009069926399 :: ###########################################################

    00000000009069926400 : 00000000010883911679 :: ###########################################################



[H[2J
-----------------printing current job allocations (largest_remaining: 1802111338)-------------------
    00000000000018576856 : 00000000000906992639 :: #############################

    00000000001827632147 : 00000000003627970559 :: ###########################################################

  * 00000000003639844501 : 00000000005441955839 :: ###########################################################

    00000000005455447195 : 00000000007255941119 :: ###########################################################

    00000000007269587987 : 00000000009069926399 :: ###########################################################

    00000000000920483994 : 00000000001813985279 :: #############################



[H[2J
-----------------printing current job allocations (largest_remaining: 1795408423)-------------------
    00000000000022109112 : 00000000000906992639 :: #############################

    00000000001836318204 : 00000000003627970559 :: ###########################################################

    00000000003670303015 : 00000000005441955839 :: ##########################################################

  * 00000000005460532696 : 00000000007255941119 :: ###########################################################

    00000000007278274044 : 00000000009069926399 :: ###########################################################

    00000000000929101536 : 00000000001813985279 :: #############################



[H[2J
-----------------printing current job allocations (largest_remaining: 1791876167)-------------------
    00000000000062535744 : 00000000000906992639 :: ###########################

    00000000001839144780 : 00000000003627970559 :: ###########################################################

    00000000003682254713 : 00000000005441955839 :: ##########################################################

  * 00000000005464064952 : 00000000007255941119 :: ###########################################################

    00000000007281100620 : 00000000009069926399 :: ###########################################################

    00000000000931928112 : 00000000001813985279 :: #############################



[H[2J
-----------------printing current job allocations (largest_remaining: 1791876167)-------------------
    00000000000069394136 : 00000000000906992639 :: ###########################

    00000000001866746474 : 00000000003627970559 :: ##########################################################

    00000000003712021157 : 00000000005441955839 :: #########################################################

  * 00000000005464064952 : 00000000007255941119 :: ###########################################################

    00000000007318842214 : 00000000009069926399 :: #########################################################

    00000000000971301274 : 00000000001813985279 :: ###########################



[H[2J
-----------------printing current job allocations (largest_remaining: 1791876167)-------------------
    00000000000073402627 : 00000000000906992639 :: ###########################

    00000000001878985887 : 00000000003627970559 :: #########################################################

    00000000003723187454 : 00000000005441955839 :: ########################################################

  * 00000000005464064952 : 00000000007255941119 :: ###########################################################

    00000000007325933921 : 00000000009069926399 :: #########################################################

    00000000000980395266 : 00000000001813985279 :: ###########################



[H[2J
-----------------printing current job allocations (largest_remaining: 1789049591)-------------------
    00000000000113687285 : 00000000000906992639 :: ##########################

    00000000001888096624 : 00000000003627970559 :: #########################################################

    00000000003743591658 : 00000000005441955839 :: ########################################################

  * 00000000005466891528 : 00000000007255941119 :: ###########################################################

    00000000007329861457 : 00000000009069926399 :: #########################################################

    00000000000986316687 : 00000000001813985279 :: ###########################



[H[2J
-----------------printing current job allocations (largest_remaining: 1789049591)-------------------
    00000000000134853508 : 00000000000906992639 :: #########################

    00000000001899103466 : 00000000003627970559 :: #########################################################

    00000000003774050172 : 00000000005441955839 :: #######################################################

  * 00000000005466891528 : 00000000007255941119 :: ###########################################################

    00000000007361587936 : 00000000009069926399 :: ########################################################

    00000000001022367419 : 00000000001813985279 :: ##########################



[H[2J
-----------------printing current job allocations (largest_remaining: 1789049591)-------------------
    00000000000164293414 : 00000000000906992639 :: ########################

    00000000001918154644 : 00000000003627970559 :: ########################################################

    00000000003821227150 : 00000000005441955839 :: #####################################################

  * 00000000005466891528 : 00000000007255941119 :: ###########################################################

    00000000007371821143 : 00000000009069926399 :: ########################################################

    00000000001027452920 : 00000000001813985279 :: ##########################



[H[2J
-----------------printing current job allocations (largest_remaining: 1749676644)-------------------
    00000000000171105186 : 00000000000906992639 :: ########################

    00000000001933465572 : 00000000003627970559 :: ########################################################

    00000000003833178853 : 00000000005441955839 :: #####################################################

  * 00000000005506264475 : 00000000007255941119 :: #########################################################

    00000000007418943590 : 00000000009069926399 :: ######################################################

    00000000001078028013 : 00000000001813985279 :: ########################



[H[2J
-----------------printing current job allocations (largest_remaining: 1744591143)-------------------
    00000000000213354398 : 00000000000906992639 :: ######################

    00000000001977314106 : 00000000003627970559 :: ######################################################

    00000000003882167528 : 00000000005441955839 :: ###################################################

  * 00000000005511349976 : 00000000007255941119 :: #########################################################

    00000000007425802012 : 00000000009069926399 :: ######################################################

    00000000001082079419 : 00000000001813985279 :: ########################



[H[2J
-----------------printing current job allocations (largest_remaining: 1740582652)-------------------
    00000000000223713076 : 00000000000906992639 :: ######################

    00000000001979087032 : 00000000003627970559 :: ######################################################

    00000000003894142556 : 00000000005441955839 :: ###################################################

  * 00000000005515358467 : 00000000007255941119 :: #########################################################

    00000000007425802012 : 00000000009069926399 :: ######################################################

    00000000001121995936 : 00000000001813985279 :: ######################



[H[2J
-----------------printing current job allocations (largest_remaining: 1740582652)-------------------
    00000000000264210494 : 00000000000906992639 :: #####################

    00000000001984172533 : 00000000003627970559 :: ######################################################

    00000000003933146958 : 00000000005441955839 :: #################################################

  * 00000000005515358467 : 00000000007255941119 :: #########################################################

    00000000007432154069 : 00000000009069926399 :: ######################################################

    00000000001130585453 : 00000000001813985279 :: ######################



[H[2J
-----------------printing current job allocations (largest_remaining: 1734661231)-------------------
    00000000000271022261 : 00000000000906992639 :: #####################

    00000000001994099190 : 00000000003627970559 :: ######################################################

    00000000003943380165 : 00000000005441955839 :: #################################################

  * 00000000005521279888 : 00000000007255941119 :: #########################################################

    00000000007471597108 : 00000000009069926399 :: ####################################################

    00000000001171040075 : 00000000001813985279 :: #####################



[H[2J
-----------------printing current job allocations (largest_remaining: 1700616705)-------------------
    00000000000314738927 : 00000000000906992639 :: ###################

    00000000002009991272 : 00000000003627970559 :: #####################################################

    00000000003945106436 : 00000000005441955839 :: #################################################

  * 00000000005555324414 : 00000000007255941119 :: ########################################################

    00000000007480836180 : 00000000009069926399 :: ####################################################

    00000000001177898502 : 00000000001813985279 :: #####################



[H[2J
-----------------printing current job allocations (largest_remaining: 1693524998)-------------------
    00000000000314738927 : 00000000000906992639 :: ###################

    00000000002028669210 : 00000000003627970559 :: ####################################################

    00000000003950191937 : 00000000005441955839 :: #################################################

  * 00000000005562416121 : 00000000007255941119 :: ########################################################

    00000000007512678734 : 00000000009069926399 :: ###################################################

    00000000001221615168 : 00000000001813985279 :: ###################



[H[2J
-----------------printing current job allocations (largest_remaining: 1649808332)-------------------
    00000000000316519628 : 00000000000906992639 :: ###################

    00000000002039622148 : 00000000003627970559 :: ####################################################

    00000000003985650385 : 00000000005441955839 :: ################################################

  * 00000000005606132787 : 00000000007255941119 :: ######################################################

    00000000007522857506 : 00000000009069926399 :: ###################################################

    00000000001223341439 : 00000000001813985279 :: ###################



[H[2J
-----------------printing current job allocations (largest_remaining: 1642949905)-------------------
    00000000000321605129 : 00000000000906992639 :: ###################

    00000000002077923437 : 00000000003627970559 :: ###################################################

    00000000003994102891 : 00000000005441955839 :: ###############################################

  * 00000000005612991214 : 00000000007255941119 :: ######################################################

    00000000007570096689 : 00000000009069926399 :: #################################################

    00000000001228426940 : 00000000001813985279 :: ###################



[H[2J
-----------------printing current job allocations (largest_remaining: 1638898499)-------------------
    00000000000321605129 : 00000000000906992639 :: ###################

    00000000002118374175 : 00000000003627970559 :: #################################################

    00000000003999203942 : 00000000005441955839 :: ###############################################

  * 00000000005617042620 : 00000000007255941119 :: ######################################################

    00000000007570096689 : 00000000009069926399 :: #################################################

    00000000001232543056 : 00000000001813985279 :: ###################



[H[2J
-----------------printing current job allocations (largest_remaining: 1632666038)-------------------
    00000000000331694126 : 00000000000906992639 :: ###################

    00000000002120154876 : 00000000003627970559 :: #################################################

    00000000004012703068 : 00000000005441955839 :: ###############################################

  * 00000000005623275081 : 00000000007255941119 :: ######################################################

    00000000007571822960 : 00000000009069926399 :: #################################################

    00000000001243256858 : 00000000001813985279 :: ##################



[H[2J
-----------------printing current job allocations (largest_remaining: 1593896481)-------------------
    00000000000336497252 : 00000000000906992639 :: ##################

    00000000002128607382 : 00000000003627970559 :: #################################################

    00000000004034662205 : 00000000005441955839 :: ##############################################

  * 00000000005662044638 : 00000000007255941119 :: ####################################################

    00000000007576955116 : 00000000009069926399 :: #################################################

    00000000001274493015 : 00000000001813985279 :: #################



[H[2J
-----------------printing current job allocations (largest_remaining: 1587558114)-------------------
    00000000000365882728 : 00000000000906992639 :: #################

    00000000002130333653 : 00000000003627970559 :: #################################################

    00000000004044840982 : 00000000005441955839 :: ##############################################

  * 00000000005668383005 : 00000000007255941119 :: ####################################################

    00000000007576955116 : 00000000009069926399 :: #################################################

    00000000001279578516 : 00000000001813985279 :: #################



[H[2J
-----------------printing current job allocations (largest_remaining: 1549937843)-------------------
    00000000000367608999 : 00000000000906992639 :: #################

    00000000002130333653 : 00000000003627970559 :: #################################################

    00000000004049926483 : 00000000005441955839 :: ##############################################

  * 00000000005706003276 : 00000000007255941119 :: ###################################################

    00000000007580477147 : 00000000009069926399 :: #################################################

    00000000001283620207 : 00000000001813985279 :: #################



[H[2J
-----------------printing current job allocations (largest_remaining: 1543079416)-------------------
    00000000000367608999 : 00000000000906992639 :: #################

    00000000002135419154 : 00000000003627970559 :: #################################################

    00000000004063635554 : 00000000005441955839 :: #############################################

  * 00000000005712861703 : 00000000007255941119 :: ###################################################

    00000000007583311498 : 00000000009069926399 :: #################################################

    00000000001294633924 : 00000000001813985279 :: #################



[H[2J
-----------------printing current job allocations (largest_remaining: 1543079416)-------------------
    00000000000376849891 : 00000000000906992639 :: #################

    00000000002135419154 : 00000000003627970559 :: #################################################

    00000000004093728580 : 00000000005441955839 :: ############################################

  * 00000000005712861703 : 00000000007255941119 :: ###################################################

    00000000007612616906 : 00000000009069926399 :: ################################################

    00000000001323583955 : 00000000001813985279 :: ################



[H[2J
-----------------printing current job allocations (largest_remaining: 1499362750)-------------------
    00000000000414973673 : 00000000000906992639 :: ################

    00000000002139525990 : 00000000003627970559 :: #################################################

    00000000004093728580 : 00000000005441955839 :: ############################################

  * 00000000005756578369 : 00000000007255941119 :: #################################################

    00000000007621069412 : 00000000009069926399 :: ###############################################

    00000000001328669456 : 00000000001813985279 :: ################



[H[2J
-----------------printing current job allocations (largest_remaining: 1499362750)-------------------
    00000000000414973673 : 00000000000906992639 :: ################

    00000000002169634608 : 00000000003627970559 :: ################################################

    00000000004093728580 : 00000000005441955839 :: ############################################

  * 00000000005756578369 : 00000000007255941119 :: #################################################

    00000000007622850113 : 00000000009069926399 :: ###############################################

    00000000001372471553 : 00000000001813985279 :: ##############



[H[2J
-----------------printing current job allocations (largest_remaining: 1497636479)-------------------
    00000000000416746599 : 00000000000906992639 :: ################

    00000000002171415309 : 00000000003627970559 :: ################################################

    00000000004095454851 : 00000000005441955839 :: ############################################

  * 00000000005758304640 : 00000000007255941119 :: #################################################

    00000000007622850113 : 00000000009069926399 :: ###############################################

    00000000001372471553 : 00000000001813985279 :: ##############



[H[2J
-----------------printing current job allocations (largest_remaining: 1497636479)-------------------
    00000000000421832100 : 00000000000906992639 :: ################

    00000000002179867815 : 00000000003627970559 :: ###############################################

    00000000004095454851 : 00000000005441955839 :: ############################################

  * 00000000005758304640 : 00000000007255941119 :: #################################################

    00000000007627935614 : 00000000009069926399 :: ###############################################

    00000000001374197824 : 00000000001813985279 :: ##############



[H[2J
-----------------printing current job allocations (largest_remaining: 1497636479)-------------------
    00000000000435416721 : 00000000000906992639 :: ###############

    00000000002179867815 : 00000000003627970559 :: ###############################################

    00000000004100540352 : 00000000005441955839 :: ############################################

  * 00000000005758304640 : 00000000007255941119 :: #################################################

    00000000007627935614 : 00000000009069926399 :: ###############################################

    00000000001379283325 : 00000000001813985279 :: ##############



[H[2J
-----------------printing current job allocations (largest_remaining: 1492550978)-------------------
    00000000000465587537 : 00000000000906992639 :: ##############

    00000000002181594086 : 00000000003627970559 :: ###############################################

    00000000004100540352 : 00000000005441955839 :: ############################################

  * 00000000005763390141 : 00000000007255941119 :: #################################################

    00000000007638024821 : 00000000009069926399 :: ###############################################

    00000000001379283325 : 00000000001813985279 :: ##############



[H[2J
-----------------printing current job allocations (largest_remaining: 1492550978)-------------------
    00000000000465587537 : 00000000000906992639 :: ##############

    00000000002181594086 : 00000000003627970559 :: ###############################################

    00000000004100540352 : 00000000005441955839 :: ############################################

  * 00000000005763390141 : 00000000007255941119 :: #################################################

    00000000007663869564 : 00000000009069926399 :: ##############################################

    00000000001382901101 : 00000000001813985279 :: ##############



[H[2J
-----------------printing current job allocations (largest_remaining: 1492550978)-------------------
    00000000000465587537 : 00000000000906992639 :: ##############

    00000000002186679587 : 00000000003627970559 :: ###############################################

    00000000004135967799 : 00000000005441955839 :: ###########################################

  * 00000000005763390141 : 00000000007255941119 :: #################################################

    00000000007672322070 : 00000000009069926399 :: ##############################################

    00000000001389110232 : 00000000001813985279 :: ##############



[H[2J
-----------------printing current job allocations (largest_remaining: 1492550978)-------------------
    00000000000465587537 : 00000000000906992639 :: ##############

    00000000002198702409 : 00000000003627970559 :: ###############################################

    00000000004144420300 : 00000000005441955839 :: ##########################################

  * 00000000005763390141 : 00000000007255941119 :: #################################################

    00000000007672322070 : 00000000009069926399 :: ##############################################

    00000000001423242178 : 00000000001813985279 :: ############



[H[2J
-----------------printing current job allocations (largest_remaining: 1488434862)-------------------
    00000000000467313808 : 00000000000906992639 :: ##############

    00000000002229122042 : 00000000003627970559 :: ##############################################

    00000000004146426506 : 00000000005441955839 :: ##########################################

  * 00000000005767506257 : 00000000007255941119 :: #################################################

    00000000007674094996 : 00000000009069926399 :: ##############################################

    00000000001430108380 : 00000000001813985279 :: ############



[H[2J
-----------------printing current job allocations (largest_remaining: 1488434862)-------------------
    00000000000467313808 : 00000000000906992639 :: ##############

    00000000002229122042 : 00000000003627970559 :: ##############################################

    00000000004165812028 : 00000000005441955839 :: ##########################################

  * 00000000005767506257 : 00000000007255941119 :: #################################################

    00000000007674094996 : 00000000009069926399 :: ##############################################

    00000000001434202601 : 00000000001813985279 :: ############



[H[2J
-----------------printing current job allocations (largest_remaining: 1488434862)-------------------
    00000000000467313808 : 00000000000906992639 :: ##############

    00000000002230848313 : 00000000003627970559 :: ##############################################

    00000000004186970490 : 00000000005441955839 :: #########################################

  * 00000000005767506257 : 00000000007255941119 :: #################################################

    00000000007721217438 : 00000000009069926399 :: ############################################

    00000000001444946073 : 00000000001813985279 :: ############



[H[2J
-----------------printing current job allocations (largest_remaining: 1482521216)-------------------
    00000000000467313808 : 00000000000906992639 :: ##############

    00000000002230848313 : 00000000003627970559 :: ##############################################

    00000000004195422996 : 00000000005441955839 :: #########################################

  * 00000000005773419903 : 00000000007255941119 :: #################################################

    00000000007721217438 : 00000000009069926399 :: ############################################

    00000000001476112250 : 00000000001813985279 :: ###########



[H[2J
-----------------printing current job allocations (largest_remaining: 1482521216)-------------------
    00000000000472445964 : 00000000000906992639 :: ##############

    00000000002235933814 : 00000000003627970559 :: ##############################################

    00000000004197149267 : 00000000005441955839 :: #########################################

  * 00000000005773419903 : 00000000007255941119 :: #################################################

    00000000007721217438 : 00000000009069926399 :: ############################################

    00000000001481197536 : 00000000001813985279 :: ###########



[H[2J
-----------------printing current job allocations (largest_remaining: 1392036745)-------------------
    00000000000472445964 : 00000000000906992639 :: ##############

  * 00000000002235933814 : 00000000003627970559 :: ##############################################

    00000000004235920394 : 00000000005441955839 :: #######################################

    00000000005773419903 : 00000000006514680510 :: ########################

    00000000007721217438 : 00000000009069926399 :: ############################################

    00000000006523388488 : 00000000007255941119 :: ########################



[H[2J
-----------------printing current job allocations (largest_remaining: 1378335454)-------------------
    00000000000472445964 : 00000000000906992639 :: ##############

  * 00000000002249635105 : 00000000003627970559 :: #############################################

    00000000004246122491 : 00000000005441955839 :: #######################################

    00000000005807644479 : 00000000006514680510 :: #######################

    00000000007721217438 : 00000000009069926399 :: ############################################

    00000000006529309909 : 00000000007255941119 :: ########################



[H[2J
-----------------printing current job allocations (largest_remaining: 1378335454)-------------------
    00000000000472445964 : 00000000000906992639 :: ##############

  * 00000000002249635105 : 00000000003627970559 :: #############################################

    00000000004284932394 : 00000000005441955839 :: ######################################

    00000000005807644479 : 00000000006514680510 :: #######################

    00000000007722943709 : 00000000009069926399 :: ############################################

    00000000006570368547 : 00000000007255941119 :: ######################



[H[2J
-----------------printing current job allocations (largest_remaining: 1348242638)-------------------
    00000000000482339876 : 00000000000906992639 :: ##############

  * 00000000002279727921 : 00000000003627970559 :: ############################################

    00000000004296845217 : 00000000005441955839 :: #####################################

    00000000005809370750 : 00000000006514680510 :: #######################

    00000000007722943709 : 00000000009069926399 :: ############################################

    00000000006580650294 : 00000000007255941119 :: ######################



[H[2J
-----------------printing current job allocations (largest_remaining: 1348242638)-------------------
    00000000000516420372 : 00000000000906992639 :: ############

  * 00000000002279727921 : 00000000003627970559 :: ############################################

    00000000004335655155 : 00000000005441955839 :: ####################################

    00000000005809370750 : 00000000006514680510 :: #######################

    00000000007722943709 : 00000000009069926399 :: ############################################

    00000000006619420676 : 00000000007255941119 :: #####################



[H[2J
-----------------printing current job allocations (largest_remaining: 1348242638)-------------------
    00000000000518146638 : 00000000000906992639 :: ############

  * 00000000002279727921 : 00000000003627970559 :: ############################################

    00000000004347630178 : 00000000005441955839 :: ####################################

    00000000005809370750 : 00000000006514680510 :: #######################

    00000000007722943709 : 00000000009069926399 :: ############################################

    00000000006663137342 : 00000000007255941119 :: ###################



[H[2J
-----------------printing current job allocations (largest_remaining: 1348242638)-------------------
    00000000000518146638 : 00000000000906992639 :: ############

  * 00000000002279727921 : 00000000003627970559 :: ############################################

    00000000004398438551 : 00000000005441955839 :: ##################################

    00000000005809370750 : 00000000006514680510 :: #######################

    00000000007728029210 : 00000000009069926399 :: ############################################

    00000000006663137342 : 00000000007255941119 :: ###################



[H[2J
-----------------printing current job allocations (largest_remaining: 1348242638)-------------------
    00000000000523512074 : 00000000000906992639 :: ############

  * 00000000002279727921 : 00000000003627970559 :: ############################################

    00000000004437209678 : 00000000005441955839 :: #################################

    00000000005814502906 : 00000000006514680510 :: #######################

    00000000007728029210 : 00000000009069926399 :: ############################################

    00000000006669995764 : 00000000007255941119 :: ###################



[H[2J
-----------------printing current job allocations (largest_remaining: 1346516367)-------------------
    00000000000538139597 : 00000000000906992639 :: ############

  * 00000000002281454192 : 00000000003627970559 :: ############################################

    00000000004454254617 : 00000000005441955839 :: ################################

    00000000005814502906 : 00000000006514680510 :: #######################

    00000000007728029210 : 00000000009069926399 :: ############################################

    00000000006669995764 : 00000000007255941119 :: ###################



[H[2J
-----------------printing current job allocations (largest_remaining: 1346516367)-------------------
    00000000000538139597 : 00000000000906992639 :: ############

  * 00000000002281454192 : 00000000003627970559 :: ############################################

    00000000004487947949 : 00000000005441955839 :: ###############################

    00000000005818526532 : 00000000006514680510 :: #######################

    00000000007728029210 : 00000000009069926399 :: ############################################

    00000000006669995764 : 00000000007255941119 :: ###################



[H[2J
-----------------printing current job allocations (largest_remaining: 1346516367)-------------------
    00000000000567509528 : 00000000000906992639 :: ###########

  * 00000000002281454192 : 00000000003627970559 :: ############################################

    00000000004503258882 : 00000000005441955839 :: ###############################

    00000000005824720113 : 00000000006514680510 :: ######################

    00000000007728029210 : 00000000009069926399 :: ############################################

    00000000006673532020 : 00000000007255941119 :: ###################



[H[2J
-----------------printing current job allocations (largest_remaining: 1346516367)-------------------
    00000000000569235799 : 00000000000906992639 :: ###########

  * 00000000002281454192 : 00000000003627970559 :: ############################################

    00000000004599276907 : 00000000005441955839 :: ###########################

    00000000005824720113 : 00000000006514680510 :: ######################

    00000000007728029210 : 00000000009069926399 :: ############################################

    00000000006673532020 : 00000000007255941119 :: ###################



[H[2J
-----------------printing current job allocations (largest_remaining: 1346516367)-------------------
    00000000000569235799 : 00000000000906992639 :: ###########

  * 00000000002281454192 : 00000000003627970559 :: ############################################

    00000000004654906396 : 00000000005441955839 :: ##########################

    00000000005824720113 : 00000000006514680510 :: ######################

    00000000007734403792 : 00000000009069926399 :: ############################################

    00000000006673532020 : 00000000007255941119 :: ###################



[H[2J
-----------------printing current job allocations (largest_remaining: 1346516367)-------------------
    00000000000618084616 : 00000000000906992639 :: #########

  * 00000000002281454192 : 00000000003627970559 :: ############################################

    00000000004751204356 : 00000000005441955839 :: ######################

    00000000005858461759 : 00000000006514680510 :: #####################

    00000000007763698669 : 00000000009069926399 :: ###########################################

    00000000006676413026 : 00000000007255941119 :: ###################



[H[2J
-----------------printing current job allocations (largest_remaining: 1341430866)-------------------
    00000000000636677023 : 00000000000906992639 :: ########

  * 00000000002286539693 : 00000000003627970559 :: ############################################

    00000000004806864950 : 00000000005441955839 :: #####################

    00000000005858461759 : 00000000006514680510 :: #####################

    00000000007772151170 : 00000000009069926399 :: ##########################################

    00000000006676413026 : 00000000007255941119 :: ###################



[H[2J
-----------------printing current job allocations (largest_remaining: 1341430866)-------------------
    00000000000673791796 : 00000000000906992639 :: #######

  * 00000000002286539693 : 00000000003627970559 :: ############################################

    00000000004842284617 : 00000000005441955839 :: ###################

    00000000005863555035 : 00000000006514680510 :: #####################

    00000000007773877441 : 00000000009069926399 :: ##########################################

    00000000006676413026 : 00000000007255941119 :: ###################



[H[2J
-----------------printing current job allocations (largest_remaining: 1341430866)-------------------
    00000000000719265734 : 00000000000906992639 :: ######

  * 00000000002286539693 : 00000000003627970559 :: ############################################

    00000000004855830364 : 00000000005441955839 :: ###################

    00000000005863555035 : 00000000006514680510 :: #####################

    00000000007773877441 : 00000000009069926399 :: ##########################################

    00000000006713954657 : 00000000007255941119 :: #################



[H[2J
-----------------printing current job allocations (largest_remaining: 1341430866)-------------------
    00000000000768153367 : 00000000000906992639 :: ####

  * 00000000002286539693 : 00000000003627970559 :: ############################################

    00000000004889554801 : 00000000005441955839 :: ##################

    00000000005863555035 : 00000000006514680510 :: #####################

    00000000007778962907 : 00000000009069926399 :: ##########################################

    00000000006713954657 : 00000000007255941119 :: #################



[H[2J
-----------------printing current job allocations (largest_remaining: 1331421534)-------------------
    00000000000769879638 : 00000000000906992639 :: ####

  * 00000000002296549025 : 00000000003627970559 :: ############################################

    00000000004891288847 : 00000000005441955839 :: ##################

    00000000005863555035 : 00000000006514680510 :: #####################

    00000000007783093678 : 00000000009069926399 :: ##########################################

    00000000006715680928 : 00000000007255941119 :: #################



[H[2J
-----------------printing current job allocations (largest_remaining: 1305520177)-------------------
    00000000000818736230 : 00000000000906992639 :: ##

  * 00000000002322450382 : 00000000003627970559 :: ###########################################

    00000000004901467624 : 00000000005441955839 :: #################

    00000000005863555035 : 00000000006514680510 :: #####################

    00000000007814959062 : 00000000009069926399 :: #########################################

    00000000006720766429 : 00000000007255941119 :: #################



[H[2J
-----------------printing current job allocations (largest_remaining: 1305520177)-------------------
    00000000000840120148 : 00000000000906992639 :: ##

  * 00000000002322450382 : 00000000003627970559 :: ###########################################

    00000000004920285516 : 00000000005441955839 :: #################

    00000000005907271701 : 00000000006514680510 :: ####################

    00000000007814959062 : 00000000009069926399 :: #########################################

    00000000006720766429 : 00000000007255941119 :: #################



[H[2J
-----------------printing current job allocations (largest_remaining: 1297021016)-------------------
    00000000000871356305 : 00000000000906992639 :: #

  * 00000000002330949543 : 00000000003627970559 :: ##########################################

    00000000004942011603 : 00000000005441955839 :: ################

    00000000005907271701 : 00000000006514680510 :: ####################

    00000000007823411568 : 00000000009069926399 :: #########################################

    00000000006720766429 : 00000000007255941119 :: #################



[H[2J
-----------------printing current job allocations (largest_remaining: 1244788560)-------------------
    00000000002987812422 : 00000000003627970559 :: #####################

    00000000002332675814 : 00000000002979460050 :: #####################

    00000000004952205895 : 00000000005441955839 :: ################

    00000000005907271701 : 00000000006514680510 :: ####################

  * 00000000007825137839 : 00000000009069926399 :: #########################################

    00000000006724872400 : 00000000007255941119 :: #################



[H[2J
-----------------printing current job allocations (largest_remaining: 1244788560)-------------------
    00000000003026583544 : 00000000003627970559 :: ###################

    00000000002332675814 : 00000000002979460050 :: #####################

    00000000004957338051 : 00000000005441955839 :: ################

    00000000005908997972 : 00000000006514680510 :: ####################

  * 00000000007825137839 : 00000000009069926399 :: #########################################

    00000000006730793821 : 00000000007255941119 :: #################



[H[2J
-----------------printing current job allocations (largest_remaining: 1239703059)-------------------
    00000000003028317590 : 00000000003627970559 :: ###################

    00000000002332675814 : 00000000002979460050 :: #####################

    00000000004971793382 : 00000000005441955839 :: ###############

    00000000005908997972 : 00000000006514680510 :: ####################

  * 00000000007830223340 : 00000000009069926399 :: #########################################

    00000000006730793821 : 00000000007255941119 :: #################



[H[2J
-----------------printing current job allocations (largest_remaining: 1197549377)-------------------
    00000000003036785646 : 00000000003627970559 :: ###################

    00000000002341871691 : 00000000002979460050 :: #####################

    00000000005001373248 : 00000000005441955839 :: ##############

    00000000005914130128 : 00000000006514680510 :: ###################

  * 00000000007872377022 : 00000000009069926399 :: #######################################

    00000000006730793821 : 00000000007255941119 :: #################



[H[2J
-----------------printing current job allocations (largest_remaining: 1190737605)-------------------
    00000000003041871147 : 00000000003627970559 :: ###################

    00000000002380203770 : 00000000002979460050 :: ###################

    00000000005003099519 : 00000000005441955839 :: ##############

    00000000005914130128 : 00000000006514680510 :: ###################

  * 00000000007879188794 : 00000000009069926399 :: #######################################

    00000000006765020552 : 00000000007255941119 :: ################



[H[2J
-----------------printing current job allocations (largest_remaining: 1155279127)-------------------
    00000000003045387228 : 00000000003627970559 :: ###################

    00000000002380203770 : 00000000002979460050 :: ###################

    00000000005008185020 : 00000000005441955839 :: ##############

    00000000005914130128 : 00000000006514680510 :: ###################

  * 00000000007914647272 : 00000000009069926399 :: ######################################

    00000000006766746823 : 00000000007255941119 :: ################



[H[2J
-----------------printing current job allocations (largest_remaining: 1145092575)-------------------
    00000000003075791116 : 00000000003627970559 :: ##################

    00000000002381930041 : 00000000002979460050 :: ###################

    00000000005041870646 : 00000000005441955839 :: #############

    00000000005914130128 : 00000000006514680510 :: ###################

  * 00000000007924833824 : 00000000009069926399 :: #####################################

    00000000006771878979 : 00000000007255941119 :: ################



[H[2J
-----------------printing current job allocations (largest_remaining: 1139960419)-------------------
    00000000003086024323 : 00000000003627970559 :: #################

    00000000002381930041 : 00000000002979460050 :: ###################

    00000000005052057193 : 00000000005441955839 :: ############

    00000000005920476365 : 00000000006514680510 :: ###################

  * 00000000007929965980 : 00000000009069926399 :: #####################################

    00000000006771878979 : 00000000007255941119 :: ################



[H[2J
-----------------printing current job allocations (largest_remaining: 1104548626)-------------------
    00000000003087750594 : 00000000003627970559 :: #################

    00000000002387015537 : 00000000002979460050 :: ###################

    00000000005053783464 : 00000000005441955839 :: ############

    00000000005920476365 : 00000000006514680510 :: ###################

  * 00000000007965377773 : 00000000009069926399 :: ####################################

    00000000006771878979 : 00000000007255941119 :: ################



[H[2J
-----------------printing current job allocations (largest_remaining: 1094315419)-------------------
    00000000003092836095 : 00000000003627970559 :: #################

    00000000002387015537 : 00000000002979460050 :: ###################

    00000000005092608917 : 00000000005441955839 :: ###########

    00000000005958096791 : 00000000006514680510 :: ##################

  * 00000000007975610980 : 00000000009069926399 :: ####################################

    00000000006815595640 : 00000000007255941119 :: ##############



[H[2J
-----------------printing current job allocations (largest_remaining: 1074665517)-------------------
    00000000003096968376 : 00000000003627970559 :: #################

    00000000002420654508 : 00000000002979460050 :: ##################

    00000000005101061423 : 00000000005441955839 :: ###########

    00000000005958096791 : 00000000006514680510 :: ##################

  * 00000000007995260882 : 00000000009069926399 :: ###################################

    00000000006817321911 : 00000000007255941119 :: ##############



[H[2J
-----------------printing current job allocations (largest_remaining: 1045194511)-------------------
    00000000003107674868 : 00000000003627970559 :: #################

    00000000002432613986 : 00000000002979460050 :: ##################

    00000000005107919850 : 00000000005441955839 :: ###########

    00000000005959823062 : 00000000006514680510 :: ##################

  * 00000000008024731888 : 00000000009069926399 :: ##################################

    00000000006817321911 : 00000000007255941119 :: ##############



[H[2J
-----------------printing current job allocations (largest_remaining: 554857448)-------------------
    00000000003128833330 : 00000000003627970559 :: ################

    00000000002471377269 : 00000000002979460050 :: ################

    00000000008569748280 : 00000000009069926399 :: ################

  * 00000000005959823062 : 00000000006514680510 :: ##################

    00000000008026458159 : 00000000008547329143 :: #################

    00000000006822407412 : 00000000007255941119 :: ##############



[H[2J
-----------------printing current job allocations (largest_remaining: 554857448)-------------------
    00000000003137285836 : 00000000003627970559 :: ################

    00000000002483632227 : 00000000002979460050 :: ################

    00000000008578208556 : 00000000009069926399 :: ################

  * 00000000005959823062 : 00000000006514680510 :: ##################

    00000000008026458159 : 00000000008547329143 :: #################

    00000000006826556553 : 00000000007255941119 :: ##############



[H[2J
-----------------printing current job allocations (largest_remaining: 554857448)-------------------
    00000000003139012107 : 00000000003627970559 :: ################

    00000000002522442130 : 00000000002979460050 :: ###############

    00000000008579981482 : 00000000009069926399 :: ################

  * 00000000005959823062 : 00000000006514680510 :: ##################

    00000000008065229286 : 00000000008547329143 :: ###############

    00000000006864649069 : 00000000007255941119 :: ############



[H[2J
-----------------printing current job allocations (largest_remaining: 549771947)-------------------
    00000000003158903014 : 00000000003627970559 :: ###############

    00000000002534354953 : 00000000002979460050 :: ##############

    00000000008585066983 : 00000000009069926399 :: ################

  * 00000000005964908563 : 00000000006514680510 :: ##################

    00000000008075415838 : 00000000008547329143 :: ###############

    00000000006864649069 : 00000000007255941119 :: ############



[H[2J
-----------------printing current job allocations (largest_remaining: 549771947)-------------------
    00000000003158903014 : 00000000003627970559 :: ###############

    00000000002554245895 : 00000000002979460050 :: ##############

    00000000008599141514 : 00000000009069926399 :: ###############

  * 00000000005964908563 : 00000000006514680510 :: ##################

    00000000008077188764 : 00000000008547329143 :: ###############

    00000000006866375340 : 00000000007255941119 :: ############



[H[2J
-----------------printing current job allocations (largest_remaining: 545690336)-------------------
    00000000003158903014 : 00000000003627970559 :: ###############

    00000000002583242586 : 00000000002979460050 :: #############

    00000000008599141514 : 00000000009069926399 :: ###############

  * 00000000005968990174 : 00000000006514680510 :: ##################

    00000000008124427838 : 00000000008547329143 :: #############

    00000000006871507491 : 00000000007255941119 :: ############



[H[2J
-----------------printing current job allocations (largest_remaining: 539768915)-------------------
    00000000003158903014 : 00000000003627970559 :: ###############

    00000000002588335862 : 00000000002979460050 :: ############

    00000000008628814650 : 00000000009069926399 :: ##############

  * 00000000005974911595 : 00000000006514680510 :: #################

    00000000008126200764 : 00000000008547329143 :: #############

    00000000006871507491 : 00000000007255941119 :: ############



[H[2J
-----------------printing current job allocations (largest_remaining: 539768915)-------------------
    00000000003187899705 : 00000000003627970559 :: ##############

    00000000002623755529 : 00000000002979460050 :: ###########

    00000000008628814650 : 00000000009069926399 :: ##############

  * 00000000005974911595 : 00000000006514680510 :: #################

    00000000008131286265 : 00000000008547329143 :: #############

    00000000006875015932 : 00000000007255941119 :: ############



[H[2J
-----------------printing current job allocations (largest_remaining: 505525384)-------------------
    00000000003192992981 : 00000000003627970559 :: ##############

    00000000002639019772 : 00000000002979460050 :: ###########

    00000000008628814650 : 00000000009069926399 :: ##############

  * 00000000006009155126 : 00000000006514680510 :: ################

    00000000008176729202 : 00000000008547329143 :: ############

    00000000006877850283 : 00000000007255941119 :: ############



[H[2J
-----------------printing current job allocations (largest_remaining: 505525384)-------------------
    00000000003192992981 : 00000000003627970559 :: ##############

    00000000002674478255 : 00000000002979460050 :: ##########

    00000000008630556471 : 00000000009069926399 :: ##############

  * 00000000006009155126 : 00000000006514680510 :: ################

    00000000008181814703 : 00000000008547329143 :: ############

    00000000006915466349 : 00000000007255941119 :: ###########



[H[2J
-----------------printing current job allocations (largest_remaining: 503799113)-------------------
    00000000003192992981 : 00000000003627970559 :: ##############

    00000000002684664807 : 00000000002979460050 :: #########

    00000000008630556471 : 00000000009069926399 :: ##############

  * 00000000006010881397 : 00000000006514680510 :: ################

    00000000008185535369 : 00000000008547329143 :: ###########

    00000000006915466349 : 00000000007255941119 :: ###########



[H[2J
-----------------printing current job allocations (largest_remaining: 503799113)-------------------
    00000000003196442187 : 00000000003627970559 :: ##############

    00000000002733521399 : 00000000002979460050 :: ########

    00000000008635688627 : 00000000009069926399 :: ##############

  * 00000000006010881397 : 00000000006514680510 :: ################

    00000000008191736725 : 00000000008547329143 :: ###########

    00000000006917192620 : 00000000007255941119 :: ###########



[H[2J
-----------------printing current job allocations (largest_remaining: 503799113)-------------------
    00000000003228608185 : 00000000003627970559 :: #############

    00000000002740613106 : 00000000002979460050 :: #######

    00000000008635688627 : 00000000009069926399 :: ##############

  * 00000000006010881397 : 00000000006514680510 :: ################

    00000000008225827771 : 00000000008547329143 :: ##########

    00000000006922278121 : 00000000007255941119 :: ###########



[H[2J
-----------------printing current job allocations (largest_remaining: 430132991)-------------------
    00000000003237107346 : 00000000003627970559 :: ############

    00000000002744553137 : 00000000002979460050 :: #######

  * 00000000008639793408 : 00000000009069926399 :: ##############

    00000000006010881397 : 00000000006262780953 :: ########

    00000000008232919478 : 00000000008547329143 :: ##########

    00000000006266773838 : 00000000006514680510 :: ########



[H[2J
-----------------printing current job allocations (largest_remaining: 398342633)-------------------
    00000000003238833617 : 00000000003627970559 :: ############

    00000000002750746718 : 00000000002979460050 :: #######

  * 00000000008671583766 : 00000000009069926399 :: #############

    00000000006016013553 : 00000000006262780953 :: ########

    00000000008232919478 : 00000000008547329143 :: ##########

    00000000006312263430 : 00000000006514680510 :: ######



[H[2J
-----------------printing current job allocations (largest_remaining: 398342633)-------------------
    00000000003243919118 : 00000000003627970559 :: ############

    00000000002786298015 : 00000000002979460050 :: ######

  * 00000000008671583766 : 00000000009069926399 :: #############

    00000000006061456490 : 00000000006262780953 :: ######

    00000000008243038225 : 00000000008547329143 :: ##########

    00000000006361065597 : 00000000006514680510 :: #####



[H[2J
-----------------printing current job allocations (largest_remaining: 388163856)-------------------
    00000000003258741261 : 00000000003627970559 :: ############

    00000000002791430171 : 00000000002979460050 :: ######

  * 00000000008681762543 : 00000000009069926399 :: ############

    00000000006110258652 : 00000000006262780953 :: #####

    00000000008276879626 : 00000000008547329143 :: ########

    00000000006367924024 : 00000000006514680510 :: ####



[H[2J
-----------------printing current job allocations (largest_remaining: 388163856)-------------------
    00000000003279868618 : 00000000003627970559 :: ###########

    00000000002795574707 : 00000000002979460050 :: ######

  * 00000000008681762543 : 00000000009069926399 :: ############

    00000000006117117079 : 00000000006262780953 :: ####

    00000000008278605897 : 00000000008547329143 :: ########

    00000000006371908150 : 00000000006514680510 :: ####



[H[2J
-----------------printing current job allocations (largest_remaining: 383031700)-------------------
    00000000003288367779 : 00000000003627970559 :: ###########

    00000000002835398094 : 00000000002979460050 :: ####

  * 00000000008686894699 : 00000000009069926399 :: ############

    00000000006165927021 : 00000000006262780953 :: ###

    00000000008327454719 : 00000000008547329143 :: #######

    00000000006371908150 : 00000000006514680510 :: ####



[H[2J
-----------------printing current job allocations (largest_remaining: 349088406)-------------------
    00000000003290094050 : 00000000003627970559 :: ###########

    00000000002884200261 : 00000000002979460050 :: ###

  * 00000000008720837993 : 00000000009069926399 :: ###########

    00000000006211416613 : 00000000006262780953 :: #

    00000000008329180990 : 00000000008547329143 :: #######

    00000000006371908150 : 00000000006514680510 :: ####



[H[2J
-----------------printing current job allocations (largest_remaining: 170317949)-------------------
    00000000008468443420 : 00000000008547329143 :: ##

    00000000002891012033 : 00000000002979460050 :: ##

  * 00000000008729290499 : 00000000008899608448 :: #####

    00000000006260218740 : 00000000006262780953 :: 

    00000000008335966391 : 00000000008441647766 :: ###

    00000000006371908150 : 00000000006514680510 :: ####



[H[2J
-----------------printing current job allocations (largest_remaining: 83432703)-------------------
    00000000008470224121 : 00000000008547329143 :: ##

    00000000002900938200 : 00000000002979460050 :: ##

  * 00000000008731016770 : 00000000008814449473 :: ##

    00000000006464388362 : 00000000006514680510 :: #

    00000000008376514658 : 00000000008441647766 :: ##

    00000000006377829571 : 00000000006446255040 :: ##



[H[2J
-----------------printing current job allocations (largest_remaining: 58321336)-------------------
    00000000008478676622 : 00000000008513002882 :: #

    00000000002936759362 : 00000000002979460050 :: #

    00000000008736102271 : 00000000008775275871 :: #

    00000000008517622152 : 00000000008547329143 :: 

  * 00000000008383326430 : 00000000008441647766 :: #

    00000000006411891732 : 00000000006446255040 :: #



[H[2J
-----------------printing current job allocations (largest_remaining: 33438546)-------------------
    00000000008483777673 : 00000000008513002882 :: 

  * 00000000002946021504 : 00000000002979460050 :: #

    00000000008414310089 : 00000000008441647766 :: 

    00000000008527816474 : 00000000008547329143 :: 

    00000000008386972411 : 00000000008414310088 :: 

    00000000006418983439 : 00000000006446255040 :: 



[H[2J
-----------------printing current job allocations (largest_remaining: 12775275)-------------------
    00000000008483777673 : 00000000008491083974 :: 

    00000000008538084603 : 00000000008547329143 :: 

  * 00000000008428872491 : 00000000008441647766 :: 

    00000000008529589400 : 00000000008537572808 :: 

    00000000006425801339 : 00000000006432619239 :: 

    00000000006418983439 : 00000000006425801338 :: 



[H[2J
-----------------printing current job allocations (largest_remaining: 3501907)-------------------
    00000000008487224264 : 00000000008489154118 :: 

    00000000008533581104 : 00000000008535576955 :: 

    00000000008489154119 : 00000000008491083974 :: 

    00000000008529589400 : 00000000008531585251 :: 

  * 00000000006429117332 : 00000000006432619239 :: 

    00000000008535576956 : 00000000008537572808 :: 



[H[2J
-----------------printing current job allocations (largest_remaining: 60)-------------------
  * 00000000008534700540 : 00000000008534700600 :: 

    00000000008534700601 : 00000000008534700661 :: 

    00000000008534700479 : 00000000008534700539 :: 

    00000000008534579030 : 00000000008534579089 :: 

    00000000008534700358 : 00000000008534700417 :: 

    00000000008534700418 : 00000000008534700478 :: 



[H[2J
-----------------printing current job allocations (largest_remaining: 60)-------------------
  * 00000000008534700540 : 00000000008534700600 :: 

    00000000008534700601 : 00000000008534700661 :: 

    00000000008534700479 : 00000000008534700539 :: 

    00000000008534579030 : 00000000008534579089 :: 

    00000000008534700358 : 00000000008534700417 :: 

    00000000008534700418 : 00000000008534700478 :: 



[H[2J
-----------------printing current job allocations (largest_remaining: 60)-------------------
  * 00000000008534700540 : 00000000008534700600 :: 

    00000000008534700601 : 00000000008534700661 :: 

    00000000008534700479 : 00000000008534700539 :: 

    00000000008534579030 : 00000000008534579089 :: 

    00000000008534700358 : 00000000008534700417 :: 

    00000000008534700418 : 00000000008534700478 :: 



[H[2J
-----------------printing current job allocations (largest_remaining: 60)-------------------
  * 00000000008534700540 : 00000000008534700600 :: 

    00000000008534700601 : 00000000008534700661 :: 

    00000000008534700479 : 00000000008534700539 :: 

    00000000008534579030 : 00000000008534579089 :: 

    00000000008534700358 : 00000000008534700417 :: 

    00000000008534700418 : 00000000008534700478 :: 



[H[2J
-----------------printing current job allocations (largest_remaining: 60)-------------------
  * 00000000008534700540 : 00000000008534700600 :: 

    00000000008534700601 : 00000000008534700661 :: 

    00000000008534700479 : 00000000008534700539 :: 

    00000000008534579030 : 00000000008534579089 :: 

    00000000008534700358 : 00000000008534700417 :: 

    00000000008534700418 : 00000000008534700478 :: 



[H[2J
-----------------printing current job allocations (largest_remaining: 60)-------------------
  * 00000000008534700540 : 00000000008534700600 :: 

    00000000008534700601 : 00000000008534700661 :: 

    00000000008534700479 : 00000000008534700539 :: 

    00000000008534579030 : 00000000008534579089 :: 

    00000000008534700358 : 00000000008534700417 :: 

    00000000008534700418 : 00000000008534700478 :: 



[H[2J
-----------------printing current job allocations (largest_remaining: 60)-------------------
  * 00000000008534700540 : 00000000008534700600 :: 

    00000000008534700601 : 00000000008534700661 :: 

    00000000008534700479 : 00000000008534700539 :: 

    00000000008534579030 : 00000000008534579089 :: 

    00000000008534700358 : 00000000008534700417 :: 

    00000000008534700418 : 00000000008534700478 :: 



[H[2J
-----------------printing current job allocations (largest_remaining: 60)-------------------
  * 00000000008534700540 : 00000000008534700600 :: 

    00000000008534700601 : 00000000008534700661 :: 

    00000000008534700479 : 00000000008534700539 :: 

    00000000008534579030 : 00000000008534579089 :: 

    00000000008534700358 : 00000000008534700417 :: 

    00000000008534700418 : 00000000008534700478 :: 



[H[2J
-----------------printing current job allocations (largest_remaining: 60)-------------------
  * 00000000008534700540 : 00000000008534700600 :: 

    00000000008534700601 : 00000000008534700661 :: 

    00000000008534700479 : 00000000008534700539 :: 

    00000000008534579030 : 00000000008534579089 :: 

    00000000008534700358 : 00000000008534700417 :: 

    00000000008534700418 : 00000000008534700478 :: 



[H[2J
-----------------printing current job allocations (largest_remaining: 60)-------------------
  * 00000000008534700540 : 00000000008534700600 :: 

    00000000008534700601 : 00000000008534700661 :: 

    00000000008534700479 : 00000000008534700539 :: 

    00000000008534579030 : 00000000008534579089 :: 

    00000000008534700358 : 00000000008534700417 :: 

    00000000008534700418 : 00000000008534700478 :: 



[H[2J
-----------------printing current job allocations (largest_remaining: 60)-------------------
  * 00000000008534700540 : 00000000008534700600 :: 

    00000000008534700601 : 00000000008534700661 :: 

    00000000008534700479 : 00000000008534700539 :: 

    00000000008534579030 : 00000000008534579089 :: 

    00000000008534700358 : 00000000008534700417 :: 

    00000000008534700418 : 00000000008534700478 :: 



[H[2J
-----------------printing current job allocations (largest_remaining: 60)-------------------
  * 00000000008534700540 : 00000000008534700600 :: 

    00000000008534700601 : 00000000008534700661 :: 

    00000000008534700479 : 00000000008534700539 :: 

    00000000008534579030 : 00000000008534579089 :: 

    00000000008534700358 : 00000000008534700417 :: 

    00000000008534700418 : 00000000008534700478 :: 



[H[2J
-----------------printing current job allocations (largest_remaining: 60)-------------------
  * 00000000008534700540 : 00000000008534700600 :: 

    00000000008534700601 : 00000000008534700661 :: 

    00000000008534700479 : 00000000008534700539 :: 

    00000000008534579030 : 00000000008534579089 :: 

    00000000008534700358 : 00000000008534700417 :: 

    00000000008534700418 : 00000000008534700478 :: 



[H[2J
-----------------printing current job allocations (largest_remaining: 60)-------------------
  * 00000000008534700540 : 00000000008534700600 :: 

    00000000008534700601 : 00000000008534700661 :: 

    00000000008534700479 : 00000000008534700539 :: 

    00000000008534579030 : 00000000008534579089 :: 

    00000000008534700358 : 00000000008534700417 :: 

    00000000008534700418 : 00000000008534700478 :: 



[H[2J
-----------------printing current job allocations (largest_remaining: 60)-------------------
  * 00000000008534700540 : 00000000008534700600 :: 

    00000000008534700601 : 00000000008534700661 :: 

    00000000008534700479 : 00000000008534700539 :: 

    00000000008534579030 : 00000000008534579089 :: 

    00000000008534700358 : 00000000008534700417 :: 

    00000000008534700418 : 00000000008534700478 :: 



[H[2J
-----------------printing current job allocations (largest_remaining: 60)-------------------
  * 00000000008534700540 : 00000000008534700600 :: 

    00000000008534700601 : 00000000008534700661 :: 

    00000000008534700479 : 00000000008534700539 :: 

    00000000008534579030 : 00000000008534579089 :: 

    00000000008534700358 : 00000000008534700417 :: 

    00000000008534700418 : 00000000008534700478 :: 



[H[2J
-----------------printing current job allocations (largest_remaining: 60)-------------------
  * 00000000008534700540 : 00000000008534700600 :: 

    00000000008534700601 : 00000000008534700661 :: 

    00000000008534700479 : 00000000008534700539 :: 

    00000000008534579030 : 00000000008534579089 :: 

    00000000008534700358 : 00000000008534700417 :: 

    00000000008534700418 : 00000000008534700478 :: 



[H[2J
-----------------printing current job allocations (largest_remaining: 60)-------------------
  * 00000000008534700540 : 00000000008534700600 :: 

    00000000008534700601 : 00000000008534700661 :: 

    00000000008534700479 : 00000000008534700539 :: 

    00000000008534579030 : 00000000008534579089 :: 

    00000000008534700358 : 00000000008534700417 :: 

    00000000008534700418 : 00000000008534700478 :: 



[H[2J
-----------------printing current job allocations (largest_remaining: 60)-------------------
  * 00000000008534700540 : 00000000008534700600 :: 

    00000000008534700601 : 00000000008534700661 :: 

    00000000008534700479 : 00000000008534700539 :: 

    00000000008534579030 : 00000000008534579089 :: 

    00000000008534700358 : 00000000008534700417 :: 

    00000000008534700418 : 00000000008534700478 :: 



[H[2J
-----------------printing current job allocations (largest_remaining: 60)-------------------
  * 00000000008534700540 : 00000000008534700600 :: 

    00000000008534700601 : 00000000008534700661 :: 

    00000000008534700479 : 00000000008534700539 :: 

    00000000008534579030 : 00000000008534579089 :: 

    00000000008534700358 : 00000000008534700417 :: 

    00000000008534700418 : 00000000008534700478 :: 



[H[2J
-----------------printing current job allocations (largest_remaining: 60)-------------------
  * 00000000008534700540 : 00000000008534700600 :: 

    00000000008534700601 : 00000000008534700661 :: 

    00000000008534700479 : 00000000008534700539 :: 

    00000000008534579030 : 00000000008534579089 :: 

    00000000008534700358 : 00000000008534700417 :: 

    00000000008534700418 : 00000000008534700478 :: 



[H[2J
-----------------printing current job allocations (largest_remaining: 60)-------------------
  * 00000000008534700540 : 00000000008534700600 :: 

    00000000008534700601 : 00000000008534700661 :: 

    00000000008534700479 : 00000000008534700539 :: 

    00000000008534579030 : 00000000008534579089 :: 

    00000000008534700358 : 00000000008534700417 :: 

    00000000008534700418 : 00000000008534700478 :: 



[H[2J
-----------------printing current job allocations (largest_remaining: 60)-------------------
  * 00000000008534700540 : 00000000008534700600 :: 

    00000000008534700601 : 00000000008534700661 :: 

    00000000008534700479 : 00000000008534700539 :: 

    00000000008534579030 : 00000000008534579089 :: 

    00000000008534700358 : 00000000008534700417 :: 

    00000000008534700418 : 00000000008534700478 :: 



[H[2J
-----------------printing current job allocations (largest_remaining: 60)-------------------
  * 00000000008534700540 : 00000000008534700600 :: 

    00000000008534700601 : 00000000008534700661 :: 

    00000000008534700479 : 00000000008534700539 :: 

    00000000008534579030 : 00000000008534579089 :: 

    00000000008534700358 : 00000000008534700417 :: 

    00000000008534700418 : 00000000008534700478 :: 



[H[2J
-----------------printing current job allocations (largest_remaining: 60)-------------------
  * 00000000008534700540 : 00000000008534700600 :: 

    00000000008534700601 : 00000000008534700661 :: 

    00000000008534700479 : 00000000008534700539 :: 

    00000000008534579030 : 00000000008534579089 :: 

    00000000008534700358 : 00000000008534700417 :: 

    00000000008534700418 : 00000000008534700478 :: 



[H[2J
-----------------printing current job allocations (largest_remaining: 60)-------------------
  * 00000000008534700540 : 00000000008534700600 :: 

    00000000008534700601 : 00000000008534700661 :: 

    00000000008534700479 : 00000000008534700539 :: 

    00000000008534579030 : 00000000008534579089 :: 

    00000000008534700358 : 00000000008534700417 :: 

    00000000008534700418 : 00000000008534700478 :: 



[H[2J
-----------------printing current job allocations (largest_remaining: 60)-------------------
  * 00000000008534700540 : 00000000008534700600 :: 

    00000000008534700601 : 00000000008534700661 :: 

    00000000008534700479 : 00000000008534700539 :: 

    00000000008534579030 : 00000000008534579089 :: 

    00000000008534700358 : 00000000008534700417 :: 

    00000000008534700418 : 00000000008534700478 :: 



[H[2J
-----------------printing current job allocations (largest_remaining: 60)-------------------
  * 00000000008534700540 : 00000000008534700600 :: 

    00000000008534700601 : 00000000008534700661 :: 

    00000000008534700479 : 00000000008534700539 :: 

    00000000008534579030 : 00000000008534579089 :: 

    00000000008534700358 : 00000000008534700417 :: 

    00000000008534700418 : 00000000008534700478 :: 



[H[2J
-----------------printing current job allocations (largest_remaining: 60)-------------------
  * 00000000008534700540 : 00000000008534700600 :: 

    00000000008534700601 : 00000000008534700661 :: 

    00000000008534700479 : 00000000008534700539 :: 

    00000000008534579030 : 00000000008534579089 :: 

    00000000008534700358 : 00000000008534700417 :: 

    00000000008534700418 : 00000000008534700478 :: 



[H[2J
-----------------printing current job allocations (largest_remaining: 60)-------------------
  * 00000000008534700540 : 00000000008534700600 :: 

    00000000008534700601 : 00000000008534700661 :: 

    00000000008534700479 : 00000000008534700539 :: 

    00000000008534579030 : 00000000008534579089 :: 

    00000000008534700358 : 00000000008534700417 :: 

    00000000008534700418 : 00000000008534700478 :: 



[H[2J
-----------------printing current job allocations (largest_remaining: 60)-------------------
  * 00000000008534700540 : 00000000008534700600 :: 

    00000000008534700601 : 00000000008534700661 :: 

    00000000008534700479 : 00000000008534700539 :: 

    00000000008534579030 : 00000000008534579089 :: 

    00000000008534700358 : 00000000008534700417 :: 

    00000000008534700418 : 00000000008534700478 :: 



[H[2J
-----------------printing current job allocations (largest_remaining: 60)-------------------
  * 00000000008534700540 : 00000000008534700600 :: 

    00000000008534700601 : 00000000008534700661 :: 

    00000000008534700479 : 00000000008534700539 :: 

    00000000008534579030 : 00000000008534579089 :: 

    00000000008534700358 : 00000000008534700417 :: 

    00000000008534700418 : 00000000008534700478 :: 



[H[2J
-----------------printing current job allocations (largest_remaining: 60)-------------------
  * 00000000008534700540 : 00000000008534700600 :: 

    00000000008534700601 : 00000000008534700661 :: 

    00000000008534700479 : 00000000008534700539 :: 

    00000000008534579030 : 00000000008534579089 :: 

    00000000008534700358 : 00000000008534700417 :: 

    00000000008534700418 : 00000000008534700478 :: 



[H[2J
-----------------printing current job allocations (largest_remaining: 60)-------------------
  * 00000000008534700540 : 00000000008534700600 :: 

    00000000008534700601 : 00000000008534700661 :: 

    00000000008534700479 : 00000000008534700539 :: 

    00000000008534579030 : 00000000008534579089 :: 

    00000000008534700358 : 00000000008534700417 :: 

    00000000008534700418 : 00000000008534700478 :: 



[H[2J
-----------------printing current job allocations (largest_remaining: 60)-------------------
  * 00000000008534700540 : 00000000008534700600 :: 

    00000000008534700601 : 00000000008534700661 :: 

    00000000008534700479 : 00000000008534700539 :: 

    00000000008534579030 : 00000000008534579089 :: 

    00000000008534700358 : 00000000008534700417 :: 

    00000000008534700418 : 00000000008534700478 :: 



[H[2J
-----------------printing current job allocations (largest_remaining: 60)-------------------
  * 00000000008534700540 : 00000000008534700600 :: 

    00000000008534700601 : 00000000008534700661 :: 

    00000000008534700479 : 00000000008534700539 :: 

    00000000008534579030 : 00000000008534579089 :: 

    00000000008534700358 : 00000000008534700417 :: 

    00000000008534700418 : 00000000008534700478 :: 



[H[2J
-----------------printing current job allocations (largest_remaining: 60)-------------------
  * 00000000008534700540 : 00000000008534700600 :: 

    00000000008534700601 : 00000000008534700661 :: 

    00000000008534700479 : 00000000008534700539 :: 

    00000000008534579030 : 00000000008534579089 :: 

    00000000008534700358 : 00000000008534700417 :: 

    00000000008534700418 : 00000000008534700478 :: 



[H[2J
-----------------printing current job allocations (largest_remaining: 60)-------------------
  * 00000000008534700540 : 00000000008534700600 :: 

    00000000008534700601 : 00000000008534700661 :: 

    00000000008534700479 : 00000000008534700539 :: 

    00000000008534579030 : 00000000008534579089 :: 

    00000000008534700358 : 00000000008534700417 :: 

    00000000008534700418 : 00000000008534700478 :: 



[H[2J
-----------------printing current job allocations (largest_remaining: 60)-------------------
  * 00000000008534700540 : 00000000008534700600 :: 

    00000000008534700601 : 00000000008534700661 :: 

    00000000008534700479 : 00000000008534700539 :: 

    00000000008534579030 : 00000000008534579089 :: 

    00000000008534700358 : 00000000008534700417 :: 

    00000000008534700418 : 00000000008534700478 :: 



[H[2J
-----------------printing current job allocations (largest_remaining: 60)-------------------
  * 00000000008534700540 : 00000000008534700600 :: 

    00000000008534700601 : 00000000008534700661 :: 

    00000000008534700479 : 00000000008534700539 :: 

    00000000008534579030 : 00000000008534579089 :: 

    00000000008534700358 : 00000000008534700417 :: 

    00000000008534700418 : 00000000008534700478 :: 



[H[2J
-----------------printing current job allocations (largest_remaining: 60)-------------------
  * 00000000008534700540 : 00000000008534700600 :: 

    00000000008534700601 : 00000000008534700661 :: 

    00000000008534700479 : 00000000008534700539 :: 

    00000000008534579030 : 00000000008534579089 :: 

    00000000008534700358 : 00000000008534700417 :: 

    00000000008534700418 : 00000000008534700478 :: 



[H[2J
-----------------printing current job allocations (largest_remaining: 60)-------------------
  * 00000000008534700540 : 00000000008534700600 :: 

    00000000008534700601 : 00000000008534700661 :: 

    00000000008534700479 : 00000000008534700539 :: 

    00000000008534579030 : 00000000008534579089 :: 

    00000000008534700358 : 00000000008534700417 :: 

    00000000008534700418 : 00000000008534700478 :: 



[H[2J
-----------------printing current job allocations (largest_remaining: 60)-------------------
  * 00000000008534700540 : 00000000008534700600 :: 

    00000000008534700601 : 00000000008534700661 :: 

    00000000008534700479 : 00000000008534700539 :: 

    00000000008534579030 : 00000000008534579089 :: 

    00000000008534700358 : 00000000008534700417 :: 

    00000000008534700418 : 00000000008534700478 :: 



[H[2J
-----------------printing current job allocations (largest_remaining: 60)-------------------
  * 00000000008534700540 : 00000000008534700600 :: 

    00000000008534700601 : 00000000008534700661 :: 

    00000000008534700479 : 00000000008534700539 :: 

    00000000008534579030 : 00000000008534579089 :: 

    00000000008534700358 : 00000000008534700417 :: 

    00000000008534700418 : 00000000008534700478 :: 



[H[2J
-----------------printing current job allocations (largest_remaining: 60)-------------------
  * 00000000008534700540 : 00000000008534700600 :: 

    00000000008534700601 : 00000000008534700661 :: 

    00000000008534700479 : 00000000008534700539 :: 

    00000000008534579030 : 00000000008534579089 :: 

    00000000008534700358 : 00000000008534700417 :: 

    00000000008534700418 : 00000000008534700478 :: 



[H[2J
-----------------printing current job allocations (largest_remaining: 60)-------------------
  * 00000000008534700540 : 00000000008534700600 :: 

    00000000008534700601 : 00000000008534700661 :: 

    00000000008534700479 : 00000000008534700539 :: 

    00000000008534579030 : 00000000008534579089 :: 

    00000000008534700358 : 00000000008534700417 :: 

    00000000008534700418 : 00000000008534700478 :: 



[H[2J
-----------------printing current job allocations (largest_remaining: 60)-------------------
  * 00000000008534700540 : 00000000008534700600 :: 

    00000000008534700601 : 00000000008534700661 :: 

    00000000008534700479 : 00000000008534700539 :: 

    00000000008534579030 : 00000000008534579089 :: 

    00000000008534700358 : 00000000008534700417 :: 

    00000000008534700418 : 00000000008534700478 :: 



[H[2J
-----------------printing current job allocations (largest_remaining: 60)-------------------
  * 00000000008534700540 : 00000000008534700600 :: 

    00000000008534700601 : 00000000008534700661 :: 

    00000000008534700479 : 00000000008534700539 :: 

    00000000008534579030 : 00000000008534579089 :: 

    00000000008534700358 : 00000000008534700417 :: 

    00000000008534700418 : 00000000008534700478 :: 



[H[2J
-----------------printing current job allocations (largest_remaining: 60)-------------------
  * 00000000008534700540 : 00000000008534700600 :: 

    00000000008534700601 : 00000000008534700661 :: 

    00000000008534700479 : 00000000008534700539 :: 

    00000000008534579030 : 00000000008534579089 :: 

    00000000008534700358 : 00000000008534700417 :: 

    00000000008534700418 : 00000000008534700478 :: 



[H[2J
-----------------printing current job allocations (largest_remaining: 60)-------------------
  * 00000000008534700540 : 00000000008534700600 :: 

    00000000008534700601 : 00000000008534700661 :: 

    00000000008534700479 : 00000000008534700539 :: 

    00000000008534579030 : 00000000008534579089 :: 

    00000000008534700358 : 00000000008534700417 :: 

    00000000008534700418 : 00000000008534700478 :: 



[H[2J
-----------------printing current job allocations (largest_remaining: 60)-------------------
  * 00000000008534700540 : 00000000008534700600 :: 

    00000000008534700601 : 00000000008534700661 :: 

    00000000008534700479 : 00000000008534700539 :: 

    00000000008534579030 : 00000000008534579089 :: 

    00000000008534700358 : 00000000008534700417 :: 

    00000000008534700418 : 00000000008534700478 :: 



[H[2J
-----------------printing current job allocations (largest_remaining: 60)-------------------
  * 00000000008534700540 : 00000000008534700600 :: 

    00000000008534700601 : 00000000008534700661 :: 

    00000000008534700479 : 00000000008534700539 :: 

    00000000008534579030 : 00000000008534579089 :: 

    00000000008534700358 : 00000000008534700417 :: 

    00000000008534700418 : 00000000008534700478 :: 



[H[2J
-----------------printing current job allocations (largest_remaining: 60)-------------------
  * 00000000008534700540 : 00000000008534700600 :: 

    00000000008534700601 : 00000000008534700661 :: 

    00000000008534700479 : 00000000008534700539 :: 

    00000000008534579030 : 00000000008534579089 :: 

    00000000008534700358 : 00000000008534700417 :: 

    00000000008534700418 : 00000000008534700478 :: 



[H[2J
-----------------printing current job allocations (largest_remaining: 60)-------------------
  * 00000000008534700540 : 00000000008534700600 :: 

    00000000008534700601 : 00000000008534700661 :: 

    00000000008534700479 : 00000000008534700539 :: 

    00000000008534579030 : 00000000008534579089 :: 

    00000000008534700358 : 00000000008534700417 :: 

    00000000008534700418 : 00000000008534700478 :: 



[H[2J
-----------------printing current job allocations (largest_remaining: 60)-------------------
  * 00000000008534700540 : 00000000008534700600 :: 

    00000000008534700601 : 00000000008534700661 :: 

    00000000008534700479 : 00000000008534700539 :: 

    00000000008534579030 : 00000000008534579089 :: 

    00000000008534700358 : 00000000008534700417 :: 

    00000000008534700418 : 00000000008534700478 :: 



[H[2J
-----------------printing current job allocations (largest_remaining: 60)-------------------
  * 00000000008534700540 : 00000000008534700600 :: 

    00000000008534700601 : 00000000008534700661 :: 

    00000000008534700479 : 00000000008534700539 :: 

    00000000008534579030 : 00000000008534579089 :: 

    00000000008534700358 : 00000000008534700417 :: 

    00000000008534700418 : 00000000008534700478 :: 



[H[2J
-----------------printing current job allocations (largest_remaining: 60)-------------------
  * 00000000008534700540 : 00000000008534700600 :: 

    00000000008534700601 : 00000000008534700661 :: 

    00000000008534700479 : 00000000008534700539 :: 

    00000000008534579030 : 00000000008534579089 :: 

    00000000008534700358 : 00000000008534700417 :: 

    00000000008534700418 : 00000000008534700478 :: 



[H[2J
-----------------printing current job allocations (largest_remaining: 60)-------------------
  * 00000000008534700540 : 00000000008534700600 :: 

    00000000008534700601 : 00000000008534700661 :: 

    00000000008534700479 : 00000000008534700539 :: 

    00000000008534579030 : 00000000008534579089 :: 

    00000000008534700358 : 00000000008534700417 :: 

    00000000008534700418 : 00000000008534700478 :: 



[H[2J
-----------------printing current job allocations (largest_remaining: 60)-------------------
  * 00000000008534700540 : 00000000008534700600 :: 

    00000000008534700601 : 00000000008534700661 :: 

    00000000008534700479 : 00000000008534700539 :: 

    00000000008534579030 : 00000000008534579089 :: 

    00000000008534700358 : 00000000008534700417 :: 

    00000000008534700418 : 00000000008534700478 :: 



[H[2J
-----------------printing current job allocations (largest_remaining: 60)-------------------
  * 00000000008534700540 : 00000000008534700600 :: 

    00000000008534700601 : 00000000008534700661 :: 

    00000000008534700479 : 00000000008534700539 :: 

    00000000008534579030 : 00000000008534579089 :: 

    00000000008534700358 : 00000000008534700417 :: 

    00000000008534700418 : 00000000008534700478 :: 



[H[2J
-----------------printing current job allocations (largest_remaining: 60)-------------------
  * 00000000008534700540 : 00000000008534700600 :: 

    00000000008534700601 : 00000000008534700661 :: 

    00000000008534700479 : 00000000008534700539 :: 

    00000000008534579030 : 00000000008534579089 :: 

    00000000008534700358 : 00000000008534700417 :: 

    00000000008534700418 : 00000000008534700478 :: 



[H[2J
-----------------printing current job allocations (largest_remaining: 60)-------------------
  * 00000000008534700540 : 00000000008534700600 :: 

    00000000008534700601 : 00000000008534700661 :: 

    00000000008534700479 : 00000000008534700539 :: 

    00000000008534579030 : 00000000008534579089 :: 

    00000000008534700358 : 00000000008534700417 :: 

    00000000008534700418 : 00000000008534700478 :: 



