SRNFGPR: searching [D=1, R=0] space....
[H[2J
-----------------printing current job allocations-------------------
  * 00000000000000000000 : 00000000001813985279 :: ###########################################################

    00000000001813985280 : 00000000003627970559 :: ###########################################################

    00000000003627970560 : 00000000005441955839 :: ###########################################################

    00000000005441955840 : 00000000007255941119 :: ###########################################################

    00000000007255941120 : 00000000009069926399 :: ###########################################################

    00000000009069926400 : 00000000010883911679 :: ###########################################################



[H[2J
-----------------printing current job allocations-------------------
    00000000000013491355 : 00000000000906992639 :: #############################

    00000000001827632147 : 00000000003627970559 :: ###########################################################

  * 00000000003639844501 : 00000000005441955839 :: ###########################################################

    00000000005455447195 : 00000000007255941119 :: ###########################################################

    00000000007269587987 : 00000000009069926399 :: ###########################################################

    00000000000920483994 : 00000000001813985279 :: #############################



[H[2J
-----------------printing current job allocations-------------------
    00000000000022109112 : 00000000000906992639 :: #############################

    00000000001836318204 : 00000000003627970559 :: ###########################################################

    00000000003672029286 : 00000000005441955839 :: ##########################################################

  * 00000000005460532696 : 00000000007255941119 :: ###########################################################

    00000000007274673488 : 00000000009069926399 :: ###########################################################

    00000000000929101536 : 00000000001813985279 :: #############################



[H[2J
-----------------printing current job allocations-------------------
    00000000000062535744 : 00000000000906992639 :: ###########################

    00000000001847034366 : 00000000003627970559 :: ##########################################################

    00000000003682254713 : 00000000005441955839 :: ##########################################################

  * 00000000005464064952 : 00000000007255941119 :: ###########################################################

    00000000007281100620 : 00000000009069926399 :: ###########################################################

    00000000000931928112 : 00000000001813985279 :: #############################



[H[2J
-----------------printing current job allocations-------------------
    00000000000069394136 : 00000000000906992639 :: ###########################

    00000000001866746474 : 00000000003627970559 :: ##########################################################

    00000000003712021157 : 00000000005441955839 :: #########################################################

  * 00000000005464064952 : 00000000007255941119 :: ###########################################################

    00000000007310335278 : 00000000009069926399 :: ##########################################################

    00000000000969528348 : 00000000001813985279 :: ###########################



[H[2J
-----------------printing current job allocations-------------------
    00000000000073402627 : 00000000000906992639 :: ###########################

    00000000001878985887 : 00000000003627970559 :: #########################################################

    00000000003731632185 : 00000000005441955839 :: ########################################################

  * 00000000005464064952 : 00000000007255941119 :: ###########################################################

    00000000007325933921 : 00000000009069926399 :: #########################################################

    00000000000976386775 : 00000000001813985279 :: ###########################



[H[2J
-----------------printing current job allocations-------------------
    00000000000113687285 : 00000000000906992639 :: ##########################

    00000000001888096624 : 00000000003627970559 :: #########################################################

    00000000003743591658 : 00000000005441955839 :: ########################################################

  * 00000000005466891528 : 00000000007255941119 :: ###########################################################

    00000000007329861457 : 00000000009069926399 :: #########################################################

    00000000000986316687 : 00000000001813985279 :: ###########################



[H[2J
-----------------printing current job allocations-------------------
    00000000000134853508 : 00000000000906992639 :: #########################

    00000000001907960317 : 00000000003627970559 :: ########################################################

    00000000003774050172 : 00000000005441955839 :: #######################################################

  * 00000000005466891528 : 00000000007255941119 :: ###########################################################

    00000000007361587936 : 00000000009069926399 :: ########################################################

    00000000001020361213 : 00000000001813985279 :: ##########################



[H[2J
-----------------printing current job allocations-------------------
    00000000000164293414 : 00000000000906992639 :: ########################

    00000000001926607145 : 00000000003627970559 :: ########################################################

    00000000003821227150 : 00000000005441955839 :: #####################################################

  * 00000000005504491584 : 00000000007255941119 :: #########################################################

    00000000007371821143 : 00000000009069926399 :: ########################################################

    00000000001027452920 : 00000000001813985279 :: ##########################



[H[2J
-----------------printing current job allocations-------------------
    00000000000171105186 : 00000000000906992639 :: ########################

    00000000001957065624 : 00000000003627970559 :: #######################################################

    00000000003833178853 : 00000000005441955839 :: #####################################################

  * 00000000005506264475 : 00000000007255941119 :: #########################################################

    00000000007418943590 : 00000000009069926399 :: ######################################################

    00000000001072942512 : 00000000001813985279 :: ########################



[H[2J
-----------------printing current job allocations-------------------
    00000000000213354398 : 00000000000906992639 :: ######################

    00000000001977314106 : 00000000003627970559 :: ######################################################

    00000000003882167528 : 00000000005441955839 :: ###################################################

  * 00000000005511349976 : 00000000007255941119 :: #########################################################

    00000000007425802012 : 00000000009069926399 :: ######################################################

    00000000001082079419 : 00000000001813985279 :: ########################



[H[2J
-----------------printing current job allocations-------------------
    00000000000223713076 : 00000000000906992639 :: ######################

    00000000001979087032 : 00000000003627970559 :: ######################################################

    00000000003892369630 : 00000000005441955839 :: ###################################################

  * 00000000005515358467 : 00000000007255941119 :: #########################################################

    00000000007429319718 : 00000000009069926399 :: ######################################################

    00000000001121995936 : 00000000001813985279 :: ######################



[H[2J
-----------------printing current job allocations-------------------
    00000000000264210494 : 00000000000906992639 :: #####################

    00000000001988185549 : 00000000003627970559 :: ######################################################

    00000000003933146958 : 00000000005441955839 :: #################################################

  * 00000000005521279888 : 00000000007255941119 :: #########################################################

    00000000007459684290 : 00000000009069926399 :: #####################################################

    00000000001130585453 : 00000000001813985279 :: ######################



[H[2J
-----------------printing current job allocations-------------------
    00000000000271022261 : 00000000000906992639 :: #####################

    00000000002008265001 : 00000000003627970559 :: #####################################################

    00000000003943380165 : 00000000005441955839 :: #################################################

  * 00000000005521279888 : 00000000007255941119 :: #########################################################

    00000000007471597108 : 00000000009069926399 :: ####################################################

    00000000001171040075 : 00000000001813985279 :: #####################



[H[2J
-----------------printing current job allocations-------------------
    00000000000314738927 : 00000000000906992639 :: ###################

    00000000002020216704 : 00000000003627970559 :: #####################################################

    00000000003945106436 : 00000000005441955839 :: #################################################

  * 00000000005557330620 : 00000000007255941119 :: ########################################################

    00000000007480836180 : 00000000009069926399 :: ####################################################

    00000000001177898502 : 00000000001813985279 :: #####################



[H[2J
-----------------printing current job allocations-------------------
    00000000000314738927 : 00000000000906992639 :: ###################

    00000000002030395481 : 00000000003627970559 :: ####################################################

    00000000003950191937 : 00000000005441955839 :: #################################################

  * 00000000005562416121 : 00000000007255941119 :: ########################################################

    00000000007512678734 : 00000000009069926399 :: ###################################################

    00000000001221615168 : 00000000001813985279 :: ###################



[H[2J
-----------------printing current job allocations-------------------
    00000000000316519628 : 00000000000906992639 :: ###################

    00000000002069424276 : 00000000003627970559 :: ###################################################

    00000000003983869684 : 00000000005441955839 :: ################################################

  * 00000000005607905713 : 00000000007255941119 :: ######################################################

    00000000007522857506 : 00000000009069926399 :: ###################################################

    00000000001223341439 : 00000000001813985279 :: ###################



[H[2J
-----------------printing current job allocations-------------------
    00000000000321605129 : 00000000000906992639 :: ###################

    00000000002084735209 : 00000000003627970559 :: ###################################################

    00000000003994102891 : 00000000005441955839 :: ###############################################

  * 00000000005612991214 : 00000000007255941119 :: ######################################################

    00000000007570096689 : 00000000009069926399 :: #################################################

    00000000001228426940 : 00000000001813985279 :: ###################



[H[2J
-----------------printing current job allocations-------------------
    00000000000321605129 : 00000000000906992639 :: ###################

    00000000002120154876 : 00000000003627970559 :: #################################################

    00000000003999203942 : 00000000005441955839 :: ###############################################

  * 00000000005617042620 : 00000000007255941119 :: ######################################################

    00000000007570096689 : 00000000009069926399 :: #################################################

    00000000001232543056 : 00000000001813985279 :: ###################



[H[2J
-----------------printing current job allocations-------------------
    00000000000336497252 : 00000000000906992639 :: ##################

    00000000002128607382 : 00000000003627970559 :: #################################################

    00000000004012703068 : 00000000005441955839 :: ###############################################

  * 00000000005656959137 : 00000000007255941119 :: ####################################################

    00000000007571822960 : 00000000009069926399 :: #################################################

    00000000001243256858 : 00000000001813985279 :: ##################



[H[2J
-----------------printing current job allocations-------------------
    00000000000336497252 : 00000000000906992639 :: ##################

    00000000002128607382 : 00000000003627970559 :: #################################################

    00000000004034662205 : 00000000005441955839 :: ##############################################

  * 00000000005665548654 : 00000000007255941119 :: ####################################################

    00000000007576955116 : 00000000009069926399 :: #################################################

    00000000001243256858 : 00000000001813985279 :: ##################



[H[2J
-----------------printing current job allocations-------------------
    00000000000365882728 : 00000000000906992639 :: #################

    00000000002130333653 : 00000000003627970559 :: #################################################

    00000000004044840982 : 00000000005441955839 :: ##############################################

  * 00000000005668383005 : 00000000007255941119 :: ####################################################

    00000000007576955116 : 00000000009069926399 :: #################################################

    00000000001274493015 : 00000000001813985279 :: #################



[H[2J
-----------------printing current job allocations-------------------
    00000000000367608999 : 00000000000906992639 :: #################

    00000000002130333653 : 00000000003627970559 :: #################################################

    00000000004049926483 : 00000000005441955839 :: ##############################################

  * 00000000005707729547 : 00000000007255941119 :: ###################################################

    00000000007580477147 : 00000000009069926399 :: #################################################

    00000000001274493015 : 00000000001813985279 :: #################



[H[2J
-----------------printing current job allocations-------------------
    00000000000367608999 : 00000000000906992639 :: #################

    00000000002135419154 : 00000000003627970559 :: #################################################

    00000000004063635554 : 00000000005441955839 :: #############################################

  * 00000000005712861703 : 00000000007255941119 :: ###################################################

    00000000007590937469 : 00000000009069926399 :: ################################################

    00000000001279578516 : 00000000001813985279 :: #################



[H[2J
-----------------printing current job allocations-------------------
    00000000000372694500 : 00000000000906992639 :: #################

    00000000002139525990 : 00000000003627970559 :: #################################################

    00000000004093728580 : 00000000005441955839 :: ############################################

  * 00000000005756578369 : 00000000007255941119 :: #################################################

    00000000007612616906 : 00000000009069926399 :: ################################################

    00000000001294633924 : 00000000001813985279 :: #################



[H[2J
-----------------printing current job allocations-------------------
    00000000000414973673 : 00000000000906992639 :: ################

    00000000002150249072 : 00000000003627970559 :: ################################################

    00000000004093728580 : 00000000005441955839 :: ############################################

  * 00000000005756578369 : 00000000007255941119 :: #################################################

    00000000007621069412 : 00000000009069926399 :: ###############################################

    00000000001294633924 : 00000000001813985279 :: #################



[H[2J
-----------------printing current job allocations-------------------
    00000000000414973673 : 00000000000906992639 :: ################

    00000000002171415309 : 00000000003627970559 :: ################################################

    00000000004093728580 : 00000000005441955839 :: ############################################

  * 00000000005756578369 : 00000000007255941119 :: #################################################

    00000000007622850113 : 00000000009069926399 :: ###############################################

    00000000001323583955 : 00000000001813985279 :: ################



[H[2J
-----------------printing current job allocations-------------------
    00000000000416746599 : 00000000000906992639 :: ################

    00000000002179867815 : 00000000003627970559 :: ###############################################

    00000000004095454851 : 00000000005441955839 :: ############################################

  * 00000000005758304640 : 00000000007255941119 :: #################################################

    00000000007622850113 : 00000000009069926399 :: ###############################################

    00000000001328669456 : 00000000001813985279 :: ################



[H[2J
-----------------printing current job allocations-------------------
    00000000000421832100 : 00000000000906992639 :: ################

    00000000002179867815 : 00000000003627970559 :: ###############################################

    00000000004095454851 : 00000000005441955839 :: ############################################

  * 00000000005758304640 : 00000000007255941119 :: #################################################

    00000000007627935614 : 00000000009069926399 :: ###############################################

    00000000001342223017 : 00000000001813985279 :: ###############



[H[2J
-----------------printing current job allocations-------------------
    00000000000421832100 : 00000000000906992639 :: ################

    00000000002181594086 : 00000000003627970559 :: ###############################################

    00000000004100540352 : 00000000005441955839 :: ############################################

  * 00000000005758304640 : 00000000007255941119 :: #################################################

    00000000007627935614 : 00000000009069926399 :: ###############################################

    00000000001372471553 : 00000000001813985279 :: ##############



[H[2J
-----------------printing current job allocations-------------------
    00000000000435416721 : 00000000000906992639 :: ###############

    00000000002181594086 : 00000000003627970559 :: ###############################################

    00000000004100540352 : 00000000005441955839 :: ############################################

  * 00000000005763390141 : 00000000007255941119 :: #################################################

    00000000007662135518 : 00000000009069926399 :: ##############################################

    00000000001372471553 : 00000000001813985279 :: ##############



[H[2J
-----------------printing current job allocations-------------------
    00000000000465587537 : 00000000000906992639 :: ##############

    00000000002186679587 : 00000000003627970559 :: ###############################################

    00000000004100540352 : 00000000005441955839 :: ############################################

  * 00000000005763390141 : 00000000007255941119 :: #################################################

    00000000007663869564 : 00000000009069926399 :: ##############################################

    00000000001372471553 : 00000000001813985279 :: ##############



[H[2J
-----------------printing current job allocations-------------------
    00000000000465587537 : 00000000000906992639 :: ##############

    00000000002190834973 : 00000000003627970559 :: ###############################################

    00000000004135967799 : 00000000005441955839 :: ###########################################

  * 00000000005763390141 : 00000000007255941119 :: #################################################

    00000000007672322070 : 00000000009069926399 :: ##############################################

    00000000001374197824 : 00000000001813985279 :: ##############



[H[2J
-----------------printing current job allocations-------------------
    00000000000465587537 : 00000000000906992639 :: ##############

    00000000002220661761 : 00000000003627970559 :: ##############################################

    00000000004144420300 : 00000000005441955839 :: ##########################################

  * 00000000005763390141 : 00000000007255941119 :: #################################################

    00000000007674094996 : 00000000009069926399 :: ##############################################

    00000000001379283325 : 00000000001813985279 :: ##############



[H[2J
-----------------printing current job allocations-------------------
    00000000000465587537 : 00000000000906992639 :: ##############

    00000000002229122042 : 00000000003627970559 :: ##############################################

    00000000004146426506 : 00000000005441955839 :: ##########################################

  * 00000000005767506257 : 00000000007255941119 :: #################################################

    00000000007674094996 : 00000000009069926399 :: ##############################################

    00000000001379283325 : 00000000001813985279 :: ##############



[H[2J
-----------------printing current job allocations-------------------
    00000000000467313808 : 00000000000906992639 :: ##############

    00000000002229122042 : 00000000003627970559 :: ##############################################

    00000000004165812028 : 00000000005441955839 :: ##########################################

  * 00000000005767506257 : 00000000007255941119 :: #################################################

    00000000007674094996 : 00000000009069926399 :: ##############################################

    00000000001379283325 : 00000000001813985279 :: ##############



[H[2J
-----------------printing current job allocations-------------------
    00000000000467313808 : 00000000000906992639 :: ##############

    00000000002230848313 : 00000000003627970559 :: ##############################################

    00000000004186970490 : 00000000005441955839 :: #########################################

  * 00000000005767506257 : 00000000007255941119 :: #################################################

    00000000007721217438 : 00000000009069926399 :: ############################################

    00000000001382901101 : 00000000001813985279 :: ##############



[H[2J
-----------------printing current job allocations-------------------
    00000000000467313808 : 00000000000906992639 :: ##############

    00000000002235933814 : 00000000003627970559 :: ##############################################

    00000000004195422996 : 00000000005441955839 :: #########################################

  * 00000000005773419903 : 00000000007255941119 :: #################################################

    00000000007721217438 : 00000000009069926399 :: ############################################

    00000000001389110232 : 00000000001813985279 :: ##############



[H[2J
-----------------printing current job allocations-------------------
    00000000000467313808 : 00000000000906992639 :: ##############

    00000000002235933814 : 00000000003627970559 :: ##############################################

    00000000004197149267 : 00000000005441955839 :: #########################################

  * 00000000005773419903 : 00000000007255941119 :: #################################################

    00000000007721217438 : 00000000009069926399 :: ############################################

    00000000001423242178 : 00000000001813985279 :: ############



[H[2J
-----------------printing current job allocations-------------------
    00000000000472445964 : 00000000000906992639 :: ##############

    00000000002249635105 : 00000000003627970559 :: #############################################

    00000000004202234768 : 00000000005441955839 :: #########################################

  * 00000000005773419903 : 00000000007255941119 :: #################################################

    00000000007721217438 : 00000000009069926399 :: ############################################

    00000000001423242178 : 00000000001813985279 :: ############



[H[2J
-----------------printing current job allocations-------------------
    00000000000472445964 : 00000000000906992639 :: ##############

    00000000002249635105 : 00000000003627970559 :: #############################################

    00000000004237662210 : 00000000005441955839 :: #######################################

  * 00000000005807644479 : 00000000007255941119 :: ###############################################

    00000000007721217438 : 00000000009069926399 :: ############################################

    00000000001424968449 : 00000000001813985279 :: ############



[H[2J
-----------------printing current job allocations-------------------
    00000000000472445964 : 00000000000906992639 :: ##############

    00000000002279727921 : 00000000003627970559 :: ############################################

    00000000004284932394 : 00000000005441955839 :: ######################################

  * 00000000005807644479 : 00000000007255941119 :: ###############################################

    00000000007722943709 : 00000000009069926399 :: ############################################

    00000000001430108380 : 00000000001813985279 :: ############



[H[2J
-----------------printing current job allocations-------------------
    00000000000472445964 : 00000000000906992639 :: ##############

    00000000002279727921 : 00000000003627970559 :: ############################################

    00000000004295118946 : 00000000005441955839 :: #####################################

  * 00000000005807644479 : 00000000007255941119 :: ###############################################

    00000000007722943709 : 00000000009069926399 :: ############################################

    00000000001434202601 : 00000000001813985279 :: ############



[H[2J
-----------------printing current job allocations-------------------
    00000000000482339876 : 00000000000906992639 :: ##############

    00000000002279727921 : 00000000003627970559 :: ############################################

    00000000004335655155 : 00000000005441955839 :: ####################################

  * 00000000005809370750 : 00000000007255941119 :: ###############################################

    00000000007722943709 : 00000000009069926399 :: ############################################

    00000000001444946073 : 00000000001813985279 :: ############



[H[2J
-----------------printing current job allocations-------------------
    00000000000516420372 : 00000000000906992639 :: ############

    00000000002279727921 : 00000000003627970559 :: ############################################

    00000000004345857252 : 00000000005441955839 :: ####################################

  * 00000000005809370750 : 00000000007255941119 :: ###############################################

    00000000007722943709 : 00000000009069926399 :: ############################################

    00000000001444946073 : 00000000001813985279 :: ############



[H[2J
-----------------printing current job allocations-------------------
    00000000000516420372 : 00000000000906992639 :: ############

    00000000002279727921 : 00000000003627970559 :: ############################################

    00000000004396712280 : 00000000005441955839 :: ##################################

  * 00000000005809370750 : 00000000007255941119 :: ###############################################

    00000000007728029210 : 00000000009069926399 :: ############################################

    00000000001476112250 : 00000000001813985279 :: ###########



[H[2J
-----------------printing current job allocations-------------------
    00000000000518146638 : 00000000000906992639 :: ############

    00000000002279727921 : 00000000003627970559 :: ############################################

    00000000004437209678 : 00000000005441955839 :: #################################

  * 00000000005814502906 : 00000000007255941119 :: ###############################################

    00000000007728029210 : 00000000009069926399 :: ############################################

    00000000001476112250 : 00000000001813985279 :: ###########



[H[2J
-----------------printing current job allocations-------------------
    00000000000523512074 : 00000000000906992639 :: ############

    00000000002281454192 : 00000000003627970559 :: ############################################

    00000000004447396225 : 00000000005441955839 :: ################################

  * 00000000005814502906 : 00000000007255941119 :: ###############################################

    00000000007728029210 : 00000000009069926399 :: ############################################

    00000000001481197536 : 00000000001813985279 :: ###########



[H[2J
-----------------printing current job allocations-------------------
    00000000000527447800 : 00000000000906992639 :: ############

  * 00000000002281454192 : 00000000003627970559 :: ############################################

    00000000004469013408 : 00000000005441955839 :: ################################

    00000000005818526532 : 00000000006535222012 :: #######################

    00000000007728029210 : 00000000009069926399 :: ############################################

    00000000006563762164 : 00000000007255941119 :: ######################



[H[2J
-----------------printing current job allocations-------------------
    00000000000538139597 : 00000000000906992639 :: ############

  * 00000000002281454192 : 00000000003627970559 :: ############################################

    00000000004498126726 : 00000000005441955839 :: ###############################

    00000000005818526532 : 00000000006535222012 :: #######################

    00000000007728029210 : 00000000009069926399 :: ############################################

    00000000006570620591 : 00000000007255941119 :: ######################



[H[2J
-----------------printing current job allocations-------------------
    00000000000567509528 : 00000000000906992639 :: ###########

  * 00000000002281454192 : 00000000003627970559 :: ############################################

    00000000004553787315 : 00000000005441955839 :: #############################

    00000000005824720113 : 00000000006535222012 :: #######################

    00000000007728029210 : 00000000009069926399 :: ############################################

    00000000006574846022 : 00000000007255941119 :: ######################



[H[2J
-----------------printing current job allocations-------------------
    00000000000569235799 : 00000000000906992639 :: ###########

  * 00000000002281454192 : 00000000003627970559 :: ############################################

    00000000004648079074 : 00000000005441955839 :: ##########################

    00000000005824720113 : 00000000006535222012 :: #######################

    00000000007731569441 : 00000000009069926399 :: ############################################

    00000000006614596289 : 00000000007255941119 :: #####################



