SRNFGPR: searching [D=1, R=0] space....

-----------------printing current job allocations-------------------
  * 0:1813985279 :: #########

    1813985280:3627970559 :: #########

    3627970560:5441955839 :: #########

    5441955840:7255941119 :: #########

    7255941120:9069926399 :: #########

    9069926400:10883911679 :: #########




-----------------printing current job allocations-------------------
    12400001:906992639 :: ####

    1816459579:3627970559 :: #########

    3630346322:5441955839 :: #########

    5454216390:7255941119 :: #########

    7259149753:9069926399 :: #########

  * 919222692:10883911679 :: ######################################################




-----------------printing current job allocations-------------------
    13193088:906992639 :: ####

    1817547103:3627970559 :: #########

    3631188661:5441955839 :: #########

    5454886417:7255941119 :: #########

    7260828485:9069926399 :: #########

  * 919540299:10883911679 :: ######################################################




-----------------printing current job allocations-------------------
    13969686:906992639 :: ####

    1819008795:3627970559 :: #########

    3631940629:5441955839 :: #########

    5455313896:7255941119 :: #########

    7268306566:9069926399 :: #########

  * 920165107:10883911679 :: ######################################################




-----------------printing current job allocations-------------------
    14832942:906992639 :: ####

    1826532095:3627970559 :: #########

    3632788975:5441955839 :: #########

    5455925625:7255941119 :: #########

    7269157928:9069926399 :: #########

  * 920749711:10883911679 :: ######################################################




-----------------printing current job allocations-------------------
    18889523:906992639 :: ####

    1827435129:3627970559 :: #########

    3640553804:5441955839 :: #########

    5456827561:7255941119 :: #########

    7269958634:9069926399 :: #########

  * 921564819:10883911679 :: ######################################################




-----------------printing current job allocations-------------------
    19607424:906992639 :: ####

    1828733622:3627970559 :: #########

    3641971665:5441955839 :: #########

    5460698590:7255941119 :: #########

    7271022802:9069926399 :: #########

  * 925787189:10883911679 :: ######################################################




-----------------printing current job allocations-------------------
    21971900:906992639 :: ####

    1832840270:3627970559 :: #########

    3646699481:5441955839 :: #########

    5461185002:7255941119 :: #########

    7274928795:9069926399 :: #########

  * 926266706:10883911679 :: ######################################################




-----------------printing current job allocations-------------------
    22594025:906992639 :: ####

    1833872606:3627970559 :: #########

    3648052230:5441955839 :: #########

    5461840598:7255941119 :: #########

    7275603909:9069926399 :: #########

  * 928965693:10883911679 :: ######################################################




-----------------printing current job allocations-------------------
    23324779:906992639 :: ####

    1836151591:3627970559 :: #########

    3662766720:5441955839 :: #########

    5463830510:7255941119 :: #########

    7277816543:9069926399 :: #########

  * 929377354:10883911679 :: ######################################################




-----------------printing current job allocations-------------------
    23838125:906992639 :: ####

    1836654368:3627970559 :: #########

    3671209420:5441955839 :: #########

    5463999169:7255941119 :: #########

    7278287561:9069926399 :: #########

  * 930138106:10883911679 :: ######################################################




-----------------printing current job allocations-------------------
    24949323:906992639 :: ####

    1837309775:3627970559 :: #########

    3672212852:5441955839 :: #########

    5464205066:7255941119 :: #########

    7278974453:9069926399 :: #########

  * 930359886:10883911679 :: ######################################################




-----------------printing current job allocations-------------------
    28830376:906992639 :: ####

    1837917895:3627970559 :: #########

    3680128182:5441955839 :: #########

    5464429850:7255941119 :: #########

    7279301685:9069926399 :: #########

  * 930873487:10883911679 :: ######################################################



