SRNFGPR: searching [D=1, R=0] space....

-----------------printing current job allocations-------------------
  * 0:1813985279 :: #########

    1813985280:3627970559 :: #########

    3627970560:5441955839 :: #########

    5441955840:7255941119 :: #########

    7255941120:9069926399 :: #########

    9069926400:10883911679 :: #########




-----------------printing current job allocations-------------------
    0:906992639 :: ####

  * 1813985280:3627970559 :: #########

    3627970560:5441955839 :: #########

    5441955840:7255941119 :: #########

    7255941120:9069926399 :: #########

    9069926400:10883911679 :: #########




-----------------printing current job allocations-------------------
    0:906992639 :: ####

    1817406715:3627970559 :: #########

  * 3627970560:5441955839 :: #########

    5441955840:7255941119 :: #########

    7259362555:9069926399 :: #########

    9069926400:10883911679 :: #########




-----------------printing current job allocations-------------------
    13491355:906992639 :: ####

    1817406715:3627970559 :: #########

    3631391995:5441955839 :: #########

  * 5441955840:7255941119 :: #########

    7267815061:9069926399 :: #########

    9069926400:10883911679 :: #########




-----------------printing current job allocations-------------------
    13491355:906992639 :: ####

    1825859221:3627970559 :: #########

    3631391995:5441955839 :: #########

    5455447195:7255941119 :: #########

    7267815061:9069926399 :: #########

  * 920483994:10883911679 :: ######################################################




-----------------printing current job allocations-------------------
    18576856:906992639 :: ####

    1827632147:3627970559 :: #########

    3639844501:5441955839 :: #########

    5455447195:7255941119 :: #########

    7269587987:9069926399 :: #########

  * 920483994:10883911679 :: ######################################################




-----------------printing current job allocations-------------------
    18576856:906992639 :: ####

    1827632147:3627970559 :: #########

    3641617427:5441955839 :: #########

    5460532696:7255941119 :: #########

    7269587987:9069926399 :: #########

  * 925569495:10883911679 :: ######################################################




-----------------printing current job allocations-------------------
    18576856:906992639 :: ####

    1832717648:3627970559 :: #########

    3646702928:5441955839 :: #########

    5460532696:7255941119 :: #########

    7274673488:9069926399 :: #########

  * 925569495:10883911679 :: ######################################################




-----------------printing current job allocations-------------------
    22109112:906992639 :: ####

    1832717648:3627970559 :: #########

    3646702928:5441955839 :: #########

    5460532696:7255941119 :: #########

    7274673488:9069926399 :: #########

  * 925569495:10883911679 :: ######################################################




-----------------printing current job allocations-------------------
    22109112:906992639 :: ####

    1836318204:3627970559 :: #########

    3660295359:5441955839 :: #########

    5460532696:7255941119 :: #########

    7274673488:9069926399 :: #########

  * 929101536:10883911679 :: ######################################################




-----------------printing current job allocations-------------------
    22109112:906992639 :: ####

    1836318204:3627970559 :: #########

    3670303015:5441955839 :: #########

    5460532696:7255941119 :: #########

    7278274044:9069926399 :: #########

  * 929101536:10883911679 :: ######################################################




-----------------printing current job allocations-------------------
    22109112:906992639 :: ####

    1836318204:3627970559 :: #########

    3672029286:5441955839 :: #########

    5464064952:7255941119 :: #########

    7278274044:9069926399 :: #########

  * 929101536:10883911679 :: ######################################################




-----------------printing current job allocations-------------------
    24935688:906992639 :: ####

    1836318204:3627970559 :: #########

    3672029286:5441955839 :: #########

    5464064952:7255941119 :: #########

    7278274044:9069926399 :: #########

  * 929101536:10883911679 :: ######################################################




-----------------printing current job allocations-------------------
    24935688:906992639 :: ####

    1839144780:3627970559 :: #########

    3680520672:5441955839 :: #########

    5464064952:7255941119 :: #########

    7278274044:9069926399 :: #########

  * 931928112:10883911679 :: ######################################################




-----------------printing current job allocations-------------------
    24935688:906992639 :: ####

    1839144780:3627970559 :: #########

    3680520672:5441955839 :: #########

    5464064952:7255941119 :: #########

    7278274044:9069926399 :: #########

  * 931928112:10883911679 :: ######################################################




-----------------printing current job allocations-------------------
    62535744:906992639 :: ####

    1839144780:3627970559 :: #########

    3682254713:5441955839 :: #########

    5464064952:7255941119 :: #########

    7281100620:9069926399 :: #########

  * 931928112:10883911679 :: ######################################################




-----------------printing current job allocations-------------------
    62535744:906992639 :: ####

    1847034366:3627970559 :: #########

    3682254713:5441955839 :: #########

    5464064952:7255941119 :: #########

    7281100620:9069926399 :: #########

  * 931928112:10883911679 :: ######################################################




-----------------printing current job allocations-------------------
    62535744:906992639 :: ####

    1856567697:3627970559 :: #########

    3690714994:5441955839 :: #########

    5464064952:7255941119 :: #########

    7288990206:9069926399 :: #########

  * 969528348:10883911679 :: ######################################################




-----------------printing current job allocations-------------------
    64308635:906992639 :: ####

    1858293968:3627970559 :: #########

    3692441265:5441955839 :: #########

    5464064952:7255941119 :: #########

    7308601232:9069926399 :: #########

  * 969528348:10883911679 :: ######################################################




-----------------printing current job allocations-------------------
    64308635:906992639 :: ####

    1858293968:3627970559 :: #########

    3692441265:5441955839 :: #########

    5464064952:7255941119 :: #########

    7310335278:9069926399 :: #########

  * 969528348:10883911679 :: ######################################################




-----------------printing current job allocations-------------------
    69394136:906992639 :: ####

    1866746474:3627970559 :: #########

    3697534541:5441955839 :: #########

    5464064952:7255941119 :: #########

    7310335278:9069926399 :: #########

  * 971301274:10883911679 :: ######################################################




-----------------printing current job allocations-------------------
    69394136:906992639 :: ####

    1866746474:3627970559 :: #########

    3712021157:5441955839 :: #########

    5464064952:7255941119 :: #########

    7318842214:9069926399 :: #########

  * 971301274:10883911679 :: ######################################################




-----------------printing current job allocations-------------------
    69394136:906992639 :: ####

    1868527175:3627970559 :: #########

    3721181248:5441955839 :: #########

    5464064952:7255941119 :: #########

    7318842214:9069926399 :: #########

  * 976386775:10883911679 :: ######################################################




-----------------printing current job allocations-------------------
    73402627:906992639 :: ####

    1877259616:3627970559 :: #########

    3721181248:5441955839 :: #########

    5464064952:7255941119 :: #########

    7320568485:9069926399 :: #########

  * 976386775:10883911679 :: ######################################################




-----------------printing current job allocations-------------------
    73402627:906992639 :: ####

    1877259616:3627970559 :: #########

    3721181248:5441955839 :: #########

    5466891528:7255941119 :: #########

    7320568485:9069926399 :: #########

  * 976386775:10883911679 :: ######################################################




-----------------printing current job allocations-------------------
    73402627:906992639 :: ####

    1878985887:3627970559 :: #########

    3723187454:5441955839 :: #########

    5466891528:7255941119 :: #########

    7325933921:9069926399 :: #########

  * 976386775:10883911679 :: ######################################################




-----------------printing current job allocations-------------------
    79324048:906992639 :: ####

    1878985887:3627970559 :: #########

    3723187454:5441955839 :: #########

    5466891528:7255941119 :: #########

    7325933921:9069926399 :: #########

  * 980395266:10883911679 :: ######################################################




-----------------printing current job allocations-------------------
    79324048:906992639 :: ####

    1884071388:3627970559 :: #########

    3731632185:5441955839 :: #########

    5466891528:7255941119 :: #########

    7325933921:9069926399 :: #########

  * 980395266:10883911679 :: ######################################################




-----------------printing current job allocations-------------------
    84107454:906992639 :: ####

    1884071388:3627970559 :: #########

    3731632185:5441955839 :: #########

    5466891528:7255941119 :: #########

    7325933921:9069926399 :: #########

  * 980395266:10883911679 :: ######################################################




-----------------printing current job allocations-------------------
    84107454:906992639 :: ####

    1884071388:3627970559 :: #########

    3733366231:5441955839 :: #########

    5466891528:7255941119 :: #########

    7329861457:9069926399 :: #########

  * 986316687:10883911679 :: ######################################################




-----------------printing current job allocations-------------------
    113687285:906992639 :: ####

    1888096624:3627970559 :: #########

    3733366231:5441955839 :: #########

    5466891528:7255941119 :: #########

    7329861457:9069926399 :: #########

  * 986316687:10883911679 :: ######################################################




-----------------printing current job allocations-------------------
    113687285:906992639 :: ####

    1888096624:3627970559 :: #########

    3741865392:5441955839 :: #########

    5466891528:7255941119 :: #########

    7329861457:9069926399 :: #########

  * 986316687:10883911679 :: ######################################################




-----------------printing current job allocations-------------------
    115413556:906992639 :: ####

    1888096624:3627970559 :: #########

    3743591658:5441955839 :: #########

    5466891528:7255941119 :: #########

    7336055038:9069926399 :: #########

  * 986316687:10883911679 :: ######################################################




-----------------printing current job allocations-------------------
    115413556:906992639 :: ####

    1894290205:3627970559 :: #########

    3743591658:5441955839 :: #########

    5466891528:7255941119 :: #########

    7340561659:9069926399 :: #########

  * 1020361213:10883911679 :: ######################################################




-----------------printing current job allocations-------------------
    120499057:906992639 :: ####

    1899103466:3627970559 :: #########

    3748677159:5441955839 :: #########

    5466891528:7255941119 :: #########

    7359853890:9069926399 :: #########

  * 1020361213:10883911679 :: ######################################################




-----------------printing current job allocations-------------------
    120499057:906992639 :: ####

    1899103466:3627970559 :: #########

    3763467055:5441955839 :: #########

    5466891528:7255941119 :: #########

    7361587936:9069926399 :: #########

  * 1020361213:10883911679 :: ######################################################




-----------------printing current job allocations-------------------
    134853508:906992639 :: ####

    1907960317:3627970559 :: #########

    3772277246:5441955839 :: #########

    5466891528:7255941119 :: #########

    7361587936:9069926399 :: #########

  * 1022367419:10883911679 :: ######################################################




-----------------printing current job allocations-------------------
    134853508:906992639 :: ####

    1907960317:3627970559 :: #########

    3774050172:5441955839 :: #########

    5504491584:7255941119 :: #########

    7361587936:9069926399 :: #########

  * 1022367419:10883911679 :: ######################################################




-----------------printing current job allocations-------------------
    134853508:906992639 :: ####

    1907960317:3627970559 :: #########

    3774050172:5441955839 :: #########

    5504491584:7255941119 :: #########

    7370094872:9069926399 :: #########

  * 1027452920:10883911679 :: ######################################################




-----------------printing current job allocations-------------------
    164293414:906992639 :: ####

    1909686588:3627970559 :: #########

    3792572598:5441955839 :: #########

    5504491584:7255941119 :: #########

    7371821143:9069926399 :: #########

  * 1027452920:10883911679 :: ######################################################




-----------------printing current job allocations-------------------
    164293414:906992639 :: ####

    1909686588:3627970559 :: #########

    3792572598:5441955839 :: #########

    5506264475:7255941119 :: #########

    7371821143:9069926399 :: #########

  * 1027452920:10883911679 :: ######################################################




-----------------printing current job allocations-------------------
    164293414:906992639 :: ####

    1918154644:3627970559 :: #########

    3797665874:5441955839 :: #########

    5506264475:7255941119 :: #########

    7371821143:9069926399 :: #########

  * 1071169586:10883911679 :: ######################################################




-----------------printing current job allocations-------------------
    166019685:906992639 :: ####

    1926607145:3627970559 :: #########

    3821227150:5441955839 :: ########

    5506264475:7255941119 :: #########

    7388679504:9069926399 :: #########

  * 1071169586:10883911679 :: ######################################################




-----------------printing current job allocations-------------------
    166019685:906992639 :: ####

    1926607145:3627970559 :: #########

    3821227150:5441955839 :: ########

    5511349976:7255941119 :: #########

    7418943590:9069926399 :: #########

  * 1071169586:10883911679 :: ######################################################




-----------------printing current job allocations-------------------
    171105186:906992639 :: ####

    1928333416:3627970559 :: #########

    3823000076:5441955839 :: ########

    5511349976:7255941119 :: #########

    7418943590:9069926399 :: #########

  * 1072942512:10883911679 :: ######################################################




-----------------printing current job allocations-------------------
    171105186:906992639 :: ####

    1933465572:3627970559 :: #########

    3831444807:5441955839 :: ########

    5511349976:7255941119 :: #########

    7418943590:9069926399 :: #########

  * 1072942512:10883911679 :: ######################################################




-----------------printing current job allocations-------------------
    171105186:906992639 :: ####

    1933465572:3627970559 :: #########

    3831444807:5441955839 :: ########

    5511349976:7255941119 :: #########

    7418943590:9069926399 :: #########

  * 1078028013:10883911679 :: ######################################################




-----------------printing current job allocations-------------------
    175245927:906992639 :: ####

    1947050233:3627970559 :: #########

    3833178853:5441955839 :: ########

    5511349976:7255941119 :: #########

    7418943590:9069926399 :: #########

  * 1078028013:10883911679 :: ######################################################




-----------------printing current job allocations-------------------
    175245927:906992639 :: ####

    1957065624:3627970559 :: #########

    3833178853:5441955839 :: ########

    5515358467:7255941119 :: #########

    7420669861:9069926399 :: #########

  * 1078028013:10883911679 :: ######################################################




-----------------printing current job allocations-------------------
    213354398:906992639 :: ###

    1958791680:3627970559 :: #########

    3841631354:5441955839 :: ########

    5515358467:7255941119 :: #########

    7420669861:9069926399 :: #########

  * 1082079419:10883911679 :: ######################################################




-----------------printing current job allocations-------------------
    213354398:906992639 :: ###

    1958791680:3627970559 :: #########

    3843357625:5441955839 :: ########

    5515358467:7255941119 :: #########

    7420669861:9069926399 :: #########

  * 1082079419:10883911679 :: ######################################################




-----------------printing current job allocations-------------------
    213354398:906992639 :: ###

    1958791680:3627970559 :: #########

    3843357625:5441955839 :: ########

    5515358467:7255941119 :: #########

    7425802012:9069926399 :: #########

  * 1088311880:10883911679 :: ######################################################




-----------------printing current job allocations-------------------
    215080669:906992639 :: ###

    1977314106:3627970559 :: #########

    3848489746:5441955839 :: ########

    5515358467:7255941119 :: #########

    7425802012:9069926399 :: #########

  * 1088311880:10883911679 :: ######################################################




-----------------printing current job allocations-------------------
    215080669:906992639 :: ###

    1977314106:3627970559 :: #########

    3862564277:5441955839 :: ########

    5515358467:7255941119 :: #########

    7425802012:9069926399 :: #########

  * 1088311880:10883911679 :: ######################################################




-----------------printing current job allocations-------------------
    220166170:906992639 :: ###

    1977314106:3627970559 :: #########

    3882167528:5441955839 :: ########

    5515358467:7255941119 :: #########

    7425802012:9069926399 :: #########

  * 1088311880:10883911679 :: ######################################################




-----------------printing current job allocations-------------------
    220166170:906992639 :: ###

    1977314106:3627970559 :: #########

    3882167528:5441955839 :: ########

    5515358467:7255941119 :: #########

    7425802012:9069926399 :: #########

  * 1121995936:10883911679 :: #####################################################




-----------------printing current job allocations-------------------
    223713076:906992639 :: ###

    1979087032:3627970559 :: #########

    3882167528:5441955839 :: ########

    5521279888:7255941119 :: #########

    7425802012:9069926399 :: #########

  * 1121995936:10883911679 :: #####################################################




-----------------printing current job allocations-------------------
    223713076:906992639 :: ###

    1979087032:3627970559 :: #########

    3883901574:5441955839 :: ########

    5521279888:7255941119 :: #########

    7429319718:9069926399 :: #########

  * 1127081437:10883911679 :: #####################################################




-----------------printing current job allocations-------------------
    226547427:906992639 :: ###

    1979087032:3627970559 :: #########

    3892369630:5441955839 :: ########

    5521279888:7255941119 :: #########

    7429319718:9069926399 :: #########

  * 1127081437:10883911679 :: #####################################################




-----------------printing current job allocations-------------------
    226547427:906992639 :: ###

    1984172533:3627970559 :: #########

    3894142556:5441955839 :: ########

    5521279888:7255941119 :: #########

    7429319718:9069926399 :: #########

  * 1130585453:10883911679 :: #####################################################



