0125105024633555404220003010 1 dt
0621100021313045424200000410 2 dt
0242162621303122454200000410 1 dt
0622130025333042404201502101 6 dt
0664103521403045454601222413 2 dt
0614102523403106454601222413 2 dt
0614102523403106454601222413 1 dt
0251152026363141424205610014 1 dt
0251102026363144424205610014 1 dt
0251102526363144424205610014 1 dt
0251102526363144424205610014 1 dt
0126162521363544424205610014 1 dt
