014410252130304442420410 2 1202501315.172255
014410252131304442420410 2 1202501315.172258
014410252133304442420410 2 1202501315.172300
014410252134304442420410 2 1202501315.172303
014410252135304442420410 1 1202501315.172307
051110202135304042420140 1 1202501315.172449
041115202130314042420140 1 1202501315.172452
041215202130314042420140 1 1202501315.172454
042215302111314042420140 2 1202501315.172457
041215202131314042420140 2 1202501315.172459
012415302151314042420140 2 1202501315.172502
041215202133314042420140 2 1202501315.172505
041215202134314042420140 2 1202501315.172507
051110202135314042420140 1 1202501315.172511
041215202135314042420140 2 1202501315.172513
012415302151354042420140 2 1202501315.172517
041215202135354042420140 1 1202501315.172520
041215202135305042420140 1 1202501315.172522
041215202135315042420140 1 1202501315.172525
041215202135325042420140 1 1202501315.172527
041215202135345042420140 1 1202501315.172530
041215202135355042420140 1 1202501315.172532
041215202135314142420140 1 1202501315.172537
051110202135354142420140 1 1202501315.172541
041215202135354142420140 2 1202501315.172544
041215202135305142420140 1 1202501315.172546
041215202135315142420140 1 1202501315.172549
041215202135325142420140 1 1202501315.172551
041215202135345142420140 1 1202501315.172554
041215202135355142420140 1 1202501315.172556
051110202135304242420140 1 1202501315.172600
041215202135305242420140 1 1202501315.172608
041215202135315242420140 1 1202501315.172611
041215202135325242420140 1 1202501315.172613
041215202135345242420140 1 1202501315.172616
041215202135355242420140 1 1202501315.172618
042215302113310442420140 2 1202501315.172621
042115502113310442420140 2 1202501315.172624
042115502153310442420140 2 1202501315.172631
042215302113311442420140 2 1202501315.172635
042115502113311442420140 2 1202501315.172637
012415502113311442420140 2 1202501315.172640
012415202153311442420140 2 1202501315.172645
042115502153311442420140 2 1202501315.172649
012415502153311442420140 2 1202501315.172651
051110202135302442420140 1 1202501315.172655
042215302113312442420140 2 1202501315.172657
042115502113312442420140 2 1202501315.172700
042115502153312442420140 2 1202501315.172707
051110202135304442420140 1 1202501315.172711
042215302113314442420140 2 1202501315.172717
042115502113314442420140 2 1202501315.172719
012415502113314442420140 2 1202501315.172722
012415002153314442420140 2 1202501315.172727
012415202153314442420140 2 1202501315.172730
012415302153314442420140 2 1202501315.172733
042115502153314442420140 2 1202501315.172736
012415502153314442420140 2 1202501315.172738
041215202135305442420140 1 1202501315.172744
042215302113315442420140 2 1202501315.172746
042115502113315442420140 2 1202501315.172749
042115502153315442420140 2 1202501315.172757
041215202135315442420140 1 1202501315.172800
041215202135325442420140 1 1202501315.172803
041215202135345442420140 1 1202501315.172805
041215202135355442420140 1 1202501315.172808
041215202135352542420140 1 1202501315.172810
002415302151314542420140 2 1202501315.172814
041215202135305542420140 1 1202501315.172819
041215202135315542420140 1 1202501315.172822
041215202135325542420140 1 1202501315.172824
041215202135345542420140 1 1202501315.172826
041215202135355542420140 1 1202501315.172829
012510302151304442420444 2 1202501315.173352
