044415352101354442420120 2 1202501315.172305
014510252130300442420412 1 1202501315.172619
014510252130310442420412 1 1202501315.172622
014510252130320442420412 1 1202501315.172625
014510252130340442420412 1 1202501315.172628
014510252130350442420412 1 1202501315.172632
014510252130300542420412 1 1202501315.172646
014510252130310542420412 1 1202501315.172649
014510252130320542420412 1 1202501315.172651
014510252130340542420412 1 1202501315.172654
014510252130350542420412 1 1202501315.172656
014510252130304542420412 1 1202501315.172701
014510252130314542420412 2 1202501315.172706
014510252131314542420412 2 1202501315.172709
014510252133314542420412 2 1202501315.172712
014510252134314542420412 2 1202501315.172714
014510252135314542420412 1 1202501315.172717
