00421023210030414042 1 1202502042.170045
00421223210030414042 1 1202502042.170048
00421323210030414042 1 1202502042.170051
00421023211030414042 1 1202502042.170054
00421223211030414042 1 1202502042.170056
00421323211030414042 1 1202502042.170059
00421023213030414042 1 1202502042.170102
00421223213030414042 1 1202502042.170104
00421323213030414042 1 1202502042.170107
