00121023214030104042 1 1202502042.170223
00121223214030104042 1 1202502042.170225
00121323214030104042 1 1202502042.170227
00111020214330104042 2 1202502042.170229
00111220214330104042 2 1202502042.170231
00111320214330104042 2 1202502042.170233
00421023210030114042 1 1202502042.170235
00421223210030114042 1 1202502042.170237
00421323210030114042 1 1202502042.170239
00421023211030114042 1 1202502042.170241
00421223211030114042 1 1202502042.170243
00421323211030114042 1 1202502042.170245
00421023213030114042 1 1202502042.170247
00421223213030114042 1 1202502042.170249
00421323213030114042 1 1202502042.170250
00121023214030114042 1 1202502042.170252
00421023214030114042 1 1202502042.170254
00121223214030114042 1 1202502042.170256
00421223214030114042 1 1202502042.170258
00121323214030114042 1 1202502042.170300
00421323214030114042 1 1202502042.170302
00021023210430114042 1 1202502042.170304
00121023210430114042 1 1202502042.170306
00221023210430114042 1 1202502042.170308
00421023210430114042 1 1202502042.170310
00021223210430114042 1 1202502042.170312
00121223210430114042 1 1202502042.170314
00221223210430114042 1 1202502042.170316
00421223210430114042 1 1202502042.170317
00021323210430114042 1 1202502042.170319
00121323210430114042 1 1202502042.170321
00221323210430114042 1 1202502042.170323
00421323210430114042 1 1202502042.170325
00021023211430114042 1 1202502042.170327
00121023211430114042 1 1202502042.170329
00221023211430114042 1 1202502042.170331
00421023211430114042 1 1202502042.170333
00021223211430114042 1 1202502042.170335
00121223211430114042 1 1202502042.170337
00221223211430114042 1 1202502042.170339
00421223211430114042 1 1202502042.170341
00021323211430114042 1 1202502042.170343
00121323211430114042 1 1202502042.170345
00221323211430114042 1 1202502042.170346
00421323211430114042 1 1202502042.170348
00021023213430114042 1 1202502042.170350
00121023213430114042 1 1202502042.170352
00221023213430114042 1 1202502042.170354
00421023213430114042 1 1202502042.170356
00021223213430114042 1 1202502042.170358
00121223213430114042 1 1202502042.170400
00221223213430114042 1 1202502042.170402
00421223213430114042 1 1202502042.170404
00021323213430114042 1 1202502042.170406
00121323213430114042 1 1202502042.170408
00221323213430114042 1 1202502042.170410
00421323213430114042 1 1202502042.170412
00021023214430114042 1 1202502042.170414
00121023214430114042 1 1202502042.170415
00221023214430114042 1 1202502042.170417
00421023214430114042 1 1202502042.170419
00021223214430114042 1 1202502042.170421
00121223214430114042 1 1202502042.170423
00221223214430114042 1 1202502042.170425
00421223214430114042 1 1202502042.170427
00021323214430114042 1 1202502042.170429
00121323214430114042 1 1202502042.170431
00221323214430114042 1 1202502042.170433
00421323214430114042 1 1202502042.170435
00111020214330124042 2 1202502042.170437
00111220214330124042 2 1202502042.170439
00111320214330124042 2 1202502042.170441
00011020200330144242 2 1202502042.170443
00111020200330144242 2 1202502042.170445
00211020200330144242 2 1202502042.170447
00411020200330144242 2 1202502042.170449
00011220200330144242 2 1202502042.170451
00111220200330144242 2 1202502042.170453
00211220200330144242 2 1202502042.170455
00411220200330144242 2 1202502042.170457
00011320200330144242 2 1202502042.170459
00111320200330144242 2 1202502042.170501
00211320200330144242 2 1202502042.170503
00411320200330144242 2 1202502042.170505
00011022200330144242 2 1202502042.170507
00111022200330144242 2 1202502042.170509
00211022200330144242 2 1202502042.170511
00411022200330144242 2 1202502042.170513
00011222200330144242 2 1202502042.170515
00111222200330144242 2 1202502042.170517
00211222200330144242 2 1202502042.170519
00411222200330144242 2 1202502042.170521
00011322200330144242 2 1202502042.170523
00111322200330144242 2 1202502042.170525
00211322200330144242 2 1202502042.170527
00411322200330144242 2 1202502042.170529
00011023200330144242 2 1202502042.170531
00111023200330144242 2 1202502042.170533
00211023200330144242 2 1202502042.170535
00411023200330144242 2 1202502042.170537
00011223200330144242 2 1202502042.170539
00111223200330144242 2 1202502042.170541
00211223200330144242 2 1202502042.170543
00411223200330144242 2 1202502042.170545
00011323200330144242 2 1202502042.170547
00111323200330144242 2 1202502042.170549
00211323200330144242 2 1202502042.170551
00411323200330144242 2 1202502042.170553
00011020201330144242 2 1202502042.170555
00111020201330144242 2 1202502042.170557
00211020201330144242 2 1202502042.170559
00411020201330144242 2 1202502042.170601
00011220201330144242 2 1202502042.170603
00111220201330144242 2 1202502042.170605
00211220201330144242 2 1202502042.170607
00411220201330144242 2 1202502042.170609
00011320201330144242 2 1202502042.170611
00111320201330144242 2 1202502042.170613
00211320201330144242 2 1202502042.170615
00411320201330144242 2 1202502042.170617
00011022201330144242 2 1202502042.170619
00111022201330144242 2 1202502042.170621
00211022201330144242 2 1202502042.170623
00411022201330144242 2 1202502042.170625
00011222201330144242 2 1202502042.170627
00111222201330144242 2 1202502042.170629
00211222201330144242 2 1202502042.170631
00411222201330144242 2 1202502042.170633
00011322201330144242 2 1202502042.170635
00111322201330144242 2 1202502042.170637
00211322201330144242 2 1202502042.170639
00411322201330144242 2 1202502042.170641
00011023201330144242 2 1202502042.170643
00111023201330144242 2 1202502042.170645
00211023201330144242 2 1202502042.170647
00411023201330144242 2 1202502042.170649
00011223201330144242 2 1202502042.170651
00111223201330144242 2 1202502042.170653
00211223201330144242 2 1202502042.170655
00411223201330144242 2 1202502042.170657
00011323201330144242 2 1202502042.170659
00111323201330144242 2 1202502042.170701
00211323201330144242 2 1202502042.170703
00411323201330144242 2 1202502042.170705
00011020203330144242 2 1202502042.170707
00111020203330144242 2 1202502042.170709
00211020203330144242 2 1202502042.170711
01211020203330144242 2 1202502042.170712
00411020203330144242 2 1202502042.170714
00011220203330144242 2 1202502042.170716
00111220203330144242 2 1202502042.170718
00211220203330144242 2 1202502042.170720
00411220203330144242 2 1202502042.170722
00011320203330144242 2 1202502042.170724
00111320203330144242 2 1202502042.170726
00211320203330144242 2 1202502042.170728
00411320203330144242 2 1202502042.170730
00011022203330144242 2 1202502042.170732
00111022203330144242 2 1202502042.170734
01111022203330144242 2 1202502042.170736
00211022203330144242 2 1202502042.170738
00411022203330144242 2 1202502042.170740
00011222203330144242 2 1202502042.170742
00111222203330144242 2 1202502042.170744
00211222203330144242 2 1202502042.170746
00411222203330144242 2 1202502042.170748
00011322203330144242 2 1202502042.170750
00111322203330144242 2 1202502042.170752
00211322203330144242 2 1202502042.170754
00411322203330144242 2 1202502042.170756
00011023203330144242 2 1202502042.170758
00111023203330144242 2 1202502042.170800
00211023203330144242 2 1202502042.170802
00411023203330144242 2 1202502042.170804
00011223203330144242 2 1202502042.170806
00111223203330144242 2 1202502042.170808
00211223203330144242 2 1202502042.170810
00411223203330144242 2 1202502042.170812
00011323203330144242 2 1202502042.170814
00111323203330144242 2 1202502042.170816
00211323203330144242 2 1202502042.170818
00411323203330144242 2 1202502042.170820
00011020204330144242 2 1202502042.170822
00111020204330144242 2 1202502042.170824
00211020204330144242 2 1202502042.170826
00411020204330144242 2 1202502042.170828
00011220204330144242 2 1202502042.170830
00111220204330144242 2 1202502042.170832
00211220204330144242 2 1202502042.170834
00411220204330144242 2 1202502042.170836
00011320204330144242 2 1202502042.170838
00111320204330144242 2 1202502042.170840
00211320204330144242 2 1202502042.170842
00411320204330144242 2 1202502042.170844
00011022204330144242 2 1202502042.170846
00111022204330144242 2 1202502042.170848
00211022204330144242 2 1202502042.170850
00411022204330144242 2 1202502042.170852
00011222204330144242 2 1202502042.170854
00111222204330144242 2 1202502042.170856
00211222204330144242 2 1202502042.170858
00411222204330144242 2 1202502042.170900
00011322204330144242 2 1202502042.170902
00111322204330144242 2 1202502042.170904
00211322204330144242 2 1202502042.170906
00411322204330144242 2 1202502042.170908
00011023204330144242 2 1202502042.170910
00111023204330144242 2 1202502042.170912
00211023204330144242 2 1202502042.170914
00411023204330144242 2 1202502042.170916
00011223204330144242 2 1202502042.170918
00111223204330144242 2 1202502042.170920
00211223204330144242 2 1202502042.170922
00411223204330144242 2 1202502042.170924
00011323204330144242 2 1202502042.170926
00111323204330144242 2 1202502042.170928
00211323204330144242 2 1202502042.170930
00411323204330144242 2 1202502042.170932
00421023210031144242 1 1202502042.170934
00421023211031144242 1 1202502042.170936
00421023213031144242 1 1202502042.170938
00421023214031144242 1 1202502042.170940
