00421023210030014042 1 1202502042.170045
00421223210030014042 1 1202502042.170048
00421323210030014042 1 1202502042.170051
00421023211030014042 1 1202502042.170053
00421223211030014042 1 1202502042.170056
00421323211030014042 1 1202502042.170059
00421023213030014042 1 1202502042.170101
00421223213030014042 1 1202502042.170104
00421323213030014042 1 1202502042.170106
