2134084346
2134088442
2134092538
2134096634
2134100730
2134104826
2134108922
2134113018
2134346490
2134350586
2134354682
2134358778
2134362874
2134366970
2134371066
2134375162
2134608634
2134612730
2134616826
2134620922
2134625018
2134629114
2134633210
2134637306
2134870778
2134874874
2134878970
2134883066
2134887162
2134891258
2134895354
2134899450
2138278650
2138282746
2138286842
2138290938
2138295034
2138299130
2138303226
2138307322
2138540794
2138544890
2138548986
2138553082
2138557178
2138561274
2138565370
2138569466
2138802938
2138807034
2138811130
2138815226
2138819322
2138823418
2138827514
2138831610
2139065082
2139069178
2139073274
2139077370
2139081466
2139085562
2139089658
2139093754
2142472954
2142477050
2142481146
2142485242
2142489338
2142493434
2142497530
2142501626
2142735098
2142739194
2142743290
2142747386
2142751482
2142755578
2142759674
2142763770
2142997242
2143001338
2143005434
2143009530
2143013626
2143017722
2143021818
2143025914
2143259386
2143263482
2143267578
2143271674
2143275770
2143279866
2143283962
2143288058
2146667258
2146671354
2146675450
2146679546
2146683642
2146687738
2146691834
2146695930
2146929402
2146933498
2146937594
2146941690
2146945786
2146949882
2146953978
2146958074
2147191546
2147195642
2147199738
2147203834
2147207930
2147212026
2147216122
2147453690
2147457786
2147461882
2147465978
2147470074
2147474170
