0101111100120021021030000000 1 1202411074.185622
0101111100120021021130000000 1 1202411074.185631
0101113100120021021001000000 1 1202411074.185640
0101111100120021023001000000 1 1202411074.185647
0101113100120021023001000000 1 1202411074.185655
0101113110120021023001000000 1 1202411074.185702
0101113100120021021101000000 1 1202411074.185709
0101111100120021023101000000 1 1202411074.185717
0101113100120021023101000000 1 1202411074.185724
0101113110120021023101000000 1 1202411074.185731
0101113110120021023201000000 1 1202411074.185739
0101113100120021021011000000 1 1202411074.185746
0101111100120021023011000000 1 1202411074.185753
0101113100120021023011000000 1 1202411074.185800
0101113110120021023011000000 1 1202411074.185807
0101113110120021023111000000 1 1202411074.185815
0101113100120021021211000000 1 1202411074.185823
0101111100120021023211000000 1 1202411074.185831
0101113100120021023211000000 1 1202411074.185838
0101113110120021023211000000 1 1202411074.185845
0101111100120021021031000000 1 1202411074.185853
0101113100120021021031000000 1 1202411074.185900
0101111100120021023031000000 1 1202411074.185908
0101113100120021023031000000 1 1202411074.185915
0101113110120021023031000000 1 1202411074.185922
0101113110120021023131000000 1 1202411074.185930
0101111100120021021231000000 1 1202411074.185938
0101113100120021021231000000 1 1202411074.185945
0101113110120021021231000000 1 1202411074.185952
0101111100120021023231000000 1 1202411074.190000
0101113100120021023231000000 1 1202411074.190007
0101113110120021023231000000 1 1202411074.190014
0101111100120021021030100000 1 1202411074.190030
0101111100120021021130100000 1 1202411074.190038
0101113100120020021001100000 1 1202411074.190047
0101113100020021021001100000 1 1202411074.190054
0101113100020021021101100000 1 1202411074.190102
0101113100120020021011100000 1 1202411074.190110
0101113100020021021011100000 1 1202411074.190117
0101113100120020021111100000 1 1202411074.190125
0101113100020021021111100000 1 1202411074.190132
0101113100120020021211100000 1 1202411074.190140
0101113100020021021211100000 1 1202411074.190147
0101111100120021023211100000 1 1202411074.190154
0101113100120020021031100000 1 1202411074.190202
0101113100020021021031100000 1 1202411074.190209
0101111100120021021031100000 1 1202411074.190216
0101113100020021021131100000 1 1202411074.190224
0101111100120021021030200000 1 1202411074.190240
0101111100120021021130200000 1 1202411074.190249
0101111100120021021031200000 1 1202411074.190300
0101111100120021021030010000 1 1202411074.190318
0101111100120021021130010000 1 1202411074.190326
0101111100120021021230010000 1 1202411074.190335
0101111100120021021030110000 1 1202411074.190351
0101111100120021021130110000 1 1202411074.190359
0101111100120021021230110000 1 1202411074.190407
0101111100120021021030210000 1 1202411074.190422
0101111100120021021130210000 1 1202411074.190431
0101111100120021021031020000 1 1202411074.190445
0101111100120021021031120000 1 1202411074.190458
0101111100120021021031220000 1 1202411074.190509
0101111100120021021030030000 1 1202411074.190524
0101111100120021021130030000 1 1202411074.190532
0101111100120021021030130000 1 1202411074.190547
0101111100120021021130130000 1 1202411074.190555
0101111100120021021030230000 1 1202411074.190610
0101111100120021021130230000 1 1202411074.190618
0211113100020020321000001000 1 1202411074.190626
0211113100120020321000001000 1 1202411074.190632
0211113100020021321000001000 1 1202411074.190638
0211113100120021321000001000 1 1202411074.190644
0111113100020022321000001000 1 1202411074.190650
0111113100120022321000001000 1 1202411074.190656
0211113100020020321100001000 1 1202411074.190703
0211113100020021321100001000 1 1202411074.190709
0111113100020022321100001000 1 1202411074.190715
0111113100020022321200001000 1 1202411074.190722
0211113100020020321010001000 1 1202411074.190729
0211113100120020321010001000 1 1202411074.190735
0211113100020021321010001000 1 1202411074.190741
0111113100020022321010001000 1 1202411074.190747
0211113100020020321110001000 1 1202411074.190754
0211113100020021321110001000 1 1202411074.190800
0111113100020022321110001000 1 1202411074.190806
0211113100020021321210001000 1 1202411074.190813
0101111100120021021030001000 1 1202411074.190821
0211113100020020321030001000 1 1202411074.190827
0211113100120021321030001000 1 1202411074.190833
0111113100020022321030001000 1 1202411074.190839
0211113100020022321030001000 1 1202411074.190845
0111113100120022321030001000 1 1202411074.190851
0211113100120022321030001000 1 1202411074.190857
0101111100120021021130001000 1 1202411074.190905
0211113100020020321130001000 1 1202411074.190911
0111113100020022321130001000 1 1202411074.190917
0211113100020022321130001000 1 1202411074.190923
0211113100020020321230001000 1 1202411074.190930
0101113100120021021001001000 1 1202411074.190938
0101111100120021023001001000 1 1202411074.190945
0101113100120021023001001000 1 1202411074.190953
0101113110120021023001001000 1 1202411074.191000
0101113100120021021101001000 1 1202411074.191007
0101111100120021023101001000 1 1202411074.191015
0101113100120021023101001000 1 1202411074.191022
0101113110120021023101001000 1 1202411074.191029
0101113110120021023201001000 1 1202411074.191037
0101113100120021021011001000 1 1202411074.191044
0101111100120021023011001000 1 1202411074.191051
0101113100120021023011001000 1 1202411074.191058
0101113110120021023011001000 1 1202411074.191105
0101113110120021023111001000 1 1202411074.191113
0101113100120021021211001000 1 1202411074.191121
0101111100120021023211001000 1 1202411074.191129
0101113100120021023211001000 1 1202411074.191136
0101113110120021023211001000 1 1202411074.191143
0101111100120021021031001000 1 1202411074.191151
0101113100120021021031001000 1 1202411074.191158
