57
case #0  ::  [3226154668950]:  { 0 1 0 0 1 2 0 1 2 1 1 0 1 2 0 1 2 0 2 0 1 2 0 1 2 0 1 }  --->  313 timesteps
case #1  ::  [3226154668959]:  { 0 1 1 0 1 2 0 1 2 1 1 0 1 2 0 1 2 0 2 0 1 2 0 1 2 0 1 }  --->  2394 timesteps
case #2  ::  [3226154668968]:  { 0 1 2 0 1 2 0 1 2 1 1 0 1 2 0 1 2 0 2 0 1 2 0 1 2 0 1 }  --->  6442 timesteps
case #3  ::  [3226154668482]:  { 0 1 2 0 1 0 0 1 2 1 1 0 1 2 0 1 2 0 2 0 1 2 0 1 2 0 1 }  --->  538 timesteps
case #4  ::  [3226154668725]:  { 0 1 2 0 1 1 0 1 2 1 1 0 1 2 0 1 2 0 2 0 1 2 0 1 2 0 1 }  --->  1000 timesteps
case #5  ::  [3226154668968]:  { 0 1 2 0 1 2 0 1 2 1 1 0 1 2 0 1 2 0 2 0 1 2 0 1 2 0 1 }  --->  6442 timesteps
case #6  ::  [3226154668968]:  { 0 1 2 0 1 2 0 1 2 1 1 0 1 2 0 1 2 0 2 0 1 2 0 1 2 0 1 }  --->  6442 timesteps
case #7  ::  [3226154669697]:  { 0 1 2 0 1 2 1 1 2 1 1 0 1 2 0 1 2 0 2 0 1 2 0 1 2 0 1 }  --->  3004 timesteps
case #8  ::  [3226154670426]:  { 0 1 2 0 1 2 2 1 2 1 1 0 1 2 0 1 2 0 2 0 1 2 0 1 2 0 1 }  --->  547 timesteps
case #9  ::  [3226154666781]:  { 0 1 2 0 1 2 0 0 2 1 1 0 1 2 0 1 2 0 2 0 1 2 0 1 2 0 1 }  --->  16 timesteps
case #10  ::  [3226154668968]:  { 0 1 2 0 1 2 0 1 2 1 1 0 1 2 0 1 2 0 2 0 1 2 0 1 2 0 1 }  --->  6442 timesteps
case #11  ::  [3226154671155]:  { 0 1 2 0 1 2 0 2 2 1 1 0 1 2 0 1 2 0 2 0 1 2 0 1 2 0 1 }  --->  1304 timesteps
case #12  ::  [3226154655846]:  { 0 1 2 0 1 2 0 1 0 1 1 0 1 2 0 1 2 0 2 0 1 2 0 1 2 0 1 }  --->  1216 timesteps
case #13  ::  [3226154662407]:  { 0 1 2 0 1 2 0 1 1 1 1 0 1 2 0 1 2 0 2 0 1 2 0 1 2 0 1 }  --->  384 timesteps
case #14  ::  [3226154668968]:  { 0 1 2 0 1 2 0 1 2 1 1 0 1 2 0 1 2 0 2 0 1 2 0 1 2 0 1 }  --->  6442 timesteps
case #15  ::  [3226154668968]:  { 0 1 2 0 1 2 0 1 2 1 1 0 1 2 0 1 2 0 2 0 1 2 0 1 2 0 1 }  --->  6442 timesteps
case #16  ::  [3226154846115]:  { 0 1 2 0 1 2 0 1 2 1 1 1 1 2 0 1 2 0 2 0 1 2 0 1 2 0 1 }  --->  7040 timesteps
case #17  ::  [3226155023262]:  { 0 1 2 0 1 2 0 1 2 1 1 2 1 2 0 1 2 0 2 0 1 2 0 1 2 0 1 }  --->  1384 timesteps
case #18  ::  [3226154668968]:  { 0 1 2 0 1 2 0 1 2 1 1 0 1 2 0 1 2 0 2 0 1 2 0 1 2 0 1 }  --->  6442 timesteps
case #19  ::  [3226159451937]:  { 0 1 2 0 1 2 0 1 2 1 1 0 1 2 1 1 2 0 2 0 1 2 0 1 2 0 1 }  --->  536 timesteps
case #20  ::  [3226164234906]:  { 0 1 2 0 1 2 0 1 2 1 1 0 1 2 2 1 2 0 2 0 1 2 0 1 2 0 1 }  --->  3611 timesteps
case #21  ::  [3226140320061]:  { 0 1 2 0 1 2 0 1 2 1 1 0 1 2 0 0 2 0 2 0 1 2 0 1 2 0 1 }  --->  2395 timesteps
case #22  ::  [3226154668968]:  { 0 1 2 0 1 2 0 1 2 1 1 0 1 2 0 1 2 0 2 0 1 2 0 1 2 0 1 }  --->  6442 timesteps
case #23  ::  [3226169017875]:  { 0 1 2 0 1 2 0 1 2 1 1 0 1 2 0 2 2 0 2 0 1 2 0 1 2 0 1 }  --->  3301 timesteps
case #24  ::  [3226068575526]:  { 0 1 2 0 1 2 0 1 2 1 1 0 1 2 0 1 0 0 2 0 1 2 0 1 2 0 1 }  --->  991 timesteps
case #25  ::  [3226111622247]:  { 0 1 2 0 1 2 0 1 2 1 1 0 1 2 0 1 1 0 2 0 1 2 0 1 2 0 1 }  --->  2662 timesteps
case #26  ::  [3226154668968]:  { 0 1 2 0 1 2 0 1 2 1 1 0 1 2 0 1 2 0 2 0 1 2 0 1 2 0 1 }  --->  6442 timesteps
case #27  ::  [3226154668968]:  { 0 1 2 0 1 2 0 1 2 1 1 0 1 2 0 1 2 0 2 0 1 2 0 1 2 0 1 }  --->  6442 timesteps
case #28  ::  [3226283809131]:  { 0 1 2 0 1 2 0 1 2 1 1 0 1 2 0 1 2 1 2 0 1 2 0 1 2 0 1 }  --->  3187 timesteps
case #29  ::  [3226412949294]:  { 0 1 2 0 1 2 0 1 2 1 1 0 1 2 0 1 2 2 2 0 1 2 0 1 2 0 1 }  --->  1136 timesteps
case #30  ::  [3225379827990]:  { 0 1 2 0 1 2 0 1 2 1 1 0 1 2 0 1 2 0 0 0 1 2 0 1 2 0 1 }  --->  16337 timesteps
case #31  ::  [3225767248479]:  { 0 1 2 0 1 2 0 1 2 1 1 0 1 2 0 1 2 0 1 0 1 2 0 1 2 0 1 }  --->  7640 timesteps
case #32  ::  [3226154668968]:  { 0 1 2 0 1 2 0 1 2 1 1 0 1 2 0 1 2 0 2 0 1 2 0 1 2 0 1 }  --->  6442 timesteps
case #33  ::  [3226154668968]:  { 0 1 2 0 1 2 0 1 2 1 1 0 1 2 0 1 2 0 2 0 1 2 0 1 2 0 1 }  --->  6442 timesteps
case #34  ::  [3227316930435]:  { 0 1 2 0 1 2 0 1 2 1 1 0 1 2 0 1 2 0 2 1 1 2 0 1 2 0 1 }  --->  7613 timesteps
case #35  ::  [3228479191902]:  { 0 1 2 0 1 2 0 1 2 1 1 0 1 2 0 1 2 0 2 2 1 2 0 1 2 0 1 }  --->  2262 timesteps
case #36  ::  [3222667884567]:  { 0 1 2 0 1 2 0 1 2 1 1 0 1 2 0 1 2 0 2 0 0 2 0 1 2 0 1 }  --->  275 timesteps
case #37  ::  [3226154668968]:  { 0 1 2 0 1 2 0 1 2 1 1 0 1 2 0 1 2 0 2 0 1 2 0 1 2 0 1 }  --->  6442 timesteps
case #38  ::  [3229641453369]:  { 0 1 2 0 1 2 0 1 2 1 1 0 1 2 0 1 2 0 2 0 2 2 0 1 2 0 1 }  --->  980 timesteps
case #39  ::  [3205233962562]:  { 0 1 2 0 1 2 0 1 2 1 1 0 1 2 0 1 2 0 2 0 1 0 0 1 2 0 1 }  --->  153 timesteps
case #40  ::  [3215694315765]:  { 0 1 2 0 1 2 0 1 2 1 1 0 1 2 0 1 2 0 2 0 1 1 0 1 2 0 1 }  --->  131 timesteps
case #41  ::  [3226154668968]:  { 0 1 2 0 1 2 0 1 2 1 1 0 1 2 0 1 2 0 2 0 1 2 0 1 2 0 1 }  --->  6442 timesteps
case #42  ::  [3226154668968]:  { 0 1 2 0 1 2 0 1 2 1 1 0 1 2 0 1 2 0 2 0 1 2 0 1 2 0 1 }  --->  6442 timesteps
case #43  ::  [3257535728577]:  { 0 1 2 0 1 2 0 1 2 1 1 0 1 2 0 1 2 0 2 0 1 2 1 1 2 0 1 }  --->  666 timesteps
case #44  ::  [3288916788186]:  { 0 1 2 0 1 2 0 1 2 1 1 0 1 2 0 1 2 0 2 0 1 2 2 1 2 0 1 }  --->  999 timesteps
case #45  ::  [3132011490141]:  { 0 1 2 0 1 2 0 1 2 1 1 0 1 2 0 1 2 0 2 0 1 2 0 0 2 0 1 }  --->  9627 timesteps
case #46  ::  [3226154668968]:  { 0 1 2 0 1 2 0 1 2 1 1 0 1 2 0 1 2 0 2 0 1 2 0 1 2 0 1 }  --->  6442 timesteps
case #47  ::  [3320297847795]:  { 0 1 2 0 1 2 0 1 2 1 1 0 1 2 0 1 2 0 2 0 1 2 0 2 2 0 1 }  --->  16017 timesteps
case #48  ::  [2661295596006]:  { 0 1 2 0 1 2 0 1 2 1 1 0 1 2 0 1 2 0 2 0 1 2 0 1 0 0 1 }  --->  2312 timesteps
case #49  ::  [2943725132487]:  { 0 1 2 0 1 2 0 1 2 1 1 0 1 2 0 1 2 0 2 0 1 2 0 1 1 0 1 }  --->  1657 timesteps
case #50  ::  [3226154668968]:  { 0 1 2 0 1 2 0 1 2 1 1 0 1 2 0 1 2 0 2 0 1 2 0 1 2 0 1 }  --->  6442 timesteps
case #51  ::  [3226154668968]:  { 0 1 2 0 1 2 0 1 2 1 1 0 1 2 0 1 2 0 2 0 1 2 0 1 2 0 1 }  --->  6442 timesteps
case #52  ::  [4073443278411]:  { 0 1 2 0 1 2 0 1 2 1 1 0 1 2 0 1 2 0 2 0 1 2 0 1 2 1 1 }  --->  420 timesteps
case #53  ::  [4920731887854]:  { 0 1 2 0 1 2 0 1 2 1 1 0 1 2 0 1 2 0 2 0 1 2 0 1 2 2 1 }  --->  1505 timesteps
case #54  ::  [684288840639]:  { 0 1 2 0 1 2 0 1 2 1 1 0 1 2 0 1 2 0 2 0 1 2 0 1 2 0 0 }  --->  8048 timesteps
case #55  ::  [3226154668968]:  { 0 1 2 0 1 2 0 1 2 1 1 0 1 2 0 1 2 0 2 0 1 2 0 1 2 0 1 }  --->  6442 timesteps
case #56  ::  [5768020497297]:  { 0 1 2 0 1 2 0 1 2 1 1 0 1 2 0 1 2 0 2 0 1 2 0 1 2 0 2 }  --->  915 timesteps
