0121102521433102400102624001 1202403052.015754
0121102521433112400102624001 1202403052.015818
0121102521433122400102624001 1202403052.015843
0121102521433142400102624001 1202403052.015908
0121102521433152400102624001 1202403052.015933
0121102521433162400102624001 1202403052.015958
0121102521433102400202624001 1202403052.020031
0121102521433112400202624001 1202403052.020055
0121102521433122400202624001 1202403052.020120
0121102521433142400202624001 1202403052.020145
0121102521433152400202624001 1202403052.020210
0121102521433162400202624001 1202403052.020235
0121104521433061400601661124 1202403052.025621
0121104521433161400601661124 1202403052.025647
0121104521433561400601661124 1202403052.025715
0121104521433661400601661124 1202403052.025742
0121104520433602400601661124 1202403052.025809
0121104521433602400601661124 1202403052.025833
0121104520433112400601661124 1202403052.025857
0121104521433112400601661124 1202403052.025921
0121104520433612400601661124 1202403052.025948
0121104521433612400601661124 1202403052.030012
0121104520433142400601661124 1202403052.030040
0121104521433142400601661124 1202403052.030104
0121104520433642400601661124 1202403052.030131
0121104521433642400601661124 1202403052.030154
0121104520433162400601661124 1202403052.030226
0121104521433162400601661124 1202403052.030250
0121104520433662400601661124 1202403052.030319
0121104521433662400601661124 1202403052.030343
0121104521433064400601661124 1202403052.030417
0121104521433164400601661124 1202403052.030445
0121104521433564400601661124 1202403052.030516
0121104521433664400601661124 1202403052.030547
0121104520433565400601661124 1202403052.030635
0121104525433565400601661124 1202403052.030701
0121104526433565400601661124 1202403052.030727
