0122102521433010400106264202 1202403122.054844
0122106521433010400106264202 1202403122.054907
0122102521433110400106264202 1202403122.054931
0122106521433110400106264202 1202403122.054955
0122100521433060400106264202 1202403122.055019
0122102521433060400106264202 1202403122.055042
0122103521433060400106264202 1202403122.055106
0122104521433060400106264202 1202403122.055130
0122105521433060400106264202 1202403122.055153
0122106521433060400106264202 1202403122.055217
0122100521433160400106264202 1202403122.055241
0122102521433160400106264202 1202403122.055304
0122103521433160400106264202 1202403122.055328
0122104521433160400106264202 1202403122.055352
0122105521433160400106264202 1202403122.055416
0122106521433160400106264202 1202403122.055440
0122106521433001400106264202 1202403122.055503
0122106521433011400106264202 1202403122.055527
0122106521433041400106264202 1202403122.055550
0122106521433051400106264202 1202403122.055614
0122104521433061400106264202 1202403122.055638
0122106521433061400106264202 1202403122.055702
0122102521433014400106264202 1202403122.055726
0122106521433014400106264202 1202403122.055749
0122100521433064400106264202 1202403122.055813
0122102521433064400106264202 1202403122.055837
0122103521433064400106264202 1202403122.055901
0122104521433064400106264202 1202403122.055925
0122105521433064400106264202 1202403122.055949
0122106521433064400106264202 1202403122.060013
0122100521433006400106264202 1202403122.060037
0122102521433006400106264202 1202403122.060100
0122103521433006400106264202 1202403122.060124
0122104521433006400106264202 1202403122.060147
0122105521433006400106264202 1202403122.060211
0122106521433006400106264202 1202403122.060234
0122102521433016400106264202 1202403122.060258
0122104521433016400106264202 1202403122.060321
0122106521433016400106264202 1202403122.060345
0122100521433046400106264202 1202403122.060408
0122102521433046400106264202 1202403122.060431
0122103521433046400106264202 1202403122.060455
0122104521433046400106264202 1202403122.060518
0122105521433046400106264202 1202403122.060541
0122106521433046400106264202 1202403122.060605
0122100521433056400106264202 1202403122.060628
0122102521433056400106264202 1202403122.060651
0122103521433056400106264202 1202403122.060715
0122104521433056400106264202 1202403122.060738
0122105521433056400106264202 1202403122.060801
0122106521433056400106264202 1202403122.060825
0122100521433066400106264202 1202403122.060848
0122102521433066400106264202 1202403122.060911
0122103521433066400106264202 1202403122.060935
0122104521433066400106264202 1202403122.060958
0122105521433066400106264202 1202403122.061021
0122106521433066400106264202 1202403122.061045
0122102521433010400206264202 1202403122.061108
0122106521433010400206264202 1202403122.061132
0122102521433110400206264202 1202403122.061155
0122106521433110400206264202 1202403122.061219
0122100521433060400206264202 1202403122.061243
0122102521433060400206264202 1202403122.061306
0122103521433060400206264202 1202403122.061329
0122104521433060400206264202 1202403122.061353
0122105521433060400206264202 1202403122.061416
0122106521433060400206264202 1202403122.061439
0122100521433160400206264202 1202403122.061503
0122102521433160400206264202 1202403122.061526
0122103521433160400206264202 1202403122.061549
0122104521433160400206264202 1202403122.061612
0122105521433160400206264202 1202403122.061636
0122106521433160400206264202 1202403122.061659
0122106521433001400206264202 1202403122.061722
0122106521433011400206264202 1202403122.061745
0122106521433041400206264202 1202403122.061808
0122106521433051400206264202 1202403122.061831
0122104521433061400206264202 1202403122.061854
0122106521433061400206264202 1202403122.061917
0122102521433014400206264202 1202403122.061940
0122106521433014400206264202 1202403122.062003
0122100521433064400206264202 1202403122.062026
0122102521433064400206264202 1202403122.062049
0122103521433064400206264202 1202403122.062112
0122104521433064400206264202 1202403122.062135
0122105521433064400206264202 1202403122.062158
0122106521433064400206264202 1202403122.062221
0122100521433006400206264202 1202403122.062244
0122102521433006400206264202 1202403122.062307
0122103521433006400206264202 1202403122.062329
0122104521433006400206264202 1202403122.062352
0122105521433006400206264202 1202403122.062415
0122106521433006400206264202 1202403122.062437
0122102521433016400206264202 1202403122.062500
0122104521433016400206264202 1202403122.062523
0122106521433016400206264202 1202403122.062546
0122100521433046400206264202 1202403122.062609
0122102521433046400206264202 1202403122.062632
0122103521433046400206264202 1202403122.062654
0122104521433046400206264202 1202403122.062717
0122105521433046400206264202 1202403122.062740
0122106521433046400206264202 1202403122.062803
0122100521433056400206264202 1202403122.062826
0122102521433056400206264202 1202403122.062849
0122103521433056400206264202 1202403122.062912
0122104521433056400206264202 1202403122.062934
0122105521433056400206264202 1202403122.062957
0122106521433056400206264202 1202403122.063020
0122100521433066400206264202 1202403122.063043
0122102521433066400206264202 1202403122.063106
0122103521433066400206264202 1202403122.063129
0122104521433066400206264202 1202403122.063152
0122105521433066400206264202 1202403122.063214
0122106521433066400206264202 1202403122.063237
