0122102621433515400105114502 1202403052.022248
0126102621433515400105114502 1202403052.022311
0126102625433515400105114502 1202403052.022334
0122102621433515400205114502 1202403052.022832
0126102621433515400205114502 1202403052.022854
0126102625433515400205114502 1202403052.022917
0121102621433010400102214502 1202403052.023528
0121102621433110400102214502 1202403052.023553
0121102621433102400102214502 1202403052.023620
0121102621433012400102214502 1202403052.023647
0121102621433112400102214502 1202403052.023711
0121102621433122400102214502 1202403052.023736
0121102621433042400102214502 1202403052.023801
0121102621433142400102214502 1202403052.023826
0121102621433152400102214502 1202403052.023851
0121102621433062400102214502 1202403052.023918
0121102621433162400102214502 1202403052.023943
0121102621433014400102214502 1202403052.024008
0121102621433114400102214502 1202403052.024032
0121102621433015400102214502 1202403052.024059
0121102621433115400102214502 1202403052.024125
0121102621433016400102214502 1202403052.024150
0121102621433010400202214502 1202403052.024218
0121102621433110400202214502 1202403052.024243
0121102621433102400202214502 1202403052.024309
0121102621433012400202214502 1202403052.024336
0121102621433112400202214502 1202403052.024400
0121102621433122400202214502 1202403052.024426
0121102621433042400202214502 1202403052.024451
0121102621433142400202214502 1202403052.024515
0121102621433152400202214502 1202403052.024541
0121102621433062400202214502 1202403052.024608
0121102621433162400202214502 1202403052.024633
0121102621433014400202214502 1202403052.024657
0121102621433114400202214502 1202403052.024722
0121102621433015400202214502 1202403052.024749
0121102621433115400202214502 1202403052.024815
0121102621433016400202214502 1202403052.024840
0122102621433515400105214502 1202403052.025623
0126102621433515400105214502 1202403052.025646
0126102625433515400105214502 1202403052.025709
0122102621433515400205214502 1202403052.030207
0126102621433515400205214502 1202403052.030229
0126102625433515400205214502 1202403052.030252
0121102621433010400102414502 1202403052.031730
0121102621433110400102414502 1202403052.031755
0121102621433102400102414502 1202403052.031822
0121102621433012400102414502 1202403052.031848
0121102621433112400102414502 1202403052.031913
0121102621433122400102414502 1202403052.031938
0121102621433042400102414502 1202403052.032003
0121102621433142400102414502 1202403052.032028
0121102621433052400102414502 1202403052.032053
0121102621433152400102414502 1202403052.032117
0121102621433062400102414502 1202403052.032144
0121102621433162400102414502 1202403052.032209
0121102621433014400102414502 1202403052.032233
0121102621433114400102414502 1202403052.032258
0121102621433015400102414502 1202403052.032325
0121102621433115400102414502 1202403052.032351
0121102621433016400102414502 1202403052.032416
0121102621433010400202414502 1202403052.032443
0121102621433110400202414502 1202403052.032509
0121102621433102400202414502 1202403052.032535
0121102621433012400202414502 1202403052.032601
0121102621433112400202414502 1202403052.032626
0121102621433122400202414502 1202403052.032651
0121102621433042400202414502 1202403052.032716
0121102621433142400202414502 1202403052.032741
0121102621433052400202414502 1202403052.032806
0121102621433152400202414502 1202403052.032831
0121102621433062400202414502 1202403052.032857
0121102621433162400202414502 1202403052.032922
0121102621433014400202414502 1202403052.032947
0121102621433114400202414502 1202403052.033011
0121102621433015400202414502 1202403052.033038
0121102621433115400202414502 1202403052.033104
0121102621433016400202414502 1202403052.033129
0122102621433515400105414502 1202403052.033805
0126102621433515400105414502 1202403052.033828
0126102625433515400105414502 1202403052.033851
0122102621433515400205414502 1202403052.034348
0126102621433515400205414502 1202403052.034411
0126102625433515400205414502 1202403052.034434
0121102621433010400102614502 1202403052.034956
0121102621433110400102614502 1202403052.035021
0121102621433102400102614502 1202403052.035048
0121102621433012400102614502 1202403052.035115
0121102621433112400102614502 1202403052.035139
0121102621433122400102614502 1202403052.035205
0121102621433042400102614502 1202403052.035230
0121102621433142400102614502 1202403052.035254
0121102621433052400102614502 1202403052.035320
0121102621433152400102614502 1202403052.035344
0121102621433062400102614502 1202403052.035411
0121102621433162400102614502 1202403052.035436
0121102621433014400102614502 1202403052.035500
0121102621433114400102614502 1202403052.035524
0121102621433015400102614502 1202403052.035552
0121102621433115400102614502 1202403052.035618
0121102621433016400102614502 1202403052.035643
0121102621433010400202614502 1202403052.035711
0121102621433110400202614502 1202403052.035736
0121102621433102400202614502 1202403052.035802
0121102621433012400202614502 1202403052.035828
0121102621433112400202614502 1202403052.035853
0121102621433122400202614502 1202403052.035918
0121102621433042400202614502 1202403052.035943
0121102621433142400202614502 1202403052.040008
0121102621433052400202614502 1202403052.040033
0121102621433152400202614502 1202403052.040057
0121102621433062400202614502 1202403052.040124
0121102621433162400202614502 1202403052.040149
0121102621433014400202614502 1202403052.040213
0121102621433114400202614502 1202403052.040238
0121102621433015400202614502 1202403052.040305
0121102621433115400202614502 1202403052.040330
0121102621433016400202614502 1202403052.040354
0122102621433515400105614502 1202403052.041116
0126102621433515400105614502 1202403052.041139
0124102225433515400105614502 1202403052.041202
0126102225433515400105614502 1202403052.041224
0126102625433515400105614502 1202403052.041247
0122102621433515400205614502 1202403052.041747
0126102621433515400205614502 1202403052.041810
0124102225433515400205614502 1202403052.041833
0126102225433515400205614502 1202403052.041856
0126102625433515400205614502 1202403052.041918
