0121102226433510400205021000 1202403225.193228
0121102226433514400205021000 1202403225.193228
0121102226433516400205021000 1202403225.193229
0121102226433510400605021000 1202403225.193230
0121102226433514400605021000 1202403225.193230
0121102226433516400605021000 1202403225.193231
0126104526433561400605121420 1202403225.193232
0126104526433564400605121420 1202403225.193233
0121102521433102400102624001 1202403225.193233
0121102521433112400102624001 1202403225.193234
0121102521433122400102624001 1202403225.193234
0121102521433142400102624001 1202403225.193235
0121102521433152400102624001 1202403225.193236
0121102521433162400102624001 1202403225.193236
0121102521433102400202624001 1202403225.193237
0121102521433112400202624001 1202403225.193238
0121102521433122400202624001 1202403225.193238
0121102521433142400202624001 1202403225.193239
0121102521433152400202624001 1202403225.193239
0121102521433162400202624001 1202403225.193240
0122102025433510400605662103 1202403225.193241
0122102525433515400605662103 1202403225.193242
0121104521433561400605222511 1202403225.193242
0121104521433564400605222511 1202403225.193243
0122102521433010400106264202 1202403225.193244
0122106521433010400106264202 1202403225.193244
0122102521433110400106264202 1202403225.193245
0122106521433110400106264202 1202403225.193245
0122100521433060400106264202 1202403225.193246
0122102521433060400106264202 1202403225.193247
0122103521433060400106264202 1202403225.193247
0122104521433060400106264202 1202403225.193248
0122105521433060400106264202 1202403225.193248
0122106521433060400106264202 1202403225.193249
0122100521433160400106264202 1202403225.193250
0122102521433160400106264202 1202403225.193250
0122103521433160400106264202 1202403225.193251
0122104521433160400106264202 1202403225.193251
0122105521433160400106264202 1202403225.193252
0122106521433160400106264202 1202403225.193253
0122106521433001400106264202 1202403225.193253
0122106521433011400106264202 1202403225.193254
0122106521433041400106264202 1202403225.193254
0122106521433051400106264202 1202403225.193255
0122104521433061400106264202 1202403225.193256
0122106521433061400106264202 1202403225.193256
0122100521433161400106264202 1202403225.193257
0122102521433014400106264202 1202403225.193257
0122106521433014400106264202 1202403225.193258
0122100521433064400106264202 1202403225.193259
0122102521433064400106264202 1202403225.193259
0122103521433064400106264202 1202403225.193300
0122104521433064400106264202 1202403225.193300
0122105521433064400106264202 1202403225.193301
0122106521433064400106264202 1202403225.193302
0122100521433006400106264202 1202403225.193302
0122102521433006400106264202 1202403225.193303
0122103521433006400106264202 1202403225.193303
0122104521433006400106264202 1202403225.193304
0122105521433006400106264202 1202403225.193305
0122106521433006400106264202 1202403225.193305
0122102521433016400106264202 1202403225.193306
0122104521433016400106264202 1202403225.193306
0122106521433016400106264202 1202403225.193307
0122100521433046400106264202 1202403225.193308
0122102521433046400106264202 1202403225.193308
0122103521433046400106264202 1202403225.193309
0122104521433046400106264202 1202403225.193309
0122105521433046400106264202 1202403225.193310
