012110222443311040002000 1202401217.172548
012110222443301240002000 1202401217.172551
012110222443311240002000 1202401217.172551
012110222443314240002000 1202401217.172552
012110222343301440002000 1202401217.172554
012210102143301540002400 1202401217.173130
012210102143311540002400 1202401217.173130
012110222543321040001500 1202401217.173153
012110222043351040001500 1202401217.173154
012110222543351040001500 1202401217.173154
012110222543321440001500 1202401217.173155
012110222043351440001500 1202401217.173156
012110222543351440001500 1202401217.173156
012110222543321540001500 1202401217.173157
012110222043351540001500 1202401217.173158
012110222543351540001500 1202401217.173159
012210102143305540002410 1202401217.173912
012210102143315540002410 1202401217.173912
012110222543325040001510 1202401217.174101
012110222043355040001510 1202401217.174101
012110222543355040001510 1202401217.174102
012110222543325440001510 1202401217.174105
012110222043355440001510 1202401217.174106
012110222543355440001510 1202401217.174107
012110222043351540001510 1202401217.174108
012110222543351540001510 1202401217.174108
012110222043355540001510 1202401217.174111
012110222543355540001510 1202401217.174111
012210252143351440000520 1202401217.174818
012110222543325040001520 1202401217.174829
012110222043355040001520 1202401217.174830
012110222543355040001520 1202401217.174831
012110222543325440001520 1202401217.174840
012110222043355440001520 1202401217.174842
012110222543355440001520 1202401217.174843
012110422543325040021520 1202401217.174910
012110422543325140021520 1202401217.174917
012110422543325440021520 1202401217.174923
012110222543321540001540 1202401217.180139
012110222043351540001540 1202401217.180140
012110222543351540001540 1202401217.180140
012210102143305540002401 1202401217.181739
012210102143315540002401 1202401217.181739
012210222543351440000511 1202401217.182745
012510552043351040001021 1202401217.182915
012510052543305040001021 1202401217.182919
012510452543305040001021 1202401217.182919
012510422543315040001021 1202401217.182920
012510052543315040001021 1202401217.182920
012510052043355040001021 1202401217.182923
012510452043355040001021 1202401217.182923
012510552043355040001021 1202401217.182923
012510052543355040001021 1202401217.182924
012510452543355040001021 1202401217.182925
012510052543305140001021 1202401217.182934
012510452543305140001021 1202401217.182934
012510052543315140001021 1202401217.182935
012510052043355140001021 1202401217.182937
012510052543355140001021 1202401217.182938
012510052543300240001021 1202401217.182939
012510452543300240001021 1202401217.182939
012510452543310240001021 1202401217.182940
012510052543340240001021 1202401217.182940
012510452543350240001021 1202401217.182941
012510422543311240001021 1202401217.182942
012510422543351240001021 1202401217.182943
012510422543314240001021 1202401217.182949
012510422543354240001021 1202401217.182951
012510422543305240001021 1202401217.182952
012510422543315240001021 1202401217.182953
012510552043351440001021 1202401217.182958
012510452543305440001021 1202401217.183002
012510052043355440001021 1202401217.183005
012510552043355440001021 1202401217.183005
012510052543355440001021 1202401217.183006
012110452543350240051021 1202401217.183322
012510422543355040001121 1202401217.183630
012510422543351240001121 1202401217.183645
012510422543354240001121 1202401217.183651
012510022043355040001521 1202401217.185318
012510052043355040001521 1202401217.185319
012510052543355040001521 1202401217.185320
012510022043355140001521 1202401217.185330
012510052043355140001521 1202401217.185330
012510052543355140001521 1202401217.185331
012510022543355240001521 1202401217.185347
012510052543355240001521 1202401217.185347
012510022043355440001521 1202401217.185356
012510052043355440001521 1202401217.185356
012510022543355440001521 1202401217.185357
012510052543355440001521 1202401217.185357
012110222543301540020041 1202401217.190246
012210252543301440010441 1202401217.190805
012110222543301540010441 1202401217.190807
012210102143315540002441 1202401217.190835
012210222543351440010541 1202401217.190856
012210222543351440020541 1202401217.190901
012110252143351240001102 1202401217.191931
012210202143351040000502 1202401217.192411
012210202143351540000502 1202401217.192412
012110222043351040001502 1202401217.192423
012110252043351040001502 1202401217.192423
012110222043351440001502 1202401217.192427
012110222043351540001502 1202401217.192429
012110252043351540001502 1202401217.192429
012210202143351040000512 1202401217.193211
012210202143351540000512 1202401217.193213
012110252043351040001512 1202401217.193224
012110222043355040001512 1202401217.193226
012110252043355040001512 1202401217.193226
012110252043351440001512 1202401217.193228
012110222043355440001512 1202401217.193229
012110252043355440001512 1202401217.193229
012110252043351040001022 1202401217.193333
012510252043351040001022 1202401217.193333
012510552043351040001022 1202401217.193334
012510052043355040001022 1202401217.193346
012110252043355040001022 1202401217.193347
012510052043355140001022 1202401217.193411
012510452043355140001022 1202401217.193412
012110252043351440001022 1202401217.193419
012510252043351440001022 1202401217.193419
012510552043351440001022 1202401217.193419
012510052043355440001022 1202401217.193434
012110252043355440001022 1202401217.193435
012210202143351040000522 1202401217.200125
012510202043351040001522 1202401217.200140
012510502043351040001522 1202401217.200140
012510222043351040001522 1202401217.200141
012510522043351040001522 1202401217.200141
012110252043351040001522 1202401217.200141
012510252043351040001522 1202401217.200142
012510552043351040001522 1202401217.200142
012510202143351040001522 1202401217.200142
012510502143351040001522 1202401217.200142
012510002043355040001522 1202401217.200152
012510022043355040001522 1202401217.200154
012110222043355040001522 1202401217.200154
012510052043355040001522 1202401217.200156
012110252043355040001522 1202401217.200156
012510002143355040001522 1202401217.200158
012510002043355140001522 1202401217.200217
012510022043355140001522 1202401217.200218
012510422043355140001522 1202401217.200218
012510052043355140001522 1202401217.200218
012510452043355140001522 1202401217.200218
012510002143355140001522 1202401217.200219
012510222043351440001522 1202401217.200225
012510522043351440001522 1202401217.200225
012110252043351440001522 1202401217.200225
012510252043351440001522 1202401217.200226
012510552043351440001522 1202401217.200226
012510022043355440001522 1202401217.200240
012110222043355440001522 1202401217.200241
012510052043355440001522 1202401217.200242
012110252043355440001522 1202401217.200243
012110252143310240010242 1202401217.201503
012210202143351040000542 1202401217.201623
012210202143351540000542 1202401217.201624
012110222043351540001542 1202401217.201635
012210202143351040000552 1202401217.202155
012210202143351540000552 1202401217.202156
012110522443314240002003 1202401217.202250
012110552044302040002303 1202401217.202716
012110552043314540002403 1202401217.203141
012110522443311040002043 1202401217.210055
012110522443301240002043 1202401217.210100
012110522443311240002043 1202401217.210101
012110522343301440002043 1202401217.210105
012110552044301040002343 1202401217.210538
012110552043301440002343 1202401217.210619
012110552043311040002443 1202401217.211021
012110552043301540002443 1202401217.211026
012110552043311540002443 1202401217.211027
012110222543311040001004 1202401217.212149
012110222543301240001004 1202401217.212150
012110222543311240001004 1202401217.212151
012110222543314240001004 1202401217.212151
012110222543354240001004 1202401217.212152
012110222543311540001004 1202401217.212154
012110222543351540001004 1202401217.212155
012110222343305440002004 1202401217.212324
012110222443315440002004 1202401217.212328
012110222543351040001104 1202401217.212719
012110222543354240001104 1202401217.212722
012110222543315040001014 1202401217.213742
012110222543305240001014 1202401217.213746
012110222543315240001014 1202401217.213747
012110222543301540001014 1202401217.213750
012110222543311540001014 1202401217.213750
012110222543314540001014 1202401217.213751
012110222543354540001014 1202401217.213752
012110222543305540001014 1202401217.213752
012110222543315540001014 1202401217.213753
012210102143305040002014 1202401217.213947
012210102143315040002014 1202401217.213951
012210102143315440002014 1202401217.214009
012110222543355040001114 1202401217.214344
012110222543354540001114 1202401217.214354
012210102143305040002114 1202401217.214550
012210102143315040002114 1202401217.214552
012210102143315440002114 1202401217.214602
012210102143305540002414 1202401217.215513
012110222543315040001024 1202401217.215937
012110222543305240001024 1202401217.215941
012110222543315240001024 1202401217.215941
012110452543350240051024 1202401217.220857
012110222543355040001124 1202401217.221522
012110222543315240001044 1202401217.231857
012110222543355240001044 1202401217.231857
012110222443315040002044 1202401217.231943
012110222443305240002044 1202401217.231953
012110222443315240002044 1202401217.231953
012110222543355240001144 1202401217.232404
012110222543315240001054 1202401217.233155
012110222543355240001054 1202401217.233156
012110222543355240001154 1202401217.233619
