01261037214132654001110042014501 2 1202406156.000809
01261037214132654002110042014501 2 1202406156.001235
01261037214132654005110042014501 2 1202406156.001654
01261007214532614001113042014501 2 1202406156.003721
01261007214532614002113042014501 2 1202406156.004140
01261007214532614005113042014501 2 1202406156.004603
