012115252143301040420510 2 1202503027.174147
011115252143311040420510 2 1202503027.174148
011115252143300240420510 2 1202503027.174151
012115252143300240420510 2 1202503027.174152
012115252143301240420510 2 1202503027.174157
011115252143311240420510 2 1202503027.174158
012115252143302240420510 2 1202503027.174201
012115252143304240420510 2 1202503027.174205
011115252143305240420510 2 1202503027.174208
012115252143305240420510 2 1202503027.174210
041215202135314042420121 2 1202503027.174311
051410222530354042420121 2 1202503027.174314
004210552131354042420121 2 1202503027.174318
051410222530304142420121 1 1202503027.174320
054410202533300442420121 2 1202503027.174325
054410202533310442420121 2 1202503027.174328
004510202533310442420121 2 1202503027.174330
054510202533310442420121 2 1202503027.174332
054410202533350442420121 2 1202503027.174334
004510202533350442420121 2 1202503027.174336
054510202533350442420121 2 1202503027.174338
014110052133301442420121 2 1202503027.174340
054410202533301442420121 2 1202503027.174343
054410202533311442420121 2 1202503027.174346
004510202533311442420121 2 1202503027.174348
054510202533311442420121 2 1202503027.174349
014110052133351442420121 2 1202503027.174351
054410202533351442420121 2 1202503027.174353
004510202533351442420121 2 1202503027.174354
054510202533351442420121 2 1202503027.174356
054410202533302442420121 2 1202503027.174358
054410202533312442420121 2 1202503027.174401
004510202533312442420121 2 1202503027.174403
054510202533312442420121 2 1202503027.174404
054410202533352442420121 2 1202503027.174406
004510202533352442420121 2 1202503027.174408
054510202533352442420121 2 1202503027.174409
054410202533304442420121 2 1202503027.174412
014110052133314442420121 2 1202503027.174415
054410202533314442420121 2 1202503027.174418
004510202533314442420121 2 1202503027.174419
054510202533314442420121 2 1202503027.174421
014215202533314442420121 2 1202503027.174422
051410222530354442420121 1 1202503027.174424
054410202533354442420121 2 1202503027.174426
004510202533354442420121 2 1202503027.174428
054510202533354442420121 2 1202503027.174429
054410202533305442420121 2 1202503027.174431
054410202533315442420121 2 1202503027.174434
004510202533315442420121 2 1202503027.174435
054510202533315442420121 2 1202503027.174437
054410202533355442420121 2 1202503027.174439
004510202533355442420121 2 1202503027.174440
054510202533355442420121 2 1202503027.174442
051410222530354542420121 1 1202503027.174446
054110552131304042420521 2 1202503027.174451
054115552131304042420521 2 1202503027.174453
014210552103300442420521 2 1202503027.174457
014210552103301442420521 2 1202503027.174502
014210552103302442420521 2 1202503027.174506
051110252130304042420124 1 1202503027.174709
052210352111304042420124 2 1202503027.174711
051110252130314042420124 1 1202503027.174716
042415302111314042420124 2 1202503027.174717
052210352111314042420124 2 1202503027.174718
052210002131314042420124 2 1202503027.174721
042415302131314042420124 2 1202503027.174722
052210502131314042420124 2 1202503027.174723
051110252130354042420124 1 1202503027.174727
051110252130304142420124 1 1202503027.174731
052210352111304142420124 2 1202503027.174733
051110252130314142420124 1 1202503027.174735
051210252130314142420124 2 1202503027.174736
051110252130354142420124 1 1202503027.174741
052010002131354142420124 2 1202503027.174742
052010502131354142420124 2 1202503027.174743
002210052131354142420124 2 1202503027.174745
002210552131354142420124 2 1202503027.174747
051110252130304242420124 1 1202503027.174749
052210352111304242420124 2 1202503027.174751
051110252130314242420124 1 1202503027.174754
014510352111314242420124 2 1202503027.174756
052210302131314242420124 2 1202503027.174757
052210352111354242420124 2 1202503027.174759
052210052133310442420124 2 1202503027.174805
052210252133310442420124 2 1202503027.174807
051510252133310442420124 2 1202503027.174809
052210352133310442420124 2 1202503027.174811
052210552133310442420124 2 1202503027.174813
014510052103311442420124 2 1202503027.174818
024215052103311442420124 2 1202503027.174820
024415052103311442420124 2 1202503027.174821
014510252103311442420124 2 1202503027.174822
014510052113311442420124 2 1202503027.174823
024215052113311442420124 2 1202503027.174824
024415052113311442420124 2 1202503027.174826
052210052133311442420124 2 1202503027.174827
052210252133311442420124 2 1202503027.174830
051510252133311442420124 2 1202503027.174831
052210352133311442420124 2 1202503027.174833
052210552133311442420124 2 1202503027.174836
014210052103351442420124 2 1202503027.174838
014210052113351442420124 2 1202503027.174839
052210052133312442420124 2 1202503027.174843
052210252133312442420124 2 1202503027.174845
051510252133312442420124 2 1202503027.174847
052210352133312442420124 2 1202503027.174849
052210552133312442420124 2 1202503027.174851
051110252130304442420124 1 1202503027.174854
052210352111304442420124 2 1202503027.174856
051110252130314442420124 1 1202503027.174902
051210252130314442420124 1 1202503027.174903
052210352111314442420124 2 1202503027.174905
014510052103314442420124 2 1202503027.174910
014510252103314442420124 2 1202503027.174911
014510352103314442420124 2 1202503027.174912
014510552103314442420124 2 1202503027.174914
014510052113314442420124 2 1202503027.174915
052210052133314442420124 2 1202503027.174918
052210252133314442420124 2 1202503027.174920
051510252133314442420124 2 1202503027.174922
052210352133314442420124 2 1202503027.174924
052210552133314442420124 2 1202503027.174926
011010222030354442420124 1 1202503027.174929
052210052133315442420124 2 1202503027.174934
052210252133315442420124 2 1202503027.174937
051510252133315442420124 2 1202503027.174938
052210352133315442420124 2 1202503027.174940
052210552133315442420124 2 1202503027.174942
011010222030304542420124 1 1202503027.174946
051110252130304542420124 1 1202503027.174947
014510352101304542420124 2 1202503027.174948
052210352111304542420124 2 1202503027.174950
011010222030314542420124 1 1202503027.174955
051110252130314542420124 1 1202503027.174957
051210252130314542420124 1 1202503027.174958
014210352101314542420124 2 1202503027.174959
014510352101314542420124 2 1202503027.175000
052210352111314542420124 2 1202503027.175001
054210352111314542420124 2 1202503027.175003
014510352111314542420124 2 1202503027.175004
052210002131314542420124 2 1202503027.175006
052210502131314542420124 2 1202503027.175007
011010222030354542420124 1 1202503027.175012
052210352111354542420124 2 1202503027.175015
014410352101304042420524 2 1202503027.175019
014510352101304042420524 2 1202503027.175020
014410352101314042420524 2 1202503027.175022
014510352101314042420524 2 1202503027.175023
014210352101304242420524 2 1202503027.175028
014410352101304242420524 2 1202503027.175029
014210352101314242420524 2 1202503027.175032
014510352101314242420524 2 1202503027.175034
014210052103301442420524 2 1202503027.175048
014410052103301442420524 2 1202503027.175049
014210252103301442420524 2 1202503027.175050
014210052113301442420524 2 1202503027.175051
014410052113301442420524 2 1202503027.175053
014210052103311442420524 2 1202503027.175055
014210252103311442420524 2 1202503027.175057
014210052113311442420524 2 1202503027.175100
