364
486
4154
4900
6068
7004
7154
9012
9660
10726
13734
13784
14422
14740
15310
17306
19274
19898
20378
21286
21326
22598
25214
25592
25596
26030
26540
27082
27948
29846
30146
30758
31380
31798
34556
34802
35246
35820
36714
36718
36922
37468
37706
38490
40518
42614
43342
45370
46946
47412
47948
48174
48390
50588
51032
54220
54692
54712
54900
55156
55218
61748
62268
