2573637998
2573638006
2573637958
2573637926
2573638118
2573638502
2573639014
2573646182
2573654374
2573703526
2573506918
2574162278
2574686566
2582026598
2556860774
2607192422
2640746854
3110508902
3647379814