3226155259377
4920731946905
3226159510988
684288899689
3226111700979
4167586516287
3226154728503
3226153665135
3227316989486
3226121247234
3226154728125
3226154727765
3215694374817
3226169076915
3226154747214
3226154714886
3226154728035
3216856636281
3225767327211
4136205456678
684288899679
3215694906255
3132025898097
3228479251005
3226293434118
3226154729478
3226154722914
3229641866712
684288840639
3226151539374
3979300158633
3226154787066
2943725191050
3224992466550
3218018897748
3226165888278
3226164293469
3226154905893
3226154721447
3229641532101
3225767248479
3227316930435
684288886566
3229254091929
3205234021611
4073443691754
3226154728015
3226078200513
3222666349293
3231966035352
5767633135857
3226154728001
3225767189430
3226154714895
3320297906845
4073443357143
3226154728101
3226151539290
3222667963299
3226153153377
3226153133775
5768020438248
3226154846115
4920344526414
3225384670008
3207558544545
3383060026062
3226140379110
3288142006257
5768020733493
3229641499296
3226154728019
3226154727938
3229638323772
3226154728072
5768020549785
3228477656628
3226413008370
3226154714896
2943725184975
3225379887042
3133173810657
3226154727936
3226154668968
3229641512409
3226413185490
3226155259539
401859363207
4920731966586
3226164471102
3222667943130
3226169254071
3226167482601
4073443337442
3257535789084
3226152070812
3225767307528
3226283868180
3226154728748
3226154747700
3226155082314
3226159511013
3288916847235
3226140556257
3205234021602
3225767308257
3226154747754
3226154905165
3226154728016
2947211975937
3226159530669
3132011542629
3222667943697
3225767838969
3226154728080
2661553935381
3226159510743
2943725211219
4074605598927
3226154609910
3227316976362
3205492301937
3226155246336
3257521438719
2943337771047
2943725191455
5014875125730
3226116464265
3254049003225
3226154727756
3226154708335
3132011903484
3257535787140
3227230896042
3225767307582
3226145162079
3222667943619
3226154728098
3226068634656
3226155279141
3228479250953
3228479252409
3320297893722
3228479244390
3288916847238
3226154603358
3288916840674
3226154727532
3226111681215
3226412890245
3226159511715
3226283868261
4920731946957
3226154905146
3226164293712
684418039851
3226154905245
3132011550648
3288916315794
3215694374571
3226283868099
3228493599858
3227317166631
3226154668971
3226140379839
3215694551961
2661424795218
3226169079111
3226154728041
3288913658589
3226140379101
3226283868182
3226283869638
3225767307609
3226151539362
3226154747457
3226155200409
3215823514977
4638302410422
3225767309715
3288916846749
3225394235946
3226154741139
684293682657
3226155069189
3226283868171
3288916847262
3132269829516
3226151539373
3226154721456
3132011549919
3226159510968
3226160042427
3226068634629
3226154727990
3225379887041
3226159392888
4952113006512
4073443337487
3228479250942
3257535807309
3226155261645
3225379887066
4917245162502
2943725191293
684288899691
3321460168311
3227316989241
3226154729457
3226155084498
3226169076978
4076930121861
3226154708388
3226154715624
3225379887768
2755438833882
3226154609433
3226111149855
3226155083040
3226154728047
3226154725831
3226154729466
3226068634494
3226140379111
3226154183454
2661295654974
2943725192994
3226154729477
3226164234906
2943983471862
2943729974505
3226154196567
3226154747697
3225767307510
3226154728989
2661295655136
3226169076926
686613422622
3225379888497
3226283867937
3228479253138
3228479605245
3132021115128
3226068634602
3227316989511
3226161105309
1531577509131
3257535787680
3226154747727
3226154728073
3226154196558
3226283336739
3226154964213
4920717597996
3226151540100
4062982984257
2943725191539
3288931196142
3226159510500
3226169017875
4826588768076
3292403631636
3226154728827
3226154728044
3226169076951
3215694374815
4920731948361
3257794067952
3226164293957
2943725191518
3299377200438
3316811122443
3226283809131
3205234198758
3226154905167
3226153133748
3132011536068
3227302640577
3205238804580
2943725722977
3226154708361
4355872873941
3226169077653
3229641512472
3219181159215
3226169063802
3226112212737
684288899742
3215694374733
3320298083991
3257535781065
3226154196578
3226164293982
3226154669697
3226154730933
3226164293955
3257535788355
3226156322340
3132140689353
3226068654258
3257535787545
2661295123614
684288919371
3227316989538
4073701617786
4920731946930
3226154904921
3226288651149
3205234021613
5768020910640
3226068103134
3323784691245
4073443337461
3205234021614
3223830205083
3222667412175
4073443337462
3288926413173
3226155083769
3215694376272
3226413008424
3225379887040
3226154708336
3226140379029
3205234008489
3226111622247
3228436204230
3227313800838
3226413009072
4073443337460
3226164293956
3226154729476
2661295536957
3222797083779
3226154714652
3229641512421
3228479250978
4920730352580
3288916848693
3226283868909
3226154728099
3226155141360
3205234375905
3227316989403
4920731946660
2378866118574
4983494066121
3226140379113
5768025339315
3226159513173
3288916847226
3132011549181
3226154721458
2940238407135
3229641513876
4072668496482
3226154727828
3226154728046
3226158979545
2661295641933
2661295655046
3228476062305
2943725073438
3226140320061
3226154668959
3226154196495
3226154609919
3222668475057
3226154721510
2943725368683
3134336072124
3226154728800
3226164313638
3226154727776
2661295655056
685451161155
3226154196576
3226154196579
2661295596006
684288899715
3226417791312
684288900417
3208720806012
3225767484675
3205234021638
3228479191902
3226159510989
3132011431092
3226154716353
3226155436605
3131624128701
2946049714470
3226111681299
2943723597213
3225767308986
3226283868183
3226154729556
3226413008262
3226154730207
2661295655057
3288917378676
3227316871386
4920731946894
3226154714814
3288916847289
3225767294406
684289253982
3226154725884
3226154196577
3226283868181
3228608391114
3226155082068
3229640980977
3257550136533
3227316991671
5769182817813
3226154728068
3227316989485
3226154721457
3222667943670
3215694374328
684289076835
3257535774504
3226154730123
3226154610648
3227315395161
684288899769
3226154373723
3226151532810
3226154729475
3226154196603
3226159497864
4920731946822
3226151539425
2663620177989
3205234021665
3229641689565
3257148367137
3226154668995
3226155082313
3288916866918
3226155101994
3226164295413
4073055916971
3257535787617
3205230832965
3227331338391
3226154728011
3226154728009
5768020556265
684298465626
3215694729108
3226154721213
3257535787626
4920731946417
3226154728022
3226151540829
4073440148814
3226169076924
3320427047007
3226154721483
3205234021530
3228479250870
3226153487988
3226154728000
2661295655055
3225896447691
3226159512444
3228488816889
3226280679534
3226025587854
3228479270634
3228479250708
3226154892042
3226151893665
2943725132487
3226154198763
3226154907351
3226283868234
747051018906
3226164291768
3226154728728
3226164293937
3205219672704
3226159508799
4073572477623
3226411414020
5768020556373
3288921630204
3226283868207
2724057774273
2943725191563
4073443868901
3226154727939
3006487310754
4104824397069
2661295832202
3229646295387
3226155260916
4920731887854
3226154714922
2943725193723
3226283870367
3194773668408
3261022572027
4073443336974
3226140380568
4073443514607
6615309165789
3226154727801
3226155259485
3226413008397
2661295655058
3226153133695
2661295655082
3226162699632
3226154727927
2933264838333
3226155082312
3229641512175
3226154729394
3236615081220
4920861087066
3288830753793
3226284399621
3226153127133
3215680025907
3226155023262
4920728758257
3132011726337
3226155259215
3228393157509
3226282273857
3226154725911
3322622429778
3229899792744
3226154728749
3258698049093
3791013800979
3226154730285
3225767307531
3226154747691
3226154731662
3257535787627
4073443219362
3226154671155
2660908234566
2661295654812
3226154728010
3226154596797
3226929568995
3226154609922
5768149696509
3226155081825
3222667930494
3229642043859
3226154730231
5203161483384
3226151539398
3226140365988
3226155082293
2943734757474
3229641514605
3226154655846
3226153134423
2943725191536
3226422574281
3225772090497
3226151526249
5768020556400
3226413028026
3226068634578
3229641512337
3226154728074
2661292466409
3226140378624
3226154727558
3226413008346
3226169608365
3226412949294
3291241370169
3226155259458
3205234022340
3229641512445
3288916847964
3226413008345
5768020556427
3226154728737
3229639918095
3226073417544
3285430062834
3205248370518
3225776873466
3226398659436
3226154714898
3228479251680
3226154727775
3226154905191
3225389452977
3226409819697
3227326555422
2692676714664
3226413009801
3226154905218
3288916847316
3228479237829
3226154906622
3320297375403
3226164296142
2943725191590
3226154668725
