1597213434
1597217530
1597221626
1597225722
1597229818
1597233914
1597238010
1597242106
1597475578
1597479674
1597483770
1597487866
1597491962
1597496058
1597500154
1597504250
1597737722
1597741818
1597745914
1597750010
1597754106
1597758202
1597762298
1597766394
1597999866
1598003962
1598008058
1598012154
1598016250
1598020346
1598024442
1598028538
1601407738
1601411834
1601415930
1601420026
1601424122
1601428218
1601432314
1601436410
1601669882
1601673978
1601678074
1601682170
1601686266
1601690362
1601694458
1601698554
1601932026
1601936122
1601940218
1601944314
1601948410
1601952506
1601956602
1601960698
1602194170
1602198266
1602202362
1602206458
1602210554
1602214650
1602218746
1602222842
1605602042
1605606138
1605610234
1605614330
1605618426
1605622522
1605626618
1605630714
1605864186
1605868282
1605872378
1605876474
1605880570
1605884666
1605888762
1605892858
1606126330
1606130426
1606134522
1606138618
1606142714
1606146810
1606150906
1606155002
1606388474
1606392570
1606396666
1606400762
1606404858
1606408954
1606413050
1606417146
1609796346
1609800442
1609804538
1609808634
1609812730
1609816826
1609820922
1609825018
1610058490
1610062586
1610066682
1610070778
1610074874
1610078970
1610083066
1610087162
1610320634
1610324730
1610328826
1610332922
1610337018
1610341114
1610345210
1610349306
1610582778
1610586874
1610590970
1610595066
1610599162
1610603258
1610607354
1610611450
