SRNFGPR: searching [D=1, R=0] space....
[H[2J
-----------------printing current job allocations (largest_remaining: 1813985279)-------------------
  * 00000000000000000000 : 00000000001813985279 :: ###########################################################

    00000000001813985280 : 00000000003627970559 :: ###########################################################

    00000000003627970560 : 00000000005441955839 :: ###########################################################

    00000000005441955840 : 00000000007255941119 :: ###########################################################

    00000000007255941120 : 00000000009069926399 :: ###########################################################

    00000000009069926400 : 00000000010883911679 :: ###########################################################



[H[2J
-----------------printing current job allocations (largest_remaining: 1801531920)-------------------
    00000000000018760851 : 00000000001813985279 :: ###########################################################

    00000000001827836491 : 00000000003627970559 :: ###########################################################

  * 00000000003640423919 : 00000000005441955839 :: ###########################################################

    00000000005456083917 : 00000000006348948479 :: #############################

    00000000007269932734 : 00000000009069926399 :: ###########################################################

    00000000006368672464 : 00000000007255941119 :: #############################



[H[2J
-----------------printing current job allocations (largest_remaining: 1791879906)-------------------
    00000000000023557505 : 00000000001813985279 :: ###########################################################

    00000000001837007165 : 00000000003627970559 :: ###########################################################

    00000000003671450466 : 00000000005441955839 :: ##########################################################

    00000000005462032212 : 00000000006348948479 :: #############################

  * 00000000007278046493 : 00000000009069926399 :: ###########################################################

    00000000006371615940 : 00000000007255941119 :: #############################



[H[2J
-----------------printing current job allocations (largest_remaining: 1788942515)-------------------
    00000000000062677065 : 00000000001813985279 :: #########################################################

    00000000001847672941 : 00000000003627970559 :: ##########################################################

    00000000003682414431 : 00000000005441955839 :: ##########################################################

    00000000005464623009 : 00000000006348948479 :: #############################

  * 00000000007280983884 : 00000000009069926399 :: ###########################################################

    00000000006372404999 : 00000000007255941119 :: #############################



[H[2J
-----------------printing current job allocations (largest_remaining: 1760426832)-------------------
    00000000000069670288 : 00000000001813985279 :: #########################################################

  * 00000000001867543727 : 00000000003627970559 :: ##########################################################

    00000000003710900955 : 00000000005441955839 :: #########################################################

    00000000005465410622 : 00000000006348948479 :: #############################

    00000000007318453592 : 00000000009069926399 :: #########################################################

    00000000006373596749 : 00000000007255941119 :: #############################



[H[2J
-----------------printing current job allocations (largest_remaining: 1744805733)-------------------
    00000000000078978376 : 00000000001813985279 :: #########################################################

  * 00000000001883164826 : 00000000003627970559 :: #########################################################

    00000000003723658231 : 00000000005441955839 :: ########################################################

    00000000005466625365 : 00000000006348948479 :: #############################

    00000000007325641526 : 00000000009069926399 :: #########################################################

    00000000006377537274 : 00000000007255941119 :: #############################



[H[2J
-----------------printing current job allocations (largest_remaining: 1739268146)-------------------
    00000000000113743656 : 00000000001813985279 :: ########################################################

  * 00000000001888702413 : 00000000003627970559 :: #########################################################

    00000000003741006564 : 00000000005441955839 :: ########################################################

    00000000005470618971 : 00000000006348948479 :: #############################

    00000000007330680509 : 00000000009069926399 :: #########################################################

    00000000006378687804 : 00000000007255941119 :: #############################



[H[2J
-----------------printing current job allocations (largest_remaining: 1720233909)-------------------
    00000000000133333795 : 00000000001813985279 :: #######################################################

  * 00000000001907736650 : 00000000003627970559 :: ########################################################

    00000000003772273781 : 00000000005441955839 :: #######################################################

    00000000005471723884 : 00000000006348948479 :: #############################

    00000000007368767167 : 00000000009069926399 :: ########################################################

    00000000006411721748 : 00000000007255941119 :: ###########################



[H[2J
-----------------printing current job allocations (largest_remaining: 1709090685)-------------------
    00000000000165213870 : 00000000001813985279 :: ######################################################

  * 00000000001918879874 : 00000000003627970559 :: ########################################################

    00000000003798222348 : 00000000005441955839 :: ######################################################

    00000000005504372662 : 00000000006348948479 :: ###########################

    00000000007376006685 : 00000000009069926399 :: ########################################################

    00000000006421270695 : 00000000007255941119 :: ###########################



[H[2J
-----------------printing current job allocations (largest_remaining: 1693904326)-------------------
    00000000000173665472 : 00000000001813985279 :: ######################################################

  * 00000000001934066233 : 00000000003627970559 :: ########################################################

    00000000003832573410 : 00000000005441955839 :: #####################################################

    00000000005507270525 : 00000000006348948479 :: ###########################

    00000000007419694542 : 00000000009069926399 :: ######################################################

    00000000006422814159 : 00000000007255941119 :: ###########################



[H[2J
-----------------printing current job allocations (largest_remaining: 1650761432)-------------------
    00000000000213694764 : 00000000001813985279 :: ####################################################

  * 00000000001977209127 : 00000000003627970559 :: ######################################################

    00000000003848021405 : 00000000005441955839 :: ####################################################

    00000000005514307737 : 00000000006348948479 :: ###########################

    00000000007425831042 : 00000000009069926399 :: ######################################################

    00000000006427954311 : 00000000007255941119 :: ###########################



[H[2J
-----------------printing current job allocations (largest_remaining: 1648253861)-------------------
    00000000000220820036 : 00000000001813985279 :: ####################################################

  * 00000000001979716698 : 00000000003627970559 :: ######################################################

    00000000003884054835 : 00000000005441955839 :: ###################################################

    00000000005515902390 : 00000000006348948479 :: ###########################

    00000000007427203998 : 00000000009069926399 :: ######################################################

    00000000006429488429 : 00000000007255941119 :: ###########################



[H[2J
-----------------printing current job allocations (largest_remaining: 1640953525)-------------------
    00000000000235722855 : 00000000001813985279 :: ####################################################

  * 00000000001987017034 : 00000000003627970559 :: ######################################################

    00000000003932187537 : 00000000005441955839 :: #################################################

    00000000005520942676 : 00000000006348948479 :: ###########################

    00000000007436799602 : 00000000009069926399 :: ######################################################

    00000000006468964716 : 00000000007255941119 :: ##########################



[H[2J
-----------------printing current job allocations (largest_remaining: 1620575044)-------------------
    00000000000270745087 : 00000000001813985279 :: ###################################################

  * 00000000002007395515 : 00000000003627970559 :: #####################################################

    00000000003942358321 : 00000000005441955839 :: #################################################

    00000000005522527680 : 00000000006348948479 :: ###########################

    00000000007471441471 : 00000000009069926399 :: ####################################################

    00000000006519256074 : 00000000007255941119 :: ########################



[H[2J
-----------------printing current job allocations (largest_remaining: 1610131946)-------------------
    00000000000314733741 : 00000000001813985279 :: #################################################

  * 00000000002017838613 : 00000000003627970559 :: #####################################################

    00000000003944489142 : 00000000005441955839 :: #################################################

    00000000005557005865 : 00000000006348948479 :: ##########################

    00000000007480971643 : 00000000009069926399 :: ####################################################

    00000000006525091971 : 00000000007255941119 :: ########################



[H[2J
-----------------printing current job allocations (largest_remaining: 1597542963)-------------------
    00000000000315896147 : 00000000001813985279 :: #################################################

  * 00000000002030427596 : 00000000003627970559 :: ####################################################

    00000000003949558919 : 00000000005441955839 :: #################################################

    00000000005562887099 : 00000000006348948479 :: ##########################

    00000000007520191760 : 00000000009069926399 :: ###################################################

    00000000006564170410 : 00000000007255941119 :: ######################



[H[2J
-----------------printing current job allocations (largest_remaining: 1578819421)-------------------
    00000000000317305001 : 00000000001813985279 :: #################################################

  * 00000000002049151138 : 00000000003627970559 :: ####################################################

    00000000003982903269 : 00000000005441955839 :: ################################################

    00000000005607720808 : 00000000006348948479 :: ########################

    00000000007527195343 : 00000000009069926399 :: ###################################################

    00000000006574259405 : 00000000007255941119 :: ######################



[H[2J
-----------------printing current job allocations (largest_remaining: 1548829779)-------------------
    00000000000321454583 : 00000000001813985279 :: #################################################

  * 00000000002079140780 : 00000000003627970559 :: ###################################################

    00000000003992689724 : 00000000005441955839 :: ###############################################

    00000000005615334915 : 00000000006348948479 :: ########################

    00000000007570345416 : 00000000009069926399 :: #################################################

    00000000006614465200 : 00000000007255941119 :: #####################



[H[2J
-----------------printing current job allocations (largest_remaining: 1508567216)-------------------
    00000000000324403179 : 00000000001813985279 :: #################################################

  * 00000000002119403343 : 00000000003627970559 :: #################################################

    00000000003994598733 : 00000000005441955839 :: ###############################################

    00000000005622238733 : 00000000006348948479 :: ########################

    00000000007571619678 : 00000000009069926399 :: #################################################

    00000000006663281648 : 00000000007255941119 :: ###################



[H[2J
-----------------printing current job allocations (largest_remaining: 1499269896)-------------------
    00000000000331488041 : 00000000001813985279 :: #################################################

  * 00000000002128700663 : 00000000003627970559 :: #################################################

    00000000003999294418 : 00000000005441955839 :: ###############################################

    00000000005656885947 : 00000000006348948479 :: ######################

    00000000007572938750 : 00000000009069926399 :: #################################################

    00000000006663867582 : 00000000007255941119 :: ###################



[H[2J
-----------------printing current job allocations (largest_remaining: 1498204697)-------------------
    00000000000365142707 : 00000000001813985279 :: ###############################################

  * 00000000002129765862 : 00000000003627970559 :: #################################################

    00000000004000483828 : 00000000005441955839 :: ###############################################

    00000000005663241733 : 00000000006348948479 :: ######################

    00000000007577086279 : 00000000009069926399 :: #################################################

    00000000006664754037 : 00000000007255941119 :: ###################



[H[2J
-----------------printing current job allocations (largest_remaining: 1496999100)-------------------
    00000000000366432367 : 00000000001813985279 :: ###############################################

  * 00000000002130971459 : 00000000003627970559 :: #################################################

    00000000004034411610 : 00000000005441955839 :: ##############################################

    00000000005672685562 : 00000000006348948479 :: ######################

    00000000007577949307 : 00000000009069926399 :: #################################################

    00000000006670056046 : 00000000007255941119 :: ###################



[H[2J
-----------------printing current job allocations (largest_remaining: 1492886927)-------------------
    00000000000367806938 : 00000000001813985279 :: ###############################################

  * 00000000002135083632 : 00000000003627970559 :: #################################################

    00000000004044006428 : 00000000005441955839 :: ##############################################

    00000000005707422395 : 00000000006348948479 :: #####################

    00000000007580445435 : 00000000009069926399 :: #################################################

    00000000006670999405 : 00000000007255941119 :: ###################



[H[2J
-----------------printing current job allocations (largest_remaining: 1492000396)-------------------
    00000000000372007941 : 00000000001813985279 :: ###############################################

  * 00000000002135970163 : 00000000003627970559 :: #################################################

    00000000004046051231 : 00000000005441955839 :: ##############################################

    00000000005713835028 : 00000000006348948479 :: #####################

    00000000007587405747 : 00000000009069926399 :: #################################################

    00000000006673391154 : 00000000007255941119 :: ###################



[H[2J
-----------------printing current job allocations (largest_remaining: 1489471257)-------------------
    00000000000375974377 : 00000000001813985279 :: ###############################################

  * 00000000002138499302 : 00000000003627970559 :: #################################################

    00000000004050802619 : 00000000005441955839 :: ##############################################

    00000000005756517250 : 00000000006348948479 :: ###################

    00000000007620710557 : 00000000009069926399 :: ###############################################

    00000000006674504749 : 00000000007255941119 :: ###################



[H[2J
-----------------printing current job allocations (largest_remaining: 1482451484)-------------------
    00000000000386380743 : 00000000001813985279 :: ###############################################

  * 00000000002145519075 : 00000000003627970559 :: #################################################

    00000000004093488999 : 00000000005441955839 :: ############################################

    00000000005757352127 : 00000000006348948479 :: ###################

    00000000007621899960 : 00000000009069926399 :: ###############################################

    00000000006675001509 : 00000000007255941119 :: ###################



[H[2J
-----------------printing current job allocations (largest_remaining: 1449307804)-------------------
    00000000000416207950 : 00000000001813985279 :: ##############################################

  * 00000000002178662755 : 00000000003627970559 :: ###############################################

    00000000004094390983 : 00000000005441955839 :: ############################################

    00000000005757806805 : 00000000006348948479 :: ###################

    00000000007623354670 : 00000000009069926399 :: ###############################################

    00000000006676241105 : 00000000007255941119 :: ###################



[H[2J
-----------------printing current job allocations (largest_remaining: 1448277481)-------------------
    00000000000417231570 : 00000000001813985279 :: ##############################################

  * 00000000002179693078 : 00000000003627970559 :: ###############################################

    00000000004094973540 : 00000000005441955839 :: ############################################

    00000000005758413261 : 00000000006348948479 :: ###################

    00000000007627521595 : 00000000009069926399 :: ###############################################

    00000000006680350096 : 00000000007255941119 :: ###################



[H[2J
-----------------printing current job allocations (largest_remaining: 1447467267)-------------------
    00000000000421884213 : 00000000001813985279 :: ##############################################

  * 00000000002180503292 : 00000000003627970559 :: ###############################################

    00000000004095650445 : 00000000005441955839 :: ############################################

    00000000005759373702 : 00000000006348948479 :: ###################

    00000000007628388315 : 00000000009069926399 :: ###############################################

    00000000006681312243 : 00000000007255941119 :: ###################



[H[2J
-----------------printing current job allocations (largest_remaining: 1446206440)-------------------
    00000000000422940663 : 00000000001813985279 :: ##############################################

  * 00000000002181764119 : 00000000003627970559 :: ###############################################

    00000000004096408854 : 00000000005441955839 :: ############################################

    00000000005763100968 : 00000000006348948479 :: ###################

    00000000007631616767 : 00000000009069926399 :: ###############################################

    00000000006713783061 : 00000000007255941119 :: #################



[H[2J
-----------------printing current job allocations (largest_remaining: 1442230359)-------------------
    00000000000465461021 : 00000000001813985279 :: ############################################

  * 00000000002185740200 : 00000000003627970559 :: ###############################################

    00000000004100138733 : 00000000005441955839 :: ############################################

    00000000005763513004 : 00000000006348948479 :: ###################

    00000000007641901178 : 00000000009069926399 :: ###############################################

    00000000006714626939 : 00000000007255941119 :: #################



[H[2J
-----------------printing current job allocations (largest_remaining: 1441372399)-------------------
    00000000000465809720 : 00000000001813985279 :: ############################################

  * 00000000002186598160 : 00000000003627970559 :: ###############################################

    00000000004100422315 : 00000000005441955839 :: ############################################

    00000000005764132568 : 00000000006348948479 :: ###################

    00000000007671398456 : 00000000009069926399 :: ##############################################

    00000000006715427505 : 00000000007255941119 :: #################



[H[2J
-----------------printing current job allocations (largest_remaining: 1437830853)-------------------
    00000000000466424307 : 00000000001813985279 :: ############################################

  * 00000000002190139706 : 00000000003627970559 :: ###############################################

    00000000004101106598 : 00000000005441955839 :: ############################################

    00000000005766254339 : 00000000006348948479 :: ###################

    00000000007672610446 : 00000000009069926399 :: ##############################################

    00000000006720507805 : 00000000007255941119 :: #################



[H[2J
-----------------printing current job allocations (largest_remaining: 1408418850)-------------------
    00000000000466779166 : 00000000001813985279 :: ############################################

  * 00000000002219551709 : 00000000003627970559 :: ##############################################

    00000000004101468475 : 00000000005441955839 :: ############################################

    00000000005767350737 : 00000000006348948479 :: ###################

    00000000007673937277 : 00000000009069926399 :: ##############################################

    00000000006721399540 : 00000000007255941119 :: #################



[H[2J
-----------------printing current job allocations (largest_remaining: 1398632837)-------------------
    00000000000467203243 : 00000000001813985279 :: ############################################

  * 00000000002229337722 : 00000000003627970559 :: ##############################################

    00000000004135871953 : 00000000005441955839 :: ###########################################

    00000000005767837861 : 00000000006348948479 :: ###################

    00000000007677941930 : 00000000009069926399 :: ##############################################

    00000000006724095281 : 00000000007255941119 :: #################



[H[2J
-----------------printing current job allocations (largest_remaining: 1397594809)-------------------
    00000000000467582579 : 00000000001813985279 :: ############################################

  * 00000000002230375750 : 00000000003627970559 :: ##############################################

    00000000004145109802 : 00000000005441955839 :: ##########################################

    00000000005769117200 : 00000000006348948479 :: ###################

    00000000007678775623 : 00000000009069926399 :: ##############################################

    00000000006725517652 : 00000000007255941119 :: #################



[H[2J
-----------------printing current job allocations (largest_remaining: 1396689704)-------------------
    00000000000468308519 : 00000000001813985279 :: ############################################

  * 00000000002231280855 : 00000000003627970559 :: ##############################################

    00000000004150415513 : 00000000005441955839 :: ##########################################

    00000000005773062238 : 00000000006348948479 :: ###################

    00000000007721259546 : 00000000009069926399 :: ############################################

    00000000006730521984 : 00000000007255941119 :: #################



[H[2J
-----------------printing current job allocations (largest_remaining: 1392291582)-------------------
    00000000000472050035 : 00000000001813985279 :: ############################################

  * 00000000002235678977 : 00000000003627970559 :: ##############################################

    00000000004151773973 : 00000000005441955839 :: ##########################################

    00000000005774190181 : 00000000006348948479 :: ###################

    00000000007721570550 : 00000000009069926399 :: ############################################

    00000000006763907116 : 00000000007255941119 :: ################



[H[2J
-----------------printing current job allocations (largest_remaining: 1391643476)-------------------
    00000000000472345768 : 00000000001813985279 :: ############################################

  * 00000000002236327083 : 00000000003627970559 :: ##############################################

    00000000004185094848 : 00000000005441955839 :: #########################################

    00000000005806639975 : 00000000006348948479 :: #################

    00000000007721946607 : 00000000009069926399 :: ############################################

    00000000006764511116 : 00000000007255941119 :: ################



[H[2J
-----------------printing current job allocations (largest_remaining: 1390812845)-------------------
    00000000000472621597 : 00000000001813985279 :: ############################################

  * 00000000002237157714 : 00000000003627970559 :: ##############################################

    00000000004194230964 : 00000000005441955839 :: #########################################

    00000000005807183314 : 00000000006348948479 :: #################

    00000000007722517783 : 00000000009069926399 :: ############################################

    00000000006765409111 : 00000000007255941119 :: ################



[H[2J
-----------------printing current job allocations (largest_remaining: 1348522834)-------------------
    00000000000473185580 : 00000000001813985279 :: ############################################

  * 00000000002279447725 : 00000000003627970559 :: ############################################

    00000000004196050548 : 00000000005441955839 :: #########################################

    00000000005807946267 : 00000000006348948479 :: #################

    00000000007722825007 : 00000000009069926399 :: ############################################

    00000000006770733361 : 00000000007255941119 :: ################



[H[2J
-----------------printing current job allocations (largest_remaining: 1348245511)-------------------
    00000000000473467639 : 00000000001813985279 :: ############################################

  * 00000000002279725048 : 00000000003627970559 :: ############################################

    00000000004201081300 : 00000000005441955839 :: #########################################

    00000000005808593335 : 00000000006348948479 :: #################

    00000000007723223418 : 00000000009069926399 :: ############################################

    00000000006771369333 : 00000000007255941119 :: ################



[H[2J
-----------------printing current job allocations (largest_remaining: 1347971007)-------------------
    00000000000476812750 : 00000000001813985279 :: ############################################

  * 00000000002279999552 : 00000000003627970559 :: ############################################

    00000000004234597016 : 00000000005441955839 :: #######################################

    00000000005809472061 : 00000000006348948479 :: #################

    00000000007724005952 : 00000000009069926399 :: ############################################

    00000000006814266000 : 00000000007255941119 :: ##############



[H[2J
-----------------printing current job allocations (largest_remaining: 1347416246)-------------------
    00000000000516144918 : 00000000001813985279 :: ##########################################

  * 00000000002280554313 : 00000000003627970559 :: ############################################

    00000000004236804270 : 00000000005441955839 :: #######################################

    00000000005813344326 : 00000000006348948479 :: #################

    00000000007724412967 : 00000000009069926399 :: ############################################

    00000000006814804860 : 00000000007255941119 :: ##############



[H[2J
-----------------printing current job allocations (largest_remaining: 1347144121)-------------------
    00000000000517459242 : 00000000001813985279 :: ##########################################

  * 00000000002280826438 : 00000000003627970559 :: ############################################

    00000000004247194324 : 00000000005441955839 :: #######################################

    00000000005813684054 : 00000000006348948479 :: #################

    00000000007728052062 : 00000000009069926399 :: ############################################

    00000000006815638465 : 00000000007255941119 :: ##############



[H[2J
-----------------printing current job allocations (largest_remaining: 1346827617)-------------------
    00000000000518912284 : 00000000001813985279 :: ##########################################

  * 00000000002281142942 : 00000000003627970559 :: ############################################

    00000000004286063718 : 00000000005441955839 :: ######################################

    00000000005814354022 : 00000000006348948479 :: #################

    00000000007728276009 : 00000000009069926399 :: ############################################

    00000000006820989660 : 00000000007255941119 :: ##############



[H[2J
-----------------printing current job allocations (largest_remaining: 1346536411)-------------------
    00000000000523050040 : 00000000001813985279 :: ##########################################

  * 00000000002281434148 : 00000000003627970559 :: ############################################

    00000000004296547227 : 00000000005441955839 :: #####################################

    00000000005814687158 : 00000000006348948479 :: #################

    00000000007728486278 : 00000000009069926399 :: ############################################

    00000000006821619279 : 00000000007255941119 :: ##############



[H[2J
-----------------printing current job allocations (largest_remaining: 1346212224)-------------------
    00000000000526532416 : 00000000001813985279 :: ##########################################

  * 00000000002281758335 : 00000000003627970559 :: ############################################

    00000000004335755019 : 00000000005441955839 :: ####################################

    00000000005817721701 : 00000000006348948479 :: #################

    00000000007728715428 : 00000000009069926399 :: ############################################

    00000000006822555027 : 00000000007255941119 :: ##############



[H[2J
-----------------printing current job allocations (largest_remaining: 1345639397)-------------------
    00000000000566446772 : 00000000001813985279 :: #########################################

  * 00000000002282331162 : 00000000003627970559 :: ############################################

    00000000004346935790 : 00000000005441955839 :: ####################################

    00000000005819447941 : 00000000006348948479 :: #################

    00000000007729171664 : 00000000009069926399 :: ############################################

    00000000006827345207 : 00000000007255941119 :: ##############



[H[2J
-----------------printing current job allocations (largest_remaining: 1341995233)-------------------
    00000000000567753402 : 00000000001813985279 :: #########################################

  * 00000000002285975326 : 00000000003627970559 :: ############################################

    00000000004396385900 : 00000000005441955839 :: ##################################

    00000000005824414588 : 00000000006348948479 :: #################

    00000000007729391767 : 00000000009069926399 :: ############################################

    00000000006864861481 : 00000000007255941119 :: ############



[H[2J
-----------------printing current job allocations (largest_remaining: 1341791189)-------------------
    00000000000569130546 : 00000000001813985279 :: #########################################

  * 00000000002286179370 : 00000000003627970559 :: ############################################

    00000000004403412823 : 00000000005441955839 :: ##################################

    00000000005857118201 : 00000000006348948479 :: ################

    00000000007731336162 : 00000000009069926399 :: ############################################

    00000000006865731499 : 00000000007255941119 :: ############



[H[2J
-----------------printing current job allocations (largest_remaining: 1341624390)-------------------
    00000000000573390599 : 00000000001813985279 :: #########################################

  * 00000000002286346169 : 00000000003627970559 :: ############################################

    00000000004438935849 : 00000000005441955839 :: #################################

    00000000005857985184 : 00000000006348948479 :: ################

    00000000007762085269 : 00000000009069926399 :: ###########################################

    00000000006866502349 : 00000000007255941119 :: ############



[H[2J
-----------------printing current job allocations (largest_remaining: 1341415551)-------------------
    00000000000616656340 : 00000000001813985279 :: #######################################

  * 00000000002286555008 : 00000000003627970559 :: ############################################

    00000000004453791062 : 00000000005441955839 :: ################################

    00000000005858489161 : 00000000006348948479 :: ################

    00000000007772224850 : 00000000009069926399 :: ##########################################

    00000000006871676147 : 00000000007255941119 :: ############



[H[2J
-----------------printing current job allocations (largest_remaining: 1341197904)-------------------
    00000000000623707687 : 00000000001813985279 :: #######################################

  * 00000000002286772655 : 00000000003627970559 :: ############################################

    00000000004488700988 : 00000000005441955839 :: ###############################

    00000000005859103375 : 00000000006348948479 :: ################

    00000000007773532401 : 00000000009069926399 :: ##########################################

    00000000006872650656 : 00000000007255941119 :: ############



[H[2J
-----------------printing current job allocations (largest_remaining: 1340700304)-------------------
    00000000000669113337 : 00000000001813985279 :: #####################################

  * 00000000002287270255 : 00000000003627970559 :: ############################################

    00000000004503653157 : 00000000005441955839 :: ###############################

    00000000005859998954 : 00000000006348948479 :: ################

    00000000007774932091 : 00000000009069926399 :: ##########################################

    00000000006876431052 : 00000000007255941119 :: ############



[H[2J
-----------------printing current job allocations (largest_remaining: 1340534025)-------------------
    00000000000717947638 : 00000000001813985279 :: ####################################

  * 00000000002287436534 : 00000000003627970559 :: ############################################

    00000000004597131190 : 00000000005441955839 :: ###########################

    00000000005863819530 : 00000000006348948479 :: ################

    00000000007778836866 : 00000000009069926399 :: ##########################################

    00000000006915202192 : 00000000007255941119 :: ###########



[H[2J
-----------------printing current job allocations (largest_remaining: 1338376228)-------------------
    00000000000725271629 : 00000000001813985279 :: ####################################

  * 00000000002289594331 : 00000000003627970559 :: ############################################

    00000000004647864597 : 00000000005441955839 :: ##########################

    00000000005864157654 : 00000000006348948479 :: ################

    00000000007779675570 : 00000000009069926399 :: ##########################################

    00000000006915747965 : 00000000007255941119 :: ###########



[H[2J
-----------------printing current job allocations (largest_remaining: 1307916970)-------------------
    00000000000769833173 : 00000000001813985279 :: ##################################

  * 00000000002320053589 : 00000000003627970559 :: ###########################################

    00000000004698167574 : 00000000005441955839 :: ########################

    00000000005864774638 : 00000000006348948479 :: ################

    00000000007788979676 : 00000000009069926399 :: ##########################################

    00000000006916574874 : 00000000007255941119 :: ###########



[H[2J
-----------------printing current job allocations (largest_remaining: 1297952872)-------------------
    00000000000819134006 : 00000000001813985279 :: ################################

  * 00000000002330017687 : 00000000003627970559 :: ##########################################

    00000000004750720016 : 00000000005441955839 :: ######################

    00000000005865163593 : 00000000006348948479 :: ################

    00000000007822349273 : 00000000009069926399 :: #########################################

    00000000006921889364 : 00000000007255941119 :: ###########



[H[2J
-----------------printing current job allocations (largest_remaining: 1296837254)-------------------
    00000000000868414523 : 00000000001813985279 :: ###############################

  * 00000000002331133305 : 00000000003627970559 :: ##########################################

    00000000004839165018 : 00000000005441955839 :: ###################

    00000000005907589230 : 00000000006348948479 :: ##############

    00000000007823597033 : 00000000009069926399 :: #########################################

    00000000006922821296 : 00000000007255941119 :: ###########



[H[2J
-----------------printing current job allocations (largest_remaining: 1244916908)-------------------
    00000000000875612626 : 00000000001813985279 :: ###############################

    00000000002331964216 : 00000000002979942656 :: #####################

    00000000004849382295 : 00000000005441955839 :: ###################

    00000000005908383857 : 00000000006348948479 :: ##############

  * 00000000007825009491 : 00000000009069926399 :: #########################################

    00000000002984815032 : 00000000003627970559 :: #####################



[H[2J
-----------------printing current job allocations (largest_remaining: 1240850130)-------------------
    00000000000920149652 : 00000000001813985279 :: #############################

    00000000002336440387 : 00000000002979942656 :: #####################

    00000000004852376040 : 00000000005441955839 :: ###################

    00000000005908908664 : 00000000006348948479 :: ##############

  * 00000000007829076269 : 00000000009069926399 :: #########################################

    00000000002988007240 : 00000000003627970559 :: #####################



[H[2J
-----------------printing current job allocations (largest_remaining: 1239978982)-------------------
    00000000000926648600 : 00000000001813985279 :: #############################

    00000000002337011926 : 00000000002979942656 :: #####################

    00000000004870918755 : 00000000005441955839 :: ##################

    00000000005909548779 : 00000000006348948479 :: ##############

  * 00000000007829947417 : 00000000009069926399 :: #########################################

    00000000003026629173 : 00000000003627970559 :: ###################



[H[2J
-----------------printing current job allocations (largest_remaining: 1205676882)-------------------
    00000000000930752883 : 00000000001813985279 :: #############################

    00000000002337875088 : 00000000002979942656 :: #####################

    00000000004891838933 : 00000000005441955839 :: ##################

    00000000005910491334 : 00000000006348948479 :: ##############

  * 00000000007864249517 : 00000000009069926399 :: #######################################

    00000000003036189773 : 00000000003627970559 :: ###################



[H[2J
-----------------printing current job allocations (largest_remaining: 1195237156)-------------------
    00000000000969742158 : 00000000001813985279 :: ###########################

    00000000002370775181 : 00000000002979942656 :: ####################

    00000000004900965284 : 00000000005441955839 :: #################

    00000000005914272540 : 00000000006348948479 :: ##############

  * 00000000007874689243 : 00000000009069926399 :: #######################################

    00000000003038150401 : 00000000003627970559 :: ###################



[H[2J
-----------------printing current job allocations (largest_remaining: 1189646347)-------------------
    00000000000976554104 : 00000000001813985279 :: ###########################

    00000000002380521235 : 00000000002979942656 :: ###################

    00000000004906963319 : 00000000005441955839 :: #################

    00000000005914612646 : 00000000006348948479 :: ##############

  * 00000000007880280052 : 00000000009069926399 :: #######################################

    00000000003043040628 : 00000000003627970559 :: ###################



[H[2J
-----------------printing current job allocations (largest_remaining: 1146605025)-------------------
    00000000000981693027 : 00000000001813985279 :: ###########################

    00000000002381602314 : 00000000002979942656 :: ###################

    00000000004941351128 : 00000000005441955839 :: ################

    00000000005915288834 : 00000000006348948479 :: ##############

  * 00000000007923321374 : 00000000009069926399 :: #####################################

    00000000003046680387 : 00000000003627970559 :: ###################



[H[2J
-----------------printing current job allocations (largest_remaining: 1140181969)-------------------
    00000000001020317461 : 00000000001813985279 :: ##########################

    00000000002382531627 : 00000000002979942656 :: ###################

    00000000004951219098 : 00000000005441955839 :: ################

    00000000005917691754 : 00000000006348948479 :: ##############

  * 00000000007929744430 : 00000000009069926399 :: #####################################

    00000000003076539611 : 00000000003627970559 :: ##################



[H[2J
-----------------printing current job allocations (largest_remaining: 1106345823)-------------------
    00000000001027028054 : 00000000001813985279 :: ##########################

    00000000002386979385 : 00000000002979942656 :: ###################

    00000000004956838445 : 00000000005441955839 :: ################

    00000000005924491726 : 00000000006348948479 :: ##############

  * 00000000007963580576 : 00000000009069926399 :: ####################################

    00000000003086057320 : 00000000003627970559 :: #################



[H[2J
-----------------printing current job allocations (largest_remaining: 1094841197)-------------------
    00000000001072178066 : 00000000001813985279 :: ########################

    00000000002387539174 : 00000000002979942656 :: ###################

    00000000004972259281 : 00000000005441955839 :: ###############

    00000000005957918169 : 00000000006348948479 :: ############

  * 00000000007975085202 : 00000000009069926399 :: ####################################

    00000000003087706169 : 00000000003627970559 :: #################



[H[2J
-----------------printing current job allocations (largest_remaining: 1088907189)-------------------
    00000000001081525326 : 00000000001813985279 :: ########################

    00000000002388381466 : 00000000002979942656 :: ###################

    00000000005000830091 : 00000000005441955839 :: ##############

    00000000005958756791 : 00000000006348948479 :: ############

  * 00000000007981019210 : 00000000009069926399 :: ####################################

    00000000003092822735 : 00000000003627970559 :: #################



[H[2J
-----------------printing current job allocations (largest_remaining: 1045745899)-------------------
    00000000001120922271 : 00000000001813985279 :: ######################

    00000000002431217053 : 00000000002979942656 :: ##################

    00000000005001703374 : 00000000005441955839 :: ##############

    00000000005959275404 : 00000000006348948479 :: ############

  * 00000000008024180500 : 00000000009069926399 :: ##################################

    00000000003096897123 : 00000000003627970559 :: #################



[H[2J
-----------------printing current job allocations (largest_remaining: 1044196241)-------------------
    00000000001127710743 : 00000000001813985279 :: ######################

    00000000002452865570 : 00000000002979942656 :: #################

    00000000005007188216 : 00000000005441955839 :: ##############

    00000000005959897190 : 00000000006348948479 :: ############

  * 00000000008025730158 : 00000000009069926399 :: ##################################

    00000000003126034023 : 00000000003627970559 :: ################



[H[2J
-----------------printing current job allocations (largest_remaining: 1039263320)-------------------
    00000000001138472878 : 00000000001813985279 :: ######################

    00000000002481924425 : 00000000002979942656 :: ################

    00000000005008113726 : 00000000005441955839 :: ##############

    00000000005960764220 : 00000000006348948479 :: ############

  * 00000000008030663079 : 00000000009069926399 :: ##################################

    00000000003136344656 : 00000000003627970559 :: ################



[H[2J
-----------------printing current job allocations (largest_remaining: 1038362736)-------------------
    00000000001172954104 : 00000000001813985279 :: #####################

    00000000002503114864 : 00000000002979942656 :: ###############

    00000000005041108100 : 00000000005441955839 :: #############

    00000000005964563073 : 00000000006348948479 :: ############

  * 00000000008031563663 : 00000000009069926399 :: ##################################

    00000000003137752243 : 00000000003627970559 :: ################



[H[2J
-----------------printing current job allocations (largest_remaining: 1002765532)-------------------
    00000000001221569558 : 00000000001813985279 :: ###################

    00000000002532679473 : 00000000002979942656 :: ##############

    00000000005051247256 : 00000000005441955839 :: ############

    00000000005964908867 : 00000000006348948479 :: ############

  * 00000000008067160867 : 00000000009069926399 :: #################################

    00000000003143171980 : 00000000003627970559 :: ################



[H[2J
-----------------printing current job allocations (largest_remaining: 989282039)-------------------
    00000000001223456574 : 00000000001813985279 :: ###################

    00000000002581654206 : 00000000002979942656 :: #############

    00000000005057560966 : 00000000005441955839 :: ############

    00000000005965525688 : 00000000006348948479 :: ############

  * 00000000008080644360 : 00000000009069926399 :: ################################

    00000000003186271901 : 00000000003627970559 :: ##############



[H[2J
-----------------printing current job allocations (largest_remaining: 973582170)-------------------
    00000000001228605276 : 00000000001813985279 :: ###################

    00000000002583196077 : 00000000002979942656 :: #############

    00000000005058953032 : 00000000005441955839 :: ############

    00000000005965816031 : 00000000006348948479 :: ############

  * 00000000008096344229 : 00000000009069926399 :: ################################

    00000000003186580567 : 00000000003627970559 :: ##############



[H[2J
-----------------printing current job allocations (largest_remaining: 944300605)-------------------
    00000000001232599128 : 00000000001813985279 :: ###################

    00000000002588769254 : 00000000002979942656 :: ############

    00000000005092655190 : 00000000005441955839 :: ###########

    00000000005970002178 : 00000000006348948479 :: ############

  * 00000000008125625794 : 00000000009069926399 :: ###############################

    00000000003186989809 : 00000000003627970559 :: ##############



[H[2J
-----------------printing current job allocations (largest_remaining: 938324713)-------------------
    00000000001241901320 : 00000000001813985279 :: ##################

    00000000002623277655 : 00000000002979942656 :: ###########

    00000000005101612014 : 00000000005441955839 :: ###########

    00000000006008288823 : 00000000006348948479 :: ###########

  * 00000000008131601686 : 00000000009069926399 :: ###############################

    00000000003187597455 : 00000000003627970559 :: ##############



[H[2J
-----------------printing current job allocations (largest_remaining: 894608079)-------------------
    00000000001272880688 : 00000000001813985279 :: #################

    00000000002634234002 : 00000000002979942656 :: ###########

    00000000005103323104 : 00000000005441955839 :: ###########

    00000000006008786166 : 00000000006348948479 :: ###########

  * 00000000008175318320 : 00000000009069926399 :: #############################

    00000000003188001546 : 00000000003627970559 :: ##############



[H[2J
-----------------printing current job allocations (largest_remaining: 888107329)-------------------
    00000000001278549489 : 00000000001813985279 :: #################

    00000000002673074072 : 00000000002979942656 :: ##########

    00000000005109150950 : 00000000005441955839 :: ###########

    00000000006009516720 : 00000000006348948479 :: ###########

  * 00000000008181819070 : 00000000009069926399 :: #############################

    00000000003189544328 : 00000000003627970559 :: ##############



[H[2J
-----------------printing current job allocations (largest_remaining: 534160624)-------------------
  * 00000000001279824655 : 00000000001813985279 :: #################

    00000000002684585139 : 00000000002979942656 :: #########

    00000000008628438809 : 00000000009069926399 :: ##############

    00000000006010079718 : 00000000006348948479 :: ###########

    00000000008185142402 : 00000000008625966709 :: ##############

    00000000003193433341 : 00000000003627970559 :: ##############



[H[2J
-----------------printing current job allocations (largest_remaining: 525481755)-------------------
  * 00000000001288503524 : 00000000001813985279 :: #################

    00000000002733362679 : 00000000002979942656 :: ########

    00000000008628747398 : 00000000009069926399 :: ##############

    00000000006011020546 : 00000000006348948479 :: ###########

    00000000008186771377 : 00000000008625966709 :: ##############

    00000000003194156684 : 00000000003627970559 :: ##############



[H[2J
-----------------printing current job allocations (largest_remaining: 491476999)-------------------
  * 00000000001322508280 : 00000000001813985279 :: ################

    00000000002740152411 : 00000000002979942656 :: #######

    00000000008629327685 : 00000000009069926399 :: ##############

    00000000006014838806 : 00000000006348948479 :: ###########

    00000000008225600709 : 00000000008625966709 :: #############

    00000000003194602556 : 00000000003627970559 :: ##############



[H[2J
-----------------printing current job allocations (largest_remaining: 488802092)-------------------
  * 00000000001325183187 : 00000000001813985279 :: ################

    00000000002744257415 : 00000000002979942656 :: #######

    00000000008629640089 : 00000000009069926399 :: ##############

    00000000006015204060 : 00000000006348948479 :: ###########

    00000000008232092336 : 00000000008625966709 :: #############

    00000000003203692644 : 00000000003627970559 :: ##############



[H[2J
-----------------printing current job allocations (largest_remaining: 484051008)-------------------
  * 00000000001329934271 : 00000000001813985279 :: ################

    00000000002750935300 : 00000000002979942656 :: #######

    00000000008630232708 : 00000000009069926399 :: ##############

    00000000006015830244 : 00000000006348948479 :: ###########

    00000000008235473844 : 00000000008625966709 :: ############

    00000000003236908964 : 00000000003627970559 :: ############



[H[2J
-----------------printing current job allocations (largest_remaining: 441425429)-------------------
  * 00000000001372559850 : 00000000001813985279 :: ##############

    00000000002785395584 : 00000000002979942656 :: ######

    00000000008634962688 : 00000000009069926399 :: ##############

    00000000006016164296 : 00000000006348948479 :: ###########

    00000000008237641845 : 00000000008625966709 :: ############

    00000000003238132872 : 00000000003627970559 :: ############



[H[2J
-----------------printing current job allocations (largest_remaining: 440912341)-------------------
  * 00000000001373072938 : 00000000001813985279 :: ##############

    00000000002793737952 : 00000000002979942656 :: ######

    00000000008635311650 : 00000000009069926399 :: ##############

    00000000006059772167 : 00000000006348948479 :: #########

    00000000008276281835 : 00000000008625966709 :: ###########

    00000000003243639087 : 00000000003627970559 :: ############



[H[2J
-----------------printing current job allocations (largest_remaining: 440116249)-------------------
  * 00000000001373869030 : 00000000001813985279 :: ##############

    00000000002800436981 : 00000000002979942656 :: #####

    00000000008635693621 : 00000000009069926399 :: ##############

    00000000006108798473 : 00000000006348948479 :: #######

    00000000008282691533 : 00000000008625966709 :: ###########

    00000000003246942673 : 00000000003627970559 :: ############



[H[2J
-----------------printing current job allocations (largest_remaining: 434819281)-------------------
  * 00000000001379165998 : 00000000001813985279 :: ##############

    00000000002835299583 : 00000000002979942656 :: ####

    00000000008636322758 : 00000000009069926399 :: ##############

    00000000006116139055 : 00000000006348948479 :: #######

    00000000008326369825 : 00000000008625966709 :: #########

    00000000003279219470 : 00000000003627970559 :: ###########



[H[2J
-----------------printing current job allocations (largest_remaining: 434270062)-------------------
  * 00000000001379715217 : 00000000001813985279 :: ##############

    00000000002884267428 : 00000000002979942656 :: ###

    00000000008638358596 : 00000000009069926399 :: ##############

    00000000006161457661 : 00000000006348948479 :: ######

    00000000008332822690 : 00000000008625966709 :: #########

    00000000003288145020 : 00000000003627970559 :: ###########



[H[2J
-----------------printing current job allocations (largest_remaining: 433491319)-------------------
  * 00000000001380493960 : 00000000001813985279 :: ##############

    00000000002890811118 : 00000000002979942656 :: ##

    00000000008645341470 : 00000000009069926399 :: ##############

    00000000006210743252 : 00000000006348948479 :: ####

    00000000008336163686 : 00000000008625966709 :: #########

    00000000003290077327 : 00000000003627970559 :: ###########



[H[2J
-----------------printing current job allocations (largest_remaining: 428564922)-------------------
  * 00000000001385420357 : 00000000001813985279 :: ##############

    00000000002895747787 : 00000000002979942656 :: ##

    00000000008678826141 : 00000000009069926399 :: ############

    00000000006217881621 : 00000000006348948479 :: ####

    00000000008376290308 : 00000000008625966709 :: ########

    00000000003294972810 : 00000000003627970559 :: ###########



[H[2J
-----------------printing current job allocations (largest_remaining: 194569010)-------------------
    00000000001423447378 : 00000000001602200167 :: #####

    00000000002935543594 : 00000000002979942656 :: #

  * 00000000008679971870 : 00000000008874540880 :: ######

    00000000006267025930 : 00000000006348948479 :: ##

    00000000008379087342 : 00000000008501425413 :: ####

    00000000008527647758 : 00000000008625966709 :: ###



[H[2J
-----------------printing current job allocations (largest_remaining: 193673687)-------------------
    00000000001429373948 : 00000000001602200167 :: #####

    00000000002942684787 : 00000000002979942656 :: #

  * 00000000008680867193 : 00000000008874540880 :: ######

    00000000006312783779 : 00000000006348948479 :: #

    00000000008384370899 : 00000000008501425413 :: ###

    00000000008528821914 : 00000000008625966709 :: ###



[H[2J
-----------------printing current job allocations (largest_remaining: 94280061)-------------------
    00000000001430565107 : 00000000001516089743 :: ##

    00000000008578215068 : 00000000008625966709 :: #

  * 00000000008685684807 : 00000000008779964868 :: ###

    00000000008469319923 : 00000000008501425413 :: #

    00000000008426734485 : 00000000008445415753 :: 

    00000000008530728187 : 00000000008577935220 :: #



[H[2J
-----------------printing current job allocations (largest_remaining: 93173228)-------------------
    00000000001439994756 : 00000000001516089743 :: ##

    00000000008579424229 : 00000000008625966709 :: #

  * 00000000008686791640 : 00000000008779964868 :: ###

    00000000008478184597 : 00000000008501425413 :: 

    00000000008429735021 : 00000000008445415753 :: 

    00000000008534910615 : 00000000008577935220 :: #



[H[2J
-----------------printing current job allocations (largest_remaining: 79067213)-------------------
    00000000001474178068 : 00000000001516089743 :: #

    00000000008584716081 : 00000000008625966709 :: #

  * 00000000008700897655 : 00000000008779964868 :: ##

    00000000008479856732 : 00000000008501425413 :: 

    00000000008434703869 : 00000000008445415753 :: 

    00000000008538153369 : 00000000008577935220 :: #



[H[2J
-----------------printing current job allocations (largest_remaining: 15425206)-------------------
  * 00000000001479847908 : 00000000001495273114 :: 

    00000000008585828741 : 00000000008595532038 :: 

    00000000008729466072 : 00000000008739704556 :: 

    00000000008484291138 : 00000000008492818693 :: 

    00000000008494211183 : 00000000008501425413 :: 

    00000000008545392604 : 00000000008558436895 :: 



[H[2J
-----------------printing current job allocations (largest_remaining: 1621311)-------------------
    00000000001481162315 : 00000000001482502406 :: 

    00000000008488504273 : 00000000008488859475 :: 

    00000000008730593672 : 00000000008731381793 :: 

    00000000008485370735 : 00000000008486889518 :: 

    00000000008732055673 : 00000000008732379980 :: 

  * 00000000008736277856 : 00000000008737899167 :: 



[H[2J
-----------------printing current job allocations (largest_remaining: 0)-------------------
  * 00000000000000000000 : 00000000000000000000 :: 

    00000000000000000000 : 00000000000000000000 :: 

    00000000000000000000 : 00000000000000000000 :: 

    00000000000000000000 : 00000000000000000000 :: 

    00000000000000000000 : 00000000000000000000 :: 

    00000000000000000000 : 00000000000000000000 :: 



using [D=1, R=0]:
	space_size=10883911680
	thread_count=6
	minimum_split_size=10
	range_update_frequency=5
	display_rate=0
	fea_execution_limit=5000
	execution_limit=10000000000
	array_size=100000


	searched 10883911680 zvs
	using 6 threads
	in      33.00s [1202406086.190455:1202406086.190528],
	at 329815505.45 z/s.


pm counts:
z_is_good: 0       		 pm_ga: 10741531908		
pm_fea: 0       		pm_ns0: 856     		
pm_pco: 1683    		pm_zr5: 428796  		
pm_zr6: 224808  		pm_ndi: 35122   		
pm_oer: 0       		pm_r0i: 7711    		
 pm_h0: 38654   		pm_f1e: 233     		
pm_erc: 1071660 		pm_rmv: 13168   		
 pm_ot: 0       		pm_csm: 0       		
 pm_mm: 0       		pm_snm: 0       		
pm_bdl: 0       		pm_bdl2: 0       		
pm_erw: 0       		pm_mcal: 6306350 		
pm_snl: 1431624 		 pm_h1: 0       		
 pm_h2: 0       		 pm_h3: 0       		
pm_per: 49327   		pmf_fea: 5947301 		
pmf_ns0: 4873575 		pmf_pco: 11040695		
pmf_zr5: 56688934		pmf_zr6: 38720604		
pmf_ndi: 15498671		
[done]
