SRNFGPR: searching [D=1, R=0] space....
[H[2J
-----------------printing current job allocations (largest_remaining: 1813985279)-------------------
  * 00000000000000000000 : 00000000001813985279 :: ###########################################################

    00000000001813985280 : 00000000003627970559 :: ###########################################################

    00000000003627970560 : 00000000005441955839 :: ###########################################################

    00000000005441955840 : 00000000007255941119 :: ###########################################################

    00000000007255941120 : 00000000009069926399 :: ###########################################################

    00000000009069926400 : 00000000010883911679 :: ###########################################################



[H[2J
-----------------printing current job allocations (largest_remaining: 1802111338)-------------------
    00000000000018576856 : 00000000000906992639 :: #############################

  * 00000000001825859221 : 00000000003627970559 :: ###########################################################

    00000000003639844501 : 00000000005441955839 :: ###########################################################

    00000000005455447195 : 00000000007255941119 :: ###########################################################

    00000000007269587987 : 00000000009069926399 :: ###########################################################

    00000000000920483994 : 00000000001813985279 :: #############################



[H[2J
-----------------printing current job allocations (largest_remaining: 1795408423)-------------------
    00000000000022109112 : 00000000000906992639 :: #############################

    00000000001836318204 : 00000000003627970559 :: ###########################################################

    00000000003672029286 : 00000000005441955839 :: ##########################################################

  * 00000000005460532696 : 00000000007255941119 :: ###########################################################

    00000000007278274044 : 00000000009069926399 :: ###########################################################

    00000000000929101536 : 00000000001813985279 :: #############################



[H[2J
-----------------printing current job allocations (largest_remaining: 1791876167)-------------------
    00000000000062535744 : 00000000000906992639 :: ###########################

    00000000001839144780 : 00000000003627970559 :: ###########################################################

    00000000003682254713 : 00000000005441955839 :: ##########################################################

  * 00000000005464064952 : 00000000007255941119 :: ###########################################################

    00000000007281100620 : 00000000009069926399 :: ###########################################################

    00000000000931928112 : 00000000001813985279 :: #############################



[H[2J
-----------------printing current job allocations (largest_remaining: 1791876167)-------------------
    00000000000069394136 : 00000000000906992639 :: ###########################

    00000000001866746474 : 00000000003627970559 :: ##########################################################

    00000000003712021157 : 00000000005441955839 :: #########################################################

  * 00000000005464064952 : 00000000007255941119 :: ###########################################################

    00000000007318842214 : 00000000009069926399 :: #########################################################

    00000000000969528348 : 00000000001813985279 :: ###########################



[H[2J
-----------------printing current job allocations (largest_remaining: 1791876167)-------------------
    00000000000073402627 : 00000000000906992639 :: ###########################

    00000000001878985887 : 00000000003627970559 :: #########################################################

    00000000003731632185 : 00000000005441955839 :: ########################################################

  * 00000000005464064952 : 00000000007255941119 :: ###########################################################

    00000000007325933921 : 00000000009069926399 :: #########################################################

    00000000000976386775 : 00000000001813985279 :: ###########################



[H[2J
-----------------printing current job allocations (largest_remaining: 1789049591)-------------------
    00000000000113687285 : 00000000000906992639 :: ##########################

    00000000001888096624 : 00000000003627970559 :: #########################################################

    00000000003743591658 : 00000000005441955839 :: ########################################################

  * 00000000005466891528 : 00000000007255941119 :: ###########################################################

    00000000007329861457 : 00000000009069926399 :: #########################################################

    00000000000986316687 : 00000000001813985279 :: ###########################



[H[2J
-----------------printing current job allocations (largest_remaining: 1789049591)-------------------
    00000000000120499057 : 00000000000906992639 :: ##########################

    00000000001899103466 : 00000000003627970559 :: #########################################################

    00000000003774050172 : 00000000005441955839 :: #######################################################

  * 00000000005466891528 : 00000000007255941119 :: ###########################################################

    00000000007361587936 : 00000000009069926399 :: ########################################################

    00000000001020361213 : 00000000001813985279 :: ##########################



[H[2J
-----------------printing current job allocations (largest_remaining: 1789049591)-------------------
    00000000000164293414 : 00000000000906992639 :: ########################

    00000000001918154644 : 00000000003627970559 :: ########################################################

    00000000003821227150 : 00000000005441955839 :: #####################################################

  * 00000000005466891528 : 00000000007255941119 :: ###########################################################

    00000000007371821143 : 00000000009069926399 :: ########################################################

    00000000001027452920 : 00000000001813985279 :: ##########################



[H[2J
-----------------printing current job allocations (largest_remaining: 1749676644)-------------------
    00000000000171105186 : 00000000000906992639 :: ########################

    00000000001933465572 : 00000000003627970559 :: ########################################################

    00000000003833178853 : 00000000005441955839 :: #####################################################

  * 00000000005506264475 : 00000000007255941119 :: #########################################################

    00000000007418943590 : 00000000009069926399 :: ######################################################

    00000000001072942512 : 00000000001813985279 :: ########################



[H[2J
-----------------printing current job allocations (largest_remaining: 1744591143)-------------------
    00000000000213354398 : 00000000000906992639 :: ######################

    00000000001958791680 : 00000000003627970559 :: #######################################################

    00000000003882167528 : 00000000005441955839 :: ###################################################

  * 00000000005511349976 : 00000000007255941119 :: #########################################################

    00000000007425802012 : 00000000009069926399 :: ######################################################

    00000000001082079419 : 00000000001813985279 :: ########################



[H[2J
-----------------printing current job allocations (largest_remaining: 1740582652)-------------------
    00000000000220166170 : 00000000000906992639 :: ######################

    00000000001979087032 : 00000000003627970559 :: ######################################################

    00000000003894142556 : 00000000005441955839 :: ###################################################

  * 00000000005515358467 : 00000000007255941119 :: #########################################################

    00000000007425802012 : 00000000009069926399 :: ######################################################

    00000000001121995936 : 00000000001813985279 :: ######################



[H[2J
-----------------printing current job allocations (largest_remaining: 1740582652)-------------------
    00000000000234125203 : 00000000000906992639 :: ######################

    00000000001984172533 : 00000000003627970559 :: ######################################################

    00000000003933146958 : 00000000005441955839 :: #################################################

  * 00000000005515358467 : 00000000007255941119 :: #########################################################

    00000000007432154069 : 00000000009069926399 :: ######################################################

    00000000001130585453 : 00000000001813985279 :: ######################



[H[2J
-----------------printing current job allocations (largest_remaining: 1734661231)-------------------
    00000000000271022261 : 00000000000906992639 :: #####################

    00000000001994099190 : 00000000003627970559 :: ######################################################

    00000000003943380165 : 00000000005441955839 :: #################################################

  * 00000000005521279888 : 00000000007255941119 :: #########################################################

    00000000007471597108 : 00000000009069926399 :: ####################################################

    00000000001171040075 : 00000000001813985279 :: #####################



[H[2J
-----------------printing current job allocations (largest_remaining: 1698610499)-------------------
    00000000000314738927 : 00000000000906992639 :: ###################

    00000000002009991272 : 00000000003627970559 :: #####################################################

    00000000003945106436 : 00000000005441955839 :: #################################################

  * 00000000005557330620 : 00000000007255941119 :: ########################################################

    00000000007480836180 : 00000000009069926399 :: ####################################################

    00000000001177898502 : 00000000001813985279 :: #####################



[H[2J
-----------------printing current job allocations (largest_remaining: 1693524998)-------------------
    00000000000314738927 : 00000000000906992639 :: ###################

    00000000002028669210 : 00000000003627970559 :: ####################################################

    00000000003950191937 : 00000000005441955839 :: #################################################

  * 00000000005562416121 : 00000000007255941119 :: ########################################################

    00000000007512678734 : 00000000009069926399 :: ###################################################

    00000000001221615168 : 00000000001813985279 :: ###################



[H[2J
-----------------printing current job allocations (largest_remaining: 1648035406)-------------------
    00000000000316519628 : 00000000000906992639 :: ###################

    00000000002039622148 : 00000000003627970559 :: ####################################################

    00000000003983869684 : 00000000005441955839 :: ################################################

  * 00000000005607905713 : 00000000007255941119 :: ######################################################

    00000000007522857506 : 00000000009069926399 :: ###################################################

    00000000001223341439 : 00000000001813985279 :: ###################



[H[2J
-----------------printing current job allocations (largest_remaining: 1642949905)-------------------
    00000000000316519628 : 00000000000906992639 :: ###################

    00000000002077923437 : 00000000003627970559 :: ###################################################

    00000000003994102891 : 00000000005441955839 :: ###############################################

  * 00000000005612991214 : 00000000007255941119 :: ######################################################

    00000000007570096689 : 00000000009069926399 :: #################################################

    00000000001228426940 : 00000000001813985279 :: ###################



[H[2J
-----------------printing current job allocations (largest_remaining: 1638898499)-------------------
    00000000000321605129 : 00000000000906992639 :: ###################

    00000000002118374175 : 00000000003627970559 :: #################################################

    00000000003999203942 : 00000000005441955839 :: ###############################################

  * 00000000005617042620 : 00000000007255941119 :: ######################################################

    00000000007570096689 : 00000000009069926399 :: #################################################

    00000000001238456702 : 00000000001813985279 :: ###################



[H[2J
-----------------printing current job allocations (largest_remaining: 1632666038)-------------------
    00000000000325764930 : 00000000000906992639 :: ###################

    00000000002128607382 : 00000000003627970559 :: #################################################

    00000000004012703068 : 00000000005441955839 :: ###############################################

  * 00000000005623275081 : 00000000007255941119 :: ######################################################

    00000000007571822960 : 00000000009069926399 :: #################################################

    00000000001243256858 : 00000000001813985279 :: ##################



[H[2J
-----------------printing current job allocations (largest_remaining: 1593896481)-------------------
    00000000000336497252 : 00000000000906992639 :: ##################

    00000000002128607382 : 00000000003627970559 :: #################################################

    00000000004034662205 : 00000000005441955839 :: ##############################################

  * 00000000005662044638 : 00000000007255941119 :: ####################################################

    00000000007576955116 : 00000000009069926399 :: #################################################

    00000000001274493015 : 00000000001813985279 :: #################



[H[2J
-----------------printing current job allocations (largest_remaining: 1587558114)-------------------
    00000000000365882728 : 00000000000906992639 :: #################

    00000000002130333653 : 00000000003627970559 :: #################################################

    00000000004043114711 : 00000000005441955839 :: ##############################################

  * 00000000005668383005 : 00000000007255941119 :: ####################################################

    00000000007576955116 : 00000000009069926399 :: #################################################

    00000000001279578516 : 00000000001813985279 :: #################



[H[2J
-----------------printing current job allocations (largest_remaining: 1549937843)-------------------
    00000000000367608999 : 00000000000906992639 :: #################

    00000000002130333653 : 00000000003627970559 :: #################################################

    00000000004044840982 : 00000000005441955839 :: ##############################################

  * 00000000005706003276 : 00000000007255941119 :: ###################################################

    00000000007580477147 : 00000000009069926399 :: #################################################

    00000000001283620207 : 00000000001813985279 :: #################



[H[2J
-----------------printing current job allocations (largest_remaining: 1543079416)-------------------
    00000000000367608999 : 00000000000906992639 :: #################

    00000000002135419154 : 00000000003627970559 :: #################################################

    00000000004063635554 : 00000000005441955839 :: #############################################

  * 00000000005712861703 : 00000000007255941119 :: ###################################################

    00000000007583311498 : 00000000009069926399 :: #################################################

    00000000001294633924 : 00000000001813985279 :: #################



[H[2J
-----------------printing current job allocations (largest_remaining: 1543079416)-------------------
    00000000000372694500 : 00000000000906992639 :: #################

    00000000002135419154 : 00000000003627970559 :: #################################################

    00000000004093728580 : 00000000005441955839 :: ############################################

  * 00000000005712861703 : 00000000007255941119 :: ###################################################

    00000000007612616906 : 00000000009069926399 :: ################################################

    00000000001328669456 : 00000000001813985279 :: ################



[H[2J
-----------------printing current job allocations (largest_remaining: 1499362750)-------------------
    00000000000376849891 : 00000000000906992639 :: #################

    00000000002139525990 : 00000000003627970559 :: #################################################

    00000000004093728580 : 00000000005441955839 :: ############################################

  * 00000000005756578369 : 00000000007255941119 :: #################################################

    00000000007621069412 : 00000000009069926399 :: ###############################################

    00000000001328669456 : 00000000001813985279 :: ################



[H[2J
-----------------printing current job allocations (largest_remaining: 1499362750)-------------------
    00000000000414973673 : 00000000000906992639 :: ################

    00000000002150249072 : 00000000003627970559 :: ################################################

    00000000004093728580 : 00000000005441955839 :: ############################################

  * 00000000005756578369 : 00000000007255941119 :: #################################################

    00000000007622850113 : 00000000009069926399 :: ###############################################

    00000000001372471553 : 00000000001813985279 :: ##############



[H[2J
-----------------printing current job allocations (largest_remaining: 1497636479)-------------------
    00000000000416746599 : 00000000000906992639 :: ################

    00000000002171415309 : 00000000003627970559 :: ################################################

    00000000004095454851 : 00000000005441955839 :: ############################################

  * 00000000005758304640 : 00000000007255941119 :: #################################################

    00000000007622850113 : 00000000009069926399 :: ###############################################

    00000000001372471553 : 00000000001813985279 :: ##############



[H[2J
-----------------printing current job allocations (largest_remaining: 1497636479)-------------------
    00000000000416746599 : 00000000000906992639 :: ################

    00000000002179867815 : 00000000003627970559 :: ###############################################

    00000000004095454851 : 00000000005441955839 :: ############################################

  * 00000000005758304640 : 00000000007255941119 :: #################################################

    00000000007627935614 : 00000000009069926399 :: ###############################################

    00000000001374197824 : 00000000001813985279 :: ##############



[H[2J
-----------------printing current job allocations (largest_remaining: 1497636479)-------------------
    00000000000421832100 : 00000000000906992639 :: ################

    00000000002179867815 : 00000000003627970559 :: ###############################################

    00000000004095454851 : 00000000005441955839 :: ############################################

  * 00000000005758304640 : 00000000007255941119 :: #################################################

    00000000007627935614 : 00000000009069926399 :: ###############################################

    00000000001379283325 : 00000000001813985279 :: ##############



[H[2J
-----------------printing current job allocations (largest_remaining: 1492550978)-------------------
    00000000000435416721 : 00000000000906992639 :: ###############

    00000000002181594086 : 00000000003627970559 :: ###############################################

    00000000004100540352 : 00000000005441955839 :: ############################################

  * 00000000005763390141 : 00000000007255941119 :: #################################################

    00000000007638024821 : 00000000009069926399 :: ###############################################

    00000000001379283325 : 00000000001813985279 :: ##############



[H[2J
-----------------printing current job allocations (largest_remaining: 1492550978)-------------------
    00000000000465587537 : 00000000000906992639 :: ##############

    00000000002181594086 : 00000000003627970559 :: ###############################################

    00000000004100540352 : 00000000005441955839 :: ############################################

  * 00000000005763390141 : 00000000007255941119 :: #################################################

    00000000007663869564 : 00000000009069926399 :: ##############################################

    00000000001382901101 : 00000000001813985279 :: ##############



[H[2J
-----------------printing current job allocations (largest_remaining: 1492550978)-------------------
    00000000000465587537 : 00000000000906992639 :: ##############

    00000000002186679587 : 00000000003627970559 :: ###############################################

    00000000004135967799 : 00000000005441955839 :: ###########################################

  * 00000000005763390141 : 00000000007255941119 :: #################################################

    00000000007672322070 : 00000000009069926399 :: ##############################################

    00000000001389110232 : 00000000001813985279 :: ##############



[H[2J
-----------------printing current job allocations (largest_remaining: 1492550978)-------------------
    00000000000465587537 : 00000000000906992639 :: ##############

    00000000002190834973 : 00000000003627970559 :: ###############################################

    00000000004144420300 : 00000000005441955839 :: ##########################################

  * 00000000005763390141 : 00000000007255941119 :: #################################################

    00000000007672322070 : 00000000009069926399 :: ##############################################

    00000000001424968449 : 00000000001813985279 :: ############



[H[2J
-----------------printing current job allocations (largest_remaining: 1488434862)-------------------
    00000000000465587537 : 00000000000906992639 :: ##############

    00000000002220661761 : 00000000003627970559 :: ##############################################

    00000000004146426506 : 00000000005441955839 :: ##########################################

  * 00000000005767506257 : 00000000007255941119 :: #################################################

    00000000007674094996 : 00000000009069926399 :: ##############################################

    00000000001430108380 : 00000000001813985279 :: ############



[H[2J
-----------------printing current job allocations (largest_remaining: 1488434862)-------------------
    00000000000467313808 : 00000000000906992639 :: ##############

    00000000002229122042 : 00000000003627970559 :: ##############################################

    00000000004151512007 : 00000000005441955839 :: ##########################################

  * 00000000005767506257 : 00000000007255941119 :: #################################################

    00000000007674094996 : 00000000009069926399 :: ##############################################

    00000000001440178452 : 00000000001813985279 :: ############



[H[2J
-----------------printing current job allocations (largest_remaining: 1488434862)-------------------
    00000000000467313808 : 00000000000906992639 :: ##############

    00000000002230848313 : 00000000003627970559 :: ##############################################

    00000000004186970490 : 00000000005441955839 :: #########################################

  * 00000000005767506257 : 00000000007255941119 :: #################################################

    00000000007721217438 : 00000000009069926399 :: ############################################

    00000000001444946073 : 00000000001813985279 :: ############



[H[2J
-----------------printing current job allocations (largest_remaining: 1482521216)-------------------
    00000000000467313808 : 00000000000906992639 :: ##############

    00000000002230848313 : 00000000003627970559 :: ##############################################

    00000000004195422996 : 00000000005441955839 :: #########################################

  * 00000000005773419903 : 00000000007255941119 :: #################################################

    00000000007721217438 : 00000000009069926399 :: ############################################

    00000000001476112250 : 00000000001813985279 :: ###########



[H[2J
-----------------printing current job allocations (largest_remaining: 1392036745)-------------------
    00000000000467313808 : 00000000000906992639 :: ##############

  * 00000000002235933814 : 00000000003627970559 :: ##############################################

    00000000004197149267 : 00000000005441955839 :: #########################################

    00000000005773419903 : 00000000006514680510 :: ########################

    00000000007721217438 : 00000000009069926399 :: ############################################

    00000000006514680511 : 00000000007255941119 :: ########################



[H[2J
-----------------printing current job allocations (largest_remaining: 1392036745)-------------------
    00000000000472445964 : 00000000000906992639 :: ##############

  * 00000000002235933814 : 00000000003627970559 :: ##############################################

    00000000004202234768 : 00000000005441955839 :: #########################################

    00000000005773419903 : 00000000006514680510 :: ########################

    00000000007721217438 : 00000000009069926399 :: ############################################

    00000000006523388488 : 00000000007255941119 :: ########################



[H[2J
-----------------printing current job allocations (largest_remaining: 1378335454)-------------------
    00000000000472445964 : 00000000000906992639 :: ##############

  * 00000000002249635105 : 00000000003627970559 :: #############################################

    00000000004237662210 : 00000000005441955839 :: #######################################

    00000000005807644479 : 00000000006514680510 :: #######################

    00000000007721217438 : 00000000009069926399 :: ############################################

    00000000006529309909 : 00000000007255941119 :: ########################



[H[2J
-----------------printing current job allocations (largest_remaining: 1378335454)-------------------
    00000000000472445964 : 00000000000906992639 :: ##############

  * 00000000002249635105 : 00000000003627970559 :: #############################################

    00000000004284932394 : 00000000005441955839 :: ######################################

    00000000005807644479 : 00000000006514680510 :: #######################

    00000000007722943709 : 00000000009069926399 :: ############################################

    00000000006570368547 : 00000000007255941119 :: ######################



[H[2J
-----------------printing current job allocations (largest_remaining: 1348242638)-------------------
    00000000000476138520 : 00000000000906992639 :: ##############

  * 00000000002279727921 : 00000000003627970559 :: ############################################

    00000000004295118946 : 00000000005441955839 :: #####################################

    00000000005809370750 : 00000000006514680510 :: #######################

    00000000007722943709 : 00000000009069926399 :: ############################################

    00000000006580650294 : 00000000007255941119 :: ######################



[H[2J
-----------------printing current job allocations (largest_remaining: 1348242638)-------------------
    00000000000482339876 : 00000000000906992639 :: ##############

  * 00000000002279727921 : 00000000003627970559 :: ############################################

    00000000004335655155 : 00000000005441955839 :: ####################################

    00000000005809370750 : 00000000006514680510 :: #######################

    00000000007722943709 : 00000000009069926399 :: ############################################

    00000000006619420676 : 00000000007255941119 :: #####################



[H[2J
-----------------printing current job allocations (largest_remaining: 1348242638)-------------------
    00000000000516420372 : 00000000000906992639 :: ############

  * 00000000002279727921 : 00000000003627970559 :: ############################################

    00000000004345857252 : 00000000005441955839 :: ####################################

    00000000005809370750 : 00000000006514680510 :: #######################

    00000000007728029210 : 00000000009069926399 :: ############################################

    00000000006663137342 : 00000000007255941119 :: ###################



[H[2J
-----------------printing current job allocations (largest_remaining: 1348242638)-------------------
    00000000000518146638 : 00000000000906992639 :: ############

  * 00000000002279727921 : 00000000003627970559 :: ############################################

    00000000004396712280 : 00000000005441955839 :: ##################################

    00000000005809370750 : 00000000006514680510 :: #######################

    00000000007728029210 : 00000000009069926399 :: ############################################

    00000000006663137342 : 00000000007255941119 :: ###################



[H[2J
-----------------printing current job allocations (largest_remaining: 1348242638)-------------------
    00000000000518146638 : 00000000000906992639 :: ############

  * 00000000002279727921 : 00000000003627970559 :: ############################################

    00000000004403524052 : 00000000005441955839 :: ##################################

    00000000005814502906 : 00000000006514680510 :: #######################

    00000000007728029210 : 00000000009069926399 :: ############################################

    00000000006664910268 : 00000000007255941119 :: ###################



[H[2J
-----------------printing current job allocations (largest_remaining: 1346516367)-------------------
    00000000000523512074 : 00000000000906992639 :: ############

  * 00000000002281454192 : 00000000003627970559 :: ############################################

    00000000004447396225 : 00000000005441955839 :: ################################

    00000000005814502906 : 00000000006514680510 :: #######################

    00000000007728029210 : 00000000009069926399 :: ############################################

    00000000006669995764 : 00000000007255941119 :: ###################



[H[2J
-----------------printing current job allocations (largest_remaining: 1346516367)-------------------
    00000000000538139597 : 00000000000906992639 :: ############

  * 00000000002281454192 : 00000000003627970559 :: ############################################

    00000000004469013408 : 00000000005441955839 :: ################################

    00000000005818526532 : 00000000006514680510 :: #######################

    00000000007728029210 : 00000000009069926399 :: ############################################

    00000000006669995764 : 00000000007255941119 :: ###################



[H[2J
-----------------printing current job allocations (largest_remaining: 1346516367)-------------------
    00000000000538139597 : 00000000000906992639 :: ############

  * 00000000002281454192 : 00000000003627970559 :: ############################################

    00000000004498126726 : 00000000005441955839 :: ###############################

    00000000005824720113 : 00000000006514680510 :: ######################

    00000000007728029210 : 00000000009069926399 :: ############################################

    00000000006673532020 : 00000000007255941119 :: ###################



[H[2J
-----------------printing current job allocations (largest_remaining: 1346516367)-------------------
    00000000000567509528 : 00000000000906992639 :: ###########

  * 00000000002281454192 : 00000000003627970559 :: ############################################

    00000000004553787315 : 00000000005441955839 :: #############################

    00000000005824720113 : 00000000006514680510 :: ######################

    00000000007728029210 : 00000000009069926399 :: ############################################

    00000000006673532020 : 00000000007255941119 :: ###################



[H[2J
-----------------printing current job allocations (largest_remaining: 1346516367)-------------------
    00000000000569235799 : 00000000000906992639 :: ###########

  * 00000000002281454192 : 00000000003627970559 :: ############################################

    00000000004648079074 : 00000000005441955839 :: ##########################

    00000000005824720113 : 00000000006514680510 :: ######################

    00000000007734403792 : 00000000009069926399 :: ############################################

    00000000006673532020 : 00000000007255941119 :: ###################



[H[2J
-----------------printing current job allocations (largest_remaining: 1346516367)-------------------
    00000000000569235799 : 00000000000906992639 :: ###########

  * 00000000002281454192 : 00000000003627970559 :: ############################################

    00000000004700395983 : 00000000005441955839 :: ########################

    00000000005858461759 : 00000000006514680510 :: #####################

    00000000007763698669 : 00000000009069926399 :: ###########################################

    00000000006676413026 : 00000000007255941119 :: ###################



[H[2J
-----------------printing current job allocations (largest_remaining: 1341430866)-------------------
    00000000000618084616 : 00000000000906992639 :: #########

  * 00000000002286539693 : 00000000003627970559 :: ############################################

    00000000004756336512 : 00000000005441955839 :: ######################

    00000000005858461759 : 00000000006514680510 :: #####################

    00000000007772151170 : 00000000009069926399 :: ##########################################

    00000000006676413026 : 00000000007255941119 :: ###################



[H[2J
-----------------printing current job allocations (largest_remaining: 1341430866)-------------------
    00000000000666933369 : 00000000000906992639 :: #######

  * 00000000002286539693 : 00000000003627970559 :: ############################################

    00000000004840503916 : 00000000005441955839 :: ###################

    00000000005858461759 : 00000000006514680510 :: #####################

    00000000007773877441 : 00000000009069926399 :: ##########################################

    00000000006676413026 : 00000000007255941119 :: ###################



[H[2J
-----------------printing current job allocations (largest_remaining: 1341430866)-------------------
    00000000000673791796 : 00000000000906992639 :: #######

  * 00000000002286539693 : 00000000003627970559 :: ############################################

    00000000004842284617 : 00000000005441955839 :: ###################

    00000000005863555035 : 00000000006514680510 :: #####################

    00000000007773877441 : 00000000009069926399 :: ##########################################

    00000000006713954657 : 00000000007255941119 :: #################



[H[2J
-----------------printing current job allocations (largest_remaining: 1341430866)-------------------
    00000000000719265734 : 00000000000906992639 :: ######

  * 00000000002286539693 : 00000000003627970559 :: ############################################

    00000000004855830364 : 00000000005441955839 :: ###################

    00000000005863555035 : 00000000006514680510 :: #####################

    00000000007778962907 : 00000000009069926399 :: ##########################################

    00000000006713954657 : 00000000007255941119 :: #################



[H[2J
-----------------printing current job allocations (largest_remaining: 1337342955)-------------------
    00000000000768153367 : 00000000000906992639 :: ####

  * 00000000002290627604 : 00000000003627970559 :: ############################################

    00000000004889554801 : 00000000005441955839 :: ##################

    00000000005863555035 : 00000000006514680510 :: #####################

    00000000007778962907 : 00000000009069926399 :: ##########################################

    00000000006715680928 : 00000000007255941119 :: #################



[H[2J
-----------------printing current job allocations (largest_remaining: 1305520177)-------------------
    00000000000774965139 : 00000000000906992639 :: ####

  * 00000000002322450382 : 00000000003627970559 :: ###########################################

    00000000004899741353 : 00000000005441955839 :: #################

    00000000005863555035 : 00000000006514680510 :: #####################

    00000000007814959062 : 00000000009069926399 :: #########################################

    00000000006715680928 : 00000000007255941119 :: #################



[H[2J
-----------------printing current job allocations (largest_remaining: 1305520177)-------------------
    00000000000820462501 : 00000000000906992639 :: ##

  * 00000000002322450382 : 00000000003627970559 :: ###########################################

    00000000004906553125 : 00000000005441955839 :: #################

    00000000005907271701 : 00000000006514680510 :: ####################

    00000000007814959062 : 00000000009069926399 :: #########################################

    00000000006720766429 : 00000000007255941119 :: #################



[H[2J
-----------------printing current job allocations (largest_remaining: 1297021016)-------------------
    00000000000869583379 : 00000000000906992639 :: #

  * 00000000002330949543 : 00000000003627970559 :: ##########################################

    00000000004940277557 : 00000000005441955839 :: ################

    00000000005907271701 : 00000000006514680510 :: ####################

    00000000007823411568 : 00000000009069926399 :: #########################################

    00000000006720766429 : 00000000007255941119 :: #################



[H[2J
-----------------printing current job allocations (largest_remaining: 1244788560)-------------------
    00000000002979460051 : 00000000003627970559 :: #####################

    00000000002330949543 : 00000000002979460050 :: #####################

    00000000004950471849 : 00000000005441955839 :: ################

    00000000005908997972 : 00000000006514680510 :: ####################

  * 00000000007825137839 : 00000000009069926399 :: #########################################

    00000000006724872400 : 00000000007255941119 :: #################



[H[2J
-----------------printing current job allocations (largest_remaining: 1244788560)-------------------
    00000000002987812422 : 00000000003627970559 :: #####################

    00000000002332675814 : 00000000002979460050 :: #####################

    00000000004952205895 : 00000000005441955839 :: ################

    00000000005908997972 : 00000000006514680510 :: ####################

  * 00000000007825137839 : 00000000009069926399 :: #########################################

    00000000006730793821 : 00000000007255941119 :: #################



[H[2J
-----------------printing current job allocations (largest_remaining: 1244788560)-------------------
    00000000003028317590 : 00000000003627970559 :: ###################

    00000000002332675814 : 00000000002979460050 :: #####################

    00000000004971793382 : 00000000005441955839 :: ###############

    00000000005908997972 : 00000000006514680510 :: ####################

  * 00000000007825137839 : 00000000009069926399 :: #########################################

    00000000006730793821 : 00000000007255941119 :: #################



[H[2J
-----------------printing current job allocations (largest_remaining: 1197549377)-------------------
    00000000003028317590 : 00000000003627970559 :: ###################

    00000000002337761310 : 00000000002979460050 :: #####################

    00000000004971793382 : 00000000005441955839 :: ###############

    00000000005914130128 : 00000000006514680510 :: ###################

  * 00000000007872377022 : 00000000009069926399 :: #######################################

    00000000006730793821 : 00000000007255941119 :: #################



[H[2J
-----------------printing current job allocations (largest_remaining: 1190737605)-------------------
    00000000003041871147 : 00000000003627970559 :: ###################

    00000000002371704609 : 00000000002979460050 :: ####################

    00000000005001373248 : 00000000005441955839 :: ##############

    00000000005914130128 : 00000000006514680510 :: ###################

  * 00000000007879188794 : 00000000009069926399 :: #######################################

    00000000006765020552 : 00000000007255941119 :: ################



[H[2J
-----------------printing current job allocations (largest_remaining: 1157013173)-------------------
    00000000003041871147 : 00000000003627970559 :: ###################

    00000000002380203770 : 00000000002979460050 :: ###################

    00000000005003099519 : 00000000005441955839 :: ##############

    00000000005914130128 : 00000000006514680510 :: ###################

  * 00000000007912913226 : 00000000009069926399 :: ######################################

    00000000006766746823 : 00000000007255941119 :: ################



[H[2J
-----------------printing current job allocations (largest_remaining: 1146818846)-------------------
    00000000003048221579 : 00000000003627970559 :: ###################

    00000000002380203770 : 00000000002979460050 :: ###################

    00000000005008185020 : 00000000005441955839 :: ##############

    00000000005914130128 : 00000000006514680510 :: ###################

  * 00000000007923107553 : 00000000009069926399 :: #####################################

    00000000006766746823 : 00000000007255941119 :: ################



[H[2J
-----------------printing current job allocations (largest_remaining: 1139960419)-------------------
    00000000003075791116 : 00000000003627970559 :: ##################

    00000000002381930041 : 00000000002979460050 :: ###################

    00000000005041870646 : 00000000005441955839 :: #############

    00000000005917649789 : 00000000006514680510 :: ###################

  * 00000000007929965980 : 00000000009069926399 :: #####################################

    00000000006771878979 : 00000000007255941119 :: ################



[H[2J
-----------------printing current job allocations (largest_remaining: 1104548626)-------------------
    00000000003086024323 : 00000000003627970559 :: #################

    00000000002381930041 : 00000000002979460050 :: ###################

    00000000005052057193 : 00000000005441955839 :: ############

    00000000005920476365 : 00000000006514680510 :: ###################

  * 00000000007965377773 : 00000000009069926399 :: ####################################

    00000000006771878979 : 00000000007255941119 :: ################



[H[2J
-----------------printing current job allocations (largest_remaining: 1094315419)-------------------
    00000000003087750594 : 00000000003627970559 :: #################

    00000000002387015537 : 00000000002979460050 :: ###################

    00000000005053783464 : 00000000005441955839 :: ############

    00000000005958096791 : 00000000006514680510 :: ##################

  * 00000000007975610980 : 00000000009069926399 :: ####################################

    00000000006815595640 : 00000000007255941119 :: ##############



[H[2J
-----------------printing current job allocations (largest_remaining: 1088949983)-------------------
    00000000003092836095 : 00000000003627970559 :: #################

    00000000002387015537 : 00000000002979460050 :: ###################

    00000000005092608917 : 00000000005441955839 :: ###########

    00000000005958096791 : 00000000006514680510 :: ##################

  * 00000000007980976416 : 00000000009069926399 :: ####################################

    00000000006817321911 : 00000000007255941119 :: ##############



[H[2J
-----------------printing current job allocations (largest_remaining: 1074665517)-------------------
    00000000003096968376 : 00000000003627970559 :: #################

    00000000002430887715 : 00000000002979460050 :: ##################

    00000000005101061423 : 00000000005441955839 :: ###########

    00000000005959823062 : 00000000006514680510 :: ##################

  * 00000000007995260882 : 00000000009069926399 :: ###################################

    00000000006817321911 : 00000000007255941119 :: ##############



[H[2J
-----------------printing current job allocations (largest_remaining: 1043468240)-------------------
    00000000003127091509 : 00000000003627970559 :: ################

    00000000002451789568 : 00000000002979460050 :: #################

    00000000005107919850 : 00000000005441955839 :: ###########

    00000000005959823062 : 00000000006514680510 :: ##################

  * 00000000008026458159 : 00000000009069926399 :: ##################################

    00000000006822407412 : 00000000007255941119 :: ##############



[H[2J
-----------------printing current job allocations (largest_remaining: 554857448)-------------------
    00000000003128833330 : 00000000003627970559 :: ################

    00000000002481626021 : 00000000002979460050 :: ################

    00000000008570202541 : 00000000009069926399 :: ################

  * 00000000005959823062 : 00000000006514680510 :: ##################

    00000000008026458159 : 00000000008548192278 :: #################

    00000000006826556553 : 00000000007255941119 :: ##############



[H[2J
-----------------printing current job allocations (largest_remaining: 554857448)-------------------
    00000000003137285836 : 00000000003627970559 :: ################

    00000000002503017714 : 00000000002979460050 :: ###############

    00000000008578934982 : 00000000009069926399 :: ################

  * 00000000005959823062 : 00000000006514680510 :: ##################

    00000000008031590315 : 00000000008548192278 :: #################

    00000000006864649069 : 00000000007255941119 :: ############



[H[2J
-----------------printing current job allocations (largest_remaining: 549771947)-------------------
    00000000003139012107 : 00000000003627970559 :: ################

    00000000002524176176 : 00000000002979460050 :: ###############

    00000000008580661253 : 00000000009069926399 :: ################

  * 00000000005964908563 : 00000000006514680510 :: ##################

    00000000008066963332 : 00000000008548192278 :: ###############

    00000000006864649069 : 00000000007255941119 :: ############



[H[2J
-----------------printing current job allocations (largest_remaining: 549771947)-------------------
    00000000003158903014 : 00000000003627970559 :: ###############

    00000000002539487109 : 00000000002979460050 :: ##############

    00000000008580661253 : 00000000009069926399 :: ################

  * 00000000005964908563 : 00000000006514680510 :: ##################

    00000000008077188764 : 00000000008548192278 :: ###############

    00000000006866375340 : 00000000007255941119 :: ############



[H[2J
-----------------printing current job allocations (largest_remaining: 545690336)-------------------
    00000000003158903014 : 00000000003627970559 :: ###############

    00000000002554245895 : 00000000002979460050 :: ##############

    00000000008600108940 : 00000000009069926399 :: ###############

  * 00000000005968990174 : 00000000006514680510 :: ##################

    00000000008114233516 : 00000000008548192278 :: ##############

    00000000006871507491 : 00000000007255941119 :: ############



[H[2J
-----------------printing current job allocations (largest_remaining: 539768915)-------------------
    00000000003158903014 : 00000000003627970559 :: ###############

    00000000002588335862 : 00000000002979460050 :: ############

    00000000008600108940 : 00000000009069926399 :: ###############

  * 00000000005974911595 : 00000000006514680510 :: #################

    00000000008126200764 : 00000000008548192278 :: #############

    00000000006871507491 : 00000000007255941119 :: ############



[H[2J
-----------------printing current job allocations (largest_remaining: 539768915)-------------------
    00000000003158903014 : 00000000003627970559 :: ###############

    00000000002621974828 : 00000000002979460050 :: ###########

    00000000008600108940 : 00000000009069926399 :: ###############

  * 00000000005974911595 : 00000000006514680510 :: #################

    00000000008131286265 : 00000000008548192278 :: #############

    00000000006875015932 : 00000000007255941119 :: ############



[H[2J
-----------------printing current job allocations (largest_remaining: 505525384)-------------------
    00000000003187899705 : 00000000003627970559 :: ##############

    00000000002633934271 : 00000000002979460050 :: ###########

    00000000008629548846 : 00000000009069926399 :: ##############

  * 00000000006009155126 : 00000000006514680510 :: ################

    00000000008175002931 : 00000000008548192278 :: ############

    00000000006877850283 : 00000000007255941119 :: ############



[H[2J
-----------------printing current job allocations (largest_remaining: 505525384)-------------------
    00000000003192992981 : 00000000003627970559 :: ##############

    00000000002672744209 : 00000000002979460050 :: ##########

    00000000008629548846 : 00000000009069926399 :: ##############

  * 00000000006009155126 : 00000000006514680510 :: ################

    00000000008181814703 : 00000000008548192278 :: ############

    00000000006915466349 : 00000000007255941119 :: ###########



[H[2J
-----------------printing current job allocations (largest_remaining: 503799113)-------------------
    00000000003192992981 : 00000000003627970559 :: ##############

    00000000002682938536 : 00000000002979460050 :: #########

    00000000008631275117 : 00000000009069926399 :: ##############

  * 00000000006010881397 : 00000000006514680510 :: ################

    00000000008181814703 : 00000000008548192278 :: ############

    00000000006915466349 : 00000000007255941119 :: ###########



[H[2J
-----------------printing current job allocations (largest_remaining: 503799113)-------------------
    00000000003192992981 : 00000000003627970559 :: ##############

    00000000002689758078 : 00000000002979460050 :: #########

    00000000008631275117 : 00000000009069926399 :: ##############

  * 00000000006010881397 : 00000000006514680510 :: ################

    00000000008185535369 : 00000000008548192278 :: ###########

    00000000006917192620 : 00000000007255941119 :: ###########



[H[2J
-----------------printing current job allocations (largest_remaining: 503799113)-------------------
    00000000003196442187 : 00000000003627970559 :: ##############

    00000000002735247670 : 00000000002979460050 :: ########

    00000000008631275117 : 00000000009069926399 :: ##############

  * 00000000006010881397 : 00000000006514680510 :: ################

    00000000008225827771 : 00000000008548192278 :: ##########

    00000000006922278121 : 00000000007255941119 :: ###########



[H[2J
-----------------printing current job allocations (largest_remaining: 433565781)-------------------
    00000000003228608185 : 00000000003627970559 :: #############

    00000000002740613106 : 00000000002979460050 :: #######

  * 00000000008636360618 : 00000000009069926399 :: ##############

    00000000006010881397 : 00000000006262780953 :: ########

    00000000008227554042 : 00000000008548192278 :: ##########

    00000000006266773838 : 00000000006514680510 :: ########



[H[2J
-----------------printing current job allocations (largest_remaining: 433565781)-------------------
    00000000003237107346 : 00000000003627970559 :: ############

    00000000002750746718 : 00000000002979460050 :: #######

  * 00000000008636360618 : 00000000009069926399 :: ##############

    00000000006016013553 : 00000000006262780953 :: ########

    00000000008232919478 : 00000000008548192278 :: ##########

    00000000006312263430 : 00000000006514680510 :: ######



[H[2J
-----------------printing current job allocations (largest_remaining: 399661473)-------------------
    00000000003238833617 : 00000000003627970559 :: ############

    00000000002784571744 : 00000000002979460050 :: ######

  * 00000000008670264926 : 00000000009069926399 :: #############

    00000000006016013553 : 00000000006262780953 :: ########

    00000000008236844644 : 00000000008548192278 :: ##########

    00000000006361065597 : 00000000006514680510 :: #####



[H[2J
-----------------printing current job allocations (largest_remaining: 391162317)-------------------
    00000000003243919118 : 00000000003627970559 :: ############

    00000000002791430171 : 00000000002979460050 :: ######

  * 00000000008678764082 : 00000000009069926399 :: ############

    00000000006066541986 : 00000000006262780953 :: ######

    00000000008276879626 : 00000000008548192278 :: ########

    00000000006367924024 : 00000000006514680510 :: ####



[H[2J
-----------------printing current job allocations (largest_remaining: 389436046)-------------------
    00000000003258741261 : 00000000003627970559 :: ############

    00000000002795574707 : 00000000002979460050 :: ######

  * 00000000008680490353 : 00000000009069926399 :: ############

    00000000006112031578 : 00000000006262780953 :: ####

    00000000008278605897 : 00000000008548192278 :: ########

    00000000006371908150 : 00000000006514680510 :: ####



[H[2J
-----------------printing current job allocations (largest_remaining: 384350580)-------------------
    00000000003279868618 : 00000000003627970559 :: ###########

    00000000002835398094 : 00000000002979460050 :: ####

  * 00000000008685575819 : 00000000009069926399 :: ############

    00000000006160841520 : 00000000006262780953 :: ###

    00000000008283691398 : 00000000008548192278 :: ########

    00000000006371908150 : 00000000006514680510 :: ####



[H[2J
-----------------printing current job allocations (largest_remaining: 380747634)-------------------
    00000000003288367779 : 00000000003627970559 :: ###########

    00000000002884200261 : 00000000002979460050 :: ###

  * 00000000008689178765 : 00000000009069926399 :: ############

    00000000006209643687 : 00000000006262780953 :: #

    00000000008329180990 : 00000000008548192278 :: #######

    00000000006371908150 : 00000000006514680510 :: ####



[H[2J
-----------------printing current job allocations (largest_remaining: 348695265)-------------------
    00000000003290094050 : 00000000003627970559 :: ###########

    00000000002891012033 : 00000000002979460050 :: ##

  * 00000000008721231134 : 00000000009069926399 :: ###########

    00000000006260218740 : 00000000006262780953 :: 

    00000000008335966391 : 00000000008548192278 :: #######

    00000000006377829571 : 00000000006514680510 :: ####



[H[2J
-----------------printing current job allocations (largest_remaining: 84723206)-------------------
    00000000006446255041 : 00000000006514680510 :: ##

  * 00000000002894736844 : 00000000002979460050 :: ##

    00000000008729745840 : 00000000008812662302 :: ##

    00000000008469857609 : 00000000008548192278 :: ##

    00000000008376514658 : 00000000008443492622 :: ##

    00000000006377829571 : 00000000006446255040 :: ##



[H[2J
-----------------printing current job allocations (largest_remaining: 81191486)-------------------
    00000000006469840368 : 00000000006514680510 :: #

    00000000002934986436 : 00000000002979460050 :: #

  * 00000000008731470816 : 00000000008812662302 :: ##

    00000000008469857609 : 00000000008548192278 :: ##

    00000000008383326430 : 00000000008443492622 :: #

    00000000006411891732 : 00000000006446255040 :: #



[H[2J
-----------------printing current job allocations (largest_remaining: 56520211)-------------------
    00000000008519677343 : 00000000008548192278 :: 

    00000000002941844863 : 00000000002979460050 :: #

    00000000008731470816 : 00000000008772066558 :: #

    00000000008478364540 : 00000000008513278408 :: #

  * 00000000008386972411 : 00000000008443492622 :: #

    00000000006418983439 : 00000000006446255040 :: 



[H[2J
-----------------printing current job allocations (largest_remaining: 20000224)-------------------
  * 00000000008528192054 : 00000000008548192278 :: 

    00000000008418360410 : 00000000008430926515 :: 

    00000000008499186090 : 00000000008513278408 :: 

    00000000008480090811 : 00000000008496684609 :: 

    00000000008430926516 : 00000000008443492622 :: 

    00000000006422937495 : 00000000006432619239 :: 



[H[2J
-----------------printing current job allocations (largest_remaining: 9681744)-------------------
    00000000008529918325 : 00000000008538192165 :: 

    00000000008490930461 : 00000000008496684609 :: 

    00000000008540295513 : 00000000008548192278 :: 

    00000000008485176312 : 00000000008490930460 :: 

    00000000008430926516 : 00000000008437209568 :: 

  * 00000000006422937495 : 00000000006432619239 :: 



[H[2J
-----------------printing current job allocations (largest_remaining: 1862125)-------------------
    00000000008537261102 : 00000000008538192165 :: 

  * 00000000008534467913 : 00000000008536330038 :: 

    00000000006429134952 : 00000000006430296380 :: 

    00000000008489491923 : 00000000008490930460 :: 

    00000000006427973523 : 00000000006429134951 :: 

    00000000008536330039 : 00000000008537261101 :: 



[H[2J
-----------------printing current job allocations (largest_remaining: 55)-------------------
    00000000000000000000 : 00000000000000000000 :: 

  * 00000000008534467913 : 00000000008534467968 :: 

    00000000000000000000 : 00000000000000000000 :: 

    00000000000000000000 : 00000000000000000000 :: 

    00000000000000000000 : 00000000000000000000 :: 

    00000000000000000000 : 00000000000000000000 :: 



[H[2J
-----------------printing current job allocations (largest_remaining: 0)-------------------
  * 00000000000000000000 : 00000000000000000000 :: 

    00000000000000000000 : 00000000000000000000 :: 

    00000000000000000000 : 00000000000000000000 :: 

    00000000000000000000 : 00000000000000000000 :: 

    00000000000000000000 : 00000000000000000000 :: 

    00000000000000000000 : 00000000000000000000 :: 



using [D=1, R=0]:
	space_size=10883911680
	thread_count=6
	minimum_split_size=100
	range_update_frequency=500000
	display_rate=0
	fea_execution_limit=5000
	execution_limit=10000000000
	array_size=100000


	searched 10883911680 zvs
	using 6 threads
	in      33.00s [1202406086.185706:1202406086.185739],
	at 329815505.45 z/s.


pm counts:
z_is_good: 0       		 pm_ga: 10740455477		
pm_fea: 0       		pm_ns0: 863     		
pm_pco: 1717    		pm_zr5: 432577  		
pm_zr6: 224983  		pm_ndi: 38078   		
pm_oer: 0       		pm_r0i: 8000    		
 pm_h0: 40203   		pm_f1e: 233     		
pm_erc: 1071660 		pm_rmv: 13616   		
 pm_ot: 0       		pm_csm: 0       		
 pm_mm: 0       		pm_snm: 0       		
pm_bdl: 0       		pm_bdl2: 0       		
pm_erw: 0       		pm_mcal: 6405696 		
pm_snl: 1477568 		 pm_h1: 0       		
 pm_h2: 0       		 pm_h3: 0       		
pm_per: 50699   		pmf_fea: 5989957 		
pmf_ns0: 4892705 		pmf_pco: 11120198		
pmf_zr5: 56988169		pmf_zr6: 38932804		
pmf_ndi: 15766477		
[done]
