SRNFGPR: searching [D=1, R=0] space....
[H[2J
-----------------printing current job allocations (largest_remaining: 1813985279)-------------------
  * 00000000000000000000 : 00000000001813985279 :: ###########################################################

    00000000001813985280 : 00000000003627970559 :: ###########################################################

    00000000003627970560 : 00000000005441955839 :: ###########################################################

    00000000005441955840 : 00000000007255941119 :: ###########################################################

    00000000007255941120 : 00000000009069926399 :: ###########################################################

    00000000009069926400 : 00000000010883911679 :: ###########################################################



[H[2J
-----------------printing current job allocations (largest_remaining: 1800793222)-------------------
    00000000000018682055 : 00000000001813985279 :: ###########################################################

    00000000001827675025 : 00000000002720977919 :: #############################

  * 00000000003641162617 : 00000000005441955839 :: ###########################################################

    00000000005456192400 : 00000000007255941119 :: ###########################################################

    00000000007269941840 : 00000000009069926399 :: ###########################################################

    00000000002739488870 : 00000000003627970559 :: #############################



[H[2J
-----------------printing current job allocations (largest_remaining: 1792130628)-------------------
    00000000000024075928 : 00000000001813985279 :: ###########################################################

    00000000001837220964 : 00000000002720977919 :: #############################

    00000000003672336705 : 00000000005441955839 :: ##########################################################

  * 00000000005463810491 : 00000000007255941119 :: ###########################################################

    00000000007278293981 : 00000000009069926399 :: ###########################################################

    00000000002743987955 : 00000000003627970559 :: #############################



[H[2J
-----------------printing current job allocations (largest_remaining: 1791016736)-------------------
    00000000000062810847 : 00000000001813985279 :: #########################################################

    00000000001848149526 : 00000000002720977919 :: ############################

    00000000003683340653 : 00000000005441955839 :: ##########################################################

  * 00000000005464924383 : 00000000007255941119 :: ###########################################################

    00000000007285087097 : 00000000009069926399 :: ###########################################################

    00000000002750337258 : 00000000003627970559 :: #############################



[H[2J
-----------------printing current job allocations (largest_remaining: 1790519058)-------------------
    00000000000069678134 : 00000000001813985279 :: #########################################################

    00000000001867698101 : 00000000002720977919 :: ############################

    00000000003720956380 : 00000000005441955839 :: ########################################################

  * 00000000005465422061 : 00000000007255941119 :: ###########################################################

    00000000007318892900 : 00000000009069926399 :: #########################################################

    00000000002785616166 : 00000000003627970559 :: ###########################



[H[2J
-----------------printing current job allocations (largest_remaining: 1789306845)-------------------
    00000000000078962071 : 00000000001813985279 :: #########################################################

    00000000001883382439 : 00000000002720977919 :: ###########################

    00000000003731831960 : 00000000005441955839 :: ########################################################

  * 00000000005466634274 : 00000000007255941119 :: ###########################################################

    00000000007326312534 : 00000000009069926399 :: #########################################################

    00000000002793611736 : 00000000003627970559 :: ###########################



[H[2J
-----------------printing current job allocations (largest_remaining: 1785340031)-------------------
    00000000000113993381 : 00000000001813985279 :: ########################################################

    00000000001889307505 : 00000000002720977919 :: ###########################

    00000000003747273917 : 00000000005441955839 :: ########################################################

  * 00000000005470601088 : 00000000007255941119 :: ###########################################################

    00000000007331488878 : 00000000009069926399 :: #########################################################

    00000000002800157253 : 00000000003627970559 :: ###########################



[H[2J
-----------------printing current job allocations (largest_remaining: 1784255959)-------------------
    00000000000133893761 : 00000000001813985279 :: #######################################################

    00000000001908281092 : 00000000002720977919 :: ##########################

    00000000003791472795 : 00000000005441955839 :: ######################################################

  * 00000000005471685160 : 00000000007255941119 :: ###########################################################

    00000000007369124709 : 00000000009069926399 :: ########################################################

    00000000002835290232 : 00000000003627970559 :: ##########################



[H[2J
-----------------printing current job allocations (largest_remaining: 1751739484)-------------------
    00000000000164870887 : 00000000001813985279 :: ######################################################

    00000000001926905646 : 00000000002720977919 :: ##########################

    00000000003822501762 : 00000000005441955839 :: #####################################################

  * 00000000005504201635 : 00000000007255941119 :: #########################################################

    00000000007376512032 : 00000000009069926399 :: ########################################################

    00000000002884167637 : 00000000003627970559 :: ########################



[H[2J
-----------------printing current job allocations (largest_remaining: 1748940187)-------------------
    00000000000173564236 : 00000000001813985279 :: ######################################################

    00000000001948975061 : 00000000002720977919 :: #########################

    00000000003834257415 : 00000000005441955839 :: #####################################################

  * 00000000005507000932 : 00000000007255941119 :: #########################################################

    00000000007419995489 : 00000000009069926399 :: ######################################################

    00000000002891001629 : 00000000003627970559 :: ########################



[H[2J
-----------------printing current job allocations (largest_remaining: 1741744137)-------------------
    00000000000213587308 : 00000000001813985279 :: ####################################################

    00000000001977570461 : 00000000002720977919 :: ########################

    00000000003881630289 : 00000000005441955839 :: ###################################################

  * 00000000005514196982 : 00000000007255941119 :: #########################################################

    00000000007425835190 : 00000000009069926399 :: ######################################################

    00000000002896455388 : 00000000003627970559 :: ########################



[H[2J
-----------------printing current job allocations (largest_remaining: 1740227757)-------------------
    00000000000220593692 : 00000000001813985279 :: ####################################################

    00000000001980116514 : 00000000002720977919 :: ########################

    00000000003892895167 : 00000000005441955839 :: ###################################################

  * 00000000005515713362 : 00000000007255941119 :: #########################################################

    00000000007427222985 : 00000000009069926399 :: ######################################################

    00000000002935992061 : 00000000003627970559 :: ######################



[H[2J
-----------------printing current job allocations (largest_remaining: 1735012220)-------------------
    00000000000233528537 : 00000000001813985279 :: ####################################################

    00000000001987612086 : 00000000002720977919 :: ########################

    00000000003933385725 : 00000000005441955839 :: #################################################

  * 00000000005520928899 : 00000000007255941119 :: #########################################################

    00000000007436426332 : 00000000009069926399 :: ######################################################

    00000000002945733214 : 00000000003627970559 :: ######################



[H[2J
-----------------printing current job allocations (largest_remaining: 1733545435)-------------------
    00000000000266797099 : 00000000001813985279 :: ###################################################

    00000000002007761381 : 00000000002720977919 :: #######################

    00000000003942865756 : 00000000005441955839 :: #################################################

  * 00000000005522395684 : 00000000007255941119 :: #########################################################

    00000000007471420740 : 00000000009069926399 :: ####################################################

    00000000002985798876 : 00000000003627970559 :: #####################



[H[2J
-----------------printing current job allocations (largest_remaining: 1699215312)-------------------
    00000000000314633967 : 00000000001813985279 :: #################################################

    00000000002018817888 : 00000000002720977919 :: #######################

    00000000003945180951 : 00000000005441955839 :: #################################################

  * 00000000005556725807 : 00000000007255941119 :: ########################################################

    00000000007480998035 : 00000000009069926399 :: ####################################################

    00000000002992749277 : 00000000003627970559 :: #####################



[H[2J
-----------------printing current job allocations (largest_remaining: 1693204147)-------------------
    00000000000315837715 : 00000000001813985279 :: #################################################

    00000000002034260113 : 00000000002720977919 :: ######################

    00000000003949916630 : 00000000005441955839 :: #################################################

  * 00000000005562736972 : 00000000007255941119 :: ########################################################

    00000000007519742768 : 00000000009069926399 :: ###################################################

    00000000003035335670 : 00000000003627970559 :: ###################



[H[2J
-----------------printing current job allocations (largest_remaining: 1648694496)-------------------
    00000000000317254461 : 00000000001813985279 :: #################################################

    00000000002068143758 : 00000000002720977919 :: #####################

    00000000003983712117 : 00000000005441955839 :: ################################################

  * 00000000005607246623 : 00000000007255941119 :: ######################################################

    00000000007527051598 : 00000000009069926399 :: ###################################################

    00000000003036710831 : 00000000003627970559 :: ###################



[H[2J
-----------------printing current job allocations (largest_remaining: 1640665777)-------------------
    00000000000321463934 : 00000000001813985279 :: #################################################

    00000000002080737222 : 00000000002720977919 :: #####################

    00000000003993236738 : 00000000005441955839 :: ###############################################

  * 00000000005615275342 : 00000000007255941119 :: ######################################################

    00000000007570352195 : 00000000009069926399 :: #################################################

    00000000003042345834 : 00000000003627970559 :: ###################



[H[2J
-----------------printing current job allocations (largest_remaining: 1633754935)-------------------
    00000000000322486195 : 00000000001813985279 :: #################################################

    00000000002121032712 : 00000000002720977919 :: ###################

    00000000003995279131 : 00000000005441955839 :: ###############################################

  * 00000000005622186184 : 00000000007255941119 :: ######################################################

    00000000007571629799 : 00000000009069926399 :: #################################################

    00000000003045771884 : 00000000003627970559 :: ###################



[H[2J
-----------------printing current job allocations (largest_remaining: 1599044800)-------------------
    00000000000330950822 : 00000000001813985279 :: #################################################

    00000000002128856178 : 00000000002720977919 :: ###################

    00000000004000289700 : 00000000005441955839 :: ###############################################

  * 00000000005656896319 : 00000000007255941119 :: ####################################################

    00000000007573020358 : 00000000009069926399 :: #################################################

    00000000003053461038 : 00000000003627970559 :: ###################



[H[2J
-----------------printing current job allocations (largest_remaining: 1592698073)-------------------
    00000000000364955282 : 00000000001813985279 :: ###############################################

    00000000002129951771 : 00000000002720977919 :: ###################

    00000000004033881849 : 00000000005441955839 :: ##############################################

  * 00000000005663243046 : 00000000007255941119 :: ####################################################

    00000000007577088548 : 00000000009069926399 :: #################################################

    00000000003085817291 : 00000000003627970559 :: #################



[H[2J
-----------------printing current job allocations (largest_remaining: 1583508141)-------------------
    00000000000366168380 : 00000000001813985279 :: ###############################################

    00000000002131148979 : 00000000002720977919 :: ###################

    00000000004043625051 : 00000000005441955839 :: ##############################################

  * 00000000005672432978 : 00000000007255941119 :: ####################################################

    00000000007577902658 : 00000000009069926399 :: #################################################

    00000000003087085101 : 00000000003627970559 :: #################



[H[2J
-----------------printing current job allocations (largest_remaining: 1548632788)-------------------
    00000000000367576697 : 00000000001813985279 :: ###############################################

    00000000002135122517 : 00000000002720977919 :: ###################

    00000000004045833461 : 00000000005441955839 :: ##############################################

  * 00000000005707308331 : 00000000007255941119 :: ###################################################

    00000000007580173503 : 00000000009069926399 :: #################################################

    00000000003092643869 : 00000000003627970559 :: #################



[H[2J
-----------------printing current job allocations (largest_remaining: 1542730946)-------------------
    00000000000371766838 : 00000000001813985279 :: ###############################################

    00000000002136001202 : 00000000002720977919 :: ###################

    00000000004050382491 : 00000000005441955839 :: ##############################################

  * 00000000005713210173 : 00000000007255941119 :: ###################################################

    00000000007583322740 : 00000000009069926399 :: #################################################

    00000000003096284784 : 00000000003627970559 :: #################



[H[2J
-----------------printing current job allocations (largest_remaining: 1499526256)-------------------
    00000000000372800906 : 00000000001813985279 :: ###############################################

    00000000002138658577 : 00000000002720977919 :: ###################

    00000000004093449799 : 00000000005441955839 :: ############################################

  * 00000000005756414863 : 00000000007255941119 :: #################################################

    00000000007620522975 : 00000000009069926399 :: ###############################################

    00000000003125862997 : 00000000003627970559 :: ################



[H[2J
-----------------printing current job allocations (largest_remaining: 1498731740)-------------------
    00000000000377861262 : 00000000001813985279 :: ###############################################

    00000000002146055836 : 00000000002720977919 :: ###################

    00000000004094014891 : 00000000005441955839 :: ############################################

  * 00000000005757209379 : 00000000007255941119 :: #################################################

    00000000007621782869 : 00000000009069926399 :: ###############################################

    00000000003136330564 : 00000000003627970559 :: ################



[H[2J
-----------------printing current job allocations (largest_remaining: 1498219637)-------------------
    00000000000415430141 : 00000000001813985279 :: ##############################################

    00000000002178694074 : 00000000002720977919 :: #################

    00000000004094853292 : 00000000005441955839 :: ############################################

  * 00000000005757721482 : 00000000007255941119 :: #################################################

    00000000007622794612 : 00000000009069926399 :: ###############################################

    00000000003137857472 : 00000000003627970559 :: ################



[H[2J
-----------------printing current job allocations (largest_remaining: 1497609401)-------------------
    00000000000416731526 : 00000000001813985279 :: ##############################################

    00000000002179812305 : 00000000002720977919 :: #################

    00000000004095509466 : 00000000005441955839 :: ############################################

  * 00000000005758331718 : 00000000007255941119 :: #################################################

    00000000007627335966 : 00000000009069926399 :: ###############################################

    00000000003143229358 : 00000000003627970559 :: ################



[H[2J
-----------------printing current job allocations (largest_remaining: 1496618068)-------------------
    00000000000418050535 : 00000000001813985279 :: ##############################################

    00000000002180620222 : 00000000002720977919 :: #################

    00000000004096499212 : 00000000005441955839 :: ############################################

  * 00000000005759323051 : 00000000007255941119 :: #################################################

    00000000007627933380 : 00000000009069926399 :: ###############################################

    00000000003186318201 : 00000000003627970559 :: ##############



[H[2J
-----------------printing current job allocations (largest_remaining: 1492855534)-------------------
    00000000000422248890 : 00000000001813985279 :: ##############################################

    00000000002185198476 : 00000000002720977919 :: #################

    00000000004100304452 : 00000000005441955839 :: ############################################

  * 00000000005763085585 : 00000000007255941119 :: #################################################

    00000000007628783600 : 00000000009069926399 :: ###############################################

    00000000003186743860 : 00000000003627970559 :: ##############



[H[2J
-----------------printing current job allocations (largest_remaining: 1492520222)-------------------
    00000000000465273281 : 00000000001813985279 :: ############################################

    00000000002185741723 : 00000000002720977919 :: #################

    00000000004100720683 : 00000000005441955839 :: ############################################

  * 00000000005763420897 : 00000000007255941119 :: #################################################

    00000000007637490022 : 00000000009069926399 :: ###############################################

    00000000003187396614 : 00000000003627970559 :: ##############



[H[2J
-----------------printing current job allocations (largest_remaining: 1491839608)-------------------
    00000000000465621647 : 00000000001813985279 :: ############################################

    00000000002186589089 : 00000000002720977919 :: #################

    00000000004101385116 : 00000000005441955839 :: ############################################

  * 00000000005764101511 : 00000000007255941119 :: #################################################

    00000000007671074718 : 00000000009069926399 :: ##############################################

    00000000003187731010 : 00000000003627970559 :: ##############



[H[2J
-----------------printing current job allocations (largest_remaining: 1489805382)-------------------
    00000000000466010310 : 00000000001813985279 :: ############################################

    00000000002190131957 : 00000000002720977919 :: #################

    00000000004134939746 : 00000000005441955839 :: ###########################################

  * 00000000005766135737 : 00000000007255941119 :: #################################################

    00000000007672243460 : 00000000009069926399 :: ##############################################

    00000000003188744708 : 00000000003627970559 :: ##############



[H[2J
-----------------printing current job allocations (largest_remaining: 1488639211)-------------------
    00000000000466643150 : 00000000001813985279 :: ############################################

    00000000002219585572 : 00000000002720977919 :: ################

    00000000004144425658 : 00000000005441955839 :: ##########################################

  * 00000000005767301908 : 00000000007255941119 :: #################################################

    00000000007673290735 : 00000000009069926399 :: ##############################################

    00000000003193235300 : 00000000003627970559 :: ##############



[H[2J
-----------------printing current job allocations (largest_remaining: 1488107147)-------------------
    00000000000466981226 : 00000000001813985279 :: ############################################

    00000000002229372640 : 00000000002720977919 :: ################

    00000000004146758493 : 00000000005441955839 :: ##########################################

  * 00000000005767833972 : 00000000007255941119 :: #################################################

    00000000007677770786 : 00000000009069926399 :: ##############################################

    00000000003193747169 : 00000000003627970559 :: ##############



[H[2J
-----------------printing current job allocations (largest_remaining: 1486925856)-------------------
    00000000000467438612 : 00000000001813985279 :: ############################################

    00000000002230487710 : 00000000002720977919 :: ################

    00000000004151659669 : 00000000005441955839 :: ##########################################

  * 00000000005769015263 : 00000000007255941119 :: #################################################

    00000000007678353080 : 00000000009069926399 :: ##############################################

    00000000003194436685 : 00000000003627970559 :: ##############



[H[2J
-----------------printing current job allocations (largest_remaining: 1482991323)-------------------
    00000000000468137152 : 00000000001813985279 :: ############################################

    00000000002231687571 : 00000000002720977919 :: ################

    00000000004185639178 : 00000000005441955839 :: #########################################

  * 00000000005772949796 : 00000000007255941119 :: #################################################

    00000000007691433546 : 00000000009069926399 :: #############################################

    00000000003199174870 : 00000000003627970559 :: ##############



[H[2J
-----------------printing current job allocations (largest_remaining: 1481855755)-------------------
    00000000000468602454 : 00000000001813985279 :: ############################################

    00000000002235798379 : 00000000002720977919 :: ################

    00000000004195373993 : 00000000005441955839 :: #########################################

  * 00000000005774085364 : 00000000007255941119 :: #################################################

    00000000007721521480 : 00000000009069926399 :: ############################################

    00000000003236681086 : 00000000003627970559 :: ############



[H[2J
-----------------printing current job allocations (largest_remaining: 1449417712)-------------------
    00000000000472257212 : 00000000001813985279 :: ############################################

    00000000002236401061 : 00000000002720977919 :: ################

    00000000004200739263 : 00000000005441955839 :: #########################################

  * 00000000005806523407 : 00000000007255941119 :: ###############################################

    00000000007721839035 : 00000000009069926399 :: ############################################

    00000000003238055948 : 00000000003627970559 :: ############



[H[2J
-----------------printing current job allocations (largest_remaining: 1448866660)-------------------
    00000000000472531099 : 00000000001813985279 :: ############################################

    00000000002237248434 : 00000000002720977919 :: ################

    00000000004202162163 : 00000000005441955839 :: #########################################

  * 00000000005807074459 : 00000000007255941119 :: ###############################################

    00000000007722448197 : 00000000009069926399 :: ############################################

    00000000003243591447 : 00000000003627970559 :: ############



[H[2J
-----------------printing current job allocations (largest_remaining: 1448041320)-------------------
    00000000000473093302 : 00000000001813985279 :: ############################################

    00000000002279492922 : 00000000002720977919 :: ##############

    00000000004237127162 : 00000000005441955839 :: #######################################

  * 00000000005807899799 : 00000000007255941119 :: ###############################################

    00000000007722795409 : 00000000009069926399 :: ############################################

    00000000003244932710 : 00000000003627970559 :: ############



[H[2J
-----------------printing current job allocations (largest_remaining: 1447454202)-------------------
    00000000000473376779 : 00000000001813985279 :: ############################################

    00000000002279765047 : 00000000002720977919 :: ##############

    00000000004251913151 : 00000000005441955839 :: #######################################

  * 00000000005808486917 : 00000000007255941119 :: ###############################################

    00000000007723158294 : 00000000009069926399 :: ############################################

    00000000003278109290 : 00000000003627970559 :: ###########



[H[2J
-----------------printing current job allocations (largest_remaining: 1446570547)-------------------
    00000000000473648933 : 00000000001813985279 :: ############################################

    00000000002280049340 : 00000000002720977919 :: ##############

    00000000004287535926 : 00000000005441955839 :: ######################################

  * 00000000005809370572 : 00000000007255941119 :: ###############################################

    00000000007723564019 : 00000000009069926399 :: ############################################

    00000000003287670901 : 00000000003627970559 :: ###########



[H[2J
-----------------printing current job allocations (largest_remaining: 1442603093)-------------------
    00000000000483204534 : 00000000001813985279 :: ############################################

    00000000002280600892 : 00000000002720977919 :: ##############

    00000000004302682654 : 00000000005441955839 :: #####################################

  * 00000000005813338026 : 00000000007255941119 :: ###############################################

    00000000007724287037 : 00000000009069926399 :: ############################################

    00000000003289384492 : 00000000003627970559 :: ###########



[H[2J
-----------------printing current job allocations (largest_remaining: 1442239134)-------------------
    00000000000516896565 : 00000000001813985279 :: ##########################################

    00000000002280865533 : 00000000002720977919 :: ##############

    00000000004337604666 : 00000000005441955839 :: ####################################

  * 00000000005813701985 : 00000000007255941119 :: ###############################################

    00000000007727992661 : 00000000009069926399 :: ############################################

    00000000003294858577 : 00000000003627970559 :: ###########



[H[2J
-----------------printing current job allocations (largest_remaining: 1341717595)-------------------
    00000000000517987002 : 00000000001813985279 :: ##########################################

    00000000002281184639 : 00000000002720977919 :: ##############

    00000000004352713926 : 00000000005441955839 :: ####################################

    00000000005814311100 : 00000000006534920155 :: #######################

  * 00000000007728208804 : 00000000009069926399 :: ############################################

    00000000006564513601 : 00000000007255941119 :: ######################



[H[2J
-----------------printing current job allocations (largest_remaining: 1341491985)-------------------
    00000000000522660375 : 00000000001813985279 :: ##########################################

    00000000002281473208 : 00000000002720977919 :: ##############

    00000000004402512682 : 00000000005441955839 :: ##################################

    00000000005814659946 : 00000000006534920155 :: #######################

  * 00000000007728434414 : 00000000009069926399 :: ############################################

    00000000006574149315 : 00000000007255941119 :: ######################



[H[2J
-----------------printing current job allocations (largest_remaining: 1341345924)-------------------
    00000000000523714333 : 00000000001813985279 :: ##########################################

    00000000002282069589 : 00000000002720977919 :: ##############

    00000000004438382628 : 00000000005441955839 :: #################################

    00000000005817636167 : 00000000006534920155 :: #######################

  * 00000000007728580475 : 00000000009069926399 :: ############################################

    00000000006614944518 : 00000000007255941119 :: #####################



[H[2J
-----------------printing current job allocations (largest_remaining: 1340842719)-------------------
    00000000000533196529 : 00000000001813985279 :: ##########################################

    00000000002282364674 : 00000000002720977919 :: ##############

    00000000004453451481 : 00000000005441955839 :: ################################

    00000000005819027854 : 00000000006534920155 :: #######################

  * 00000000007729083680 : 00000000009069926399 :: ############################################

    00000000006663307919 : 00000000007255941119 :: ###################



[H[2J
-----------------printing current job allocations (largest_remaining: 1340616100)-------------------
    00000000000566820968 : 00000000001813985279 :: #########################################

    00000000002286003845 : 00000000002720977919 :: ##############

    00000000004488631145 : 00000000005441955839 :: ###############################

    00000000005823994828 : 00000000006534920155 :: #######################

  * 00000000007729310299 : 00000000009069926399 :: ############################################

    00000000006664192875 : 00000000007255941119 :: ###################



[H[2J
-----------------printing current job allocations (largest_remaining: 1340406111)-------------------
    00000000000568196415 : 00000000001813985279 :: #########################################

    00000000002286226748 : 00000000002720977919 :: ##############

    00000000004503622060 : 00000000005441955839 :: ###############################

    00000000005857055807 : 00000000006534920155 :: ######################

  * 00000000007729520288 : 00000000009069926399 :: ############################################

    00000000006665041683 : 00000000007255941119 :: ###################



[H[2J
-----------------printing current job allocations (largest_remaining: 1337019670)-------------------
    00000000000572948444 : 00000000001813985279 :: #########################################

    00000000002286433430 : 00000000002720977919 :: ##############

    00000000004597758495 : 00000000005441955839 :: ###########################

    00000000005857589767 : 00000000006534920155 :: ######################

  * 00000000007732906729 : 00000000009069926399 :: ############################################

    00000000006670102822 : 00000000007255941119 :: ###################



[H[2J
-----------------printing current job allocations (largest_remaining: 1298300271)-------------------
    00000000000573928402 : 00000000001813985279 :: #########################################

    00000000002286609188 : 00000000002720977919 :: ##############

    00000000004649943262 : 00000000005441955839 :: ##########################

    00000000005858421798 : 00000000006534920155 :: ######################

  * 00000000007771626128 : 00000000009069926399 :: ##########################################

    00000000006670966993 : 00000000007255941119 :: ###################



[H[2J
-----------------printing current job allocations (largest_remaining: 1297109484)-------------------
    00000000000617256222 : 00000000001813985279 :: #######################################

    00000000002287099146 : 00000000002720977919 :: ##############

    00000000004748576514 : 00000000005441955839 :: ######################

    00000000005859015146 : 00000000006534920155 :: ######################

  * 00000000007772816915 : 00000000009069926399 :: ##########################################

    00000000006673213686 : 00000000007255941119 :: ###################



[H[2J
-----------------printing current job allocations (largest_remaining: 1296106385)-------------------
    00000000000637702001 : 00000000001813985279 :: ######################################

    00000000002287322265 : 00000000002720977919 :: ##############

    00000000004800636949 : 00000000005441955839 :: #####################

    00000000005859890809 : 00000000006534920155 :: ######################

  * 00000000007773820014 : 00000000009069926399 :: ##########################################

    00000000006674325223 : 00000000007255941119 :: ###################



[H[2J
-----------------printing current job allocations (largest_remaining: 1291539220)-------------------
    00000000000669862120 : 00000000001813985279 :: #####################################

    00000000002287485779 : 00000000002720977919 :: ##############

    00000000004841972528 : 00000000005441955839 :: ###################

    00000000005863743359 : 00000000006534920155 :: ######################

  * 00000000007778387179 : 00000000009069926399 :: ##########################################

    00000000006674807908 : 00000000007255941119 :: ###################



[H[2J
-----------------printing current job allocations (largest_remaining: 1290961235)-------------------
    00000000000718651382 : 00000000001813985279 :: ####################################

    00000000002290725744 : 00000000002720977919 :: ##############

    00000000004851046327 : 00000000005441955839 :: ###################

    00000000005864104640 : 00000000006534920155 :: ######################

  * 00000000007778965164 : 00000000009069926399 :: ##########################################

    00000000006676050629 : 00000000007255941119 :: ###################



[H[2J
-----------------printing current job allocations (largest_remaining: 1290118891)-------------------
    00000000000767628384 : 00000000001813985279 :: ##################################

    00000000002321980860 : 00000000002720977919 :: #############

    00000000004857181591 : 00000000005441955839 :: ###################

    00000000005864738395 : 00000000006534920155 :: ######################

  * 00000000007779807508 : 00000000009069926399 :: ##########################################

    00000000006680028045 : 00000000007255941119 :: ###################



[H[2J
-----------------printing current job allocations (largest_remaining: 1258012750)-------------------
    00000000000770049600 : 00000000001813985279 :: ##################################

    00000000002330324630 : 00000000002720977919 :: ############

    00000000004891692295 : 00000000005441955839 :: ##################

    00000000005865146887 : 00000000006534920155 :: ######################

  * 00000000007811913649 : 00000000009069926399 :: #########################################

    00000000006681043970 : 00000000007255941119 :: ###################



[H[2J
-----------------printing current job allocations (largest_remaining: 1247432261)-------------------
    00000000000819110679 : 00000000001813985279 :: ################################

    00000000002331350158 : 00000000002720977919 :: ############

    00000000004901061593 : 00000000005441955839 :: #################

    00000000005907590531 : 00000000006534920155 :: ####################

  * 00000000007822494138 : 00000000009069926399 :: #########################################

    00000000006713518570 : 00000000007255941119 :: #################



[H[2J
-----------------printing current job allocations (largest_remaining: 1246193217)-------------------
    00000000000838430729 : 00000000001813985279 :: ################################

    00000000002332534458 : 00000000002720977919 :: ############

    00000000004907383482 : 00000000005441955839 :: #################

    00000000005908413700 : 00000000006534920155 :: ####################

  * 00000000007823733182 : 00000000009069926399 :: #########################################

    00000000006714122570 : 00000000007255941119 :: #################



[H[2J
-----------------printing current job allocations (largest_remaining: 1244840311)-------------------
    00000000000875162822 : 00000000001813985279 :: ###############################

    00000000002336615340 : 00000000002720977919 :: ############

    00000000004941659756 : 00000000005441955839 :: ################

    00000000005908955430 : 00000000006534920155 :: ####################

  * 00000000007825086088 : 00000000009069926399 :: #########################################

    00000000006715015548 : 00000000007255941119 :: #################



[H[2J
-----------------printing current job allocations (largest_remaining: 1240842249)-------------------
    00000000000919906373 : 00000000001813985279 :: #############################

    00000000002337177801 : 00000000002720977919 :: ############

    00000000004951263186 : 00000000005441955839 :: ################

    00000000005909556707 : 00000000006534920155 :: ####################

  * 00000000007829084150 : 00000000009069926399 :: #########################################

    00000000006720331777 : 00000000007255941119 :: #################



[H[2J
-----------------printing current job allocations (largest_remaining: 1239987749)-------------------
    00000000000926603707 : 00000000001813985279 :: #############################

    00000000002337982807 : 00000000002720977919 :: ############

    00000000004957188521 : 00000000005441955839 :: ################

    00000000005910489794 : 00000000006534920155 :: ####################

  * 00000000007829938650 : 00000000009069926399 :: #########################################

    00000000006720951055 : 00000000007255941119 :: #################



[H[2J
-----------------printing current job allocations (largest_remaining: 1205314871)-------------------
    00000000000930822867 : 00000000001813985279 :: #############################

    00000000002371586603 : 00000000002720977919 :: ###########

    00000000005000467322 : 00000000005441955839 :: ##############

    00000000005914244546 : 00000000006534920155 :: ####################

  * 00000000007864611528 : 00000000009069926399 :: #######################################

    00000000006721781931 : 00000000007255941119 :: #################



[H[2J
-----------------printing current job allocations (largest_remaining: 1195103819)-------------------
    00000000000969509326 : 00000000001813985279 :: ###########################

    00000000002380642032 : 00000000002720977919 :: ###########

    00000000005001397871 : 00000000005441955839 :: ##############

    00000000005914578913 : 00000000006534920155 :: ####################

  * 00000000007874822580 : 00000000009069926399 :: #######################################

    00000000006724985198 : 00000000007255941119 :: #################



[H[2J
-----------------printing current job allocations (largest_remaining: 1189520837)-------------------
    00000000000972352262 : 00000000001813985279 :: ###########################

    00000000002381656739 : 00000000002720977919 :: ###########

    00000000005002468124 : 00000000005441955839 :: ##############

    00000000005915274618 : 00000000006534920155 :: ####################

  * 00000000007880405562 : 00000000009069926399 :: #######################################

    00000000006726671572 : 00000000007255941119 :: #################



[H[2J
-----------------printing current job allocations (largest_remaining: 1146690442)-------------------
    00000000000980744329 : 00000000001813985279 :: ###########################

    00000000002382501410 : 00000000002720977919 :: ###########

    00000000005007504476 : 00000000005441955839 :: ##############

    00000000005917299004 : 00000000006534920155 :: ####################

  * 00000000007923235957 : 00000000009069926399 :: #####################################

    00000000006731539443 : 00000000007255941119 :: #################



[H[2J
-----------------printing current job allocations (largest_remaining: 1140377234)-------------------
    00000000001019653873 : 00000000001813985279 :: ##########################

    00000000002386870803 : 00000000002720977919 :: ###########

    00000000005008543730 : 00000000005441955839 :: ##############

    00000000005920430362 : 00000000006534920155 :: ####################

  * 00000000007929549165 : 00000000009069926399 :: #####################################

    00000000006764176690 : 00000000007255941119 :: ################



[H[2J
-----------------printing current job allocations (largest_remaining: 1106629609)-------------------
    00000000001022349582 : 00000000001813985279 :: ##########################

    00000000002387401701 : 00000000002720977919 :: ###########

    00000000005043876420 : 00000000005441955839 :: #############

    00000000005957869058 : 00000000006534920155 :: ###################

  * 00000000007963296790 : 00000000009069926399 :: ####################################

    00000000006765025567 : 00000000007255941119 :: ################



[H[2J
-----------------printing current job allocations (largest_remaining: 1095385656)-------------------
    00000000001071049468 : 00000000001813985279 :: ########################

    00000000002388239197 : 00000000002720977919 :: ###########

    00000000005052856554 : 00000000005441955839 :: ############

    00000000005958422308 : 00000000006534920155 :: ###################

  * 00000000007974540743 : 00000000009069926399 :: ####################################

    00000000006766020891 : 00000000007255941119 :: ################



[H[2J
-----------------printing current job allocations (largest_remaining: 1089373447)-------------------
    00000000001077845845 : 00000000001813985279 :: ########################

    00000000002430494606 : 00000000002720977919 :: #########

    00000000005058727585 : 00000000005441955839 :: ############

    00000000005959189578 : 00000000006534920155 :: ###################

  * 00000000007980552952 : 00000000009069926399 :: ####################################

    00000000006770903138 : 00000000007255941119 :: ################



[H[2J
-----------------printing current job allocations (largest_remaining: 1046011823)-------------------
    00000000001087866322 : 00000000001813985279 :: ########################

    00000000002437376816 : 00000000002720977919 :: #########

    00000000005093106153 : 00000000005441955839 :: ###########

    00000000005959765258 : 00000000006534920155 :: ###################

  * 00000000008023914576 : 00000000009069926399 :: ##################################

    00000000006771845354 : 00000000007255941119 :: ################



[H[2J
-----------------printing current job allocations (largest_remaining: 1044680805)-------------------
    00000000001122558805 : 00000000001813985279 :: ######################

    00000000002473146311 : 00000000002720977919 :: ########

    00000000005102589306 : 00000000005441955839 :: ###########

    00000000005960639801 : 00000000006534920155 :: ##################

  * 00000000008025245594 : 00000000009069926399 :: ##################################

    00000000006814429051 : 00000000007255941119 :: ##############



[H[2J
-----------------printing current job allocations (largest_remaining: 1039359430)-------------------
    00000000001131880119 : 00000000001813985279 :: ######################

    00000000002487733004 : 00000000002720977919 :: #######

    00000000005108545713 : 00000000005441955839 :: ###########

    00000000005964455232 : 00000000006534920155 :: ##################

  * 00000000008030566969 : 00000000009069926399 :: ##################################

    00000000006815009724 : 00000000007255941119 :: ##############



[H[2J
-----------------printing current job allocations (largest_remaining: 642455768)-------------------
  * 00000000001171529511 : 00000000001813985279 :: #####################

    00000000002523441577 : 00000000002720977919 :: ######

    00000000008578036291 : 00000000009069926399 :: ################

    00000000005964833769 : 00000000006534920155 :: ##################

    00000000008031420857 : 00000000008550358698 :: #################

    00000000006815879275 : 00000000007255941119 :: ##############



[H[2J
-----------------printing current job allocations (largest_remaining: 635450738)-------------------
  * 00000000001178534541 : 00000000001813985279 :: #####################

    00000000002538230465 : 00000000002720977919 :: ######

    00000000008579210680 : 00000000009069926399 :: ################

    00000000005965455980 : 00000000006534920155 :: ##################

    00000000008065885631 : 00000000008550358698 :: ################

    00000000006821214953 : 00000000007255941119 :: ##############



[H[2J
-----------------printing current job allocations (largest_remaining: 591699028)-------------------
  * 00000000001222286251 : 00000000001813985279 :: ###################

    00000000002582195861 : 00000000002720977919 :: ####

    00000000008584529248 : 00000000009069926399 :: ################

    00000000005965801844 : 00000000006534920155 :: ##################

    00000000008076142155 : 00000000008550358698 :: ###############

    00000000006822127319 : 00000000007255941119 :: ##############



[H[2J
-----------------printing current job allocations (largest_remaining: 585965774)-------------------
  * 00000000001228019505 : 00000000001813985279 :: ###################

    00000000002584592249 : 00000000002720977919 :: ####

    00000000008585660365 : 00000000009069926399 :: ################

    00000000005969919198 : 00000000006534920155 :: ##################

    00000000008081458115 : 00000000008550358698 :: ###############

    00000000006824934678 : 00000000007255941119 :: ##############



[H[2J
-----------------printing current job allocations (largest_remaining: 584649798)-------------------
  * 00000000001229335481 : 00000000001813985279 :: ###################

    00000000002589673856 : 00000000002720977919 :: ####

    00000000008628247147 : 00000000009069926399 :: ##############

    00000000006008229206 : 00000000006534920155 :: #################

    00000000008124502044 : 00000000008550358698 :: ##############

    00000000006831748859 : 00000000007255941119 :: ##############



[H[2J
-----------------printing current job allocations (largest_remaining: 579741422)-------------------
  * 00000000001234243857 : 00000000001813985279 :: ###################

    00000000002632367757 : 00000000002720977919 :: ##

    00000000008628567537 : 00000000009069926399 :: ##############

    00000000006008777381 : 00000000006534920155 :: #################

    00000000008127169298 : 00000000008550358698 :: #############

    00000000006864996632 : 00000000007255941119 :: ############



[H[2J
-----------------printing current job allocations (largest_remaining: 542142585)-------------------
  * 00000000001271842694 : 00000000001813985279 :: #################

    00000000002639327294 : 00000000002720977919 :: ##

    00000000008628967393 : 00000000009069926399 :: ##############

    00000000006009499110 : 00000000006534920155 :: #################

    00000000008132629308 : 00000000008550358698 :: #############

    00000000006865805154 : 00000000007255941119 :: ############



[H[2J
-----------------printing current job allocations (largest_remaining: 540084868)-------------------
  * 00000000001273900411 : 00000000001813985279 :: #################

    00000000002682639544 : 00000000002720977919 :: #

    00000000008629580984 : 00000000009069926399 :: ##############

    00000000006010153551 : 00000000006534920155 :: #################

    00000000008177020205 : 00000000008550358698 :: ############

    00000000006866790065 : 00000000007255941119 :: ############



[H[2J
-----------------printing current job allocations (largest_remaining: 534960491)-------------------
  * 00000000001279024788 : 00000000001813985279 :: #################

    00000000002689825051 : 00000000002720977919 :: #

    00000000008630112120 : 00000000009069926399 :: ##############

    00000000006011017991 : 00000000006534920155 :: #################

    00000000008182806757 : 00000000008550358698 :: ############

    00000000006871780812 : 00000000007255941119 :: ############



[H[2J
-----------------printing current job allocations (largest_remaining: 434826227)-------------------
    00000000001283144996 : 00000000001546761300 :: ########

    00000000006317071129 : 00000000006534920155 :: #######

  * 00000000008635100172 : 00000000009069926399 :: ##############

    00000000006014830750 : 00000000006273011947 :: ########

    00000000008185932717 : 00000000008550358698 :: ############

    00000000006872667437 : 00000000007255941119 :: ############



[H[2J
-----------------printing current job allocations (largest_remaining: 434469542)-------------------
    00000000001291955384 : 00000000001546761300 :: ########

    00000000006362931424 : 00000000006534920155 :: #####

  * 00000000008635456857 : 00000000009069926399 :: ##############

    00000000006015209059 : 00000000006273011947 :: ########

    00000000008191870402 : 00000000008550358698 :: ###########

    00000000006876302711 : 00000000007255941119 :: ############



[H[2J
-----------------printing current job allocations (largest_remaining: 433847529)-------------------
    00000000001323177053 : 00000000001546761300 :: #######

    00000000006371118707 : 00000000006534920155 :: #####

  * 00000000008636078870 : 00000000009069926399 :: ##############

    00000000006015833960 : 00000000006273011947 :: ########

    00000000008226535126 : 00000000008550358698 :: ##########

    00000000006915088038 : 00000000007255941119 :: ###########



[H[2J
-----------------printing current job allocations (largest_remaining: 433489765)-------------------
    00000000001328689136 : 00000000001546761300 :: #######

    00000000006372188710 : 00000000006534920155 :: #####

  * 00000000008636436634 : 00000000009069926399 :: ##############

    00000000006016170888 : 00000000006273011947 :: ########

    00000000008232585864 : 00000000008550358698 :: ##########

    00000000006915746697 : 00000000007255941119 :: ###########



[H[2J
-----------------printing current job allocations (largest_remaining: 429588905)-------------------
    00000000001330077153 : 00000000001546761300 :: #######

    00000000006372741192 : 00000000006534920155 :: #####

  * 00000000008640337494 : 00000000009069926399 :: ##############

    00000000006059820117 : 00000000006273011947 :: #######

    00000000008235808644 : 00000000008550358698 :: ##########

    00000000006916515080 : 00000000007255941119 :: ###########



[H[2J
-----------------printing current job allocations (largest_remaining: 391260864)-------------------
    00000000001372617070 : 00000000001546761300 :: #####

    00000000006373899207 : 00000000006534920155 :: #####

  * 00000000008678665535 : 00000000009069926399 :: ############

    00000000006108996766 : 00000000006273011947 :: #####

    00000000008242289927 : 00000000008550358698 :: ##########

    00000000006921794909 : 00000000007255941119 :: ###########



[H[2J
-----------------printing current job allocations (largest_remaining: 390022203)-------------------
    00000000001373408797 : 00000000001546761300 :: #####

    00000000006377912319 : 00000000006534920155 :: #####

  * 00000000008679904196 : 00000000009069926399 :: ############

    00000000006116232481 : 00000000006273011947 :: #####

    00000000008276914553 : 00000000008550358698 :: #########

    00000000006922455872 : 00000000007255941119 :: ###########



[H[2J
-----------------printing current job allocations (largest_remaining: 388071772)-------------------
    00000000001373902444 : 00000000001546761300 :: #####

    00000000006378950361 : 00000000006534920155 :: #####

  * 00000000008681854627 : 00000000009069926399 :: ############

    00000000006162057851 : 00000000006273011947 :: ###

    00000000008282986338 : 00000000008550358698 :: ########

    00000000006923304715 : 00000000007255941119 :: ###########



[H[2J
-----------------printing current job allocations (largest_remaining: 191563089)-------------------
    00000000001379247139 : 00000000001546761300 :: #####

    00000000006413254792 : 00000000006534920155 :: ####

  * 00000000008686092601 : 00000000008877655690 :: ######

    00000000006210784715 : 00000000006273011947 :: ##

    00000000008327064346 : 00000000008416928472 :: ##

    00000000008428276747 : 00000000008550358698 :: ####



[H[2J
-----------------printing current job allocations (largest_remaining: 187800530)-------------------
    00000000001379764281 : 00000000001546761300 :: #####

    00000000006421791842 : 00000000006534920155 :: ###

  * 00000000008689855160 : 00000000008877655690 :: ######

    00000000006260020222 : 00000000006273011947 :: 

    00000000008333224636 : 00000000008416928472 :: ##

    00000000008434559797 : 00000000008550358698 :: ###



[H[2J
-----------------printing current job allocations (largest_remaining: 166198453)-------------------
  * 00000000001380562847 : 00000000001546761300 :: #####

    00000000006423194103 : 00000000006534920155 :: ###

    00000000008721954383 : 00000000008877655690 :: #####

    00000000006267197045 : 00000000006273011947 :: 

    00000000008337431111 : 00000000008416928472 :: ##

    00000000008477260559 : 00000000008550358698 :: ##



[H[2J
-----------------printing current job allocations (largest_remaining: 147566452)-------------------
    00000000001389404153 : 00000000001464807853 :: ##

    00000000006428171049 : 00000000006534920155 :: ###

  * 00000000008730089238 : 00000000008877655690 :: ####

    00000000001473852594 : 00000000001546761300 :: ##

    00000000008376911004 : 00000000008416928472 :: #

    00000000008478465584 : 00000000008550358698 :: ##



[H[2J
-----------------printing current job allocations (largest_remaining: 145785846)-------------------
    00000000001423821014 : 00000000001464807853 :: #

    00000000006461994902 : 00000000006534920155 :: ##

  * 00000000008731869844 : 00000000008877655690 :: ####

    00000000001479846814 : 00000000001546761300 :: ##

    00000000008383345984 : 00000000008416928472 :: #

    00000000008480369722 : 00000000008550358698 :: ##



[H[2J
-----------------printing current job allocations (largest_remaining: 141362348)-------------------
    00000000001429468506 : 00000000001464807853 :: #

    00000000006512358920 : 00000000006534920155 :: 

  * 00000000008736293342 : 00000000008877655690 :: ####

    00000000001481114542 : 00000000001546761300 :: ##

    00000000008387127665 : 00000000008416928472 :: 

    00000000008484880818 : 00000000008550358698 :: ##



[H[2J
-----------------printing current job allocations (largest_remaining: 14729868)-------------------
    00000000001430750088 : 00000000001439086908 :: 

  * 00000000006520190287 : 00000000006534920155 :: 

    00000000001439442952 : 00000000001447424633 :: 

    00000000008527730469 : 00000000008535380792 :: 

    00000000008535717771 : 00000000008550358698 :: 

    00000000008487754979 : 00000000008501552805 :: 



[H[2J
-----------------printing current job allocations (largest_remaining: 4522242)-------------------
    00000000008534187462 : 00000000008535380792 :: 

    00000000006524950613 : 00000000006529457187 :: 

  * 00000000008545836456 : 00000000008550358698 :: 

    00000000008528920404 : 00000000008532124697 :: 

    00000000008540332363 : 00000000008544691303 :: 

    00000000008494609516 : 00000000008495160718 :: 



[H[2J
-----------------printing current job allocations (largest_remaining: 0)-------------------
  * 00000000000000000000 : 00000000000000000000 :: 

    00000000000000000000 : 00000000000000000000 :: 

    00000000000000000000 : 00000000000000000000 :: 

    00000000000000000000 : 00000000000000000000 :: 

    00000000000000000000 : 00000000000000000000 :: 

    00000000000000000000 : 00000000000000000000 :: 



using [D=1, R=0]:
	space_size=10883911680
	thread_count=6
	minimum_split_size=100
	range_update_frequency=5
	display_rate=0
	fea_execution_limit=5000
	execution_limit=10000000000
	array_size=100000


	searched 10883911680 zvs
	using 6 threads
	in      32.00s [1202406086.190331:1202406086.190403],
	at 340122240.00 z/s.


pm counts:
z_is_good: 0       		 pm_ga: 10741531908		
pm_fea: 0       		pm_ns0: 856     		
pm_pco: 1683    		pm_zr5: 428796  		
pm_zr6: 224808  		pm_ndi: 35122   		
pm_oer: 0       		pm_r0i: 7711    		
 pm_h0: 38654   		pm_f1e: 233     		
pm_erc: 1071660 		pm_rmv: 13168   		
 pm_ot: 0       		pm_csm: 0       		
 pm_mm: 0       		pm_snm: 0       		
pm_bdl: 0       		pm_bdl2: 0       		
pm_erw: 0       		pm_mcal: 6306350 		
pm_snl: 1431624 		 pm_h1: 0       		
 pm_h2: 0       		 pm_h3: 0       		
pm_per: 49327   		pmf_fea: 5947301 		
pmf_ns0: 4873575 		pmf_pco: 11040695		
pmf_zr5: 56688934		pmf_zr6: 38720604		
pmf_ndi: 15498671		
[done]
