SRNFGPR: searching [D=1, R=0] space....
[H[2J
-----------------printing current job allocations (largest_remaining: 1813985279)-------------------
  * 00000000000000000000 : 00000000001813985279 :: ###########################################################

    00000000001813985280 : 00000000003627970559 :: ###########################################################

    00000000003627970560 : 00000000005441955839 :: ###########################################################

    00000000005441955840 : 00000000007255941119 :: ###########################################################

    00000000007255941120 : 00000000009069926399 :: ###########################################################

    00000000009069926400 : 00000000010883911679 :: ###########################################################



[H[2J
-----------------printing current job allocations (largest_remaining: 1802111338)-------------------
    00000000000018576856 : 00000000000906992639 :: #############################

    00000000001827632147 : 00000000003627970559 :: ###########################################################

  * 00000000003639844501 : 00000000005441955839 :: ###########################################################

    00000000005455447195 : 00000000007255941119 :: ###########################################################

    00000000007269587987 : 00000000009069926399 :: ###########################################################

    00000000000920483994 : 00000000001813985279 :: #############################



[H[2J
-----------------printing current job allocations (largest_remaining: 1795408423)-------------------
    00000000000022109112 : 00000000000906992639 :: #############################

    00000000001836318204 : 00000000003627970559 :: ###########################################################

    00000000003670303015 : 00000000005441955839 :: ##########################################################

  * 00000000005460532696 : 00000000007255941119 :: ###########################################################

    00000000007274673488 : 00000000009069926399 :: ###########################################################

    00000000000929101536 : 00000000001813985279 :: #############################



[H[2J
-----------------printing current job allocations (largest_remaining: 1791876167)-------------------
    00000000000062535744 : 00000000000906992639 :: ###########################

    00000000001847034366 : 00000000003627970559 :: ##########################################################

    00000000003682254713 : 00000000005441955839 :: ##########################################################

  * 00000000005464064952 : 00000000007255941119 :: ###########################################################

    00000000007281100620 : 00000000009069926399 :: ###########################################################

    00000000000931928112 : 00000000001813985279 :: #############################



[H[2J
-----------------printing current job allocations (largest_remaining: 1791876167)-------------------
    00000000000069394136 : 00000000000906992639 :: ###########################

    00000000001868527175 : 00000000003627970559 :: ##########################################################

    00000000003712021157 : 00000000005441955839 :: #########################################################

  * 00000000005464064952 : 00000000007255941119 :: ###########################################################

    00000000007318842214 : 00000000009069926399 :: #########################################################

    00000000000971301274 : 00000000001813985279 :: ###########################



[H[2J
-----------------printing current job allocations (largest_remaining: 1791876167)-------------------
    00000000000079324048 : 00000000000906992639 :: ###########################

    00000000001884071388 : 00000000003627970559 :: #########################################################

    00000000003731632185 : 00000000005441955839 :: ########################################################

  * 00000000005464064952 : 00000000007255941119 :: ###########################################################

    00000000007325933921 : 00000000009069926399 :: #########################################################

    00000000000980395266 : 00000000001813985279 :: ###########################



[H[2J
-----------------printing current job allocations (largest_remaining: 1789049591)-------------------
    00000000000113687285 : 00000000000906992639 :: ##########################

    00000000001888096624 : 00000000003627970559 :: #########################################################

    00000000003743591658 : 00000000005441955839 :: ########################################################

  * 00000000005466891528 : 00000000007255941119 :: ###########################################################

    00000000007329861457 : 00000000009069926399 :: #########################################################

    00000000000986316687 : 00000000001813985279 :: ###########################



[H[2J
-----------------printing current job allocations (largest_remaining: 1789049591)-------------------
    00000000000134853508 : 00000000000906992639 :: #########################

    00000000001909686588 : 00000000003627970559 :: ########################################################

    00000000003774050172 : 00000000005441955839 :: #######################################################

  * 00000000005466891528 : 00000000007255941119 :: ###########################################################

    00000000007361587936 : 00000000009069926399 :: ########################################################

    00000000001022367419 : 00000000001813985279 :: ##########################



[H[2J
-----------------printing current job allocations (largest_remaining: 1751449535)-------------------
    00000000000166019685 : 00000000000906992639 :: ########################

    00000000001928333416 : 00000000003627970559 :: ########################################################

    00000000003831444807 : 00000000005441955839 :: #####################################################

  * 00000000005504491584 : 00000000007255941119 :: #########################################################

    00000000007371821143 : 00000000009069926399 :: ########################################################

    00000000001071169586 : 00000000001813985279 :: ########################



[H[2J
-----------------printing current job allocations (largest_remaining: 1744591143)-------------------
    00000000000171105186 : 00000000000906992639 :: ########################

    00000000001958791680 : 00000000003627970559 :: #######################################################

    00000000003841631354 : 00000000005441955839 :: ####################################################

  * 00000000005511349976 : 00000000007255941119 :: #########################################################

    00000000007418943590 : 00000000009069926399 :: ######################################################

    00000000001078028013 : 00000000001813985279 :: ########################



[H[2J
-----------------printing current job allocations (largest_remaining: 1740582652)-------------------
    00000000000215080669 : 00000000000906992639 :: ######################

    00000000001977314106 : 00000000003627970559 :: ######################################################

    00000000003882167528 : 00000000005441955839 :: ###################################################

  * 00000000005515358467 : 00000000007255941119 :: #########################################################

    00000000007425802012 : 00000000009069926399 :: ######################################################

    00000000001088311880 : 00000000001813985279 :: ########################



[H[2J
-----------------printing current job allocations (largest_remaining: 1740582652)-------------------
    00000000000223713076 : 00000000000906992639 :: ######################

    00000000001984172533 : 00000000003627970559 :: ######################################################

    00000000003899228057 : 00000000005441955839 :: ###################################################

  * 00000000005515358467 : 00000000007255941119 :: #########################################################

    00000000007429319718 : 00000000009069926399 :: ######################################################

    00000000001127081437 : 00000000001813985279 :: ######################



[H[2J
-----------------printing current job allocations (largest_remaining: 1734661231)-------------------
    00000000000264210494 : 00000000000906992639 :: #####################

    00000000001994099190 : 00000000003627970559 :: ######################################################

    00000000003934881004 : 00000000005441955839 :: #################################################

  * 00000000005521279888 : 00000000007255941119 :: #########################################################

    00000000007461418336 : 00000000009069926399 :: #####################################################

    00000000001133419804 : 00000000001813985279 :: ######################



[H[2J
-----------------printing current job allocations (largest_remaining: 1700616705)-------------------
    00000000000271022261 : 00000000000906992639 :: #####################

    00000000002009991272 : 00000000003627970559 :: #####################################################

    00000000003943380165 : 00000000005441955839 :: #################################################

  * 00000000005555324414 : 00000000007255941119 :: ########################################################

    00000000007476737004 : 00000000009069926399 :: ####################################################

    00000000001172766346 : 00000000001813985279 :: #####################



[H[2J
-----------------printing current job allocations (largest_remaining: 1693524998)-------------------
    00000000000314738927 : 00000000000906992639 :: ###################

    00000000002028669210 : 00000000003627970559 :: ####################################################

    00000000003945106436 : 00000000005441955839 :: #################################################

  * 00000000005562416121 : 00000000007255941119 :: ########################################################

    00000000007510936913 : 00000000009069926399 :: ###################################################

    00000000001221615168 : 00000000001813985279 :: ###################



[H[2J
-----------------printing current job allocations (largest_remaining: 1649808332)-------------------
    00000000000316519628 : 00000000000906992639 :: ###################

    00000000002039622148 : 00000000003627970559 :: ####################################################

    00000000003964647468 : 00000000005441955839 :: ################################################

  * 00000000005606132787 : 00000000007255941119 :: ######################################################

    00000000007521131235 : 00000000009069926399 :: ###################################################

    00000000001223341439 : 00000000001813985279 :: ###################



[H[2J
-----------------printing current job allocations (largest_remaining: 1642949905)-------------------
    00000000000316519628 : 00000000000906992639 :: ###################

    00000000002077923437 : 00000000003627970559 :: ###################################################

    00000000003985650385 : 00000000005441955839 :: ################################################

  * 00000000005612991214 : 00000000007255941119 :: ######################################################

    00000000007561644183 : 00000000009069926399 :: #################################################

    00000000001228426940 : 00000000001813985279 :: ###################



[H[2J
-----------------printing current job allocations (largest_remaining: 1638898499)-------------------
    00000000000321605129 : 00000000000906992639 :: ###################

    00000000002118374175 : 00000000003627970559 :: #################################################

    00000000003994102891 : 00000000005441955839 :: ###############################################

  * 00000000005617042620 : 00000000007255941119 :: ######################################################

    00000000007570096689 : 00000000009069926399 :: #################################################

    00000000001232543056 : 00000000001813985279 :: ###################



[H[2J
-----------------printing current job allocations (largest_remaining: 1632666038)-------------------
    00000000000325764930 : 00000000000906992639 :: ###################

    00000000002128607382 : 00000000003627970559 :: #################################################

    00000000003999203942 : 00000000005441955839 :: ###############################################

  * 00000000005623275081 : 00000000007255941119 :: ######################################################

    00000000007571822960 : 00000000009069926399 :: #################################################

    00000000001243256858 : 00000000001813985279 :: ##################



[H[2J
-----------------printing current job allocations (largest_remaining: 1593896481)-------------------
    00000000000336497252 : 00000000000906992639 :: ##################

    00000000002128607382 : 00000000003627970559 :: #################################################

    00000000004034662205 : 00000000005441955839 :: ##############################################

  * 00000000005662044638 : 00000000007255941119 :: ####################################################

    00000000007571822960 : 00000000009069926399 :: #################################################

    00000000001272720089 : 00000000001813985279 :: #################



[H[2J
-----------------printing current job allocations (largest_remaining: 1590392465)-------------------
    00000000000365882728 : 00000000000906992639 :: #################

    00000000002130333653 : 00000000003627970559 :: #################################################

    00000000004043114711 : 00000000005441955839 :: ##############################################

  * 00000000005665548654 : 00000000007255941119 :: ####################################################

    00000000007576955116 : 00000000009069926399 :: #################################################

    00000000001274493015 : 00000000001813985279 :: #################



[H[2J
-----------------printing current job allocations (largest_remaining: 1549937843)-------------------
    00000000000365882728 : 00000000000906992639 :: #################

    00000000002130333653 : 00000000003627970559 :: #################################################

    00000000004044840982 : 00000000005441955839 :: ##############################################

  * 00000000005706003276 : 00000000007255941119 :: ###################################################

    00000000007576955116 : 00000000009069926399 :: #################################################

    00000000001283620207 : 00000000001813985279 :: #################



[H[2J
-----------------printing current job allocations (largest_remaining: 1543079416)-------------------
    00000000000367608999 : 00000000000906992639 :: #################

    00000000002135419154 : 00000000003627970559 :: #################################################

    00000000004049926483 : 00000000005441955839 :: ##############################################

  * 00000000005712861703 : 00000000007255941119 :: ###################################################

    00000000007580477147 : 00000000009069926399 :: #################################################

    00000000001294633924 : 00000000001813985279 :: #################



[H[2J
-----------------printing current job allocations (largest_remaining: 1543079416)-------------------
    00000000000372694500 : 00000000000906992639 :: #################

    00000000002135419154 : 00000000003627970559 :: #################################################

    00000000004063635554 : 00000000005441955839 :: #############################################

  * 00000000005712861703 : 00000000007255941119 :: ###################################################

    00000000007610875085 : 00000000009069926399 :: ################################################

    00000000001323583955 : 00000000001813985279 :: ################



[H[2J
-----------------printing current job allocations (largest_remaining: 1499362750)-------------------
    00000000000376849891 : 00000000000906992639 :: #################

    00000000002139525990 : 00000000003627970559 :: #################################################

    00000000004093728580 : 00000000005441955839 :: ############################################

  * 00000000005756578369 : 00000000007255941119 :: #################################################

    00000000007621069412 : 00000000009069926399 :: ###############################################

    00000000001328669456 : 00000000001813985279 :: ################



[H[2J
-----------------printing current job allocations (largest_remaining: 1499362750)-------------------
    00000000000414973673 : 00000000000906992639 :: ################

    00000000002171415309 : 00000000003627970559 :: ################################################

    00000000004093728580 : 00000000005441955839 :: ############################################

  * 00000000005756578369 : 00000000007255941119 :: #################################################

    00000000007621069412 : 00000000009069926399 :: ###############################################

    00000000001372471553 : 00000000001813985279 :: ##############



[H[2J
-----------------printing current job allocations (largest_remaining: 1497636479)-------------------
    00000000000416746599 : 00000000000906992639 :: ################

    00000000002171415309 : 00000000003627970559 :: ################################################

    00000000004095454851 : 00000000005441955839 :: ############################################

  * 00000000005758304640 : 00000000007255941119 :: #################################################

    00000000007622850113 : 00000000009069926399 :: ###############################################

    00000000001372471553 : 00000000001813985279 :: ##############



[H[2J
-----------------printing current job allocations (largest_remaining: 1497636479)-------------------
    00000000000421832100 : 00000000000906992639 :: ################

    00000000002179867815 : 00000000003627970559 :: ###############################################

    00000000004095454851 : 00000000005441955839 :: ############################################

  * 00000000005758304640 : 00000000007255941119 :: #################################################

    00000000007622850113 : 00000000009069926399 :: ###############################################

    00000000001372471553 : 00000000001813985279 :: ##############



[H[2J
-----------------printing current job allocations (largest_remaining: 1497636479)-------------------
    00000000000421832100 : 00000000000906992639 :: ################

    00000000002181594086 : 00000000003627970559 :: ###############################################

    00000000004095454851 : 00000000005441955839 :: ############################################

  * 00000000005758304640 : 00000000007255941119 :: #################################################

    00000000007627935614 : 00000000009069926399 :: ###############################################

    00000000001374197824 : 00000000001813985279 :: ##############



[H[2J
-----------------printing current job allocations (largest_remaining: 1497636479)-------------------
    00000000000435416721 : 00000000000906992639 :: ###############

    00000000002181594086 : 00000000003627970559 :: ###############################################

    00000000004100540352 : 00000000005441955839 :: ############################################

  * 00000000005758304640 : 00000000007255941119 :: #################################################

    00000000007632095630 : 00000000009069926399 :: ###############################################

    00000000001379283325 : 00000000001813985279 :: ##############



[H[2J
-----------------printing current job allocations (largest_remaining: 1492550978)-------------------
    00000000000465587537 : 00000000000906992639 :: ##############

    00000000002181594086 : 00000000003627970559 :: ###############################################

    00000000004100540352 : 00000000005441955839 :: ############################################

  * 00000000005763390141 : 00000000007255941119 :: #################################################

    00000000007663869564 : 00000000009069926399 :: ##############################################

    00000000001379283325 : 00000000001813985279 :: ##############



[H[2J
-----------------printing current job allocations (largest_remaining: 1492550978)-------------------
    00000000000465587537 : 00000000000906992639 :: ##############

    00000000002190834973 : 00000000003627970559 :: ###############################################

    00000000004135967799 : 00000000005441955839 :: ###########################################

  * 00000000005763390141 : 00000000007255941119 :: #################################################

    00000000007663869564 : 00000000009069926399 :: ##############################################

    00000000001389110232 : 00000000001813985279 :: ##############



[H[2J
-----------------printing current job allocations (largest_remaining: 1492550978)-------------------
    00000000000465587537 : 00000000000906992639 :: ##############

    00000000002218881060 : 00000000003627970559 :: ##############################################

    00000000004144420300 : 00000000005441955839 :: ##########################################

  * 00000000005763390141 : 00000000007255941119 :: #################################################

    00000000007672322070 : 00000000009069926399 :: ##############################################

    00000000001423242178 : 00000000001813985279 :: ############



[H[2J
-----------------printing current job allocations (largest_remaining: 1488434862)-------------------
    00000000000465587537 : 00000000000906992639 :: ##############

    00000000002229122042 : 00000000003627970559 :: ##############################################

    00000000004146426506 : 00000000005441955839 :: ##########################################

  * 00000000005767506257 : 00000000007255941119 :: #################################################

    00000000007674094996 : 00000000009069926399 :: ##############################################

    00000000001424968449 : 00000000001813985279 :: ############



[H[2J
-----------------printing current job allocations (largest_remaining: 1488434862)-------------------
    00000000000467313808 : 00000000000906992639 :: ##############

    00000000002229122042 : 00000000003627970559 :: ##############################################

    00000000004151512007 : 00000000005441955839 :: ##########################################

  * 00000000005767506257 : 00000000007255941119 :: #################################################

    00000000007674094996 : 00000000009069926399 :: ##############################################

    00000000001430108380 : 00000000001813985279 :: ############



[H[2J
-----------------printing current job allocations (largest_remaining: 1488434862)-------------------
    00000000000467313808 : 00000000000906992639 :: ##############

    00000000002230848313 : 00000000003627970559 :: ##############################################

    00000000004186970490 : 00000000005441955839 :: #########################################

  * 00000000005767506257 : 00000000007255941119 :: #################################################

    00000000007674094996 : 00000000009069926399 :: ##############################################

    00000000001444946073 : 00000000001813985279 :: ############



[H[2J
-----------------printing current job allocations (largest_remaining: 1482521216)-------------------
    00000000000467313808 : 00000000000906992639 :: ##############

    00000000002230848313 : 00000000003627970559 :: ##############################################

    00000000004195422996 : 00000000005441955839 :: #########################################

  * 00000000005773419903 : 00000000007255941119 :: #################################################

    00000000007721217438 : 00000000009069926399 :: ############################################

    00000000001474385979 : 00000000001813985279 :: ###########



[H[2J
-----------------printing current job allocations (largest_remaining: 1482521216)-------------------
    00000000000467313808 : 00000000000906992639 :: ##############

    00000000002235933814 : 00000000003627970559 :: ##############################################

    00000000004197149267 : 00000000005441955839 :: #########################################

  * 00000000005773419903 : 00000000007255941119 :: #################################################

    00000000007721217438 : 00000000009069926399 :: ############################################

    00000000001476112250 : 00000000001813985279 :: ###########



[H[2J
-----------------printing current job allocations (largest_remaining: 1392036745)-------------------
    00000000000472445964 : 00000000000906992639 :: ##############

  * 00000000002235933814 : 00000000003627970559 :: ##############################################

    00000000004202234768 : 00000000005441955839 :: #########################################

    00000000005773419903 : 00000000006514680510 :: ########################

    00000000007721217438 : 00000000009069926399 :: ############################################

    00000000006519255782 : 00000000007255941119 :: ########################



[H[2J
-----------------printing current job allocations (largest_remaining: 1378335454)-------------------
    00000000000472445964 : 00000000000906992639 :: ##############

  * 00000000002249635105 : 00000000003627970559 :: #############################################

    00000000004237662210 : 00000000005441955839 :: #######################################

    00000000005807644479 : 00000000006514680510 :: #######################

    00000000007721217438 : 00000000009069926399 :: ############################################

    00000000006523388488 : 00000000007255941119 :: ########################



[H[2J
-----------------printing current job allocations (largest_remaining: 1348242638)-------------------
    00000000000472445964 : 00000000000906992639 :: ##############

  * 00000000002279727921 : 00000000003627970559 :: ############################################

    00000000004284932394 : 00000000005441955839 :: ######################################

    00000000005807644479 : 00000000006514680510 :: #######################

    00000000007722943709 : 00000000009069926399 :: ############################################

    00000000006563510120 : 00000000007255941119 :: ######################



[H[2J
-----------------printing current job allocations (largest_remaining: 1348242638)-------------------
    00000000000476138520 : 00000000000906992639 :: ##############

  * 00000000002279727921 : 00000000003627970559 :: ############################################

    00000000004296845217 : 00000000005441955839 :: #####################################

    00000000005809370750 : 00000000006514680510 :: #######################

    00000000007722943709 : 00000000009069926399 :: ############################################

    00000000006574410058 : 00000000007255941119 :: ######################



[H[2J
-----------------printing current job allocations (largest_remaining: 1348242638)-------------------
    00000000000482339876 : 00000000000906992639 :: ##############

  * 00000000002279727921 : 00000000003627970559 :: ############################################

    00000000004335655155 : 00000000005441955839 :: ####################################

    00000000005809370750 : 00000000006514680510 :: #######################

    00000000007722943709 : 00000000009069926399 :: ############################################

    00000000006614327400 : 00000000007255941119 :: #####################



[H[2J
-----------------printing current job allocations (largest_remaining: 1348242638)-------------------
    00000000000516420372 : 00000000000906992639 :: ############

  * 00000000002279727921 : 00000000003627970559 :: ############################################

    00000000004345857252 : 00000000005441955839 :: ####################################

    00000000005809370750 : 00000000006514680510 :: #######################

    00000000007722943709 : 00000000009069926399 :: ############################################

    00000000006663137342 : 00000000007255941119 :: ###################



[H[2J
-----------------printing current job allocations (largest_remaining: 1348242638)-------------------
    00000000000518146638 : 00000000000906992639 :: ############

  * 00000000002279727921 : 00000000003627970559 :: ############################################

    00000000004396712280 : 00000000005441955839 :: ##################################

    00000000005809370750 : 00000000006514680510 :: #######################

    00000000007728029210 : 00000000009069926399 :: ############################################

    00000000006663137342 : 00000000007255941119 :: ###################



[H[2J
-----------------printing current job allocations (largest_remaining: 1346516367)-------------------
    00000000000518146638 : 00000000000906992639 :: ############

  * 00000000002281454192 : 00000000003627970559 :: ############################################

    00000000004437209678 : 00000000005441955839 :: #################################

    00000000005814502906 : 00000000006514680510 :: #######################

    00000000007728029210 : 00000000009069926399 :: ############################################

    00000000006664910268 : 00000000007255941119 :: ###################



[H[2J
-----------------printing current job allocations (largest_remaining: 1346516367)-------------------
    00000000000523512074 : 00000000000906992639 :: ############

  * 00000000002281454192 : 00000000003627970559 :: ############################################

    00000000004447396225 : 00000000005441955839 :: ################################

    00000000005814502906 : 00000000006514680510 :: #######################

    00000000007728029210 : 00000000009069926399 :: ############################################

    00000000006669995764 : 00000000007255941119 :: ###################



[H[2J
-----------------printing current job allocations (largest_remaining: 1346516367)-------------------
    00000000000538139597 : 00000000000906992639 :: ############

  * 00000000002281454192 : 00000000003627970559 :: ############################################

    00000000004487947949 : 00000000005441955839 :: ###############################

    00000000005818526532 : 00000000006514680510 :: #######################

    00000000007728029210 : 00000000009069926399 :: ############################################

    00000000006669995764 : 00000000007255941119 :: ###################



[H[2J
-----------------printing current job allocations (largest_remaining: 1346516367)-------------------
    00000000000567509528 : 00000000000906992639 :: ###########

  * 00000000002281454192 : 00000000003627970559 :: ############################################

    00000000004498126726 : 00000000005441955839 :: ###############################

    00000000005818526532 : 00000000006514680510 :: #######################

    00000000007728029210 : 00000000009069926399 :: ############################################

    00000000006673532020 : 00000000007255941119 :: ###################



[H[2J
-----------------printing current job allocations (largest_remaining: 1346516367)-------------------
    00000000000567509528 : 00000000000906992639 :: ###########

  * 00000000002281454192 : 00000000003627970559 :: ############################################

    00000000004553787315 : 00000000005441955839 :: #############################

    00000000005824720113 : 00000000006514680510 :: ######################

    00000000007728029210 : 00000000009069926399 :: ############################################

    00000000006673532020 : 00000000007255941119 :: ###################



[H[2J
-----------------printing current job allocations (largest_remaining: 1346516367)-------------------
    00000000000569235799 : 00000000000906992639 :: ###########

  * 00000000002281454192 : 00000000003627970559 :: ############################################

    00000000004649805345 : 00000000005441955839 :: ##########################

    00000000005824720113 : 00000000006514680510 :: ######################

    00000000007734403792 : 00000000009069926399 :: ############################################

    00000000006673532020 : 00000000007255941119 :: ###################



[H[2J
-----------------printing current job allocations (largest_remaining: 1341430866)-------------------
    00000000000569235799 : 00000000000906992639 :: ###########

  * 00000000002286539693 : 00000000003627970559 :: ############################################

    00000000004705761419 : 00000000005441955839 :: ########################

    00000000005824720113 : 00000000006514680510 :: ######################

    00000000007763698669 : 00000000009069926399 :: ###########################################

    00000000006676413026 : 00000000007255941119 :: ###################



[H[2J
-----------------printing current job allocations (largest_remaining: 1341430866)-------------------
    00000000000618084616 : 00000000000906992639 :: #########

  * 00000000002286539693 : 00000000003627970559 :: ############################################

    00000000004801779449 : 00000000005441955839 :: #####################

    00000000005858461759 : 00000000006514680510 :: #####################

    00000000007772151170 : 00000000009069926399 :: ##########################################

    00000000006676413026 : 00000000007255941119 :: ###################



[H[2J
-----------------printing current job allocations (largest_remaining: 1341430866)-------------------
    00000000000666933369 : 00000000000906992639 :: #######

  * 00000000002286539693 : 00000000003627970559 :: ############################################

    00000000004842284617 : 00000000005441955839 :: ###################

    00000000005858461759 : 00000000006514680510 :: #####################

    00000000007773877441 : 00000000009069926399 :: ##########################################

    00000000006676413026 : 00000000007255941119 :: ###################



[H[2J
-----------------printing current job allocations (largest_remaining: 1341430866)-------------------
    00000000000687430887 : 00000000000906992639 :: #######

  * 00000000002286539693 : 00000000003627970559 :: ############################################

    00000000004850744863 : 00000000005441955839 :: ###################

    00000000005863555035 : 00000000006514680510 :: #####################

    00000000007773877441 : 00000000009069926399 :: ##########################################

    00000000006713954657 : 00000000007255941119 :: #################



[H[2J
-----------------printing current job allocations (largest_remaining: 1341430866)-------------------
    00000000000724397890 : 00000000000906992639 :: ######

  * 00000000002286539693 : 00000000003627970559 :: ############################################

    00000000004855830364 : 00000000005441955839 :: ###################

    00000000005863555035 : 00000000006514680510 :: #####################

    00000000007778962907 : 00000000009069926399 :: ##########################################

    00000000006713954657 : 00000000007255941119 :: #################



[H[2J
-----------------printing current job allocations (largest_remaining: 1307254223)-------------------
    00000000000768153367 : 00000000000906992639 :: ####

  * 00000000002320716336 : 00000000003627970559 :: ###########################################

    00000000004891288847 : 00000000005441955839 :: ##################

    00000000005863555035 : 00000000006514680510 :: #####################

    00000000007778962907 : 00000000009069926399 :: ##########################################

    00000000006715680928 : 00000000007255941119 :: #################



[H[2J
-----------------printing current job allocations (largest_remaining: 1305520177)-------------------
    00000000000774965139 : 00000000000906992639 :: ####

  * 00000000002322450382 : 00000000003627970559 :: ###########################################

    00000000004899741353 : 00000000005441955839 :: #################

    00000000005863555035 : 00000000006514680510 :: #####################

    00000000007814959062 : 00000000009069926399 :: #########################################

    00000000006715680928 : 00000000007255941119 :: #################



[H[2J
-----------------printing current job allocations (largest_remaining: 1297021016)-------------------
    00000000000820462501 : 00000000000906992639 :: ##

  * 00000000002330949543 : 00000000003627970559 :: ##########################################

    00000000004906553125 : 00000000005441955839 :: #################

    00000000005907271701 : 00000000006514680510 :: ####################

    00000000007814959062 : 00000000009069926399 :: #########################################

    00000000006720766429 : 00000000007255941119 :: #################



[H[2J
-----------------printing current job allocations (largest_remaining: 1297021016)-------------------
    00000000000869583379 : 00000000000906992639 :: #

  * 00000000002330949543 : 00000000003627970559 :: ##########################################

    00000000004940277557 : 00000000005441955839 :: ################

    00000000005907271701 : 00000000006514680510 :: ####################

    00000000007823411568 : 00000000009069926399 :: #########################################

    00000000006720766429 : 00000000007255941119 :: #################



[H[2J
-----------------printing current job allocations (largest_remaining: 1244788560)-------------------
    00000000002980323187 : 00000000003627970559 :: #####################

    00000000002332675814 : 00000000002980323186 :: #####################

    00000000004950471849 : 00000000005441955839 :: ################

    00000000005907271701 : 00000000006514680510 :: ####################

  * 00000000007825137839 : 00000000009069926399 :: #########################################

    00000000006724872400 : 00000000007255941119 :: #################



[H[2J
-----------------printing current job allocations (largest_remaining: 1244788560)-------------------
    00000000002987812422 : 00000000003627970559 :: #####################

    00000000002332675814 : 00000000002980323186 :: #####################

    00000000004952205895 : 00000000005441955839 :: ################

    00000000005908997972 : 00000000006514680510 :: ####################

  * 00000000007825137839 : 00000000009069926399 :: #########################################

    00000000006730793821 : 00000000007255941119 :: #################



[H[2J
-----------------printing current job allocations (largest_remaining: 1239703059)-------------------
    00000000003028317590 : 00000000003627970559 :: ###################

    00000000002337761310 : 00000000002980323186 :: #####################

    00000000004971793382 : 00000000005441955839 :: ###############

    00000000005908997972 : 00000000006514680510 :: ####################

  * 00000000007830223340 : 00000000009069926399 :: #########################################

    00000000006730793821 : 00000000007255941119 :: #################



[H[2J
-----------------printing current job allocations (largest_remaining: 1197549377)-------------------
    00000000003028317590 : 00000000003627970559 :: ###################

    00000000002369970563 : 00000000002980323186 :: ####################

    00000000004971793382 : 00000000005441955839 :: ###############

    00000000005908997972 : 00000000006514680510 :: ####################

  * 00000000007872377022 : 00000000009069926399 :: #######################################

    00000000006730793821 : 00000000007255941119 :: #################



[H[2J
-----------------printing current job allocations (largest_remaining: 1190737605)-------------------
    00000000003041871147 : 00000000003627970559 :: ###################

    00000000002380203770 : 00000000002980323186 :: ###################

    00000000005001373248 : 00000000005441955839 :: ##############

    00000000005914130128 : 00000000006514680510 :: ###################

  * 00000000007879188794 : 00000000009069926399 :: #######################################

    00000000006765020552 : 00000000007255941119 :: ################



[H[2J
-----------------printing current job allocations (largest_remaining: 1177121844)-------------------
    00000000003041871147 : 00000000003627970559 :: ###################

    00000000002380203770 : 00000000002980323186 :: ###################

    00000000005003099519 : 00000000005441955839 :: ##############

    00000000005914130128 : 00000000006514680510 :: ###################

  * 00000000007892804555 : 00000000009069926399 :: ######################################

    00000000006766746823 : 00000000007255941119 :: ################



[H[2J
-----------------printing current job allocations (largest_remaining: 1146818846)-------------------
    00000000003045387228 : 00000000003627970559 :: ###################

    00000000002381930041 : 00000000002980323186 :: ###################

    00000000005008185020 : 00000000005441955839 :: ##############

    00000000005914130128 : 00000000006514680510 :: ###################

  * 00000000007923107553 : 00000000009069926399 :: #####################################

    00000000006766746823 : 00000000007255941119 :: ################



[H[2J
-----------------printing current job allocations (largest_remaining: 1139960419)-------------------
    00000000003077571817 : 00000000003627970559 :: ##################

    00000000002381930041 : 00000000002980323186 :: ###################

    00000000005043604692 : 00000000005441955839 :: #############

    00000000005917649789 : 00000000006514680510 :: ###################

  * 00000000007929965980 : 00000000009069926399 :: #####################################

    00000000006771878979 : 00000000007255941119 :: ################



[H[2J
-----------------printing current job allocations (largest_remaining: 1104548626)-------------------
    00000000003086024323 : 00000000003627970559 :: #################

    00000000002387015537 : 00000000002980323186 :: ###################

    00000000005052057193 : 00000000005441955839 :: ############

    00000000005920476365 : 00000000006514680510 :: ###################

  * 00000000007965377773 : 00000000009069926399 :: ####################################

    00000000006771878979 : 00000000007255941119 :: ################



[H[2J
-----------------printing current job allocations (largest_remaining: 1094315419)-------------------
    00000000003087750594 : 00000000003627970559 :: #################

    00000000002387015537 : 00000000002980323186 :: ###################

    00000000005053783464 : 00000000005441955839 :: ############

    00000000005958096791 : 00000000006514680510 :: ##################

  * 00000000007975610980 : 00000000009069926399 :: ####################################

    00000000006815595640 : 00000000007255941119 :: ##############



[H[2J
-----------------printing current job allocations (largest_remaining: 1088949983)-------------------
    00000000003092836095 : 00000000003627970559 :: #################

    00000000002430887715 : 00000000002980323186 :: ##################

    00000000005092608917 : 00000000005441955839 :: ###########

    00000000005958096791 : 00000000006514680510 :: ##################

  * 00000000007980976416 : 00000000009069926399 :: ####################################

    00000000006817321911 : 00000000007255941119 :: ##############



[H[2J
-----------------printing current job allocations (largest_remaining: 1045194511)-------------------
    00000000003096968376 : 00000000003627970559 :: #################

    00000000002437699487 : 00000000002980323186 :: #################

    00000000005101061423 : 00000000005441955839 :: ###########

    00000000005958096791 : 00000000006514680510 :: ##################

  * 00000000008024731888 : 00000000009069926399 :: ##################################

    00000000006817321911 : 00000000007255941119 :: ##############



[H[2J
-----------------printing current job allocations (largest_remaining: 1043468240)-------------------
    00000000003128833330 : 00000000003627970559 :: ################

    00000000002473173520 : 00000000002980323186 :: ################

    00000000005107919850 : 00000000005441955839 :: ###########

    00000000005959823062 : 00000000006514680510 :: ##################

  * 00000000008026458159 : 00000000009069926399 :: ##################################

    00000000006822407412 : 00000000007255941119 :: ##############



[H[2J
-----------------printing current job allocations (largest_remaining: 554857448)-------------------
    00000000003128833330 : 00000000003627970559 :: ################

    00000000002488717728 : 00000000002980323186 :: ################

    00000000008570202541 : 00000000009069926399 :: ################

  * 00000000005959823062 : 00000000006514680510 :: ##################

    00000000008026458159 : 00000000008548192278 :: #################

    00000000006826556553 : 00000000007255941119 :: ##############



[H[2J
-----------------printing current job allocations (largest_remaining: 554857448)-------------------
    00000000003139012107 : 00000000003627970559 :: ################

    00000000002524176176 : 00000000002980323186 :: ###############

    00000000008578934982 : 00000000009069926399 :: ################

  * 00000000005959823062 : 00000000006514680510 :: ##################

    00000000008031590315 : 00000000008548192278 :: #################

    00000000006864649069 : 00000000007255941119 :: ############



[H[2J
-----------------printing current job allocations (largest_remaining: 549771947)-------------------
    00000000003139012107 : 00000000003627970559 :: ################

    00000000002534354953 : 00000000002980323186 :: ##############

    00000000008580661253 : 00000000009069926399 :: ################

  * 00000000005964908563 : 00000000006514680510 :: ##################

    00000000008066963332 : 00000000008548192278 :: ###############

    00000000006864649069 : 00000000007255941119 :: ############



[H[2J
-----------------printing current job allocations (largest_remaining: 549771947)-------------------
    00000000003158903014 : 00000000003627970559 :: ###############

    00000000002554245895 : 00000000002980323186 :: ##############

    00000000008580661253 : 00000000009069926399 :: ################

  * 00000000005964908563 : 00000000006514680510 :: ##################

    00000000008077188764 : 00000000008548192278 :: ###############

    00000000006864649069 : 00000000007255941119 :: ############



[H[2J
-----------------printing current job allocations (largest_remaining: 549771947)-------------------
    00000000003158903014 : 00000000003627970559 :: ###############

    00000000002588335862 : 00000000002980323186 :: ############

    00000000008600108940 : 00000000009069926399 :: ###############

  * 00000000005964908563 : 00000000006514680510 :: ##################

    00000000008114233516 : 00000000008548192278 :: ##############

    00000000006871507491 : 00000000007255941119 :: ############



[H[2J
-----------------printing current job allocations (largest_remaining: 539768915)-------------------
    00000000003158903014 : 00000000003627970559 :: ###############

    00000000002588335862 : 00000000002980323186 :: ############

    00000000008600108940 : 00000000009069926399 :: ###############

  * 00000000005974911595 : 00000000006514680510 :: #################

    00000000008124427838 : 00000000008548192278 :: ##############

    00000000006871507491 : 00000000007255941119 :: ############



[H[2J
-----------------printing current job allocations (largest_remaining: 539768915)-------------------
    00000000003158903014 : 00000000003627970559 :: ###############

    00000000002632208000 : 00000000002980323186 :: ###########

    00000000008600108940 : 00000000009069926399 :: ###############

  * 00000000005974911595 : 00000000006514680510 :: #################

    00000000008131286265 : 00000000008548192278 :: #############

    00000000006871507491 : 00000000007255941119 :: ############



[H[2J
-----------------printing current job allocations (largest_remaining: 505525384)-------------------
    00000000003187899705 : 00000000003627970559 :: ##############

    00000000002652728838 : 00000000002980323186 :: ##########

    00000000008629548846 : 00000000009069926399 :: ##############

  * 00000000006009155126 : 00000000006514680510 :: ################

    00000000008175002931 : 00000000008548192278 :: ############

    00000000006877850283 : 00000000007255941119 :: ############



[H[2J
-----------------printing current job allocations (largest_remaining: 505525384)-------------------
    00000000003192992981 : 00000000003627970559 :: ##############

    00000000002682938536 : 00000000002980323186 :: #########

    00000000008629548846 : 00000000009069926399 :: ##############

  * 00000000006009155126 : 00000000006514680510 :: ################

    00000000008176729202 : 00000000008548192278 :: ############

    00000000006915466349 : 00000000007255941119 :: ###########



[H[2J
-----------------printing current job allocations (largest_remaining: 505525384)-------------------
    00000000003192992981 : 00000000003627970559 :: ##############

    00000000002689758078 : 00000000002980323186 :: #########

    00000000008631275117 : 00000000009069926399 :: ##############

  * 00000000006009155126 : 00000000006514680510 :: ################

    00000000008181814703 : 00000000008548192278 :: ############

    00000000006915466349 : 00000000007255941119 :: ###########



[H[2J
-----------------printing current job allocations (largest_remaining: 503799113)-------------------
    00000000003192992981 : 00000000003627970559 :: ##############

    00000000002735247670 : 00000000002980323186 :: ########

    00000000008631275117 : 00000000009069926399 :: ##############

  * 00000000006010881397 : 00000000006514680510 :: ################

    00000000008185535369 : 00000000008548192278 :: ###########

    00000000006917192620 : 00000000007255941119 :: ###########



[H[2J
-----------------printing current job allocations (largest_remaining: 503799113)-------------------
    00000000003196442187 : 00000000003627970559 :: ##############

    00000000002740613106 : 00000000002980323186 :: #######

    00000000008631275117 : 00000000009069926399 :: ##############

  * 00000000006010881397 : 00000000006514680510 :: ################

    00000000008191736725 : 00000000008548192278 :: ###########

    00000000006922278121 : 00000000007255941119 :: ###########



[H[2J
-----------------printing current job allocations (largest_remaining: 503799113)-------------------
    00000000003226874139 : 00000000003627970559 :: #############

    00000000002744553137 : 00000000002980323186 :: #######

    00000000008631275117 : 00000000009069926399 :: ##############

  * 00000000006010881397 : 00000000006514680510 :: ################

    00000000008227554042 : 00000000008548192278 :: ##########

    00000000006922278121 : 00000000007255941119 :: ###########



[H[2J
-----------------printing current job allocations (largest_remaining: 433565781)-------------------
    00000000003237107346 : 00000000003627970559 :: ############

    00000000002784571744 : 00000000002980323186 :: ######

  * 00000000008636360618 : 00000000009069926399 :: ##############

    00000000006010881397 : 00000000006262780953 :: ########

    00000000008232919478 : 00000000008548192278 :: ##########

    00000000006266773838 : 00000000006514680510 :: ########



[H[2J
-----------------printing current job allocations (largest_remaining: 401395519)-------------------
    00000000003238833617 : 00000000003627970559 :: ############

    00000000002791430171 : 00000000002980323186 :: ######

  * 00000000008668530880 : 00000000009069926399 :: #############

    00000000006016013553 : 00000000006262780953 :: ########

    00000000008232919478 : 00000000008548192278 :: ##########

    00000000006317348931 : 00000000006514680510 :: ######



[H[2J
-----------------printing current job allocations (largest_remaining: 391162317)-------------------
    00000000003243919118 : 00000000003627970559 :: ############

    00000000002795574707 : 00000000002980323186 :: ######

  * 00000000008678764082 : 00000000009069926399 :: ############

    00000000006059730219 : 00000000006262780953 :: ######

    00000000008243038225 : 00000000008548192278 :: ##########

    00000000006362791868 : 00000000006514680510 :: #####



[H[2J
-----------------printing current job allocations (largest_remaining: 391162317)-------------------
    00000000003253926510 : 00000000003627970559 :: ############

    00000000002833625173 : 00000000002980323186 :: ####

  * 00000000008678764082 : 00000000009069926399 :: ############

    00000000006066541986 : 00000000006262780953 :: ######

    00000000008278605897 : 00000000008548192278 :: ########

    00000000006367924024 : 00000000006514680510 :: ####



[H[2J
-----------------printing current job allocations (largest_remaining: 384350580)-------------------
    00000000003279868618 : 00000000003627970559 :: ###########

    00000000002840483595 : 00000000002980323186 :: ####

  * 00000000008685575819 : 00000000009069926399 :: ############

    00000000006117117079 : 00000000006262780953 :: ####

    00000000008283691398 : 00000000008548192278 :: ########

    00000000006371908150 : 00000000006514680510 :: ####



[H[2J
-----------------printing current job allocations (largest_remaining: 384350580)-------------------
    00000000003288367779 : 00000000003627970559 :: ###########

    00000000002884200261 : 00000000002980323186 :: ###

  * 00000000008685575819 : 00000000009069926399 :: ############

    00000000006165927021 : 00000000006262780953 :: ###

    00000000008327454719 : 00000000008548192278 :: #######

    00000000006371908150 : 00000000006514680510 :: ####



[H[2J
-----------------printing current job allocations (largest_remaining: 374538503)-------------------
    00000000003290094050 : 00000000003627970559 :: ###########

    00000000002891012033 : 00000000002980323186 :: ##

  * 00000000008695387896 : 00000000009069926399 :: ############

    00000000006211416613 : 00000000006262780953 :: #

    00000000008329180990 : 00000000008548192278 :: #######

    00000000006371908150 : 00000000006514680510 :: ####



[H[2J
-----------------printing current job allocations (largest_remaining: 174347632)-------------------
    00000000008442079335 : 00000000008548192278 :: ###

    00000000002900938200 : 00000000002980323186 :: ##

  * 00000000008721231134 : 00000000008895578766 :: #####

    00000000006260218740 : 00000000006262780953 :: 

    00000000008335966391 : 00000000008442079334 :: ###

    00000000006371908150 : 00000000006514680510 :: ####



[H[2J
-----------------printing current job allocations (largest_remaining: 82916462)-------------------
    00000000008470224120 : 00000000008548192278 :: ##

    00000000002936759362 : 00000000002980323186 :: #

  * 00000000008729745840 : 00000000008812662302 :: ##

    00000000006462662092 : 00000000006514680510 :: #

    00000000008376514658 : 00000000008442079334 :: ##

    00000000006377829571 : 00000000006446255040 :: ##



[H[2J
-----------------printing current job allocations (largest_remaining: 81191486)-------------------
    00000000008470224120 : 00000000008548192278 :: ##

    00000000002946021504 : 00000000002980323186 :: #

  * 00000000008731470816 : 00000000008812662302 :: ##

    00000000006513237180 : 00000000006514680510 :: 

    00000000008383326430 : 00000000008442079334 :: #

    00000000006411891732 : 00000000006446255040 :: #



[H[2J
-----------------printing current job allocations (largest_remaining: 35230306)-------------------
    00000000008483777672 : 00000000008513434449 :: 

    00000000008428039523 : 00000000008442079334 :: 

  * 00000000008736836252 : 00000000008772066558 :: #

    00000000008527816475 : 00000000008548192278 :: 

    00000000008386972411 : 00000000008412702881 :: 

    00000000006418983439 : 00000000006446255040 :: 



[H[2J
-----------------printing current job allocations (largest_remaining: 12313540)-------------------
    00000000008483777672 : 00000000008491191865 :: 

  * 00000000008429765794 : 00000000008442079334 :: 

    00000000006425801339 : 00000000006432619239 :: 

    00000000008527816475 : 00000000008538004376 :: 

    00000000008538004377 : 00000000008548192278 :: 

    00000000006418983439 : 00000000006425801338 :: 



[H[2J
-----------------printing current job allocations (largest_remaining: 3967602)-------------------
  * 00000000008487224263 : 00000000008491191865 :: 

    00000000008535900633 : 00000000008538004376 :: 

    00000000006427999539 : 00000000006430309388 :: 

    00000000008529589401 : 00000000008531693144 :: 

    00000000008533796889 : 00000000008535900632 :: 

    00000000006422937495 : 00000000006425801338 :: 



[H[2J
-----------------printing current job allocations (largest_remaining: 525935)-------------------
    00000000008534585793 : 00000000008534848760 :: 

    00000000008534322825 : 00000000008534585792 :: 

    00000000008534848761 : 00000000008535111728 :: 

    00000000008535637665 : 00000000008535900632 :: 

  * 00000000008533796889 : 00000000008534322824 :: 

    00000000008535111729 : 00000000008535374696 :: 



