0144102621353040424200000410 2 1202502252.231716
0144152621303021424200000410 1 1202502252.231716
0144152621353121424200000410 2 1202502252.231716
0144102621353041424200000410 2 1202502252.231717
0144152621353141424200000410 2 1202502252.231717
0144152621363141424200000410 1 1202502252.231717
0144152621363541424200000410 1 1202502252.231717
0144152621303022424200000410 1 1202502252.231717
0144152621353122424200000410 2 1202502252.231717
0144152621353522424200000410 2 1202502252.231717
0144152621303142424200000410 2 1202502252.231717
0144152621313142424200000410 2 1202502252.231717
0144152621333142424200000410 2 1202502252.231717
0144152621343142424200000410 2 1202502252.231717
0144152621353142424200000410 2 1202502252.231717
0144152621363142424200000410 1 1202502252.231717
0144102621303542424200000410 1 1202502252.231717
0144152621303542424200000410 2 1202502252.231717
0144152621313542424200000410 2 1202502252.231717
0144152621333542424200000410 2 1202502252.231717
0144152621343542424200000410 2 1202502252.231717
0144152621353542424200000410 2 1202502252.231717
0144152621363542424200000410 1 1202502252.231717
0144152621353124424200000410 2 1202502252.231717
0144102621353044424200000410 2 1202502252.231717
0144152621303144424200000410 2 1202502252.231717
0144152621313144424200000410 2 1202502252.231717
0144152621333144424200000410 2 1202502252.231717
0144152621343144424200000410 2 1202502252.231718
0144152621353144424200000410 2 1202502252.231718
0144152621363144424200000410 1 1202502252.231718
0144152621303145424200000410 2 1202502252.231718
0144152621313145424200000410 2 1202502252.231718
0144152621333145424200000410 2 1202502252.231718
0144152621343145424200000410 2 1202502252.231718
0144152621353145424200000410 2 1202502252.231718
0144152621363145424200000410 1 1202502252.231718
0144152621353126424200000410 2 1202502252.231718
0144152621353526424200000410 2 1202502252.231718
0144152621303146424200000410 2 1202502252.231719
0144152621313146424200000410 2 1202502252.231719
0144152621333146424200000410 2 1202502252.231719
0144152621343146424200000410 2 1202502252.231719
0144152621353146424200000410 2 1202502252.231719
0144152621363146424200000410 1 1202502252.231719
0144152621303546424200000410 2 1202502252.231719
0144152621313546424200000410 2 1202502252.231719
0144152621333546424200000410 2 1202502252.231719
0144152621343546424200000410 2 1202502252.231719
0144152621353546424200000410 2 1202502252.231719
0144152621363546424200000410 1 1202502252.231719
0624103225313144424210001022 2 1202502252.231806
0624103025313644424210001022 2 1202502252.231806
0624123025313644424210001022 2 1202502252.231806
0624133025313644424210001022 2 1202502252.231806
0124103225313644424210001022 2 1202502252.231806
0624103225313644424210001022 2 1202502252.231806
0624123225313644424210001022 2 1202502252.231806
0624133225313644424210001022 2 1202502252.231806
0624103325313644424210001022 2 1202502252.231806
0624123325313644424210001022 2 1202502252.231806
0624133325313644424210001022 2 1202502252.231806
0510152021343020454601222413 1 1202502252.231815
0512102021343120454601222413 2 1202502252.231815
0615152021343120454601222413 1 1202502252.231815
0510102021343520454601222413 1 1202502252.231815
0512102021343520454601222413 2 1202502252.231815
0011152021343520454601222413 1 1202502252.231815
0611152021343520454601222413 1 1202502252.231815
0615152021343520454601222413 2 1202502252.231815
0016152021343520454601222413 1 1202502252.231815
0616152021343520454601222413 1 1202502252.231815
0510152021343021454601222413 2 1202502252.231815
0010152021343121454601222413 1 1202502252.231815
0110152021343121454601222413 1 1202502252.231815
0210152021343121454601222413 1 1202502252.231815
0410152021343121454601222413 1 1202502252.231816
0510152021343121454601222413 1 1202502252.231816
0610152021343121454601222413 1 1202502252.231816
0010152021343122454601222413 1 1202502252.231816
0110152021343122454601222413 1 1202502252.231816
0210152021343122454601222413 1 1202502252.231816
0410152021343122454601222413 1 1202502252.231816
0510152021343122454601222413 1 1202502252.231816
0610152021343122454601222413 1 1202502252.231816
0011152021343122454601222413 1 1202502252.231816
0511152021343122454601222413 1 1202502252.231816
0016152021343122454601222413 1 1202502252.231816
0516152021343122454601222413 1 1202502252.231816
0512102021343522454601222413 1 1202502252.231816
0011152021343522454601222413 1 1202502252.231816
0016152021343522454601222413 1 1202502252.231816
0566103521003125454601222413 2 1202502252.231816
0521102620333006454601222413 2 1202502252.231816
0521106620333006454601222413 2 1202502252.231816
0065102023303106454601222413 1 1202502252.231816
0065102523303106454601222413 1 1202502252.231816
0521102620333106454601222413 2 1202502252.231816
0521106620333106454601222413 2 1202502252.231816
0662155021443106454601222413 2 1202502252.231817
0521106220343506454601222413 2 1202502252.231817
0662155021443506454601222413 2 1202502252.231817
0521102620333016454601222413 2 1202502252.231817
0521106620333016454601222413 2 1202502252.231817
0065102023303116454601222413 1 1202502252.231817
0065102523303116454601222413 1 1202502252.231817
0661155021403116454601222413 2 1202502252.231817
0662155021413116454601222413 2 1202502252.231817
0521102620333116454601222413 2 1202502252.231817
0521106620333116454601222413 2 1202502252.231817
0661155021443116454601222413 2 1202502252.231817
0662155021443116454601222413 2 1202502252.231817
0066155021443116454601222413 2 1202502252.231817
0166155021443116454601222413 2 1202502252.231817
0662155021413516454601222413 2 1202502252.231817
0066155021413516454601222413 2 1202502252.231817
0521106220343516454601222413 2 1202502252.231817
0661155021443516454601222413 2 1202502252.231817
0662155021443516454601222413 2 1202502252.231817
0665155021443516454601222413 2 1202502252.231817
0066155021443516454601222413 2 1202502252.231817
0166155021443516454601222413 2 1202502252.231817
0521102620333026454601222413 2 1202502252.231817
0521106620333026454601222413 2 1202502252.231817
0510152021343026454601222413 2 1202502252.231817
0065102023303126454601222413 1 1202502252.231817
0065102523303126454601222413 1 1202502252.231817
0662155021403126454601222413 2 1202502252.231817
0066155021403126454601222413 2 1202502252.231817
0662155021413126454601222413 2 1202502252.231817
0066155021413126454601222413 2 1202502252.231817
0521102620333126454601222413 2 1202502252.231817
0521106620333126454601222413 2 1202502252.231818
0065153021043126454601222413 2 1202502252.231818
0165153021043126454601222413 2 1202502252.231818
0265153021043126454601222413 2 1202502252.231818
0565153021043126454601222413 2 1202502252.231818
0665153021043126454601222413 2 1202502252.231818
0066153021043126454601222413 2 1202502252.231818
0060153021143126454601222413 2 1202502252.231818
0160153021143126454601222413 2 1202502252.231818
0260153021143126454601222413 2 1202502252.231818
0460153021143126454601222413 2 1202502252.231818
0560153021143126454601222413 2 1202502252.231818
0660153021143126454601222413 2 1202502252.231818
0065153021143126454601222413 2 1202502252.231818
0165153021143126454601222413 2 1202502252.231818
0265153021143126454601222413 2 1202502252.231818
0565153021143126454601222413 2 1202502252.231818
0665153021143126454601222413 2 1202502252.231818
0010152021343126454601222413 1 1202502252.231818
0110152021343126454601222413 1 1202502252.231818
0210152021343126454601222413 1 1202502252.231818
0410152021343126454601222413 1 1202502252.231818
0510152021343126454601222413 1 1202502252.231818
0610152021343126454601222413 1 1202502252.231818
0661155021443126454601222413 2 1202502252.231818
0662155021443126454601222413 2 1202502252.231818
0066155021443126454601222413 2 1202502252.231818
0166155021443126454601222413 2 1202502252.231818
0661155021403526454601222413 2 1202502252.231818
0662155021403526454601222413 2 1202502252.231818
0066155021403526454601222413 2 1202502252.231818
0066155021413526454601222413 2 1202502252.231818
0062153021043526454601222413 2 1202502252.231818
0265153021043526454601222413 2 1202502252.231818
0565153021043526454601222413 2 1202502252.231818
0060153021143526454601222413 2 1202502252.231818
0160153021143526454601222413 2 1202502252.231818
0260153021143526454601222413 2 1202502252.231818
0460153021143526454601222413 2 1202502252.231818
0560153021143526454601222413 2 1202502252.231819
0660153021143526454601222413 2 1202502252.231819
0521106220343526454601222413 2 1202502252.231819
0066155021443526454601222413 2 1202502252.231819
0521102620333046454601222413 2 1202502252.231819
0521106620333046454601222413 2 1202502252.231819
0065102023303146454601222413 1 1202502252.231819
0065102523303146454601222413 1 1202502252.231819
0521102620333146454601222413 2 1202502252.231819
0521106620333146454601222413 2 1202502252.231819
0521106220343546454601222413 2 1202502252.231819
0521102620333056454601222413 2 1202502252.231819
0521106620333056454601222413 2 1202502252.231819
0065102023303156454601222413 1 1202502252.231819
0065102523303156454601222413 1 1202502252.231819
0521102620333156454601222413 2 1202502252.231819
0521106620333156454601222413 2 1202502252.231819
0521106220343556454601222413 2 1202502252.231819
0521102620333066454601222413 2 1202502252.231819
0521106620333066454601222413 2 1202502252.231819
0065102023303166454601222413 1 1202502252.231819
0065102523303166454601222413 1 1202502252.231819
0521102620333166454601222413 2 1202502252.231819
0521106620333166454601222413 2 1202502252.231819
0521106220343566454601222413 2 1202502252.231820
0124103621313144424210002504 6 1202502252.231820
0124103625313144424210002504 2 1202502252.231820
0124103620313144464210002504 6 1202502252.231820
0124103621313144464210002504 6 1202502252.231820
0124103623313144464210002504 6 1202502252.231820
0124103624313144464210002504 6 1202502252.231820
0124103225313144464210002504 2 1202502252.231820
0124103625313144464210002504 2 1202502252.231820
0124103621313144424610002504 6 1202502252.231820
0124103225313144424610002504 2 1202502252.231820
0124103625313144424610002504 2 1202502252.231820
0124103620313144464610002504 6 1202502252.231820
0124103621313144464610002504 6 1202502252.231820
0124103623313144464610002504 6 1202502252.231820
0124103624313144464610002504 6 1202502252.231820
0124103225313144464610002504 2 1202502252.231820
0124103625313144464610002504 2 1202502252.231820
0641162621363540424205610014 1 1202502252.231820
0642162621363540424205610014 1 1202502252.231820
0142162621353041424205610014 2 1202502252.231820
0541102521363042424205610014 1 1202502252.231821
0541152521363042424205610014 1 1202502252.231821
0026162621353642424205610014 2 1202502252.231821
0524152021363644424205610014 1 1202502252.231822
0524162021363644424205610014 2 1202502252.231822
0524152221363644424205610014 1 1202502252.231822
0524152321363644424205610014 1 1202502252.231822
0524152521363644424205610014 1 1202502252.231822
0524152621363644424205610014 1 1202502252.231822
0620102025363045424205610014 1 1202502252.231823
0620122025363045424205610014 1 1202502252.231823
0620132025363045424205610014 1 1202502252.231823
0620152025363045424205610014 1 1202502252.231823
0620162025363045424205610014 1 1202502252.231823
0620102225363045424205610014 1 1202502252.231823
0620122225363045424205610014 1 1202502252.231823
0620132225363045424205610014 1 1202502252.231823
0620152225363045424205610014 1 1202502252.231823
0620162225363045424205610014 1 1202502252.231823
0620102325363045424205610014 1 1202502252.231823
0620122325363045424205610014 1 1202502252.231823
0620132325363045424205610014 1 1202502252.231823
0620152325363045424205610014 1 1202502252.231823
0620162325363045424205610014 1 1202502252.231823
0620102525363045424205610014 1 1202502252.231823
0620122525363045424205610014 1 1202502252.231823
0620132525363045424205610014 1 1202502252.231823
0620152525363045424205610014 1 1202502252.231823
0620162525363045424205610014 1 1202502252.231823
0620102625363045424205610014 1 1202502252.231823
0620122625363045424205610014 1 1202502252.231823
0620132625363045424205610014 1 1202502252.231823
0620152625363045424205610014 1 1202502252.231823
0620162625363045424205610014 1 1202502252.231823
0022100021313645424205610014 2 1202502252.231824
0124152621303046424205610014 2 1202502252.231824
0011162021353046424205610014 2 1202502252.231824
0011162621353046424205610014 2 1202502252.231824
0524152021363646424205610014 1 1202502252.231825
0524152221363646424205610014 1 1202502252.231825
0524152321363646424205610014 1 1202502252.231825
0524152521363646424205610014 1 1202502252.231825
0524152621363646424205610014 1 1202502252.231825
0041156621313040424200000024 2 1202502252.231825
0041156621313540424200000024 2 1202502252.231825
0141166621313540424200000024 2 1202502252.231825
0144166621313540424200000024 2 1202502252.231825
0012162521303641424200000024 1 1202502252.231825
0142163621113542424200000024 2 1202502252.231825
0042150621033604424200000024 2 1202502252.231825
0042152621033604424200000024 2 1202502252.231825
0042153621033604424200000024 2 1202502252.231825
0042155621033604424200000024 2 1202502252.231825
0042156621033604424200000024 2 1202502252.231825
0042150621133604424200000024 2 1202502252.231825
0642165621333114424200000024 2 1202502252.231825
0042150621033614424200000024 2 1202502252.231825
0042152621033614424200000024 2 1202502252.231825
0042153621033614424200000024 2 1202502252.231825
0042155621033614424200000024 2 1202502252.231826
0042156621033614424200000024 2 1202502252.231826
0042150621133614424200000024 2 1202502252.231826
0042150621033624424200000024 2 1202502252.231826
0042152621033624424200000024 2 1202502252.231826
0042153621033624424200000024 2 1202502252.231826
0042155621033624424200000024 2 1202502252.231826
0042156621033624424200000024 2 1202502252.231826
0042150621133624424200000024 2 1202502252.231826
0012162521303044424200000024 1 1202502252.231826
0042150621033644424200000024 2 1202502252.231826
0042152621033644424200000024 2 1202502252.231826
0042153621033644424200000024 2 1202502252.231826
0042155621033644424200000024 2 1202502252.231826
0042156621033644424200000024 2 1202502252.231826
0042150621133644424200000024 2 1202502252.231826
0042150621033654424200000024 2 1202502252.231826
0042152621033654424200000024 2 1202502252.231826
0042153621033654424200000024 2 1202502252.231826
0042155621033654424200000024 2 1202502252.231826
0042156621033654424200000024 2 1202502252.231826
0042150621133654424200000024 2 1202502252.231826
0042150621033664424200000024 2 1202502252.231826
0042152621033664424200000024 2 1202502252.231826
0042153621033664424200000024 2 1202502252.231826
0042155621033664424200000024 2 1202502252.231826
0042156621033664424200000024 2 1202502252.231826
0042150621133664424200000024 2 1202502252.231826
0144166621313045424200000024 2 1202502252.231826
0012102021363645424200000024 2 1202502252.231827
0041156621313646424200000024 2 1202502252.231827
0124103225313144464210002144 2 1202502252.231827
0124103225313144424610002144 2 1202502252.231827
0124103225313144464610002144 2 1202502252.231827
0124103225313144424610002405 2 1202502252.231842
0121106225343116404210002045 1 1202502252.231859
0121106225343126404210002045 1 1202502252.231859
0121106225343116404610002045 1 1202502252.231859
0121106225343126404610002045 1 1202502252.231859
0124103225313144424610002045 2 1202502252.231859
