0141102420033165420115164502 2 1202406134.231351
0145102220033164420115264505 2 1202406134.235616
0145106220033164420115264505 2 1202406134.235959
0145102220133164420115264505 2 1202406145.000342
0145102220133164420515264505 2 1202406145.000725
0145106220033114420115214505 2 1202406134.232046
0145106220133114420115214505 2 1202406134.232434
0145106220333114420115214505 2 1202406134.232824
0145106220433114420115214505 2 1202406134.233223
0145106220533114420115214505 2 1202406134.233614
0145106220633114420115214505 2 1202406134.234009
0145106220133154420115214505 2 1202406134.234400
0145106220633154420115214505 2 1202406134.234747
0145106220033164420115214505 2 1202406134.235138
0145106220133164420115214505 2 1202406134.235532
0145106220333164420115214505 2 1202406134.235923
0145106220433164420115214505 2 1202406145.000315
0145102420133164420215264505 2 1202406145.000657
0141102520633114420215464501 2 1202406134.232123
0141102520033164420215464501 2 1202406134.232505
0141102520133164420215464501 2 1202406134.232846
0141102520333164420215464501 2 1202406134.233227
0141102520433164420215464501 2 1202406134.233610
0141102520533164420215464501 2 1202406134.233952
0141102520633164420215464501 2 1202406134.234333
0141102520633115420215464501 2 1202406134.234714
0141102520033165420215464501 2 1202406134.235056
0141102520133165420215464501 2 1202406134.235437
0141102520333165420215464501 2 1202406134.235819
0141102520433165420215464501 2 1202406145.000200
0145106220133164420115264505 2 1202406145.000543
0141102420033165420115164505 2 1202406134.232634
0141102420333164420515164505 2 1202406134.233058
0145106220033114420115264505 2 1202406134.233946
0145106220133114420115264505 2 1202406134.234328
0145106220333114420115264505 2 1202406134.234711
0145106220433114420115264505 2 1202406134.235054
0145106220533114420115264505 2 1202406134.235437
0145102220633114420115264505 2 1202406134.235819
0145106220633114420115264505 2 1202406145.000201
0145106220633164420115264505 2 1202406145.000544
0141102420033165420115164501 2 1202406134.232940
0141102420333164420515164501 2 1202406134.233407
0145105420333164420115264501 2 1202406134.234337
0145105420033161420515264501 2 1202406134.234738
0145106420633154420115214502 2 1202406134.235628
0145100420633164420215264505 2 1202406145.000322
0145102420633164420215264505 2 1202406145.000708
0145106420033114420115214502 2 1202406134.233243
0145106420133114420115214502 2 1202406134.233629
0145106420333114420115214502 2 1202406134.234016
0145106420433114420115214502 2 1202406134.234404
0145106420533114420115214502 2 1202406134.234749
0145106420633114420115214502 2 1202406134.235137
0145106420133154420115214502 2 1202406134.235529
0145106420433114420215264505 2 1202406134.235911
0145106420533114420215264505 2 1202406145.000259
0145104420633154420215264505 2 1202406145.000644
0141102520633114420215464505 2 1202406134.235113
0141102520033164420215464505 2 1202406134.235454
0141102520133164420215464505 2 1202406134.235839
0141102520333164420215464505 2 1202406145.000223
0145103220533164420515264505 2 1202406145.000606
0145106220033114420515214501 2 1202406134.235341
0145106220133114420515214501 2 1202406134.235733
0145106220333114420515214501 2 1202406145.000128
0145104420533164420215264505 2 1202406145.000512
0145106220033114420515214502 2 1202406134.235548
0145106220133114420515214502 2 1202406134.235945
0145100220633164420515264505 2 1202406145.000328
0145102220633164420515264505 2 1202406145.000711
0145104220633151420515264505 2 1202406134.235550
0145100420433164420215264505 2 1202406134.235941
0145102420433164420215264505 2 1202406145.000322
0145103420433164420215264505 2 1202406145.000703
0145106220033114420515214505 2 1202406134.235557
0145106220133114420515214505 2 1202406134.235946
0145106420333114420215264505 2 1202406145.000336
0145106420333164420215264505 2 1202406145.000720
0145106220033114420515264505 2 1202406134.235610
0145106220133114420515264505 2 1202406134.235953
0145106220633164420515214501 2 1202406145.000341
0145106420633164420215264505 2 1202406145.000722
0145106420033114420215264505 2 1202406134.235611
0145106420133114420215264505 2 1202406134.235957
0145104420533161420215264505 2 1202406145.000343
0145106220133164420515264505 2 1202406145.000726
0145104420633151420215264505 2 1202406134.235611
0145100220433164420515264505 2 1202406134.235958
0145102220433164420515264505 2 1202406145.000343
0145103220433164420515264505 2 1202406145.000725
0141102520033165420215464505 2 1202406134.235614
0141102520133165420215464505 2 1202406134.235959
0141102520333165420215464505 2 1202406145.000341
0145102420533164420215264505 2 1202406145.000722
0145100420033164420215264505 2 1202406134.235614
0145102420033164420215264505 2 1202406145.000001
0145103420033164420215264505 2 1202406145.000346
0145104420033164420215264505 2 1202406145.000728
0145106220133154420515264505 2 1202406134.235616
0145106220433164420515214501 2 1202406145.000012
0145106220533164420515214501 2 1202406145.000359
0145104220533164420515264505 2 1202406145.000742
0141102520633115420215464505 2 1202406134.235618
0145106220433164420515214505 2 1202406145.000006
0145106220533164420515214505 2 1202406145.000400
0145103420333164420215264505 2 1202406145.000742
0145104420033161420215264505 2 1202406134.235618
0145105420033161420215264505 2 1202406145.000004
0145104420133161420215264505 2 1202406145.000345
0145105420433164420215264505 2 1202406145.000727
0145106420133154420215264505 2 1202406134.235618
0145100420633154420215264505 2 1202406145.000005
0145102420633154420215264505 2 1202406145.000349
0145103420633154420215264505 2 1202406145.000730
0145104420633161420215264505 2 1202406134.235619
0145104220333161420515264505 2 1202406145.000002
0145104220433161420515264505 2 1202406145.000345
0145104220333164420515264505 2 1202406145.000727
0145100220633154420515264505 2 1202406134.235620
0145102220633154420515264505 2 1202406145.000008
0145103220633154420515264505 2 1202406145.000354
0145104220633154420515264505 2 1202406145.000737
0145100220033164420515264505 2 1202406134.235620
0145102220033164420515264505 2 1202406145.000009
0145103220033164420515264505 2 1202406145.000355
0145104220033164420515264505 2 1202406145.000738
0145102220533164420115264505 2 1202406134.235621
0145106220533164420115264505 2 1202406145.000003
0145102220633164420115264505 2 1202406145.000346
0145105220633154420515264505 2 1202406145.000728
0145106420033164420115214502 2 1202406134.235621
0145106420133164420115214502 2 1202406145.000013
0145106220333164420515214505 2 1202406145.000401
0145105420333164420215264505 2 1202406145.000742
0145104220033161420515264505 2 1202406134.235621
0145105420033161420515264505 2 1202406145.000008
0145104220133161420515264505 2 1202406145.000352
0145102220533164420515264505 2 1202406145.000735
0145106220133154420515214502 2 1202406134.235621
0145104420333161420215264505 2 1202406145.000008
0145104420433161420215264505 2 1202406145.000350
0145105220433164420515264505 2 1202406145.000733
0145106220133154420115264505 2 1202406134.235622
0145103220633164420515264505 2 1202406145.000602
0145106220133154420515214505 2 1202406134.235622
0145100220133164420515264505 2 1202406145.000405
0145105220133164420515264505 2 1202406145.000748
0141102520633165420215464505 2 1202406134.235623
0145102220333164420115264505 2 1202406145.000010
0145105220333164420115264505 2 1202406145.000400
0145106220333164420115264505 2 1202406145.000743
0145106420633164420115214502 2 1202406134.235624
0141102520433165420215464505 2 1202406145.000011
0141102520533165420215464505 2 1202406145.000355
0145105420633154420215264505 2 1202406145.000736
0145106220033164420515214502 2 1202406134.235624
0145106220133164420515214502 2 1202406145.000012
0141102520633165420215464501 2 1202406145.000353
0145105220033164420515264505 2 1202406145.000736
0145106220033164420515214505 2 1202406134.235625
0145106220133164420515214505 2 1202406145.000022
0145106220433164420515214502 2 1202406145.000410
0145103220333164420515264505 2 1202406145.000754
0145106220133154420515214501 2 1202406134.235626
0145106220333114420515264505 2 1202406145.000012
0145106220433114420515264505 2 1202406145.000401
0145103420533164420215264505 2 1202406145.000742
0145106220633154420515214502 2 1202406134.235626
0145106220633114420515214502 2 1202406145.000021
0145100420533164420215264505 2 1202406145.000402
0145105420633164420215264505 2 1202406145.000743
0145106220533164420515214502 2 1202406134.235626
0145106220633164420515214502 2 1202406145.000013
0145106420333164420115214502 2 1202406145.000358
0145104220633164420515264505 2 1202406145.000740
0145104220633161420515264505 2 1202406134.235626
0145106420433164420115214502 2 1202406145.000012
0145106420533164420115214502 2 1202406145.000405
0145103420633164420215264505 2 1202406145.000747
0145106220033164420515214501 2 1202406134.235626
0145106220133164420515214501 2 1202406145.000022
0145100220533164420515264505 2 1202406145.000409
0145106420133164420215264505 2 1202406145.000751
0145106220533114420515264505 2 1202406134.235626
0145102220633114420515264505 2 1202406145.000015
0145105220633114420515264505 2 1202406145.000358
0145106220633114420515264505 2 1202406145.000742
0145106220533114420515214501 2 1202406134.235626
0145106220633114420515214501 2 1202406145.000024
0141102520533165420215464501 2 1202406145.000412
0145105420033164420215264505 2 1202406145.000753
0141102520433164420215464505 2 1202406134.235754
0141102520533164420215464505 2 1202406145.000144
0145104420633164420215264505 2 1202406145.000527
0145106220533164420115214505 2 1202406134.235758
0145106220633164420115214505 2 1202406145.000146
0145106420433164420215264505 2 1202406145.000527
0145106220433114420515214502 2 1202406134.235802
0145106220533114420515214502 2 1202406145.000154
0145104220133164420515264505 2 1202406145.000538
0145106220633154420515214505 2 1202406134.235802
0145100420333164420215264505 2 1202406145.000150
0145102420333164420215264505 2 1202406145.000532
0145106220433114420515214505 2 1202406134.235803
0145106220533114420515214505 2 1202406145.000157
0145106220433164420515264505 2 1202406145.000543
0145102220633154420115264505 2 1202406134.235822
0145106220633154420115264505 2 1202406145.000207
0145106220633154420515264505 2 1202406145.000549
0145106220633154420515214501 2 1202406145.000010
0145106220333164420515214501 2 1202406145.000357
0145103420133164420215264505 2 1202406145.000738
0141102520633164420215464505 2 1202406145.000024
0145106220633164420515214505 2 1202406145.000412
0145104420433164420215264505 2 1202406145.000753
0145106220333164420515214502 2 1202406145.000214
0145106220433164420115264505 2 1202406145.000556
0145100220333164420515264505 2 1202406145.000217
0145102220333164420515264505 2 1202406145.000600
0145106220333114420515214502 2 1202406145.000226
0145106420033164420215264505 2 1202406145.000608
0145102420633114420215264505 2 1202406145.000232
0145105420633114420215264505 2 1202406145.000613
0145104220533161420515264505 2 1202406145.000242
0145106220033164420515264505 2 1202406145.000624
0145106220333114420515214505 2 1202406145.000327
0145106420533164420215264505 2 1202406145.000708
0145100420133164420215264505 2 1202406145.000400
0145105420533164420215264505 2 1202406145.000741
0145102220433164420115264505 2 1202406145.000406
0145103220133164420515264505 2 1202406145.000749
0145106220433114420515214501 2 1202406145.000410
0145106420633114420215264505 2 1202406145.000751
0145105220333164420515264505 2 1202406145.000414
0145106220333164420515264505 2 1202406145.000756
0145105220533164420515264505 2 1202406145.000415
0145106220533164420515264505 2 1202406145.000758
0145105420133164420215264505 2 1202406145.000415
0145106420633154420215264505 2 1202406145.000756
0145106220633114420515214505 2 1202406145.000416
0145104220433164420515264505 2 1202406145.000759
0145105220633164420515264505 2 1202406145.000416
0145106220633164420515264505 2 1202406145.000759
0145105420333164420115264505 2 1202406145.000417
0145104420133164420215264505 2 1202406145.000758
0145104420333164420215264505 2 1202406145.000421
