0121102520433506400102424202 2 1202406307.192250
0121102520433516400102424202 2 1202406307.192401
0121102520433526400102424202 2 1202406307.192512
0121102520433546400102464202 2 1202406307.192621
0121102520433506400102424201 2 1202406307.192302
0121102520433516400102424201 2 1202406307.192413
0121102520433526400102424201 2 1202406307.192524
0121102520433506400102464202 2 1202406307.192340
0121102520433516400102464202 2 1202406307.192451
0121102520433526400102464202 2 1202406307.192601
0121102520433546400102424202 2 1202406307.192406
0121102520433556400102424202 2 1202406307.192517
0121102520433546400102424201 2 1202406307.192406
0121102520433556400102424201 2 1202406307.192517
0121102520433566400102424201 2 1202406307.192626
0121102520433556400102464202 2 1202406307.192406
0121102520433566400102464202 2 1202406307.192517
0121102520433566400102424202 2 1202406307.192626
