012110252143310240010242 1202404033.215256
012110252143311240010242 1202404033.215356
012110252143312240010242 1202404033.215455
012110252143314240010242 1202404033.215554
012110252143315240010242 1202404033.215652
