0126105224443115400120002330 5 1202408084.191033
0126100224443155400120002330 5 1202408084.191033
0126102224443155400120002330 5 1202408084.191033
0126103224443155400120002330 5 1202408084.191033
0126105224443155400120002330 5 1202408084.191033
0126106224443155400120002330 5 1202408084.191033
0126100224443165400120002330 5 1202408084.191033
0126102224443165400120002330 5 1202408084.191033
0126103224443165400120002330 5 1202408084.191033
0126105224443165400120002330 5 1202408084.191033
0126106224443165400120002330 5 1202408084.191033
0126105224443115400220002330 5 1202408084.191033
0126100224443155400220002330 5 1202408084.191033
0126102224443155400220002330 5 1202408084.191033
0126103224443155400220002330 5 1202408084.191033
0126105224443155400220002330 5 1202408084.191033
0126106224443155400220002330 5 1202408084.191033
0126100224443165400220002330 5 1202408084.191033
0126102224443165400220002330 5 1202408084.191033
0126103224443165400220002330 5 1202408084.191033
0126105224443165400220002330 5 1202408084.191033
0126106224443165400220002330 5 1202408084.191033
0126105224443115400520002330 5 1202408084.191033
0126100224443155400520002330 5 1202408084.191033
0126102224443155400520002330 5 1202408084.191033
0126103224443155400520002330 5 1202408084.191033
0126105224443155400520002330 5 1202408084.191033
0126106224443155400520002330 5 1202408084.191033
0126100224443165400520002330 5 1202408084.191033
0126102224443165400520002330 5 1202408084.191033
0126103224443165400520002330 5 1202408084.191033
0126105224443165400520002330 5 1202408084.191033
0126106224443165400520002330 5 1202408084.191033
0126105224443115400620002330 5 1202408084.191034
0126100224443155400620002330 5 1202408084.191034
0126102224443155400620002330 5 1202408084.191034
0126103224443155400620002330 5 1202408084.191034
0126105224443155400620002330 5 1202408084.191034
0126106224443155400620002330 5 1202408084.191034
0126100224443165400620002330 5 1202408084.191034
0126102224443165400620002330 5 1202408084.191034
0126103224443165400620002330 5 1202408084.191034
0126105224443165400620002330 5 1202408084.191034
0126106224443165400620002330 5 1202408084.191034
0126105224443115400120002341 5 1202408084.191040
0126100224443155400120002341 5 1202408084.191040
0126102224443155400120002341 5 1202408084.191040
0126103224443155400120002341 5 1202408084.191040
0126105224443155400120002341 5 1202408084.191040
0126106224443155400120002341 5 1202408084.191040
0126100224443165400120002341 5 1202408084.191040
0126105224443115400220002341 5 1202408084.191040
0126100224443155400220002341 5 1202408084.191040
0126102224443155400220002341 5 1202408084.191040
0126103224443155400220002341 5 1202408084.191040
0126105224443155400220002341 5 1202408084.191040
0126106224443155400220002341 5 1202408084.191040
0126100224443165400220002341 5 1202408084.191040
0126105224443115400520002341 5 1202408084.191040
0126100224443155400520002341 5 1202408084.191040
0126102224443155400520002341 5 1202408084.191040
0126103224443155400520002341 5 1202408084.191040
0126105224443155400520002341 5 1202408084.191040
0126106224443155400520002341 5 1202408084.191040
0126100224443165400520002341 5 1202408084.191040
0126105224443115400620002341 5 1202408084.191040
0126100224443155400620002341 5 1202408084.191040
0126102224443155400620002341 5 1202408084.191040
0126103224443155400620002341 5 1202408084.191040
0126105224443155400620002341 5 1202408084.191040
0126106224443155400620002341 5 1202408084.191040
0126100224443165400620002341 5 1202408084.191040
0122105623443115400120002441 5 1202408084.191041
0122100623443155400120002441 5 1202408084.191041
0122102623443155400120002441 5 1202408084.191041
0122103623443155400120002441 5 1202408084.191041
0122105623443155400120002441 5 1202408084.191041
0122106623443155400120002441 5 1202408084.191041
0122100623443165400120002441 5 1202408084.191041
0122105623443115400220002441 5 1202408084.191041
0122100623443155400220002441 5 1202408084.191041
0122102623443155400220002441 5 1202408084.191041
0122103623443155400220002441 5 1202408084.191041
0122105623443155400220002441 5 1202408084.191041
0122106623443155400220002441 5 1202408084.191041
0122100623443165400220002441 5 1202408084.191041
0122105623443115400520002441 5 1202408084.191041
0122100623443155400520002441 5 1202408084.191041
0122102623443155400520002441 5 1202408084.191041
0122103623443155400520002441 5 1202408084.191041
0122105623443155400520002441 5 1202408084.191041
0122106623443155400520002441 5 1202408084.191041
0122100623443165400520002441 5 1202408084.191041
0122105623443115400620002441 5 1202408084.191041
0122100623443155400620002441 5 1202408084.191041
0122102623443155400620002441 5 1202408084.191041
0122103623443155400620002441 5 1202408084.191041
0122105623443155400620002441 5 1202408084.191041
0122106623443155400620002441 5 1202408084.191041
0122100623443165400620002441 5 1202408084.191041
0121105224443162400120034502 5 1202408084.191108
0121105224443116400120034502 5 1202408084.191108
0121105224443126400120034502 5 1202408084.191108
0121105224443166400120034502 5 1202408084.191108
0121105224443162400220034502 5 1202408084.191108
0121105224443116400220034502 5 1202408084.191108
0121105224443126400220034502 5 1202408084.191108
0121105224443166400220034502 5 1202408084.191108
0121105224443162400520034502 5 1202408084.191108
0121105224443116400520034502 5 1202408084.191108
0121105224443126400520034502 5 1202408084.191108
0121105224443166400520034502 5 1202408084.191108
0121105224443162400120134502 5 1202408084.191110
0121105224443126400120134502 5 1202408084.191110
0121105224443166400120134502 5 1202408084.191110
0121105224443162400220134502 5 1202408084.191110
0121105224443126400220134502 5 1202408084.191110
0121105224443166400220134502 5 1202408084.191110
0121105224443162400520134502 5 1202408084.191110
0121105224443126400520134502 5 1202408084.191110
0121105224443166400520134502 5 1202408084.191110
0121105224443162400120334502 5 1202408084.191116
0121105224443126400120334502 5 1202408084.191116
0121105224443166400120334502 5 1202408084.191116
0121105224443162400220334502 5 1202408084.191116
0121105224443126400220334502 5 1202408084.191116
0121105224443166400220334502 5 1202408084.191116
0121105224443162400520334502 5 1202408084.191116
0121105224443126400520334502 5 1202408084.191116
0121105224443166400520334502 5 1202408084.191116
0121105224443162400120434502 5 1202408084.191117
0121105224443116400120434502 5 1202408084.191117
0121105224443126400120434502 5 1202408084.191117
0121105224443166400120434502 5 1202408084.191117
0121105224443162400220434502 5 1202408084.191117
0121105224443116400220434502 5 1202408084.191117
0121105224443126400220434502 5 1202408084.191117
0121105224443166400220434502 5 1202408084.191117
0121105224443162400520434502 5 1202408084.191117
0121105224443116400520434502 5 1202408084.191117
0121105224443126400520434502 5 1202408084.191117
0121105224443166400520434502 5 1202408084.191117
0121105224443122400120634502 5 1202408084.191117
0121105224443162400120634502 5 1202408084.191117
0121105224443126400120634502 5 1202408084.191117
0121105224443166400120634502 5 1202408084.191117
0121105224443122400220634502 5 1202408084.191117
0121105224443162400220634502 5 1202408084.191117
0121105224443126400220634502 5 1202408084.191117
0121105224443166400220634502 5 1202408084.191118
0121105224443122400520634502 5 1202408084.191118
0121105224443162400520634502 5 1202408084.191118
0121105224443126400520634502 5 1202408084.191118
0121105224443166400520634502 5 1202408084.191118
0121105520443125400124634502 2 1202408084.191118
0121105520443125400224634502 2 1202408084.191118
0121105520443125400524634502 2 1202408084.191118
0126105224443115400120002303 5 1202408084.191130
0126106224443115400120002303 5 1202408084.191130
0126100224443155400120002303 5 1202408084.191130
0126102224443155400120002303 5 1202408084.191130
0126103224443155400120002303 5 1202408084.191130
0126105224443155400120002303 5 1202408084.191130
0126106224443155400120002303 5 1202408084.191130
0126105224443115400220002303 5 1202408084.191130
0126106224443115400220002303 5 1202408084.191130
0126100224443155400220002303 5 1202408084.191130
0126102224443155400220002303 5 1202408084.191130
0126103224443155400220002303 5 1202408084.191130
0126105224443155400220002303 5 1202408084.191130
0126106224443155400220002303 5 1202408084.191130
0121106224443112400520002303 5 1202408084.191130
0121106224443122400520002303 5 1202408084.191130
0126105224443115400520002303 5 1202408084.191130
0126106224443115400520002303 5 1202408084.191130
0126100224443155400520002303 5 1202408084.191130
0126102224443155400520002303 5 1202408084.191130
0126103224443155400520002303 5 1202408084.191130
0126105224443155400520002303 5 1202408084.191130
0126106224443155400520002303 5 1202408084.191130
0126105224443115400620002303 5 1202408084.191130
0126106224443115400620002303 5 1202408084.191130
0126100224443155400620002303 5 1202408084.191130
0126102224443155400620002303 5 1202408084.191130
0126103224443155400620002303 5 1202408084.191130
0126105224443155400620002303 5 1202408084.191130
0126106224443155400620002303 5 1202408084.191130
0121106620453526400110002433 2 1202408084.191134
0121106620453156400110002433 2 1202408084.191134
0121106620453526400210002433 2 1202408084.191134
0121106620453156400210002433 2 1202408084.191134
0121106620443126400510002433 2 1202408084.191134
0121106620453526400510002433 2 1202408084.191134
0121106620453156400510002433 2 1202408084.191134
0121106620453526400610002433 2 1202408084.191134
0121106620453156400610002433 2 1202408084.191134
0122105623443115400120002433 5 1202408084.191134
0122100623443155400120002433 5 1202408084.191134
0122102623443155400120002433 5 1202408084.191134
0122103623443155400120002433 5 1202408084.191134
0122105623443155400120002433 5 1202408084.191134
0122106623443155400120002433 5 1202408084.191134
0122105623443115400220002433 5 1202408084.191134
0122100623443155400220002433 5 1202408084.191134
0122102623443155400220002433 5 1202408084.191134
0122103623443155400220002433 5 1202408084.191134
0122105623443155400220002433 5 1202408084.191134
0122106623443155400220002433 5 1202408084.191134
0121106224443122400520002433 5 1202408084.191134
0121106624443122400520002433 5 1202408084.191134
0122105623443115400520002433 5 1202408084.191134
0122100623443155400520002433 5 1202408084.191134
0122102623443155400520002433 5 1202408084.191134
0122103623443155400520002433 5 1202408084.191134
0122105623443155400520002433 5 1202408084.191134
0122106623443155400520002433 5 1202408084.191134
0121106620443126400520002433 2 1202408084.191134
0121106621443126400520002433 5 1202408084.191134
0121106623443126400520002433 5 1202408084.191134
0121106224443126400520002433 5 1202408084.191134
0121106624443126400520002433 5 1202408084.191134
0122105623443115400620002433 5 1202408084.191134
0122100623443155400620002433 5 1202408084.191134
0122102623443155400620002433 5 1202408084.191134
0122103623443155400620002433 5 1202408084.191134
0122105623443155400620002433 5 1202408084.191134
0122106623443155400620002433 5 1202408084.191134
0126105224443115400120002314 5 1202408084.191135
0126100224443155400120002314 5 1202408084.191135
0126102224443155400120002314 5 1202408084.191135
0126103224443155400120002314 5 1202408084.191135
0126105224443155400120002314 5 1202408084.191135
0126106224443155400120002314 5 1202408084.191135
0126105224443115400220002314 5 1202408084.191135
0126100224443155400220002314 5 1202408084.191135
0126102224443155400220002314 5 1202408084.191135
0126103224443155400220002314 5 1202408084.191135
0126105224443155400220002314 5 1202408084.191135
0126106224443155400220002314 5 1202408084.191135
0126105224443115400520002314 5 1202408084.191136
0126100224443155400520002314 5 1202408084.191136
0126102224443155400520002314 5 1202408084.191136
0126103224443155400520002314 5 1202408084.191136
0126105224443155400520002314 5 1202408084.191136
0126106224443155400520002314 5 1202408084.191136
0126105224443115400620002314 5 1202408084.191136
0126100224443155400620002314 5 1202408084.191136
0126102224443155400620002314 5 1202408084.191136
0126103224443155400620002314 5 1202408084.191136
0126105224443155400620002314 5 1202408084.191136
0126106224443155400620002314 5 1202408084.191136
0122105623443115400120002414 5 1202408084.191136
0122100623443155400120002414 5 1202408084.191136
0122102623443155400120002414 5 1202408084.191136
0122103623443155400120002414 5 1202408084.191136
0122105623443155400120002414 5 1202408084.191136
0122106623443155400120002414 5 1202408084.191136
0122105623443115400220002414 5 1202408084.191136
0122100623443155400220002414 5 1202408084.191136
0122102623443155400220002414 5 1202408084.191136
0122103623443155400220002414 5 1202408084.191136
0122105623443155400220002414 5 1202408084.191136
0122106623443155400220002414 5 1202408084.191136
0122105623443115400520002414 5 1202408084.191136
0122100623443155400520002414 5 1202408084.191136
0122102623443155400520002414 5 1202408084.191136
0122103623443155400520002414 5 1202408084.191136
0122105623443155400520002414 5 1202408084.191136
0122106623443155400520002414 5 1202408084.191136
0122105623443115400620002414 5 1202408084.191136
0122100623443155400620002414 5 1202408084.191136
0122102623443155400620002414 5 1202408084.191136
0122103623443155400620002414 5 1202408084.191136
0122105623443155400620002414 5 1202408084.191136
0122106623443155400620002414 5 1202408084.191136
